"P-H-C/phc-winner-argon2",0,"Organization","",160,160,true,true,true,false,13,,1,13,"master",1
"fanf2/qp",402,"User",,23,23,true,true,true,false,2,,0,2,"master",1
"d-ronin/dronin",221755,"Organization",,12,12,true,true,true,false,10,,15,10,"next",1
"jeroenooms/sodium",628,"User",,12,12,true,true,true,false,0,,0,0,"master",1
"P-H-C/phc-string-format",164,"Organization",,10,10,true,true,true,false,0,,0,0,"master",1
"prideout/rwt",45092,"User","",5,5,true,true,true,true,0,,0,0,"bluenoise",1
"regehr/const_time",144,"User",,3,3,true,true,true,false,0,,0,0,"master",1
"blackrose28/ntr-mh4u-cheat-plugin",624,"User",,3,3,true,true,true,false,0,,0,0,"master",1
"SpiderLabs/ModSecurity-apache",172,"Organization",,2,2,true,true,true,false,0,,0,0,"master",1
"ccpaging/MT7612U_DPO_LinuxSTA",2900,"User","",2,2,true,true,true,false,0,,1,0,"master",1
"kylemanna/cmocka-init",168,"User","",2,2,true,true,true,false,0,,0,0,"master",1
"YuriAlessandro/Algorithms",304,"User",,2,2,true,true,true,false,2,,0,2,"master",1
"amirsojoodi/GPUProgrammingT.A.Class",169,"User",,2,2,true,true,true,false,3,,0,3,"master",1
"rwestphal/openbsd-eigrpctl",156,"User",,1,1,true,true,true,false,0,,0,0,"master",1
"akimacho/trokko",147,"User","",1,1,true,true,true,false,0,,0,0,"master",1
"lanffy/VagrantForPhp",45336,"User",,1,1,true,true,true,false,0,,0,0,"master",1
"ZIM555/android_device_kylevess",496,"User",,1,1,true,true,true,false,1,,0,1,"master",1
"djeof-1/SilenceRemover",128,"User",,1,1,true,true,true,false,0,,0,0,"master",1
"vain/xiate",150,"User","http://www.uninformativ.de/projects/xiate/",1,1,true,true,false,false,1,,0,1,"master",1
"compuphase/pawn",13916,"User",,1,1,true,false,false,false,1,,2,1,"master",1
"weimingtom/emo-framework",11976,"User",,1,1,true,false,false,false,0,,7,0,"master",1
"weimingtom/android-lua",388,"User",,1,1,true,false,false,false,0,,3,0,"master",1
"CodeRect/OpenFuse",1900,"User",,1,1,true,true,true,false,0,,0,0,"master",1
"zziolko/c-class",466,"User",,1,1,true,true,true,false,1,,0,1,"master",1
"roglio/QuadArt",520,"User",,1,1,true,true,true,false,2,,0,2,"master",1
"lwander/c-http",216,"User","http://www.lwander.com",1,1,true,true,true,false,0,,0,0,"master",1
"ainokila/integral",156,"User","",1,1,true,true,true,false,0,,0,0,"master",1
"JShadowMan/getopt-for-windows",160,"User",,1,1,true,true,true,false,0,,0,0,"master",1
"mrgss/module-shader",152,"Organization",,1,1,true,true,true,false,0,,0,0,"master",1
"JackieXie168/movgrab",1680,"User",,1,1,true,true,true,false,0,,0,0,"master",1
"tompickering/mantra",248,"User",,1,1,true,true,true,false,0,,1,0,"master",1
"aberi/onion-downloader",840,"User","",1,1,true,true,true,false,0,,0,0,"master",1
"otonchev/smarthomeproject_kanin",2296,"User","http://otonchev.github.io/smarthomeproject_kanin",1,1,true,true,true,true,0,,0,0,"master",1
"racheldchan/OperatingSystem",416,"User",,0,0,true,true,true,false,0,,0,0,"master",1
"AShirtz/Space-Partitioning-Tree",164,"User",,0,0,true,true,true,false,0,,0,0,"master",1
"556fmjoe/jfcrypt",192,"User",,0,0,true,true,true,false,0,,0,0,"master",1
"mrgss/module-sprite",172,"Organization",,0,0,true,true,true,false,0,,0,0,"master",1
"crDroidZ00/android_system_core",10324,"Organization",,0,0,true,true,true,false,0,,0,0,"cm-12.1",1
"crDroidZ00/android_bootable_recovery",9776,"Organization",,0,0,true,true,true,false,0,,0,0,"cm-12.1",1
"crDroidZ00/android_device_asus_Z00A",1020,"Organization",,0,0,true,true,true,false,0,,0,0,"cm-12.1",1
"fsolleza/DAS",1040,"User",,0,0,true,true,true,false,0,,0,0,"master",1
"chihiropgm/Compression_algorithm",164,"User",,0,0,true,true,true,false,0,,0,0,"master",1
"Mattze96/vlc-cw",140,"User",,0,0,true,true,true,false,0,,0,0,"master",1
"hoahiep6457/demo",5440,"User",,0,0,true,true,true,false,0,,0,0,"master",1
"MozzieChou/FlaskDemo",420,"User",,0,0,true,true,true,false,0,,0,0,"master",1
"jimdigriz/barebone",152,"User","http://linux.junsun.net/porting-howto/",0,0,true,true,true,false,0,,0,0,"master",1
"saisrivatsan/word2vec",272,"User",,0,0,true,false,false,false,0,,35,0,"master",1
"gajen55/Codechecf",116,"User",,0,0,true,true,true,false,0,,0,0,"master",1
"aesinv/Dotfiles",101776,"User",,0,0,true,true,true,false,0,,0,0,"master",1
"serjepatoff/libexpat",648,"User",,0,0,true,true,true,false,0,,0,0,"master",1
"sonir/1510_hnSquare",6320,"User",,0,0,true,true,true,false,0,,0,0,"master",1
"DoganA/busware",2860,"User",,0,0,true,false,false,false,0,,0,0,"master",1
"m1h4/Compiler",156,"User",,0,0,true,true,true,false,0,,0,0,"master",1
"mcarbonneaux/freetuxtv",6132,"User",,0,0,true,false,false,false,0,,75,0,"master",1
"sasamih/SDL",128,"User",,0,0,true,true,true,false,0,,0,0,"master",1
"joseph78715/test",116,"User",,0,0,true,true,true,false,0,,0,0,"master",1
"SunliyMonkey/declustered_raid",956,"User",,0,0,true,true,true,false,0,,0,0,"master",1
"azizbahri/Iot_Node",2993,"User",,0,0,true,true,true,false,1,,0,1,"master",1
"calvin-li/git-tutorial",164,"User",,0,0,true,true,true,false,0,,0,0,"master",1
"synesissoftware/UNIXem",224,"User",,0,0,true,true,true,false,0,,0,0,"master",1
"dainmiller/dotfiles",31400,"User",,0,0,true,true,true,false,0,,0,0,"master",1
"dpalmer93/porcupine-kernel",1060,"User",,0,0,true,true,true,false,0,,0,0,"master",1
"LouiseSiah/QuickSort",868,"User",,0,0,true,true,true,false,0,,0,0,"master",1
"manoj62665/manoj",116,"User",,0,0,true,true,true,false,0,,0,0,"master",1
"glocklueng/stm8-oscilloscope",856,"User",,0,0,true,false,false,false,0,,0,0,"master",1
"meantone/sunxi-tvin",236,"Organization",,0,0,true,true,true,false,0,,1,0,"master",1
"bcrespi/l.s.b.uc",656,"User","",0,0,true,true,true,false,0,,0,0,"master",1
"dtabares/tiemporeal",3044,"User",,0,0,true,true,true,false,0,,0,0,"master",1
"MemoriesOff/Freescale",1816,"User","http://www.acgtrip.com/",0,0,true,true,true,false,0,,0,0,"master",1
"annashunko/ClientServerUnix",140,"User",,0,0,true,true,true,false,0,,0,0,"master",1
"sumotoy/stm32746g_discovery_lcd",152,"User",,0,0,true,true,true,false,0,,0,0,"master",1
"faizeltest/test",144,"User",,0,0,true,true,true,false,0,,0,0,"master",1
"Soarex/Scuola",144,"User",,0,0,true,true,true,false,0,,0,0,"master",1
"davenportn/2sComp",140,"User",,0,0,true,true,true,false,0,,0,0,"master",1
"andrefreitas/feup-lcom",136,"User","",0,0,true,true,true,false,0,,0,0,"master",1
"rhargreaves/bbc-xfer",240,"User",,0,0,true,true,true,false,0,,0,0,"master",1
"Progekt/AVR",704,"Organization",,0,0,true,true,true,false,0,,0,0,"master",1
"jabersmith/dtrename",132,"User",,0,0,true,true,true,false,0,,0,0,"master",1
"yahalom/tclAES256",128,"User",,0,0,true,true,true,false,0,,0,0,"master",1
"CapitanLiteral/GameDevelopment",3336,"User",,0,0,true,true,true,false,0,,0,0,"master",1
"sxtech/TheCProgram",132,"User",,0,0,true,true,true,false,0,,0,0,"master",1
"andrefreitas/feup-sope-exercises",236,"User",,0,0,true,true,true,false,0,,0,0,"master",1
"seohanbin/BlueRT",148,"User",,0,0,true,true,true,false,0,,0,0,"master",1
"zhoualbeart/c_training",144,"User",,0,0,true,true,true,false,0,,0,0,"master",1
"uframer/arducam-osd",9172,"User",,0,0,true,false,false,false,0,,39,0,"master",1
"dasizeman/windows",188,"User",,0,0,true,true,true,false,0,,0,0,"master",1
"vindicadi198/Shell",348,"User",,0,0,true,true,true,false,0,,0,0,"master",1
"Josh-Stewart/Wang",1116,"User",,0,0,true,true,true,false,0,,0,0,"master",1
"monikaviswa/Mytest",108,"User",,0,0,true,true,true,false,0,,0,0,"master",1
"daniel3735928559/xorf",108,"User",,0,0,true,true,true,false,0,,0,0,"master",1
"tamahiro/algo_and_data",124,"User",,0,0,true,true,true,false,0,,21,0,"master",1
"PeterBeyer/MyUbuntuTest",112,"User",,0,0,true,true,true,false,0,,0,0,"master",1
"Josh-Stewart/Portscanner",108,"User",,0,0,true,true,true,false,0,,0,0,"master",1
"scottg/flightaware-tcltools",808,"User",,0,0,true,false,false,false,0,,0,0,"master",1
"sleyzerzon/soar",230112,"User",,0,0,true,false,false,false,0,,83,0,"master",1
"marialgutierrez/CS50",940,"User",,0,0,true,true,true,false,0,,0,0,"master",1
"zhester/hello",140,"User",,0,0,true,true,true,false,0,,0,0,"master",1
"marialgutierrez/ProblemSets_C",116,"User",,0,0,true,true,true,false,0,,0,0,"master",1
"hshidara/Command-Line-Games",132,"User",,0,0,true,true,true,false,0,,0,0,"master",1
"akhilasananth/IPC_msg_queue",188,"User",,0,0,true,true,true,false,0,,0,0,"master",1
"calvin-li/git-tutorial",164,"User",,0,0,true,true,true,false,0,,0,0,"master",1
"synesissoftware/UNIXem",224,"User",,0,0,true,true,true,false,0,,0,0,"master",1
"Josh-Stewart/Portscanner",108,"User",,0,0,true,true,true,false,0,,0,0,"master",1
"dpalmer93/porcupine-kernel",1060,"User",,0,0,true,true,true,false,0,,0,0,"master",1
"LouiseSiah/QuickSort",868,"User",,0,0,true,true,true,false,0,,0,0,"master",1
"zhoualbeart/c_training",144,"User",,0,0,true,true,true,false,0,,0,0,"master",1
"uframer/arducam-osd",9172,"User",,0,0,true,false,false,false,0,,39,0,"master",1
"dasizeman/windows",188,"User",,0,0,true,true,true,false,0,,0,0,"master",1
"manoj62665/manoj",116,"User",,0,0,true,true,true,false,0,,0,0,"master",1
"glocklueng/stm8-oscilloscope",856,"User",,0,0,true,false,false,false,0,,0,0,"master",1
"vindicadi198/Shell",348,"User",,0,0,true,true,true,false,0,,0,0,"master",1
"Josh-Stewart/Wang",1116,"User",,0,0,true,true,true,false,0,,0,0,"master",1
"monikaviswa/Mytest",108,"User",,0,0,true,true,true,false,0,,0,0,"master",1
"daniel3735928559/xorf",108,"User",,0,0,true,true,true,false,0,,0,0,"master",1
"PeterBeyer/MyUbuntuTest",112,"User",,0,0,true,true,true,false,0,,0,0,"master",1
"crDroidZ00/android_system_core",10324,"Organization",,0,0,true,true,true,false,0,,0,0,"cm-12.1",1
"crDroidZ00/android_bootable_recovery",9776,"Organization",,0,0,true,true,true,false,0,,0,0,"cm-12.1",1
"crDroidZ00/android_device_asus_Z00A",1020,"Organization",,0,0,true,true,true,false,0,,0,0,"cm-12.1",1
"556fmjoe/jfcrypt",192,"User",,0,0,true,true,true,false,0,,0,0,"master",1
"geekmarcel/P004_LCD16x2",2864,"User","",0,0,true,true,true,false,0,,0,0,"master",1
"fsolleza/DAS",1040,"User",,0,0,true,true,true,false,0,,0,0,"master",1
"mhd1991/Introduction-to-Algorithms-Exercises",148,"User",,0,0,true,true,true,false,0,,0,0,"master",1
"BigHappy/CLangaugeStudy",2060,"User",,0,0,true,true,true,false,0,,0,0,"master",1
"klassenpeter/pebble_tomato",200,"User",,0,0,true,true,true,false,0,,0,0,"master",1
"megjlow/ballistic-kindle",152,"User",,0,0,true,true,true,false,0,,0,0,"master",1
"strupppi/candis",2288,"User",,0,0,true,true,true,false,0,,0,0,"master",1
"gitMarky/Shire.ocs",138512,"User",,0,0,true,true,true,false,0,,0,0,"master",1
"fsole/dodo",9320,"User",,0,0,true,true,true,false,0,,0,0,"master",1
"sittner/linuxcnc-fgfdm",156,"User",,0,0,true,true,true,false,0,,0,0,"master",1
"makoto0/sim",255,"User",,0,0,true,true,true,false,1,,0,1,"master",1
"classicQ/classicQ.github.io",210696,"User",,0,0,true,true,true,true,0,,0,0,"master",1
"j0ju/sd2iec",1524,"User",,0,0,true,true,true,false,0,,0,0,"master",1
"LinkinYoung/SingleCodes",176,"User",,0,0,true,true,true,false,0,,0,0,"master",1
"abhishekgkonale/SmartWatch-project-2015",14416,"User",,0,0,true,true,true,false,0,,0,0,"SmartWatch",1
"emmamai/yams",244,"User",,0,0,true,true,true,false,0,,0,0,"master",1
"pasevinapolina/PVMSlab3",124,"User",,0,0,true,true,true,false,0,,0,0,"master",1
"crDroidZ00/android_hardware_ril",1056,"Organization",,0,0,true,true,true,false,0,,0,0,"cm-12.1",1
"clbr/nes",156,"User",,0,0,true,true,true,false,0,,0,0,"master",1
"madnecat/PostItWatchface",164,"User",,0,0,true,true,true,false,0,,0,0,"master",1
"hayashikejinan/A500KL_kernel",128868,"User",,0,0,true,true,true,false,0,,0,0,"master",1
"daniellerch/stegolab",156,"User",,0,0,true,true,true,false,0,,0,0,"master",1
"jcandres/stark",1336,"User",,0,0,true,true,true,false,0,,0,0,"master",1
"OnlyTheGhosts/tw-qvm",900,"User","",0,0,true,false,false,false,0,,6,0,"master",1
"autopp/Strope",136,"User",,0,0,true,true,true,false,0,,0,0,"master",1
"rspeele/toastermod",6648,"User",,0,0,true,true,true,false,0,,0,0,"master",1
"samontea/vigor",132,"User",,0,0,true,true,true,false,0,,0,0,"master",1
"ybellavance/python-for-android",60624,"User",,0,0,true,false,false,false,0,,62,0,"master",1
"balika011/procfw",3708,"User",,0,0,true,false,false,false,0,,177,0,"master",1
"raelix/Domotic-Modbus",49712,"User",,0,0,true,true,true,false,1,,0,1,"master",1
"harishankarv/distance-vector-protocol",416,"User",,0,0,true,true,true,false,0,,0,0,"master",1
"hshidara/binary-string",116,"User",,0,0,true,true,true,false,0,,0,0,"master",1
"AlexEalesGames/Graphics-Engine",5556,"User",,0,0,true,true,true,false,0,,0,0,"master",1
"seadraa/mp1_HTTPclient_server",160,"User",,0,0,true,true,true,false,0,,0,0,"master",1
"RafaelRMachado/Coreboot",49672,"User",,0,0,true,true,true,false,0,,0,0,"master",1
"KirillAlekseeenko/Dijkstra-s-algorithm-with-priority-queue",108,"User",,0,0,true,true,true,false,0,,0,0,"master",1
"kajnorman/15u1",148,"User","",0,0,true,true,true,false,0,,0,0,"master",1
"steview2000/analysePic",144,"User",,0,0,true,true,true,false,0,,0,0,"master",1
"caseyparker/cinnamon-menus",616,"User",,0,0,true,true,true,false,0,,0,0,"pureos",1
"dimababin/lab3",128,"User",,0,0,true,true,true,false,0,,0,0,"master",1
"saisilcastro/Place-Allegro",188,"User",,0,0,true,true,true,false,0,,0,0,"master",1
"yum185/assign1_partA",12244,"User",,0,0,true,true,true,false,0,,0,0,"master",1
"SXblut/st",1924,"User",,0,0,true,true,true,false,0,,0,0,"blut",1
"lovatto/mytest",108,"User",,0,0,true,true,true,false,0,,0,0,"master",1
"pevik/debian-freerdp",7504,"User",,0,0,true,true,true,false,0,,0,0,"master",1
"lefta/types_sizes",124,"User",,0,0,true,true,true,false,0,,0,0,"master",1
"tomgu1991/code_clone_data",172,"User",,0,0,true,true,true,false,0,,0,0,"master",1
"45deg/NiniroMosaic",296,"User",,0,0,true,true,true,false,0,,0,0,"master",1
"janhieber/HTWAA_car_32b",3228,"User",,0,0,true,true,true,false,0,,0,0,"master",1
"bearzx/CSC456MP2",167104,"User",,0,0,true,true,true,false,0,,6,0,"master",1
"pboy0922/afdmjhk",260,"User",,0,0,true,false,false,false,0,,0,0,"master",1
"mut3d87/g3kernel",138628,"User",,0,0,true,true,true,false,0,,0,0,"master",1
"AdrienBoiseau/exercice-c",140,"User",,0,0,true,true,true,false,0,,0,0,"master",1
"koraa/synceta",128,"User",,0,0,true,true,true,false,0,,0,0,"master",1
"malie/cudd_rust",1244,"User",,0,0,true,true,true,false,0,,0,0,"master",1
"wgwgithub/hello-wolrd",120,"User",,0,0,true,true,true,false,0,,0,0,"master",1
"makiuchi-d/delcycle-aviutl",116,"User",,0,0,true,true,true,false,0,,0,0,"master",1
"macvek/FunLang",148,"User",,0,0,true,true,true,false,0,,0,0,"master",1
"alinedeschamps/RCassandraDriver",3692,"User",,0,0,true,true,true,false,0,,0,0,"master",1
"LeoSdls/zlib-win64",740,"User",,0,0,true,false,false,false,0,,1,0,"master",1
"nkorb/test",148,"User",,0,0,true,true,true,false,0,,0,0,"master",1
"yatsek/serial-to-ethernet",536,"User",,0,0,true,false,false,false,0,,0,0,"master",1
"Gaugen/IS-213-Test",172,"User",,0,0,true,true,true,false,0,,0,0,"master",1
"hyperiris/praetoriansmapeditor",9260,"User",,0,0,true,false,false,false,0,,0,0,"master",1
"AdeRoot/ShellCodes",128,"User",,0,0,true,true,true,false,0,,0,0,"master",1
"scottt/cmsis-no-hal",124,"User",,0,0,true,true,true,false,0,,0,0,"master",1
"msikma/ceegee",252,"User",,0,0,true,true,true,false,0,,0,0,"master",1
"modalen/vstboard",4532,"User",,0,0,true,false,false,false,0,,0,0,"master",1
"akinaru/ndk-curl-sample",3896,"User",,0,0,true,true,true,false,0,,0,0,"master",1
"CobusHoffmann/METR2800_V2",148,"User",,0,0,true,true,true,false,0,,0,0,"master",1
"mingqiu/oldCppVersion",224,"User",,0,0,true,true,true,false,0,,0,0,"master",1
"abhi56rai/inverted-index",156,"User",,0,0,true,true,true,false,0,,0,0,"master",1
"MatthewWedewer/5160",596,"User",,0,0,true,true,true,false,1,,0,1,"master",1
"adrienferreira/NMV_TP1",168,"User",,0,0,true,true,true,false,0,,0,0,"master",1
"degva/NonGlitcher",1520,"User",,0,0,true,true,true,false,0,,0,0,"master",1
"Ciastex/osdevlibc",284,"User",,0,0,true,false,false,false,0,,0,0,"master",1
"lmhtq/zkb",45220,"User",,0,0,true,true,true,false,0,,0,0,"master",1
"ThatWilsonNerd/FoundationDB",108,"User",,0,0,true,true,true,false,0,,0,0,"master",1
"invisiblek/kernel_808l",117456,"User",,0,0,true,true,true,false,0,,0,0,"master",1
"BlackLight/mpdnfc",148,"User",,0,0,true,true,true,false,0,,0,0,"master",1
"htongyai/Mytest",112,"User",,0,0,true,true,true,false,0,,0,0,"master",1
"lovatto/mytest",108,"User",,0,0,true,true,true,false,0,,0,0,"master",1
"pevik/debian-freerdp",7504,"User",,0,0,true,true,true,false,0,,0,0,"master",1
"seadraa/mp1_HTTPclient_server",160,"User",,0,0,true,true,true,false,0,,0,0,"master",1
"RafaelRMachado/Coreboot",49672,"User",,0,0,true,true,true,false,0,,0,0,"master",1
"abhi56rai/inverted-index",156,"User",,0,0,true,true,true,false,0,,0,0,"master",1
"MatthewWedewer/5160",596,"User",,0,0,true,true,true,false,1,,0,1,"master",1
"kajnorman/15u1",148,"User","",0,0,true,true,true,false,0,,0,0,"master",1
"SXblut/st",1924,"User",,0,0,true,true,true,false,0,,0,0,"blut",1
"KirillAlekseeenko/Dijkstra-s-algorithm-with-priority-queue",108,"User",,0,0,true,true,true,false,0,,0,0,"master",1
"yum185/assign1_partA",12244,"User",,0,0,true,true,true,false,0,,0,0,"master",1
"gnunicky/openstm32f407xx",26516,"User",,0,0,true,true,true,false,0,,0,0,"master",1
"Moon4u/mruby-sdl2-gpu",456,"User",,0,0,true,true,true,false,0,,0,0,"master",1
"gamvrosi/duet",140593,"User","http://www.cs.toronto.edu/~gamvrosi/assets/sosp15-paper.pdf",0,0,true,true,true,false,0,,0,0,"master",1
"hmilkovi/mreze2",1212,"User",,0,0,true,true,true,false,0,,0,0,"master",1
"RellikerV2/RPi2-Quadcopter",692,"User",,0,0,true,true,true,false,0,,0,0,"master",1
"L1b3r4t0r/gimp-dds",1892,"User",,0,0,true,false,true,false,0,,19,0,"master",1
"kyasu/android_kernel_samsung_sltecan",126928,"User",,0,0,true,true,true,false,0,,0,0,"cm-12.1",1
"mycspring/jos-lab",1292,"User",,0,0,true,true,true,false,0,,0,0,"master",1
"nick-keller/OpenGL-renderer",35572,"User",,0,0,true,true,true,false,0,,0,0,"master",1
"mattAdmin/practice-code",164,"User",,0,0,true,true,true,false,0,,0,0,"master",1
"deyannis/HY527",224,"User",,0,0,true,true,true,false,0,,0,0,"master",1
"Estaaaa/formfactor",30416,"User",,0,0,true,true,true,false,0,,0,0,"master",1
"tamirda/T805_PhoeniX_Kernel_Lollipop",131588,"User",,0,0,true,true,true,false,0,,0,0,"master",1
"fatimarafiqui/DataStructures",180,"User",,0,0,true,true,true,false,0,,0,0,"master",1
"taylor123454321/c_control",1188,"User",,0,0,true,true,true,false,0,,0,0,"master",1
"lmingcsce/Misc",188,"User",,0,0,true,true,true,false,0,,0,0,"master",1
"woodbor/EmbeddedSystemsShapeTheWorld",136,"User","",0,0,true,true,true,false,0,,0,0,"master",1
"benjaminpstern/cs342_hw3",103,"User",,0,0,true,true,true,false,0,,0,0,"master",1
"alexis-matuk/Threads",136,"User",,0,0,true,true,true,false,0,,0,0,"master",1
"iggy77sk/droidsheep",3312,"User",,0,0,true,false,false,false,0,,11,0,"master",1
"dailypips/lua",404,"User","http://www.lua.org/",0,0,true,true,true,false,0,,0,0,"master",1
"davidxyz/C-GUI-Chat",128,"User",,0,0,true,true,true,false,0,,0,0,"master",1
"csyangchen/csapp",200,"User",,0,0,true,true,true,false,0,,0,0,"master",1
"Grylis/Kitty-Clicker",136,"User",,0,0,true,true,true,false,0,,0,0,"master",1
"rfdsp/all-my-projects",93304,"User",,0,0,true,false,false,false,0,,0,0,"master",1
"mirkoggl/iNemo_HCSR04",396,"User",,0,0,true,true,true,false,0,,0,0,"master",1
"MahadevanSrinivasan/cryptopals",168,"User",,0,0,true,true,true,false,0,,0,0,"master",1
"hero919/Basic-C",124,"User",,0,0,true,true,true,false,0,,0,0,"master",1
"ddnyanmothe/word2vec",272,"User",,0,0,true,false,false,false,0,,35,0,"master",1
"aumkarpraja/ArrayAddressGuesser",108,"User",,0,0,true,true,true,false,0,,0,0,"master",1
"seohanbin/asdfdf",128,"User",,0,0,true,true,true,false,0,,0,0,"master",1
"tonyellis69/3DEngine",15700,"User",,0,0,true,true,true,false,0,,0,0,"master",1
"UECIDE-Boards/mikroe-clicker32",140,"Organization",,0,0,true,true,true,false,0,,0,0,"master",1
"pucklife/hw3",128,"User",,0,0,true,true,true,false,0,,0,0,"master",1
"maksspace/protozoan",160,"User","",0,0,true,true,true,false,0,,0,0,"master",1
"rodolfolottin/sudoku-resolve",148,"User",,0,0,true,true,true,false,0,,0,0,"master",1
"haol615/Erjia_Networks",128,"User",,0,0,true,true,true,false,0,,0,0,"master",1
"EvgenyAnisimoff/g2p_temp",6476,"User",,0,0,true,true,true,false,0,,0,0,"master",1
"fadrc/cvika",192,"User",,0,0,true,true,false,false,0,,0,0,"master",1
"rjwang/PhysicsTools-TagAndProbe",288,"User",,0,0,true,true,true,false,0,,0,0,"master",1
"naaf/ILP-UPMC",3356,"User",,0,0,true,true,true,false,0,,0,0,"master",1
"tdw26/SteganographyDiscography",81292,"User",,0,0,true,true,true,false,0,,0,0,"master",1
"lucas794/Hash",240,"User",,0,0,true,true,true,false,1,,0,1,"master",1
"inaba629/AtCoder",124,"User",,0,0,true,true,true,false,0,,0,0,"master",1
"m1h4/Wake",140,"User",,0,0,true,true,true,false,0,,0,0,"master",1
"skleymenov/e440",148,"User",,0,0,true,true,true,false,0,,0,0,"master",1
"andrefreitas/feup-sope-multibanco",388,"User",,0,0,true,true,true,false,0,,0,0,"master",1
"Clemence2015/hw3",112,"User",,0,0,true,true,true,false,0,,0,0,"master",1
"ibujjwalgoyal/first_repo",140,"User",,0,0,true,true,true,false,0,,0,0,"master",1
"hanketgithub/Std420ToNv12",156,"User",,0,0,true,true,true,false,0,,0,0,"master",1
"briwil/vnsea",3184,"User",,0,0,true,false,false,false,0,,68,0,"master",1
"hotchk155/lppro-control-surface",5040,"User",,0,0,true,true,true,false,0,,0,0,"master",1
"TheNotOnly/linux-3.5",117920,"User",,0,0,true,true,true,false,0,,0,0,"master",1
"nedwed123/AutonomousCar",129044,"User",,0,0,true,true,true,false,0,,0,0,"master",1
"soprea/netpwdchg",164,"User",,0,0,true,true,true,false,0,,0,0,"master",1
"mvdwetering/vusb-for-arduino",232,"User",,0,0,true,false,false,false,0,,6,0,"master",1
"beneater/led-faces",108,"User",,0,0,true,true,true,false,0,,0,0,"master",1
"rperryng/pebble-podium",236,"User",,0,0,true,true,true,false,0,,0,0,"master",1
"willmsy32/ActiveSchoolProjects",148,"User",,0,0,true,true,true,false,0,,0,0,"master",1
"gtrento/PCD8544",160,"User",,0,0,true,true,true,false,0,,0,0,"master",1
"RFMediaLab/ascii-pulse",152,"Organization",,0,0,true,true,true,false,0,,0,0,"master",1
"jacksonhh/trabalho1_avl_indexador",156,"User",,0,0,true,true,true,false,0,,0,0,"master",1
"MK2018/tjTimeFaceC",236,"User",,0,0,true,true,true,true,0,,0,0,"master",1
"shuleyu/ASU_tools",244,"User",,0,0,true,true,true,false,0,,0,0,"master",1
"z-rui/toygc",144,"User",,0,0,true,true,true,false,0,,0,0,"master",1
"Mario25/hw3",108,"User",,0,0,true,true,true,false,0,,0,0,"master",1
"detores/TimeLine-Watch",136,"User",,0,0,true,true,true,false,0,,0,0,"master",1
"ShahriyarB/Warcraft-Lua-Engine-2",1840,"User",,0,0,true,true,true,false,1,,0,1,"master",1
"esosebee/cs481_pa4",144,"User",,0,0,true,true,true,false,0,,0,0,"master",1
"kiha-la/perfect-viewer-pdf-plugin",10980,"User",,0,0,true,false,false,false,0,,0,0,"master",1
"SvintsovaAleksandra/OS",120,"User",,0,0,true,true,true,false,1,,1,1,"master",1
"m1h4/Emulator",156,"User",,0,0,true,true,true,false,0,,0,0,"master",1
"unicomp21/naclports",37060,"User",,0,0,true,false,false,false,0,,88,0,"master",1
"HoustonWeHaveABug/Kanoodle",140,"User",,0,0,true,true,true,false,0,,0,0,"master",1
"Team-Arca/Server",180,"Organization",,0,0,true,true,true,false,0,,0,0,"master",1
"alek345/vTed",108,"User",,0,0,true,true,true,false,0,,0,0,"master",1
"rooiejoris/ultimaker_zunlimited",11692,"User",,0,0,true,true,true,false,0,,0,0,"Marlin_v1",1
"DHKaplan/Pinwheel-II",224,"User",,0,0,true,true,true,false,0,,0,0,"master",1
"andrey-datsenko/OS_MIREA",297,"User",,0,0,true,true,true,false,1,,1,1,"master",1
"671981/elephant",1788,"User",,0,0,true,true,true,false,0,,0,0,"master",1
"gnunicky/openstm32f303xx",19176,"User",,0,0,true,true,true,false,0,,0,0,"master",1
"kvintagav/RUBENS",3220,"User",,0,0,true,true,true,false,0,,0,0,"master",1
"deltova/recofacial",21708,"User",,0,0,true,true,true,false,0,,0,0,"master",1
"kisa411/CSE20211",196,"User","",0,0,true,true,true,false,0,,0,0,"master",1
"patperry/biclustpl",123,"User",,0,0,true,true,true,false,1,,0,1,"master",1
"ekuiter/stm32-projects",22712,"User",,0,0,true,true,true,false,0,,0,0,"master",1
"gmazzini/myadif",232,"User","",0,0,true,true,true,false,0,,0,0,"master",1
"crDroidZ00/android_device_asus_Z008",1024,"Organization",,0,0,true,true,true,false,0,,0,0,"cm-12.1",1
"sim9108/Study2",17496,"User",,0,0,true,true,true,false,0,,0,0,"master",1
"khitchdee/Randhaa",0,"Organization","",0,0,true,true,true,false,0,,0,0,"master",1
"hfjgfbjhbfbvhju7854tjdfh/kur",568,"User",,0,0,true,true,true,false,0,,0,0,"master",1
"m-thu/esp8266",32588,"User",,0,0,true,true,false,false,0,,0,0,"master",1
"shashankgandham/timetable",180,"User",,0,0,true,true,true,false,0,,0,0,"master",1
"BcArm/RoboticArm",368,"Organization",,0,0,true,true,true,false,0,,0,0,"master",1
"0xcaca0/matasano",176,"User",,0,0,true,true,true,false,0,,0,0,"master",1
"SXblut/dwmstatus",144,"User",,0,0,true,true,true,false,0,,0,0,"blut",1
"YU-mrom/kexec-tools",576,"Organization",,0,0,true,true,true,false,0,,0,0,"master",1
"thorvald/mdvc",260,"User",,0,0,true,true,true,false,0,,0,0,"master",1
"untra/lighting",180,"User",,0,0,true,true,true,false,0,,0,0,"master",1
"nerilex/nRF51-aes",208,"User",,0,0,true,true,true,false,0,,0,0,"master",1
"pallabig/word2vec",272,"User",,0,0,true,false,false,false,0,,35,0,"master",1
"Sibergh/System-programming-C",156,"User",,0,0,true,true,true,false,0,,0,0,"master",1
"aiwl/obj",156,"User",,0,0,true,true,true,false,0,,0,0,"master",1
"mullerpoint/Thread-Communication",140,"User",,0,0,true,true,true,false,0,,0,0,"master",1
"wilsonr990/Ditto-clipboard-manager",25204,"User",,0,0,true,true,true,false,0,,0,0,"master",1
"DX94/offline-avs",2600,"User",,0,0,true,false,false,false,0,,2,0,"master",1
"js4768/4187P1",212,"User",,0,0,true,true,true,false,0,,0,0,"master",1
"anuzk13/learningatwork",32544,"User",,0,0,true,false,false,false,0,,0,0,"master",1
"za4em/uni",178,"User","",0,0,true,true,true,false,1,,1,1,"patch-2",1
"NickyLarin/QuickSort",172,"User",,0,0,true,true,true,false,0,,0,0,"master",1
"tectronics/d2x-cios-installer",1140,"User",,0,0,true,false,false,false,0,,5,0,"master",1
"KirillAlekseeenko/Operations-with-graph",116,"User",,0,0,true,true,true,false,0,,0,0,"master",1
"bepemofo/clab",148,"User",,0,0,true,true,true,false,0,,0,0,"master",1
"gogori/hw",732,"User",,0,0,true,true,true,false,0,,0,0,"master",1
"BrokenROM/kernel_lge_hammerhead",581508,"Organization",,0,0,true,true,true,false,0,,0,0,"m6.0",1
"NolanFoster/dcas",236,"User",,0,0,true,true,true,false,0,,0,0,"master",1
"animetosho/ParPar",1400,"User",,0,0,true,true,false,false,0,,0,0,"master",1
"acroreiser/kernel_samsung_msm",121360,"User",,0,0,true,true,true,false,0,,0,0,"master",1
"mirkoggl/STM32_HCSR04",600,"User",,0,0,true,true,true,false,0,,0,0,"master",1
"temochka/dmenu",1108,"User",,0,0,true,true,true,false,0,,0,0,"custom",1
"gusega/insertionSortChar",112,"User",,0,0,true,true,true,false,0,,0,0,"master",1
"busterbrown123/FOO",148,"User",,0,0,true,true,true,false,0,,0,0,"master",1
"linas/anant",444,"User",,0,0,true,true,true,false,0,,0,0,"master",1
"catterer/wget",9588,"User",,0,0,true,true,true,false,0,,0,0,"master",1
"Egor-FPV3DCAM/minimosd-extra",12528,"User",,0,0,true,false,false,false,0,,37,0,"master",1
"Tshimangadzo/hw3",128,"User","",0,0,true,true,true,false,0,,0,0,"master",1
"scottg/tcltcc",2328,"User",,0,0,true,false,false,false,0,,7,0,"master",1
"Biomecatronica/Exo-C",120,"Organization",,0,0,true,true,true,false,0,,0,0,"master",1
"hinagesi-708/OnlySonar_cm",156,"User","",0,0,true,true,true,false,0,,0,0,"master",1
"deerishi/CS_842_Projects",288,"User",,0,0,true,true,true,false,0,,0,0,"master",1
"yck1406/SM-G850",117144,"User",,0,0,true,true,true,false,0,,0,0,"master",1
"mat1989/GY-80_9DOF_Sensor_Modul",140,"User",,0,0,true,true,true,false,0,,0,0,"master",1
"netromdk/math",572,"User","",0,0,true,true,true,false,0,,0,0,"master",1
"S3MB0L/stm32modbus",884,"User",,0,0,true,false,false,false,0,,0,0,"master",1
"unix-socket-lwjian/my-understanding-of-lighttpd",560,"User",,0,0,true,true,true,false,0,,0,0,"master",1
"NatixLights/Backpack",260,"Organization",,0,0,true,true,true,false,0,,0,0,"master",1
"andrefreitas/feup-rcom-ftpclient",20824,"User",,0,0,true,true,true,false,0,,0,0,"master",1
"milutin94/algo",87,"User",,0,0,false,true,true,false,0,,0,0,"master",1
"ndhuan/GPSRTK",264,"User",,0,0,true,true,true,false,0,,0,0,"origin",1
"TV-LP51-Devices/device_yu_tomato",5192,"Organization",,0,0,true,true,true,false,0,,0,0,"lp5.1",1
"FreakBeak7/hw3",148,"User",,0,0,true,true,true,false,0,,0,0,"master",1
"crDroidZ00/android_external_tinyalsa",260,"Organization",,0,0,true,true,true,false,0,,0,0,"cm-12.1",1
"NiKuIF/PiRadio",136,"User",,0,0,true,true,true,false,0,,0,0,"master",1
"rmayur/CS558L_lab7",144,"User",,0,0,true,true,true,false,0,,0,0,"master",1
"EpsilonAquilae/hw3",128,"User",,0,0,true,true,true,false,0,,0,0,"master",1
"daniel3735928559/potato",116,"User","",0,0,true,true,true,false,0,,0,0,"master",1
"uframer/minimosd-extra",12520,"User",,0,0,true,false,false,false,0,,37,0,"master",1
"TheSardonicOne/game-of-life",144,"User",,0,0,true,true,true,false,0,,0,0,"master",1
"pythonsweb/droidsheep",3312,"User",,0,0,true,false,false,false,0,,11,0,"master",1
"torrez/9pm",144,"User",,0,0,true,true,true,false,0,,0,0,"master",1
"xale/CNF-Router",212,"User",,0,0,true,true,true,false,0,,0,0,"master",1
"Lamonkey/Mytest",108,"User",,0,0,true,true,true,false,0,,0,0,"master",1
"hshidara/fibonacci",116,"User",,0,0,true,true,true,false,0,,0,0,"master",1
"hshidara/C-programming-Homework-",128,"User",,0,0,true,true,true,false,0,,0,0,"master",1
"hshidara/C-Programming-Practice",116,"User",,0,0,true,true,true,false,0,,0,0,"master",1
"andrefreitas/feup-sope-executor",160,"User",,0,0,true,true,true,false,0,,0,0,"master",1
"hydai/git-test",140,"User",,0,0,true,true,true,false,0,,0,0,"master",1
"decvalts/SystemtoolsC",144,"User",,0,0,true,true,true,false,0,,0,0,"master",1
"m1h4/Kurve",148,"User",,0,0,true,true,true,false,0,,0,0,"master",1
"Bulliby/binTree",128,"User",,0,0,true,true,true,false,0,,0,0,"master",1
"m1h4/Binum",148,"User",,0,0,true,true,true,false,0,,0,0,"master",1
"jendas1/jupyter-notebook-quick-look",148,"User","",0,0,true,true,true,false,0,,0,0,"master",1
"orpiske/pwatch",184,"User",,0,0,true,true,true,false,0,,0,0,"master",1
"SwatPup/xv6-on-arm",216,"User",,0,0,true,false,false,false,0,,0,0,"master",1
"titiandco/reaver-wps",1008,"User",,0,0,true,false,false,false,0,,19,0,"master",1
"ivadasz/libkbdev",144,"User",,0,0,true,true,true,false,0,,0,0,"master",1
"saitejvejju/demo-glsl",27128,"User",,0,0,true,false,false,false,0,,0,0,"master",1
"SergeyZyazulkin/Pvms3",140,"User",,0,0,true,true,true,false,0,,0,0,"master",1
"Myrcellion/flight_weather_reader",148,"User",,0,0,true,true,true,false,0,,0,0,"master",1
"raemarks/ParallelNetworkPerformance",124,"User",,0,0,true,true,true,false,0,,0,0,"master",1
"John2143658709/Test-Game",756,"User","",0,0,true,true,true,false,0,,0,0,"master",1
"venkadaramanujam/flea",116,"User",,0,0,true,true,true,false,0,,0,0,"master",1
"balldir/easy-semihosting",152,"User",,0,0,true,true,true,false,0,,0,0,"master",1
"sbaldovi/fuse-emulator-svn-v2",9352,"User",,0,0,true,true,true,false,0,,0,0,"master",1
"zhangshaohu/systemShell",520,"User",,0,0,true,true,true,false,1,,0,1,"master",1
"HW-Lee/2015-Parallel-Programming",10432,"User",,0,0,true,true,true,false,0,,0,0,"dev",1
"EpiphX/COP3502",132,"User",,0,0,true,true,true,false,0,,0,0,"master",1
"Phantomn/C_language",2652,"User",,0,0,true,true,true,false,0,,0,0,"master",1
"Alex-Tsvetanov/Triangulation",3548,"User",,0,0,true,true,true,false,0,,0,0,"master",1
"jaistudy1996/C-Projects",144,"User",,0,0,true,true,true,false,0,,0,0,"master",1
"dargaCode/listFibonacciNumbers",152,"User","",0,0,true,true,true,false,0,,0,0,"master",1
"cshnick/sm_servcie_model",4312,"User",,0,0,true,true,true,false,0,,0,0,"master",1
"Belxjander/DeviceDrivers",5296,"User",,0,0,true,true,true,false,0,,0,0,"master",1
"sealrealize/logchaesar",2904,"User",,0,0,true,true,true,false,0,,0,0,"master",1
"dwj300/serializers",177,"User",,0,0,true,true,true,false,0,,0,0,"master",1
"SXblut/dwm",5780,"User",,0,0,true,true,true,false,0,,0,0,"blut",1
"vacaboja/tg",196,"User",,0,0,true,true,true,false,0,,0,0,"master",1
"manodeep/pairwise",2920,"User","https://manodeep.github.io/pairwise",0,0,true,true,true,true,0,,0,0,"master",1
"jonathanrpace/BentoCPP",2496,"User",,0,0,true,true,true,false,0,,0,0,"master",1
"jrubill/2100",1440,"User",,0,0,true,true,true,false,0,,0,0,"master",1
"svn2github/pcre2",5476,"User",,0,0,true,true,true,false,1,,0,1,"master",1
