"woestler/mentohust",456,"User",,0,0,true,false,false,false,0,,0,0,"master",1
"arilsonjunior/repEngSoft",156,"User",,0,0,true,true,true,false,0,,1,0,"master",1
"DJdaSilva/hw3",120,"User",,0,0,true,true,true,false,0,,0,0,"master",1
"tomatoXu/weather_client",132,"User",,0,0,true,true,true,false,0,,0,0,"master",1
"prilemon/maczfs",11300,"User",,0,0,true,false,false,false,0,,25,0,"master",1
"psh117/aflier",22112,"User",,0,0,true,true,true,false,0,,0,0,"master",1
"sunnylgz/my_misc_lib",188,"User",,0,0,true,true,true,false,0,,0,0,"master",1
"jmguazzo/pg_cmdshell",172,"User","",0,0,true,true,true,false,0,,0,0,"master",1
"cmotc/schs738c-BluetoothTest",148,"User",,0,0,true,true,true,false,0,,0,0,"master",1
"cmotc/schs738c-external_dnsmasq",556,"User",,0,0,true,true,true,false,0,,0,0,"master",1
"cmotc/schs738c-external_tslib",212,"User",,0,0,true,true,true,false,0,,0,0,"master",1
"cmotc/schs738c-external_e2fsprogs",4568,"User",,0,0,true,true,true,false,0,,0,0,"master",1
"cmotc/schs738c-external_iproute2",704,"User",,0,0,true,true,true,false,0,,0,0,"master",1
"RayZ-O/ray_tracer",28546,"User","",0,0,true,true,true,false,0,,1,0,"master",1
"Jinpeiqi/Buddy-system",272,"User","",0,0,true,true,true,false,0,,0,0,"master",1
"iris65536/test",348,"User",,0,0,true,true,true,false,0,,0,0,"master",1
"YujiaCheng1996/CGrammarCheck",156,"User",,0,0,true,true,true,false,0,,0,0,"master",1
"WizardVan/PEReader",104,"User",,0,0,true,true,true,false,0,,0,0,"master",1
"wangzhen625/SendMail",5340,"User",,0,0,true,true,true,false,0,,0,0,"master",1
"liugang/ministun",112,"User",,0,0,true,false,false,false,0,,0,0,"master",1
"Norseman055/immaterial-engine",6500,"User",,0,0,true,true,true,false,0,,0,0,"master",1
"apache8080/CS50Assignments",148,"User",,0,0,true,true,true,false,0,,0,0,"master",1
"hekra01/iotivityrpi",55233,"User",,0,0,true,true,true,false,0,,0,0,"master",1
"stelhs/PC-watchdog",140,"User",,0,0,true,true,true,false,0,,0,0,"master",1
"sabbaloko/A1-Paths-and-Curves",12008,"User",,0,0,true,true,true,false,0,,0,0,"master",1
"Mecrovoidmage/TeamDRED",136,"User",,0,0,true,true,true,false,0,,0,0,"master",1
"Lyr3x/onkyo_iscp",156,"User",,0,0,true,true,true,false,0,,0,0,"master",1
"Poolsharky/CS513",496,"User",,0,0,true,true,true,false,0,,0,0,"master",1
"abhijatv/incrementalOS",529220,"User",,0,0,true,true,true,false,0,,0,0,"master",1
"kharland/inotify",136,"User","",0,0,true,true,true,false,0,,0,0,"master",1
"SummerLv/jpegX264Related",3940,"User",,0,0,true,true,true,false,0,,0,0,"master",1
"tell/ntl-unix",1752,"User","",0,0,true,true,true,false,0,,0,0,"master",1
"ocurr/krc-exercises",140,"User","",0,0,true,true,true,false,0,,0,0,"master",1
"C-D-Lewis/universal-fb",168,"User",,0,0,true,true,true,false,0,,0,0,"master",1
"sigsegv-mvm/classgraph",200,"User",,0,0,true,true,true,false,0,,0,0,"master",1
"ManhIT-CMB/Kernel-GalaxyJ",135420,"User",,0,0,true,true,true,false,0,,0,0,"LL",1
"spectrec/mit-jos-labs",316,"User",,0,0,true,true,true,false,0,,0,0,"master",1
"irv/zip_streamer",180,"User",,0,0,true,true,true,false,0,,0,0,"master",1
"aodinokov/metac",240,"User",,0,0,true,true,true,false,0,,0,0,"master",1
"Jcocteau/Training",1464,"User",,0,0,true,true,true,false,0,,0,0,"master",1
"Pafcholini/drop",154544,"User",,0,0,true,true,true,false,0,,0,0,"master",1
"maximgonchar/kpi",188,"User",,0,0,true,true,true,false,0,,0,0,"master",1
"mvdnes/blip_buf-rs",164,"User",,0,0,true,true,true,false,0,,0,0,"master",1
"kuobenj/ECE445Wrist",408,"User",,0,0,true,true,true,false,0,,0,0,"master",1
"scuroworks/fh-labore-ws1516",204,"User","",0,0,true,true,true,false,0,,0,0,"master",1
"Oscarlight/leno",58616,"User","",0,0,true,true,true,false,0,,0,0,"master",1
"bawsswade/NSFW",29032,"User",,0,0,true,true,true,false,0,,0,0,"master",1
"workmajj/rgbcp",200,"User","",0,0,false,true,false,false,0,,0,0,"master",1
"imbyungjun/TIL",212,"User",,0,0,true,true,true,false,0,,0,0,"master",1
"errbufferoverfl/algorithms_and_analysis",172,"User","",0,0,true,true,true,false,0,,0,0,"master",1
"Bun/chatbird",156,"User",,0,0,false,true,false,false,0,,0,0,"master",1
"apccurtiss/ball-game",352,"User",,0,0,true,true,true,false,0,,0,0,"master",1
"adamheins/eh",120,"User","",0,0,true,true,true,false,0,,0,0,"master",1
"frisinacho/BasicC",176,"User",,0,0,true,true,true,false,0,,0,0,"master",1
"bencentra/first-watchface",636,"User",,0,0,true,true,true,true,0,,1,0,"master",1
"arthurbeggs/MSP430OpticalWirelessCom",360,"User","",0,0,true,true,false,false,0,,0,0,"master",1
"kevupton/CAB403",2332,"User",,0,0,true,true,true,false,0,,0,0,"master",1
"Shubhangi135/Library-Database-management",140,"User",,0,0,true,true,true,false,0,,0,0,"master",1
"Babtsov/Junior-Design",2325,"User",,0,0,true,true,true,false,0,,0,0,"master",1
"edwardtree/NCKU_embedded_105_fall",144,"User",,0,0,true,true,true,false,0,,0,0,"master",1
"jafffy/remote-calculator",140,"User",,0,0,true,true,true,false,0,,0,0,"master",1
"ar-naseef/Data-Structures",140,"User",,0,0,true,true,true,false,0,,0,0,"master",1
"mattruston/proj2",648,"User",,0,0,true,true,true,false,0,,0,0,"master",1
"0x2c/SlidingWin_Doze",196,"User","",0,0,true,true,true,false,0,,0,0,"master",1
"hhyymm/IOS-",1684,"User",,0,0,true,true,true,false,0,,0,0,"master",1
"joshlbaker/Hashit-reborn",11388,"User",,0,0,true,true,true,false,0,,0,0,"master",1
"liumingyi/android-serialport-api",272,"User",,0,0,true,false,false,false,0,,27,0,"master",1
"howardfk/24_hour_face",128,"User","",0,0,true,true,true,false,0,,0,0,"master",1
"galilio/sdl-static",111436,"User",,0,0,true,false,false,false,0,,8,0,"master",1
"myself659/linux-2.26.32",97532,"User",,0,0,true,true,true,false,0,,0,0,"master",1
"justin66/squeezelite",372,"User",,0,0,true,false,false,false,0,,51,0,"master",1
"dmxiatony/Hello-World",136,"User",,0,0,true,true,true,false,0,,0,0,"master",1
"arcaduf/hierarchical_projector",140,"User",,0,0,true,true,true,false,0,,0,0,"master",1
"mkevac/ycm_test",116,"User",,0,0,true,true,true,false,0,,0,0,"master",1
"jchan202/Mytest",140,"User",,0,0,true,true,true,false,0,,0,0,"master",1
"holypower/coverity-test-c",152,"User",,0,0,true,true,true,false,0,,0,0,"master",1
"WizardVan/Walker",108,"User",,0,0,true,true,true,false,0,,0,0,"master",1
"JeremyQ/Type-Justification",136,"User",,0,0,true,true,true,false,0,,0,0,"master",1
"centvinyf/p5r1o3j1ect1",172,"User",,0,0,true,true,true,false,0,,0,0,"master",1
"SeanCAdams/minix-u-boot",99728,"User",,0,0,true,true,true,false,0,,0,0,"minix",1
"jsdf/previous",2876,"User",,0,0,true,true,true,false,0,,0,0,"master",1
"caseyparker/bind9",19388,"User",,0,0,true,true,true,false,0,,0,0,"master",1
"srcnert/STM32F4DISCOVERY_MPU6050_DMP",552,"User",,0,0,true,true,true,false,0,,0,0,"master",1
"rayed9o9/jkeyboard-hook",172,"User",,0,0,true,false,false,false,0,,0,0,"master",1
"g01000111/C-Password-Application",81,"User",,0,0,true,true,true,false,1,,0,1,"master",1
"benquike/cstl",620,"User",,0,0,true,false,false,false,0,,1,0,"master",1
"MichaelMcBreen/Cpts455Server",19424,"User",,0,0,true,true,true,false,0,,0,0,"master",1
"amihart/txt2img",184,"User",,0,0,true,true,true,false,0,,0,0,"master",1
"lalor/cpp-recipes",136,"User",,0,0,true,true,true,false,0,,0,0,"master",1
"haoguotao/MockFFMPEG",84540,"User",,0,0,true,true,true,false,0,,0,0,"master",1
"Phexcom/droidsheep",3312,"User",,0,0,true,false,false,false,0,,11,0,"master",1
"Quarren42/2015-VEX-NothingButNet",104,"User",,0,0,true,true,true,false,0,,0,0,"master",1
"maboroshinokiseki/c11-threads-like",144,"User",,0,0,true,true,true,false,0,,0,0,"master",1
"TheFlyingFiddle/Risk-Phone",16140,"User",,0,0,true,true,true,false,0,,0,0,"master",1
"janiex/OSEK_GENERATOR",892,"User",,0,0,true,true,true,false,0,,0,0,"master",1
"The---onE/EasyAccount",5800,"User",,0,0,true,true,true,false,0,,0,0,"master",1
"virt2x/xen2",67712,"User",,0,0,true,true,true,false,0,,0,0,"master",1
"Airgon/nomer7",108,"User",,0,0,true,true,true,false,0,,0,0,"master",1
"daschaich/part_comp",156,"User","",0,0,true,true,true,false,0,,0,0,"master",1
"Jonbean/CProgramming_Homework",136,"User",,0,0,true,true,true,false,0,,0,0,"master",1
