"sergemonnerat/MicroC",1548,"User",,0,0,true,true,true,false,0,,0,0,"master",1
"sla16/CS3516_prog3",176,"User",,0,0,true,true,true,false,0,,0,0,"master",1
"dimonomid/test_ceedling_example",912,"User",,0,0,true,true,true,false,0,,0,0,"master",1
"GarryBullock/CMPUT201",1888,"User",,0,0,true,true,true,false,0,,0,0,"master",1
"GarryBullock/CMPUT379",128,"User",,0,0,true,true,true,false,0,,0,0,"master",1
"LinuxmanUFRN/ITP",218,"User",,0,0,true,true,true,false,1,,2,1,"master",1
"yaweiding/ECE372_LAB1_P3",148,"User",,0,0,true,true,true,false,0,,0,0,"master",1
"hsarkanen/linux-imx6",718330,"User",,0,0,true,true,true,false,1,,0,1,"imx_3.10.53_1.1.0_ga",1
"GarritMan/hw3",132,"User",,0,0,true,true,true,false,0,,0,0,"master",1
"sammhlanga1/hw3",116,"User",,0,0,true,true,true,false,0,,0,0,"master",1
"mattruston/proj1",804,"User",,0,0,true,true,true,false,0,,0,0,"master",1
"kivikakk/daintree",1932,"User",,0,0,true,true,true,false,0,,0,0,"master",1
"txomon/libubox",436,"User",,0,0,true,true,true,false,0,,0,0,"master",1
"drapid/winnut",25980,"User",,0,0,true,false,false,false,0,,10,0,"master",1
"woyaofacai/asst2_meshedit_win",17372,"User",,0,0,true,true,true,false,0,,0,0,"master",1
"NevilleDNZ/algol68toc",2068,"User","",0,0,true,true,true,false,0,,1,0,"master",1
"lsuarezzapata5/SO-Lab1",5748,"User",,0,0,true,true,true,false,0,,0,0,"master",1
"bashrc/bees",132,"User",,0,0,true,true,true,false,1,,0,1,"master",1
"bingbingwei/test",140,"User",,0,0,true,true,true,false,0,,0,0,"master",1
"NikolaNikolicRTRK/BarbieGirl",432,"User",,0,0,true,true,true,false,0,,0,0,"master",1
"carlmart/dd-demo",124,"User","",0,0,true,true,true,false,0,,0,0,"master",1
"CassioElias/Estrutura-De-Dados--C---Console",1508,"User",,0,0,true,true,true,false,0,,0,0,"master",1
"SwimGlass/arm-lecture",180,"User",,0,0,true,true,true,false,0,,0,0,"master",1
"supermoe/PDS_TP3",136,"User",,0,0,true,true,true,false,0,,0,0,"master",1
"ISIZUE/OS_Nanaya",668,"Organization",,0,0,true,true,true,false,0,,0,0,"master",1
"a-day-old-bagel/FBGL",140,"User",,0,0,true,true,true,false,0,,0,0,"master",1
"darrenldl/simple_safedata",236,"User",,0,0,true,true,true,false,0,,0,0,"master",1
"yogeshpandey009/MPL",200,"User",,0,0,true,true,true,false,0,,0,0,"master",1
"jlr84/cs6238-pwd-hardening",356,"User",,0,0,true,true,true,false,1,,0,1,"master",1
"giovannimanzoni/volcano",220,"User","http://volcano.hardelettrosoft.com",0,0,true,true,true,false,0,,0,0,"master",1
"isaacgaretmia/CS536HW1",176,"User",,0,0,true,true,true,false,0,,0,0,"master",1
"nishantravi92/Operating_Systems",8708,"User",,0,0,true,true,true,false,0,,0,0,"mAster",1
"MackPI/UProgrammer-Firmware",864,"User",,0,0,true,true,true,false,0,,0,0,"master",1
"paalka/zero",148,"User","",0,0,true,true,true,false,0,,0,0,"master",1
"Yemi-S/SD_Lab01",1544,"User",,0,0,true,true,true,false,0,,0,0,"master",1
"pridolfi/learning_make",156,"User",,0,0,true,true,true,false,1,,0,1,"master",1
"ISIZUE/OS-renren",3168,"Organization",,0,0,true,true,true,false,0,,0,0,"master",1
"ISIZUE/OS-ysksyk1130",2864,"Organization",,0,0,true,true,true,false,0,,0,0,"master",1
"akaplo/CS377_thebest",279,"User",,0,0,true,true,true,false,0,,0,0,"master",1
"JoveU/MC_DiJet",284,"User",,0,0,true,true,true,false,0,,0,0,"master",1
"ionuttamas/LockFree",180,"User",,0,0,true,true,true,false,0,,0,0,"master",1
"britneydossett/free-food",23844,"User",,0,0,true,true,true,false,2,,0,2,"master",1
"andrewmelnyk/cs50",33564,"User",,0,0,true,true,true,false,0,,0,0,"master",1
"prlanzarin/chat-service",264,"User",,0,0,true,true,true,false,0,,0,0,"master",1
"advlinda/cagentoniotcore",34232,"User",,0,0,true,true,true,false,0,,0,0,"master",1
"jdbrandon/PolViz",416,"User",,0,0,true,true,true,false,0,,0,0,"master",1
"prasad90/Bits-project",1280,"User",,0,0,true,true,true,false,0,,0,0,"master",1
"raphaelthurnherr/octopod_bbb_hw1",756,"User",,0,0,true,true,true,false,0,,0,0,"master",1
"DakotaH1ll/Operating-Systems",520,"User",,0,0,true,true,true,false,0,,0,0,"master",1
"tanyagolubeva/iLabRepository",156,"User",,0,0,true,true,true,false,0,,0,0,"master",1
"EzsXHofmann/WhoIsWho",432,"Organization",,0,0,true,true,true,false,0,,0,0,"master",1
"PR1YANKPAT3L/Lab-Group",284,"User",,0,0,true,true,true,false,0,,0,0,"master",1
"SMV818VMS/learn_C_the_hard_way",224,"User","",0,0,true,true,true,false,0,,0,0,"master",1
"Karl-Krauth/aos_tests",153,"User",,0,0,true,true,true,false,1,,0,1,"master",1
"gondor5/newGitTest",140,"User",,0,0,true,true,true,false,0,,0,0,"master",1
"JohnStahnke/Mytest",108,"User",,0,0,true,true,true,false,0,,0,0,"master",1
"JoanAndoni/Pokemon",1096,"User","",0,0,true,true,true,false,0,,0,0,"master",1
"Sailja/Stack",128,"User",,0,0,true,true,true,false,0,,0,0,"master",1
"shaunmulligan/resin-html5-kiosk",220,"User","",0,0,true,true,true,false,0,,0,0,"master",1
"UPRacing-Electronics-2016/bat-sence",132,"Organization",,0,0,true,true,true,false,0,,0,0,"master",1
"nixon86/DO",140,"User",,0,0,true,true,true,false,0,,0,0,"master",1
"sirkaiserkai/A-Star-Search-Algorithm-in-C",120,"User",,0,0,true,true,true,false,0,,0,0,"master",1
"Killthebug/CShell",148,"User",,0,0,true,true,true,false,0,,0,0,"master",1
"llamasoft/destiny_tiger",124,"User",,0,0,true,true,true,false,0,,0,0,"master",1
"PavithraG23/eudyptula",164,"User",,0,0,true,true,true,false,0,,0,0,"master",1
"cstanda/C_Programming",140,"User",,0,0,true,true,true,false,0,,0,0,"master",1
"vcsala/elliptical",128,"User",,0,0,true,true,true,false,0,,0,0,"master",1
"Euphoria-OS-Devices/android_device_yu_lettuce",4048,"Organization",,0,0,true,true,true,false,0,,0,0,"lollipop-5.1",1
"danielpnsc/hw3",164,"User","",0,0,true,true,true,false,0,,0,0,"master",1
"nicholastreu/cs1550",124,"User",,0,0,true,true,true,false,0,,0,0,"master",1
"yidaimi/nginx-sticky-module",300,"User",,0,0,true,false,false,false,0,,0,0,"master",1
"ulumu/gpsp_bb10",664,"User",,0,0,true,true,true,false,0,,1,0,"master",1
"stensaethf/Racket-Interpreter",176,"User",,0,0,true,true,true,false,0,,0,0,"master",1
"stanhu/pspacer",1052,"User",,0,0,true,false,false,false,0,,2,0,"master",1
"bbc/gstrtpvc2",134,"Organization",,0,0,true,true,true,false,0,,0,0,"master",1
"monigr25/SistemasOperativos",128,"User",,0,0,true,true,true,false,0,,0,0,"master",1
"ks6088ts/LinuxSocketProgramming",108,"User",,0,0,true,true,true,false,0,,0,0,"master",1
"kleiinnn/create-control",108,"User",,0,0,true,true,true,false,0,,0,0,"master",1
"ori0nd/Triangles-OpenGL",3304,"User",,0,0,true,true,true,false,0,,0,0,"master",1
"ArakniD/dynawa",11180,"User",,0,0,true,false,false,false,0,,6,0,"master",1
"ariscop/ccl",6944,"User",,0,0,true,false,false,false,0,,11,0,"master",1
"707831/Operating-Systems-Homework-Solutions",144,"User",,0,0,true,true,true,false,0,,0,0,"master",1
"amber0309/os",152,"User",,0,0,true,true,true,false,0,,0,0,"master",1
"nem1919/YAMB",224,"User",,0,0,true,true,true,false,0,,0,0,"master",1
"sonjeheon/lz4",816,"User",,0,0,true,false,false,false,0,,0,0,"master",1
"tricao/lz4",848,"User",,0,0,true,false,false,false,0,,2,0,"master",1
"leemchaehoon/linux_kernel_internal",148,"User",,0,0,true,true,true,false,0,,0,0,"master",1
"sudosurootdev/device_oneplus_oneplus2",8572,"User",,0,0,true,true,true,false,0,,0,0,"L51",1
"iamjagan/dp",120,"User",,0,0,true,true,true,false,0,,0,0,"master",1
"for28/First",148,"User",,0,0,true,true,true,false,0,,0,0,"master",1
"lstefani006/teensy",141620,"User",,0,0,true,true,true,false,0,,0,0,"master",1
"ycess87009/homework",124,"User",,0,0,true,true,true,false,0,,0,0,"master",1
"pepaslabs/c_snippets",140,"Organization",,0,0,true,true,true,false,0,,0,0,"master",1
"EvgorEvgor/Study",224,"User",,0,0,true,true,true,false,0,,0,0,"master",1
"kirillka57/TimeZones",120,"User",,0,0,true,true,true,false,0,,0,0,"master",1
"mceze/libqtree",128,"User",,0,0,true,true,true,false,0,,0,0,"master",1
"icontreras16/Yash",124,"User",,0,0,true,true,true,false,0,,0,0,"master",1
"james9909/HSF-2015",187275,"User","",0,0,true,true,true,false,0,,0,0,"master",1
"roxygen/poly2tri.archive",424,"User",,0,0,true,false,false,false,0,,0,0,"master",1
"vishsahu/Kernel_encrypt_decrypt",148,"User",,0,0,true,true,true,false,0,,0,0,"master",1
