"ghinta/git-training",144,"User",,0,0,true,true,true,false,0,,0,0,"master",1
"Zandertaiko/vigenere",144,"User",,0,0,true,true,true,false,0,,0,0,"master",1
"romainc69/LIDARwork",276,"User",,0,0,true,true,true,false,0,,0,0,"master",1
"cmjonze/sqlite3",4468,"User",,0,0,true,true,true,false,0,,0,0,"master",1
"happyLich/word2vec",276,"User",,0,0,true,false,false,false,0,,35,0,"master",1
"darektv/er9x-frsky-mavlink",1980,"User",,0,0,true,false,false,false,0,,1,0,"master",1
"zhongfugui/learngit",128,"User",,0,0,true,true,true,false,0,,0,0,"master",1
"Hemn77/tee-mobicore-driver",356,"User",,0,0,true,false,false,false,0,,0,0,"master",1
"vinodgandamalla/NewProject1",128,"User",,0,0,true,true,true,false,0,,0,0,"master",1
"alinzai/liao2",47120,"User",,0,0,true,true,true,false,0,,0,0,"master",1
"nice-rice/Totem-Project",62068,"User",,0,0,true,true,true,false,0,,0,0,"master",1
"PauloVictor27/TEG",8652,"User",,0,0,true,true,true,false,0,,0,0,"master",1
"PauloVictor27/C",1424,"User",,0,0,true,true,true,false,0,,0,0,"master",1
"grusname/helloworld",152,"User",,0,0,true,true,true,false,0,,0,0,"master",1
"Benzilla/submission",148,"User",,0,0,true,true,true,false,0,,0,0,"master",1
"synbitz/RepoTest",112,"User",,0,0,true,true,true,false,0,,0,0,"master",1
"shujaatak/oglsuperbible5",52112,"User",,0,0,true,false,false,false,0,,57,0,"master",1
"spa-pal/UKU100_7KV",15932,"User",,0,0,true,true,true,false,0,,0,0,"master",1
"zhuweijie/learngit",106780,"User",,0,0,true,true,true,false,0,,0,0,"master",1
"huhuikevin/system_core",7504,"User",,0,0,true,true,true,false,0,,0,0,"master",1
"RubberCthulhu/addrwatch",112,"User",,0,0,true,true,true,false,0,,0,0,"master",1
"zou-can/yao-kong-qi",5016,"User",,0,0,true,true,true,false,0,,0,0,"master",1
"zou-can/ji-bu-qi",2300,"User",,0,0,true,true,true,false,0,,0,0,"master",1
"magic-gjh/NT96632_G531",10932,"User",,0,0,true,true,true,false,0,,0,0,"master",1
"dulton/zhuyunchuanstudy",11224,"User",,0,0,true,false,false,false,0,,0,0,"master",1
"jasonflorack/compiler_tdrd",268,"User",,0,0,true,true,true,false,0,,0,0,"master",1
"smk12/lab2p2",140,"User",,0,0,true,true,true,false,0,,0,0,"master",1
"Lolzen/android_device_asus_deb",456,"User",,0,0,true,true,true,false,0,,0,0,"android-5.1",1
"wangqi504635/MergeFileUpdate",3072,"User","",0,0,true,true,true,false,0,,0,0,"master",1
"makarandk/keystone-workshop",270060,"User",,0,0,true,false,false,false,0,,0,0,"master",1
"yczhangsjtu/Cpp-Palace",1896,"User",,0,0,true,true,true,false,0,,0,0,"master",1
"dark-falcon/android_kernel_motorola_msm8916",750032,"User",,0,0,true,true,true,false,0,,0,0,"cm-12.1",1
"worldf/Hello",140,"User",,0,0,true,true,true,false,0,,0,0,"master",1
"rvgorlov/Sibsutis-OS-Kulagin",116,"User",,0,0,true,true,true,false,0,,0,0,"master",1
"trustin/dnrd",236,"User",,0,0,true,true,true,false,0,,0,0,"master",1
"LeMeteore/kandr",168,"User",,0,0,true,true,true,false,0,,0,0,"master",1
"lifenggg/SimpleShell",152,"User",,0,0,true,true,true,false,0,,0,0,"master",1
"xiaokang088/lastfmlib",1048,"User",,0,0,true,false,false,false,0,,2,0,"master",1
"Prolixe/conways_game_of_life",132,"User",,0,0,true,true,true,false,0,,0,0,"master",1
"metastableB/tinyOS",492,"User",,0,0,true,true,true,false,0,,0,0,"master",1
"Aragantinis/CompDig2",144,"User",,0,0,true,true,true,false,0,,0,0,"master",1
"andreas-gruenbacher/nfs-utils",3892,"User",,0,0,true,true,true,false,0,,0,0,"richacl",1
"saiyn/web",12824,"User",,0,0,true,true,true,false,0,,0,0,"master",1
"charlesHetterich/Multiverse",96188,"User",,0,0,true,true,true,false,0,,0,0,"master",1
"charlesHetterich/Dots",12396,"User",,0,0,true,true,true,false,0,,0,0,"master",1
"corban123/Assn3",6836,"User",,0,0,true,true,true,false,0,,0,0,"master",1
"jumaris/ebooklauncher",19672,"User",,0,0,true,false,false,false,0,,4,0,"master",1
"quillford/redeem",81228,"User","",0,0,true,true,true,false,0,,0,0,"master",1
"aseidlitz/serek",120,"User",,0,0,true,false,false,false,0,,0,0,"master",1
"sharmrit/Texture_on_sphere",14952,"User",,0,0,true,true,true,false,0,,0,0,"master",1
"damianpri/tivac_rtos",3208,"User",,0,0,true,true,true,false,0,,0,0,"master",1
"robsonbaioco/codies",144,"User",,0,0,true,true,true,false,0,,0,0,"master",1
"Bilawal123/gitTest",176,"User",,0,0,true,true,true,false,0,,0,0,"master",1
"emptymonkey/ew",136,"User",,0,0,true,true,true,false,0,,0,0,"master",1
"CheeseTurtle/pebble-evalcalc",144,"User",,0,0,true,true,true,false,0,,0,0,"master",1
"corradomulas/mcd-v1",152,"User",,0,0,true,true,true,false,0,,0,0,"master",1
"epics-modules/autosave",1068,"Organization",,0,0,true,true,true,false,0,,0,0,"master",1
"GitHubVS2013PH/GitHubVS2013PH",128,"User",,0,0,true,true,true,false,0,,0,0,"master",1
"dailypips/llvm-lua",628,"User",,0,0,true,false,false,false,0,,4,0,"master",1
"theGameProgrammer/Network-Programming--Communication-UDP-TCPIP-",292,"User",,0,0,true,true,true,false,0,,0,0,"master",1
"pranav01/IGGY_OPENSOURCE",147764,"User",,0,0,true,true,true,false,0,,0,0,"master",1
"pts/pts-qiv",244,"User",,0,0,true,true,true,false,0,,0,0,"master",1
"EddiG/lednodejs",176,"User",,0,0,true,true,true,false,0,,0,0,"master",1
"Ronvel15/Matrices",201,"User",,0,0,true,true,true,false,1,,0,1,"master",1
"Trankalinos/C8505-Assignment-2-Covert-Backdoor-Implementation",2008,"User",,0,0,true,true,true,false,0,,0,0,"master",1
"moyuji/word2vec",272,"User",,0,0,true,false,false,false,0,,35,0,"master",1
"w3nd1go/android_hardware_qcom_camera",3766,"User",,0,0,true,true,true,false,1,,0,1,"m-caf",1
"epics-modules/busy",184,"Organization",,0,0,true,true,true,false,0,,0,0,"master",1
"YKhosroshahi/Raymand-Sample",148,"User",,0,0,true,true,true,false,0,,0,0,"master",1
"voliynyk/BMDS_Module",12360,"User",,0,0,true,true,true,false,0,,0,0,"master",1
"RishabhAggarwal028/Solutions-to-CS50",144,"User",,0,0,true,true,true,false,0,,0,0,"master",1
"GoldbergAlexander/EA-Simple-Line",136,"User",,0,0,true,true,true,false,0,,0,0,"master",1
"Fevax/hardware_samsung_slsi",5524,"User",,0,0,true,true,true,false,0,,0,0,"master",1
"gw-ece1125-f2015/lab06",116,"Organization",,0,0,true,true,true,false,0,,0,0,"master",1
"Philipp15/Starting-OpenGL-coursework",26100,"User",,0,0,true,true,true,false,0,,0,0,"master",1
"nicholas-b-huston/testRepo",108,"User",,0,0,true,true,true,false,0,,0,0,"master",1
"asolis/vivaUpperBody",124,"User",,0,0,true,true,true,false,0,,0,0,"master",1
"S70wN/ctags",552,"User",,0,0,true,true,true,false,0,,0,0,"master",1
"wszwr003/GPIO_OutputInput",828,"User",,0,0,true,true,true,false,0,,0,0,"master",1
"utsavberi/pintos",520,"User",,0,0,true,true,true,false,0,,0,0,"master",1
"marcosdalte/examples",140,"User",,0,0,true,true,true,false,0,,0,0,"master",1
"Rockwell95/MyShell",128,"User",,0,0,true,true,true,false,0,,0,0,"master",1
"saldar05/DictionaryProgram",3048,"User","",0,0,true,true,true,false,0,,0,0,"master",1
"rokk0/STM32F429-camera",4080,"User","",0,0,true,true,true,false,0,,0,0,"master",1
"doghell/webrtc2sip",6640,"User",,0,0,true,false,false,false,0,,95,0,"master",1
"RSATom/AceStream-sdk",412,"User",,0,0,true,true,true,false,0,,0,0,"master",1
"ICTeam34/arm-emulator",148,"User",,0,0,true,true,true,false,0,,0,0,"master",1
"nornagon/nock",116,"User",,0,0,true,true,true,false,0,,0,0,"master",1
"pathToJava/Mytest",112,"User",,0,0,true,true,true,false,0,,0,0,"master",1
"themadsens/libuevent",224,"User",,0,0,true,false,false,false,0,,0,0,"master",1
"LucasvBerkel/simdlab",352,"User",,0,0,true,true,true,false,0,,0,0,"master",1
"zou-can/zhan-tai",28424,"User",,0,0,true,true,true,false,0,,0,0,"master",1
"jlugao/Project0_5-YABlinky",132,"User",,0,0,true,true,true,false,0,,0,0,"master",1
"whuyinpeng/word2vec",272,"User",,0,0,true,false,false,false,0,,35,0,"master",1
"salgado/MeuTrabalho1deProg1",148,"User",,0,0,true,true,true,false,0,,0,0,"master",1
"arpa2/kerberos2pkix",120,"Organization","",0,0,true,true,true,false,0,,5,0,"master",1
"skatkr/sCAN",1460,"User","",0,0,true,true,true,false,0,,0,0,"master",1
"alexballet/sr01",114,"User",,0,0,true,true,true,false,1,,0,1,"master",1
"ptLong/codingground",328,"User",,0,0,true,true,true,false,0,,0,0,"master",1
"chethtrayen/Assignment6-2107-",2028,"User",,0,0,true,true,true,false,0,,0,0,"master",1
