"PAC-ROM/android_external_rsync",12396,"Organization",,0,0,true,true,true,false,0,,0,0,"pac-6.0",1
"mit6172/homework6",116,"User",,0,0,true,true,true,false,0,,0,0,"master",1
"lmangani/rtpbreakr",220,"User","http://sipcapture.org",0,0,true,true,true,false,0,,0,0,"master",1
"muntasir-hossain/Data-Structures-and-Algorithms",168,"User",,0,0,true,true,true,false,0,,0,0,"master",1
"sentientWilder/Algo-Proj2",160,"User",,0,0,true,true,true,false,0,,0,0,"master",1
"chriswald/NESPI",176,"User","",0,0,false,true,false,false,0,,0,0,"master",1
"barisdemiray/gst-rtsp-server",1780,"User",,0,0,true,true,true,false,0,,0,0,"master",1
"padmalcom/wintertraum",25048,"User",,0,0,true,true,true,false,0,,0,0,"master",1
"threadmaster/climatereader",111,"User",,0,0,true,true,true,false,1,,0,1,"master",1
"YArane/Parallel-RREF",354,"User","",0,0,true,true,true,false,1,,0,1,"master",1
"ashnimehta/updated-Malloc",220,"User",,0,0,true,true,true,false,0,,0,0,"master",1
"kevbradwick/php-extension-demo",140,"User",,0,0,true,true,true,false,0,,0,0,"master",1
"vonway/edb",160,"User",,0,0,true,false,false,false,0,,0,0,"master",1
"benwu95/os_hw1",152,"User",,0,0,true,true,true,false,0,,0,0,"master",1
"NyxTheDarkness/PSP-EV3-Remote",156,"User",,0,0,true,true,true,false,0,,0,0,"master",1
"StopCoding/MyPebbleProj",224,"User",,0,0,true,true,true,false,0,,0,0,"master",1
"PAC-ROM/android_external_nano",1648,"Organization",,0,0,true,true,true,false,0,,0,0,"pac-6.0",1
"leVirve/OddEvenSort",2378,"User","",0,0,true,true,true,false,0,,0,0,"master",1
"MatthewDiana/CS428P1",136,"User",,0,0,true,true,true,false,0,,0,0,"master",1
"PAC-ROM/android_external_tinyalsa",232,"Organization",,0,0,true,true,true,false,0,,0,0,"pac-6.0",1
"felipeacorsi/home-assistant_esp8266_mqtt",668,"User","",0,0,true,true,true,false,0,,0,0,"master",1
"zml81620/keydriver",152,"User",,0,0,true,true,true,false,0,,0,0,"master",1
"PAC-ROM/android_frameworks_wilhelm",10872,"Organization",,0,0,true,true,true,false,0,,0,0,"pac-6.0",1
"PAC-ROM/android_hardware_pacrom",144,"Organization",,0,0,true,true,true,false,0,,0,0,"pac-6.0",1
"PAC-ROM/android_external_busybox",27804,"Organization",,0,0,true,true,true,false,0,,0,0,"pac-6.0",1
"PAC-ROM/android_external_e2fsprogs",20248,"Organization",,0,0,true,true,true,false,0,,0,0,"pac-6.0",1
"crschroeder94/CMSC414-Project-4",148,"User",,0,0,true,true,true,false,0,,0,0,"master",1
"dsi-fceia/STM32F401-SenoGen",12024,"Organization",,0,0,true,true,true,false,0,,0,0,"master",1
"agadiffe/ft_select",168,"User",,0,0,true,true,true,false,0,,0,0,"master",1
"aminere/VLADHeavyStrikePublic",109172,"User",,0,0,true,true,true,false,0,,0,0,"master",1
"electrickery/pd-cyclone",4164,"User","",0,0,true,true,true,false,0,,0,0,"master",1
"lizardthunder/dotfiles",4080,"User","",0,0,true,true,true,false,0,,0,0,"master",1
"GrantKY/CarePortalInC",143,"User",,0,0,true,true,true,false,4,,0,4,"master",1
"zgwmike/TWPS",1116,"User",,0,0,true,true,true,false,0,,0,0,"master",1
"avrjs/avrjs-demo-terminal",136,"User",,0,0,true,true,true,false,0,,0,0,"master",1
"Vivek1010/HackerRank_Mysolution_strings",140,"User",,0,0,true,true,true,false,0,,0,0,"master",1
"D400150075/resistor",192,"User",,0,0,true,true,true,false,0,,0,0,"master",1
"yuesoong/RandomNumberGenerator",156,"User",,0,0,true,true,true,false,0,,0,0,"master",1
"yoanlcq/FATE",548,"User",,0,0,true,true,true,false,0,,0,0,"master",1
"mustafaiman/parallel-computing",144,"User",,0,0,true,true,true,false,0,,0,0,"master",1
"MajoraBora/CoolBoy",1064,"User",,0,0,true,true,true,false,0,,0,0,"master",1
"RajenderMehta/EmbeddedProjects",1084,"User",,0,0,true,true,true,false,0,,0,0,"snapshot_view",1
"zhu126fang/gcc",136,"User",,0,0,true,true,true,false,0,,0,0,"master",1
"deepakiam/IP-Project",168,"User",,0,0,true,true,true,false,0,,0,0,"master",1
"awh44/FTP",165,"User",,0,0,true,true,true,false,0,,0,0,"master",1
"tdeboissiere/Learning",20648,"User",,0,0,true,true,true,false,1,,0,1,"master",1
"sedcore/compose",304,"User","http://sed.free.fr/compose",0,0,true,true,true,false,0,,0,0,"master",1
"kishansag/code-converter",120,"User",,0,0,true,true,true,false,0,,0,0,"master",1
"supremearyal/msp430-launchpad-projects",124,"User",,0,0,true,true,true,false,0,,0,0,"master",1
"cosmoio/TCPSYN",144,"User",,0,0,true,true,true,false,1,,0,1,"master",1
"lshw/uboot-2013-10-loongson1c",14952,"User",,0,0,true,true,true,false,0,,0,0,"master",1
"asrbic/market_sequence_prediction",232,"User",,0,0,true,true,true,false,0,,0,0,"dev",1
"andmattia/IonicCordovaProject1",5172,"User",,0,0,true,true,true,false,0,,0,0,"master",1
"lfcj/MPP",1348,"User",,0,0,true,true,true,false,0,,0,0,"master",1
"DaveBC/ScrapBook",140,"User",,0,0,true,true,true,false,0,,0,0,"master",1
"Riposati/array_dinamico",120,"User",,0,0,true,true,true,false,0,,0,0,"master",1
"xxyqz/MLR",1220,"User",,0,0,true,true,true,false,0,,0,0,"master",1
"hetra/cpu",112,"User",,0,0,true,true,true,false,0,,0,0,"master",1
"apple1003232/UCLA_CS143_Database-System",376,"User",,0,0,true,true,true,false,0,,0,0,"master",1
"hanscol/shell_1.0",128,"User",,0,0,true,true,true,false,0,,0,0,"master",1
"thebillli/2014-15",19020,"User",,0,0,true,true,true,false,0,,0,0,"master",1
"tyhappy/snack",136,"User",,0,0,true,true,true,false,0,,0,0,"master",1
"lunixbochs/ti-omap5-sgx-ddk-linux",972,"User",,0,0,true,true,true,false,0,,0,0,"dra7/k4.1",1
"pid011/TimerExit",140,"User","",0,0,true,true,true,false,0,,0,0,"master",1
"gzq/network",148,"User",,0,0,true,true,true,false,0,,0,0,"master",1
"emilypx/word2vec",272,"User",,0,0,true,false,false,false,0,,35,0,"master",1
"klykis/testrepo1",108,"User",,0,0,true,true,true,false,0,,0,0,"master",1
"krasnovmv/cg_lab2",312,"User",,0,0,true,true,true,false,0,,0,0,"master",1
"gursahib1805/awesome-uart",172,"User",,0,0,true,true,true,false,0,,0,0,"master",1
"ghassheee/myos",112,"User",,0,0,true,true,true,false,0,,0,0,"master",1
"songhy0/word2vec",276,"User",,0,0,true,false,false,false,0,,35,0,"master",1
"SamuelDeal/iptables",3732,"User",,0,0,true,true,true,false,0,,0,0,"master",1
"ffmv/alfred",212,"User",,0,0,true,true,true,false,0,,0,0,"master",1
"Aesmade/convolution",148,"User",,0,0,true,true,true,false,0,,0,0,"master",1
"RobertWang/palresearch",7812,"User",,0,0,true,false,false,false,0,,0,0,"master",1
"fetux/simuladorSCP",244,"User",,0,0,true,true,true,false,1,,0,1,"master",1
"Vivek1010/Programing_String",116,"User",,0,0,true,true,true,false,0,,0,0,"master",1
"ffmv/dhcpd",180,"User",,0,0,true,true,true,false,0,,0,0,"master",1
"SixthSensePCHHackathon/Arduino",112,"Organization",,0,0,true,true,true,false,0,,0,0,"master",1
"Jeija/esp8266-light-alarmclock",1020,"User",,0,0,true,true,true,false,0,,0,0,"master",1
"jinniw43805/homework",224,"User",,0,0,true,true,true,false,0,,0,0,"master",1
"D400150085/tugas-gelang-warna-resistor",164,"User",,0,0,true,true,true,false,0,,0,0,"master",1
"jaseg/fw-vfd",196,"User",,0,0,true,true,true,false,0,,0,0,"master",1
"zizhengwu/Barrier_Synchronization",267,"User",,0,0,true,true,true,false,0,,0,0,"master",1
"MrH2S/smt_switch",204,"User",,0,0,true,true,true,false,0,,0,0,"master",1
"kschaef/UT-sci-comp",1316,"User",,0,0,true,true,true,false,0,,0,0,"master",1
"joeyGumer/My_Game_Engine",11256,"User",,0,0,true,true,true,false,0,,0,0,"master",1
"Cybercritter/quagga",8892,"User",,0,0,true,true,true,false,0,,0,0,"master",1
"tkq66/ece4270",132,"User","",0,0,true,true,true,false,0,,0,0,"master",1
"bheemarajulu/SmartWatch_Development",41816,"User","",0,0,true,true,true,false,0,,0,0,"master",1
"haglerchristopher/automation",168,"User",,0,0,true,true,true,false,0,,0,0,"master",1
"smmckay/auto-screengrab",1304,"User",,0,0,true,true,true,false,0,,0,0,"master",1
"Zenitram-Oriaj/EasyAVR128_W5100",264,"User",,0,0,true,true,true,false,0,,0,0,"master",1
"ryo0306/Hikusyon",68320,"User",,0,0,true,true,true,false,0,,0,0,"master",1
"jjgetahun/pa3",276,"User","",0,0,true,true,true,false,0,,0,0,"master",1
"Pragyan1997/Codechef",124,"User","http://www.codechef.com/problems",0,0,true,true,true,false,0,,0,0,"master",1
"siyasahu/Mirafra-PSV",860,"User","",0,0,true,true,true,false,0,,1,0,"master",1
"YannJun/C-sources",152,"User",,0,0,true,true,true,false,0,,0,0,"C-Code-Sources",1
"yakir-Yang/scripts",684,"User",,0,0,true,true,true,false,0,,0,0,"master",1
"dipak15/Algo-CLR-Project",168,"User",,0,0,true,true,true,false,0,,0,0,"master",1
