"sautin1/mipt-materials",164,"User",,0,0,true,true,true,false,0,,0,0,"master",1
"kamarush/android_hardware_ril",260,"User",,0,0,true,true,true,false,0,,0,0,"master",1
"yomi322/carina",292,"User",,0,0,true,true,true,false,0,,0,0,"master",1
"kofikofi123/NewStickOS",300,"User",,0,0,true,true,true,false,0,,0,0,"master",1
"davidPerezRamirez/Lenguajes-III",176,"User",,0,0,true,true,true,false,0,,0,0,"master",1
"adorgoalp/tajmohol",1240,"User",,0,0,true,true,true,false,0,,0,0,"master",1
