"masterhungpham/MT13OS",128,"User",,0,0,true,true,true,false,0,,0,0,"master",1
"tsaichanghsiung/Tutorial",112,"User",,0,0,true,true,true,false,0,,0,0,"myFirstBranch",1
"Peilong/Transformer-benchmark",636,"User",,0,0,true,true,true,false,0,,0,0,"master",1
"saintwolf/dmgboy",2536,"User",,0,0,true,false,false,false,0,,2,0,"master",1
"rax-it/Smart-Home---Advanced-Operating-System-project",144,"User",,0,0,true,true,true,false,0,,0,0,"master",1
"minlexx/test_libpulse",144,"User","",0,0,true,true,true,false,0,,0,0,"master",1
"PaPablo/TestRepo",152,"User",,0,0,true,true,true,false,0,,1,0,"master",1
"gerryqd/rt-l4",19340,"User",,0,0,true,false,false,false,0,,0,0,"master",1
"jtaketugu/Hello-World_C",140,"User",,0,0,true,true,true,false,0,,0,0,"master",1
"Psykofloyd/computor",140,"User",,0,0,true,true,true,false,0,,0,0,"master",1
"eager7/socket_comm",212,"User",,0,0,true,true,true,true,0,,0,0,"master",1
"tukusejssirs/Programy_v_C",136,"User",,0,0,true,true,true,false,0,,0,0,"Algoritmy-a-struktury-udajov",1
"liangxiegame/es2pg",108,"User",,0,0,true,true,true,false,0,,0,0,"master",1
"sampwork/ServerDefender.SAMPPlugin",244,"User",,0,0,true,true,true,false,0,,0,0,"master",1
"PhilDrummer/AVL_Tree",212,"User",,0,0,true,true,true,false,0,,0,0,"master",1
"cmjonze/lzo",1456,"User",,0,0,true,true,true,false,0,,0,0,"master",1
"jarad/openacc",148,"User",,0,0,true,true,true,false,0,,0,0,"master",1
"gavyur/CPU",112,"User",,0,0,true,true,true,false,0,,0,0,"master",1
"cheako/gkrellm2-demos",168,"User",,0,0,true,true,true,false,0,,0,0,"master",1
"cmjonze/sysvinit",260,"User",,0,0,true,true,true,false,0,,0,0,"master",1
"vladalexgit/test",164,"User",,0,0,true,true,true,false,0,,0,0,"master",1
"tum-phoenix/mavlink-messages-c",152,"Organization",,0,0,true,true,true,false,0,,0,0,"master",1
"kingfeng12138/plan_manager",124,"User",,0,0,true,true,true,false,0,,0,0,"master",1
"xancin/mdsteam",8524,"User",,0,0,true,true,true,false,0,,0,0,"cm-12.1",1
"singam-sanjay/nbds",376,"User",,0,0,true,false,false,false,0,,3,0,"master",1
"Phantomical/GLSL-Wrapper",1244,"User","",0,0,true,true,true,false,0,,0,0,"master",1
"hoonio/Alpha-Benchmark",19648,"User",,0,0,true,true,true,false,0,,0,0,"master",1
"charla-n/zappy",176,"User",,0,0,true,true,true,false,0,,0,0,"master",1
"rhake/prog1",124,"User",,0,0,true,true,true,false,0,,0,0,"master",1
"gstv1/Exercicios",140,"User",,0,0,true,true,true,false,0,,0,0,"master",1
"jsc/tokenizer",1388,"User","",0,0,true,true,true,false,0,,0,0,"master",1
"muazah01/cs165Final",140,"User",,0,0,true,true,true,false,0,,0,0,"master",1
"abmarsh/word2vec",272,"User",,0,0,true,false,false,false,0,,35,0,"master",1
"fwhem/kernel_moto_shamu",1014384,"User",,0,0,true,true,true,false,0,,0,0,"mm",1
"tongfa/OpenWRT_DD_bleedingedge_r47102_ZBT_WE826",127684,"User",,0,0,true,true,true,false,0,,0,0,"master",1
"cmillani/simAVR_hpg",3764,"User",,0,0,true,true,true,false,0,,0,0,"master",1
"arihant15/Virtual-Database-Management-System",136,"User",,0,0,true,true,true,false,0,,0,0,"master",1
"antosha417/CPU",132,"User",,0,0,true,true,true,false,0,,0,0,"master",1
"admcshane/CptS_121",144,"User",,0,0,true,true,true,false,0,,0,0,"master",1
"aditya2803/Flappy_bird",152,"User",,0,0,true,true,true,false,0,,0,0,"master",1
"fredy23/lista_2",152,"User",,0,0,true,true,true,false,0,,0,0,"master",1
"mrphaell/tutorial",132,"User",,0,0,true,true,true,false,0,,0,0,"master",1
"AleDTS/montador.trab1.LM",152,"User",,0,0,true,true,true,false,0,,0,0,"master",1
"82Flex/GrooveCoasterPatch",3242,"Organization",,0,0,true,true,true,false,1,,0,1,"master",1
"gealcu1516daw2/mitja",124,"User",,0,0,true,true,true,false,0,,0,0,"master",1
"kunakh/stm32f7player",280316,"User",,0,0,true,true,true,false,0,,0,0,"master",1
"osocron/Cargador",168,"User",,0,0,true,true,true,false,0,,0,0,"master",1
"Roman32/NetworkLab2",292,"User",,0,0,true,true,true,false,0,,0,0,"master",1
"chrisgulvik/see_SNP_neighborhoods",576,"User","",0,0,true,true,true,false,0,,0,0,"master",1
"WildMar/introc",152,"User",,0,0,true,true,true,false,0,,0,0,"master",1
"bruno2souza/Trabalho-2",352,"User",,0,0,true,true,true,false,0,,0,0,"master",1
"ygalanter/Brick-Neon",300,"User",,0,0,true,true,true,false,0,,0,0,"master",1
"ddalessa/kernel",0,"User",,0,0,true,true,true,false,3,,1,3,"kernel-4.3rc4",1
"ZJMEI/MPCS55001Algorithms",132,"User",,0,0,true,true,true,false,0,,0,0,"master",1
"tjdevries/cs_374_project",236,"User",,0,0,true,true,true,false,0,,0,0,"master",1
"lucianperju/The-C-Factory",121,"User",,0,0,true,true,true,false,1,,0,1,"master",1
"juandarr/samR21",6136,"User",,0,0,true,true,true,false,0,,0,0,"master",1
"gaborcsardi/readline",168,"User",,0,0,true,true,true,false,0,,5,0,"master",1
"cortoproject/mqtt",184,"Organization",,0,0,true,true,true,false,0,,0,0,"master",1
"EugeniaPereyra/C",156,"User",,0,0,true,true,true,false,0,,0,0,"master",1
"meolic/biddy",592,"User",,0,0,true,true,true,false,0,,0,0,"master",1
"noyesno/awka",592,"User","http://awka.sourceforge.net/index.html",0,0,true,true,true,false,0,,0,0,"master",1
"iblueer/ocstudy04",280,"User","",0,0,true,true,true,false,0,,0,0,"master",1
"tisan-kit/vibrate-alarm-demo",1591,"Organization",,0,0,true,true,true,false,2,,1,2,"master",1
"Alizyt/Bollard",5256,"User",,0,0,true,true,true,false,0,,0,0,"master",1
"Rahul147/CodeChef",168,"User",,0,0,true,true,true,false,0,,0,0,"master",1
"gpressel/FW-Poncho",164,"User",,0,0,true,true,true,false,0,,0,0,"master",1
"bartmnz/UMBC",144,"User",,0,0,true,true,true,false,0,,0,0,"master",1
"weirdvector/kalicharan",180,"User",,0,0,true,true,true,false,0,,0,0,"master",1
"XBOOS/playgournd",164,"User",,0,0,true,true,true,false,0,,0,0,"master",1
"lovish1234/practice",156,"User",,0,0,true,true,true,false,0,,0,0,"master",1
"csjavadev/C-Progs",144,"User",,0,0,true,true,true,false,0,,0,0,"master",1
"nivranshu4/Learn-C-The-Hard-Way",236,"User",,0,0,true,true,true,false,0,,0,0,"master",1
"bpalmeiro/CodigoNext",107140,"User",,0,0,true,true,true,false,0,,0,0,"master",1
"charles-pku-2013/x265_streaming_server",176,"User",,0,0,true,true,true,false,0,,0,0,"master",1
"cortoproject/examples",148,"Organization",,0,0,true,true,true,false,0,,0,0,"master",1
"matsengrp/founder-inference-bakeoff",18596,"Organization",,0,0,true,true,true,false,0,,0,0,"master",1
"younix/lchat",152,"User",,0,0,true,true,true,false,0,,0,0,"master",1
"NafisFaysal/ClassHW",164,"User",,0,0,true,true,true,false,0,,0,0,"master",1
"nrj127/dmp_praktikum",43844,"User",,0,0,true,true,true,false,0,,0,0,"master",1
"Polkm/cell-tycoon",29516,"User","",0,0,true,true,true,false,0,,0,0,"master",1
"hwmt1-u06/android_kernel_huawei_hwmt1-u06",120690,"Organization",,0,0,true,true,true,false,1,,0,1,"arom",1
"Anarh2404/TechNews",1412,"User","",0,0,true,true,true,false,0,,0,0,"master",1
"vanshikageu/program5",124,"User",,0,0,true,true,true,false,0,,0,0,"master",1
"30Manuel/FUUP1B",156,"User",,0,0,true,true,true,false,0,,0,0,"master",1
"lsuarezzapata5/SO-Lab3",132,"User",,0,0,true,true,true,false,0,,0,0,"master",1
"jesus47/FUP1C",416,"User",,0,0,true,true,true,false,0,,0,0,"master",1
"Kevinlymine/C-and-DataStruct",884,"User",,0,0,true,true,true,false,0,,0,0,"master",1
"jjgetahun/pa4",824,"User",,0,0,true,true,true,false,0,,0,0,"master",1
"anaxfotopoulos/codingground",184,"User",,0,0,true,true,true,false,0,,0,0,"master",1
"winksaville/xx1-kernel",172,"User",,0,0,true,true,true,false,0,,1,0,"master",1
"dutch/mingus",152,"User",,0,0,true,true,true,false,0,,0,0,"master",1
"noisegate/tinyamp",128,"User",,0,0,true,true,true,false,0,,0,0,"master",1
"fabatka/fiznum2",1152,"User",,0,0,true,true,true,false,0,,0,0,"master",1
"lonnietc/palacios",18064,"User",,0,0,true,true,true,false,0,,0,0,"master",1
"jaderfiegenbaum/multitop",1115,"User",,0,0,true,true,true,false,2,,0,2,"master",1
"seven332/giflib",1400,"User",,0,0,true,true,true,false,0,,0,0,"master",1
"alexey-sidnev/templates",20462,"User",,0,0,true,true,true,false,9,,1,9,"master",1
"wtolley/lab2",172,"User",,0,0,true,true,true,false,0,,0,0,"master",1
"gaalvarez/distributed_systems",308,"User",,0,0,true,true,true,false,0,,0,0,"master",1
