"davideuler/word2vec",204,"User",,0,0,true,false,false,false,0,,35,0,"master",1
"mwong009/geoda",33376,"User",,0,0,true,false,false,false,0,,88,0,"master",1
"Dav1dS1mon/de.htwg.resy.robot",10308,"User",,0,0,true,true,true,false,0,,0,0,"master",1
"pablopereirapina/MiPrimerRepositorio",144,"User",,0,0,true,true,true,false,0,,0,0,"master",1
"burnsyboo/android_device_qcom",144,"User",,0,0,true,true,true,false,0,,0,0,"master",1
"tcatm/l3roamd",136,"User",,0,0,true,true,true,false,0,,0,0,"master",1
"leonid133/SPI_MMC",196,"User",,0,0,true,true,true,false,0,,0,0,"master",1
"mah007/mongoose",836,"User",,0,0,true,false,false,false,0,,32,0,"master",1
"franrogers/curtains",136,"User",,0,0,true,true,true,false,0,,0,0,"master",1
"StefanKrauth/cog",39244,"User","https://bitbucket.org/mamburu/cog",0,0,true,true,true,false,0,,0,0,"cog",1
"robincsebuet/Linux_Kernel_Module",140,"User",,0,0,true,true,true,false,0,,0,0,"master",1
"rcastill/netlib",104,"User",,0,0,true,true,true,false,0,,0,0,"master",1
"reloZid/sdl-arena1",1916,"User","",0,0,true,true,true,false,0,,0,0,"master",1
"apellicc/libft",536,"User",,0,0,true,true,true,false,0,,0,0,"master",1
"VantanCreativeStudio/CharacterStatusManagement",4788,"Organization",,0,0,true,true,true,false,0,,0,0,"master",1
"als123/libncompress",220,"User",,0,0,true,true,true,false,0,,0,0,"master",1
"hr-uowd/ecte433",16576,"User",,0,0,true,true,true,false,0,,0,0,"master",1
"Ermitanio/LPCXpresso_WorkSpace",4540,"User",,0,0,true,true,true,false,0,,0,0,"master",1
"Roen00/calculator-micro-controller",220,"User",,0,0,true,true,true,false,0,,0,0,"master",1
"VRToxin-Devices/android_hardware_samsung",1856,"Organization","",0,0,true,true,true,false,0,,0,0,"mm6.0",1
"huzhengchuan/qemu_kvm_learning",25020,"User",,0,0,true,true,true,false,0,,0,0,"master",1
"JacobIrle/Searching-C",156,"User","",0,0,true,true,true,false,0,,0,0,"master",1
"pmjoniak/AI",2388,"User",,0,0,true,true,true,false,0,,0,0,"master",1
"glesica/conway-invaders",176,"User",,0,0,true,true,true,false,0,,0,0,"master",1
"VRToxin-Devices/android_device_samsung_smdk4412-common",872,"Organization",,0,0,true,true,true,false,0,,0,0,"mm6.0",1
"GingertronMk1/Time",204,"User","",0,0,true,true,true,false,0,,0,0,"master",1
"VRToxin-Devices/android_kernel_oneplus_msm8974",705692,"Organization",,0,0,true,true,true,false,0,,0,0,"mm6.0",1
"Eiamnacken/Betriebssysteme",172,"User",,0,0,true,true,true,false,0,,0,0,"master",1
"nils-hamel/libcsps",2780,"User","",0,0,true,true,true,false,0,,0,0,"master",1
"WielderOfMjoelnir/my-stuff",160,"User",,0,0,true,true,true,false,0,,0,0,"master",1
"BartoszKlakla/MyMemory",148,"User",,0,0,true,true,true,false,0,,0,0,"master",1
"SSPYR0/dmgboy",2528,"User",,0,0,true,false,false,false,0,,2,0,"master",1
"012303/android-thomson-key-solver",42060,"User",,0,0,true,false,false,false,0,,2,0,"master",1
"pigate/networking_learnings",124,"User",,0,0,true,true,true,false,0,,0,0,"master",1
"agnott/networksPG3",220,"User",,0,0,true,true,true,false,0,,0,0,"master",1
"nottobebeat/CIS520",668,"User",,0,0,true,true,true,false,0,,0,0,"master",1
"vjohnston/TCP-Client-Server",196,"User",,0,0,true,true,true,false,0,,0,0,"master",1
"Poss111/codingground",172,"User",,0,0,true,true,true,false,0,,0,0,"master",1
"gromaudio/android_external_e2fsprog",5580,"User",,0,0,true,true,true,false,0,,0,0,"vline-kk_4.4.3",1
"JingweiZuo/gestion-de-tas",144,"User",,0,0,true,true,true,false,0,,0,0,"master",1
"swuiojkl/CMPUT201",3068,"User",,0,0,true,true,true,false,0,,0,0,"master",1
"priyankaganesan/Barrier-Synchronization",204,"User",,0,0,true,true,true,false,0,,0,0,"master",1
"Niddhogur/mProject",388,"User",,0,0,true,true,true,false,0,,1,0,"master",1
"Guitarman9119/Nucleo_Guitar_Effects_Pedal",1044,"User",,0,0,true,true,true,false,0,,0,0,"master",1
"BrokenROM/hardware_qcom_gps",864,"Organization",,0,0,true,true,true,false,0,,0,0,"m6.0",1
"janas-sebastien/IOT-Temperature",41632,"User",,0,0,true,true,true,false,0,,0,0,"master",1
"OneRom/kernel_moto_shamu",1002440,"Organization",,0,0,true,true,true,false,0,,0,0,"mm6.0",1
"Katarzynasrom/java-ide-droid",12716,"User",,0,0,true,false,false,false,0,,1,0,"master",1
"StuartHa/mips_assembler",196,"User","",0,0,true,true,true,false,0,,0,0,"master",1
"chriszero/vdr-plugin-mpv",164,"User",,0,0,true,true,true,false,0,,0,0,"master",1
"freaky-dirac/performances-languages-test",104,"Organization",,0,0,true,true,true,false,0,,0,0,"master",1
"NikhilAGaikwad/firmware-mod-kit",10400,"User",,0,0,true,false,false,false,0,,41,0,"master",1
"skdong/dataStructure",104,"User",,0,0,true,true,true,false,0,,0,0,"master",1
"Jadon-Jesse/hw3",124,"User",,0,0,true,true,true,false,0,,0,0,"master",1
"naruto0323/FTP",108,"User",,0,0,true,true,true,false,0,,0,0,"master",1
"vbraguimcanto/montador-C",568,"User",,0,0,true,true,true,false,0,,0,0,"master",1
"YuHori/diary",140,"User",,0,0,true,true,true,false,0,,0,0,"master",1
"MoSal/expr",108,"User",,0,0,true,true,true,false,0,,0,0,"master",1
"guitarguru/OSS",436,"User",,0,0,true,true,true,false,0,,0,0,"master",1
"vladtcvs/procd",744,"User","",0,0,true,true,true,false,0,,0,0,"master",1
"seojangho/cse-stupid-kernel-lab",124,"User","",0,0,true,true,true,false,0,,0,0,"master",1
"aatanvardoo/neoled_stm",636,"User",,0,0,true,true,true,false,0,,0,0,"master",1
"xlos88/vmulti",192,"User",,0,0,true,false,false,false,0,,11,0,"master",1
"allanjos/issuedb",25896,"User","",0,0,true,true,true,false,0,,0,0,"master",1
"shimazing/CS453_HW3",292,"User",,0,0,true,true,true,false,0,,0,0,"master",1
"wiihomebrewarchive/nintendon-t",58908,"User",,0,0,true,false,true,false,0,,18,0,"master",1
"Nigh/TinyLight",136,"User",,0,0,true,true,true,false,0,,0,0,"master",1
"dolenle/OS-PS4-catgrepmore",148,"User",,0,0,true,true,true,false,0,,0,0,"master",1
"jpc22/sdlgraphics385",2168,"User",,0,0,true,true,true,false,0,,0,0,"master",1
"gtbell511/Topian",724,"User",,0,0,true,true,true,false,0,,0,0,"master",1
"soul5965/USART",1204,"User",,0,0,true,true,true,false,0,,0,0,"master",1
"xiejun901/render",6036,"User",,0,0,true,true,true,false,0,,0,0,"master",1
"kyleliangus/KeySpeedRead",110,"User",,0,0,true,true,true,false,2,,0,2,"master",1
"MarkFuentes/WolfEngine",12828,"User",,0,0,true,true,true,false,1,,0,1,"master",1
"xiaokai-wang/nginx-discovery",1224,"User",,0,0,true,true,true,false,0,,0,0,"master",1
"HYQMartin/klish_with_doc",716,"User",,0,0,true,true,true,false,0,,0,0,"master",1
"FredrIQ/nethack4",21576,"User",,0,0,true,true,true,false,0,,0,0,"master",1
"lbule/android_hardware_mediatek",7806,"User",,0,0,true,true,true,false,2,,0,2,"master",1
"gromaudio/android_external_zlib",1572,"User",,0,0,true,true,true,false,0,,0,0,"vline-kk_4.4.3",1
"gromaudio/android_external_fsck_msdos",152,"User",,0,0,true,true,true,false,0,,0,0,"vline-kk_4.4.3",1
"antonio-dibacco/STM32Standby",2936,"User",,0,0,true,true,true,false,0,,0,0,"master",1
"chinnupadmanc/SocketProgramming",104,"User",,0,0,true,true,true,false,0,,0,0,"master",1
"zuzgon/arkitlib",380,"User",,0,0,true,false,false,false,0,,2,0,"master",1
"lujjjh/simple-http-server",148,"User",,0,0,true,true,true,false,0,,0,0,"master",1
"MonzUn/UnwantedDoubleClickBlocker",152,"User",,0,0,true,true,true,false,0,,0,0,"master",1
"marek1024/gtk-",108,"User",,0,0,true,true,true,false,0,,0,0,"master",1
"utkarshut/CASINO-GAME",144,"User",,0,0,true,true,true,false,0,,0,0,"master",1
"naltipar/Basic-Shell",104,"User",,0,0,true,true,true,false,0,,0,0,"master",1
"Khandelr/Operating-System-Assignments",268,"User",,0,0,true,true,true,false,0,,0,0,"master",1
"godka/Logic",136,"User",,0,0,true,true,true,false,0,,0,0,"master",1
"Car1oschcp936/small-tools",11388,"User",,0,0,true,true,true,false,0,,0,0,"master",1
"rocky112358/spdyshark",196,"User",,0,0,true,false,false,false,0,,3,0,"master",1
"omnirom/android_device_sony_aries",40408,"Organization",,0,0,true,true,true,false,0,,0,0,"android-5.1",1
"cention-sany/libgif",1704,"User","",0,0,true,true,true,false,0,,0,0,"master",1
"dambos/moj",164,"User",,0,0,true,true,true,false,0,,0,0,"master",1
"ruelsison/iotcore",112,"User",,0,0,true,true,true,false,0,,0,0,"master",1
"omnirom/android_hardware_invensense",2676,"Organization",,0,0,true,true,true,false,0,,0,0,"android-6.0",1
"Perwein/minesweeper",124,"User",,0,0,true,true,true,false,0,,0,0,"master",1
"Sailja/BinaryTree",116,"User",,0,0,true,true,true,false,0,,0,0,"master",1
"VantanCreativeStudio/SaveData",4784,"Organization",,0,0,true,true,true,false,0,,0,0,"master",1
