"celso/sapo",188,"User",,40,40,true,true,true,false,3,,0,3,"master",1
"yorkie/serve",288,"User","",9,9,true,true,true,false,3,,0,3,"master",1
"inikep/lz5",272,"User","",6,6,true,true,true,false,0,,0,0,"master",1
"internetofhomethings/ESP8266-Dual-Server",1172,"User",,5,5,true,true,true,false,0,,0,0,"master",1
"ihaveamac/mashers-gl-updater",17384,"User",,4,4,true,true,true,false,0,,0,0,"master",1
"SKPHP1989/php_togo",236,"User","",4,4,true,true,true,false,1,,0,1,"master",1
"Jonastuhh/ProtzProg",360,"User",,3,3,true,true,true,false,1,,0,1,"master",1
"gnurama/rcs",0,"User",,2,2,true,true,true,false,0,,0,0,"master",1
"korujzade/StronglyConnectedComponents",148,"User",,2,2,true,true,true,false,0,,0,0,"master",1
"wind-river-rocket/galileo-lwip_http",122,"Organization",,2,2,true,true,true,false,0,,0,0,"master",1
"yvanvds/angelthel",17724,"User",,2,2,true,true,true,false,0,,0,0,"master",1
"induarun9086/TemplateMatching",156,"User","",2,2,true,true,true,false,0,,0,0,"master",1
"flyfei/LuaInAndroid",1580,"User","",2,2,true,true,true,false,0,,0,0,"master",1
"madmanteam/OpenSSL_Android",6276,"User",,2,2,true,true,true,false,0,,0,0,"master",1
"ericqweinstein/little-lisp",128,"User",,1,1,true,true,true,false,0,,0,0,"master",1
"AOSParadox/android_external_libnfc-nci",1680,"Organization",,1,1,true,true,true,false,0,,0,0,"marshmallow_bacon",1
"puppeh/es-shell",1124,"User",,1,1,true,true,true,false,0,,0,0,"master",1
"anthonyshan/TestGit",144,"User",,1,1,true,true,true,false,0,,0,0,"master",1
"jpec/infinity-julien",164,"User",,1,1,true,true,true,false,0,,0,0,"master",1
"KaMiila/cmerchant",136,"User",,1,1,true,true,true,false,0,,0,0,"master",1
"STFlightSenseLinuxDrivers/vl6180-driver",208,"Organization",,1,1,true,true,true,false,0,,1,0,"master",1
"problame/gmux_backlight",124,"User",,1,1,true,true,true,false,0,,0,0,"master",1
"004helix/ugidctl",168,"User",,1,1,true,true,true,false,0,,0,0,"master",1
"MicrochipTech/linux-pic32",932486,"Organization",,1,1,true,true,true,false,2,,0,2,"pic32-4.2.y",1
"MicrochipTech/u-boot-pic32",76050,"Organization",,1,1,true,true,true,false,1,,0,1,"pic32mz_v2015.07.y",1
"ethz-iis/riscv_jtag_server",868,"Organization",,1,1,true,true,true,false,0,,0,0,"master",1
"zear/shisen-seki",232,"User",,1,1,true,true,true,false,1,,0,1,"master",1
"undisputed-seraphim/matio",2096,"User",,1,1,true,true,true,false,0,,1,0,"master",1
"sean-lin/elixir-cbson",204,"User","",1,1,true,true,true,false,0,,0,0,"master",1
"EspLight/EspLight-firmware",332,"Organization",,1,1,true,true,true,false,0,,0,0,"master",1
"xebia/argon2-go",180,"Organization",,1,1,true,true,true,false,0,,0,0,"master",1
"somprabhsharma/linefollower",108,"User",,1,1,true,true,true,false,0,,0,0,"master",1
"score-p/scorep_plugin_x86_energy",136,"Organization",,1,1,true,true,true,false,0,,0,0,"master",1
"cmdevries/buildyourownlisp",152,"User",,1,1,true,true,true,false,0,,0,0,"master",1
"Jabarda/OSNetShield",104,"User",,1,1,false,true,true,false,0,,0,0,"master",1
"yangliu/tmk-keyboards",176,"User",,1,1,true,true,true,false,0,,0,0,"master",1
"mar77i/solvers",112,"User","",1,1,true,true,true,false,0,,0,0,"master",1
"openluopworld/avr_rotate_shift",188,"User",,1,1,true,true,true,false,0,,0,0,"master",1
"troydhanson/nnctl",144,"User",,1,1,true,true,true,false,0,,0,0,"master",1
"YuriAlessandro/image-processor",1067,"User",,1,1,true,true,true,false,1,,1,1,"master",1
"nologic/shellcc",164,"User","",1,1,true,true,true,false,0,,0,0,"master",1
"LastAvenger/tqybtmyaath",160,"User",,1,1,true,true,true,false,0,,0,0,"master",1
"mpgerstl/networkRobustnessToolbox",360,"User",,0,0,true,true,true,false,0,,0,0,"master",1
"Jerry7X/flashcache",300,"User",,0,0,true,true,true,false,0,,0,0,"master",1
"Taguhi/word2vec",272,"User",,0,0,true,false,false,false,0,,35,0,"master",1
"hugh712/my_driver_study",1125088,"User",,0,0,true,true,true,false,0,,0,0,"master",1
"manavkataria/mindspace",7096,"User",,0,0,true,false,false,false,0,,1,0,"master",1
"mikewxp/word2vec",272,"User",,0,0,true,false,false,false,0,,35,0,"master",1
"vinjn/SDL",219044,"User","",0,0,true,true,true,false,0,,0,0,"master",1
"sebas095/CUDA",155464,"User",,0,0,true,true,true,false,0,,0,0,"master",1
"sshaginyan/talktic",3168,"User",,0,0,true,false,false,false,0,,2,0,"master",1
"bradharding/SDL2_mixer",7592,"User",,0,0,true,true,true,false,0,,0,0,"master",1
"anueshenxing/word2vec",272,"User",,0,0,true,false,false,false,0,,35,0,"master",1
"tectronics/flash-kikko",2196,"User",,0,0,true,false,false,false,0,,6,0,"master",1
"brunotl/kernel-kobo-mx6sl-ntx",117532,"User","",0,0,true,true,true,false,0,,0,0,"master",1
"li77leprince/Venipuncture_USBHID",43512,"User",,0,0,true,true,true,false,0,,0,0,"master",1
"xuhao1/pl0_homework",276,"User",,0,0,true,true,true,false,0,,0,0,"master",1
"cookie114/ijkplayer",12732,"User",,0,0,true,true,true,false,0,,0,0,"master",1
"daersc/spair",144,"User","",0,0,true,true,true,false,0,,0,0,"master",1
"rpodgorny/u-boot",79476,"User","",0,0,true,true,true,false,0,,0,0,"master",1
"futuretekinc/FTW",123816,"Organization",,0,0,true,true,true,false,0,,0,0,"master",1
"bestvivi/redis",984,"User",,0,0,true,false,false,false,0,,209,0,"master",1
"cofk0922/droidreader",2088,"User",,0,0,true,false,false,false,0,,0,0,"master",1
"tectronics/rockdodger",2204,"User",,0,0,true,false,false,false,0,,3,0,"master",1
"kannolab-waseda/OpenAL",19336,"User",,0,0,true,true,true,false,0,,0,0,"master",1
"kontrafiktion/ruby-libvirt",896,"User",,0,0,true,true,true,false,0,,0,0,"master",1
"ddkatona/ascii",124,"User",,0,0,true,true,true,false,0,,0,0,"master",1
"banduladh/meplayer",12456,"User",,0,0,true,false,false,false,0,,0,0,"master",1
"madhudotcom/opencv-dsp-acceleration",11544,"User",,0,0,true,false,false,false,0,,12,0,"master",1
"crossbuild/mingwrt",604,"Organization",,0,0,true,true,true,false,0,,0,0,"build_master",1
"xmagam00/BMS",1108,"User",,0,0,true,true,true,false,0,,0,0,"master",1
"lucas794/Heap",132,"User",,0,0,true,true,true,false,0,,0,0,"master",1
"Godzl/FirstRepository",140,"User",,0,0,true,true,true,false,0,,0,0,"master",1
"DkatoNaB/OP",140,"User",,0,0,true,true,true,false,0,,0,0,"master",1
"Encesat/Minesweeper",108,"User",,0,0,true,true,true,false,0,,0,0,"master",1
"morganjury1/CS2821",188,"Organization",,0,0,true,true,true,false,0,,0,0,"master",1
"MyCSDegree/barduino",128,"Organization",,0,0,true,true,true,false,0,,0,0,"master",1
"strandtentje/recover550-c",61100,"User",,0,0,true,true,true,false,0,,0,0,"master",1
"Light-Wang/image_processing",108,"User",,0,0,true,true,true,false,0,,0,0,"master",1
"hexxellor/kirk-engine",236,"User",,0,0,true,false,false,false,0,,2,0,"master",1
"dimikara91/Hangman",132,"User",,0,0,true,true,true,false,0,,0,0,"master",1
"elbridge/usb_tmc",172,"User","",0,0,true,true,true,false,0,,0,0,"master",1
"suleimanmahmoud/v4l2_opencv",14624,"User",,0,0,true,true,true,false,0,,0,0,"master",1
"chrisswk/buildyourownlisp",140,"User",,0,0,true,true,true,false,0,,0,0,"master",1
"fadyanwar/crispy-octo-guacamole",132,"User",,0,0,true,true,true,false,0,,0,0,"master",1
"Qualcomm-msm/android_kernel_lge_g3",714152,"Organization",,0,0,true,true,true,false,0,,0,0,"android-6.x",1
"marcinmrotek/fft-fork",204,"User",,0,0,true,true,true,false,0,,0,0,"master",1
"HouDong/houdong",128,"User",,0,0,true,true,true,false,0,,0,0,"master",1
"unixba/b64pack",160,"User","",0,0,true,true,true,false,0,,0,0,"master",1
"zhuowei/PageStealerPoc",124,"User",,0,0,true,true,true,false,0,,0,0,"master",1
"Ascaren/BuildRoot",128,"User",,0,0,true,true,true,false,0,,0,0,"master",1
"starsep/Trie",112,"User","",0,0,true,true,true,false,0,,0,0,"master",1
"b00074979/Using-a-for-loop-calculating-cumulative-sum-of-each-value-entered-in-an-array",140,"User",,0,0,true,true,true,false,0,,0,0,"master",1
"gumonet/cursogit",128,"User",,0,0,true,true,true,false,0,,0,0,"master",1
"b00074979/Reads-20-integers-and-counts-number-of-even-and-odd-integers-entered",140,"User",,0,0,true,true,true,false,0,,0,0,"master",1
"albheim/ALISP",108,"User",,0,0,true,true,true,false,0,,0,0,"master",1
"b00074979/A-number-between-0-9-is-entered-corresponding-english-and-french-word-form-is-printed",140,"User",,0,0,true,true,true,false,0,,0,0,"master",1
"b00074979/Calculating-area-of-triangle-using-a-function",140,"User",,0,0,true,true,true,false,0,,0,0,"master",1
"inject3d/gweled",2208,"User",,0,0,true,true,true,false,0,,0,0,"master",1
"pvpgn/d2gs109",228,"Organization","",0,0,true,true,true,false,0,,2,0,"master",1
