"SashaMoe/RapidRoll3D",1632,"User","",0,0,true,true,true,false,0,,0,0,"master",1
"apmorris/scripts",152,"User",,0,0,true,true,true,false,0,,0,0,"master",1
"jeansantana/TSP-PQ",0,"User",,0,0,true,true,true,false,0,,0,0,"master",1
"Sisikopf/http_server",116,"User",,0,0,true,true,true,false,0,,0,0,"master",1
"FMauricioS/Laboratorio5",920,"User",,0,0,true,true,true,false,0,,0,0,"master",1
"salgado/Prog1_2_2015",160,"User",,0,0,true,true,true,false,0,,0,0,"master",1
"gregorymoon/Spek",148,"User",,0,0,true,true,true,false,0,,0,0,"master",1
"tareqak/build-your-own-lisp",192,"User","",0,0,true,true,true,false,0,,0,0,"master",1
