"theracermaster/CloverUEFI",90788,"User",,0,0,true,true,true,false,0,,0,0,"master",1
"jackfagner/twrp-kernel-sony-kitkami",138916,"User",,0,0,true,true,false,false,0,,0,0,"TWRP",1
"paivaismael/LearningC",160,"User",,0,0,true,true,true,false,0,,0,0,"master",1
"jigsaw2212/Distributed-Computing-Practicals",856,"User",,0,0,true,true,true,false,0,,0,0,"master",1
"sdanioko/learningC",112,"User",,0,0,true,true,true,false,0,,0,0,"master",1
"DmMatveev/Vector",1408,"User",,0,0,true,true,true,false,0,,1,0,"master",1
"geekmarcel/P008_MCP23017_I2C_Expander",836,"User",,0,0,true,true,true,false,0,,0,0,"master",1
"Maharacha/iot",7280,"User",,0,0,true,true,true,false,0,,0,0,"master",1
"sgygayoung/SoftEngineering",2848,"User",,0,0,true,true,true,false,0,,0,0,"master",1
"Mr-Kumar-Abhishek/G-SQLite-browser",248,"User","",0,0,true,true,true,false,0,,4,0,"master",1
"rahsinha2/Interesting-Programs",160,"User",,0,0,true,true,true,false,0,,0,0,"master",1
"ElViejoJenkins/FUP1B",268,"User",,0,0,true,true,true,false,0,,0,0,"master",1
"ap58677/UART",168,"User",,0,0,true,true,true,false,0,,0,0,"master",1
"ramch101/LearningC",140,"User",,0,0,true,true,true,false,0,,0,0,"master",1
"CalebSturges/LearningC",116,"User",,0,0,true,true,true,false,0,,0,0,"master",1
"stewa165/LearningC",10952,"User",,0,0,true,true,true,false,0,,0,0,"master",1
"fandyushin/h264_dei_encoder",176,"User",,0,0,true,true,true,false,0,,0,0,"master",1
"Kuronogard/LIN_pr2",148,"User",,0,0,true,true,true,false,0,,0,0,"master",1
"OscarGoost/proyecto-AO",184,"User",,0,0,true,true,true,false,0,,0,0,"master",1
"LanetNetwork/pfcephfsquirks",144,"Organization",,0,0,true,true,true,false,0,,0,0,"master",1
"jdneo/H264-Note",108,"User",,0,0,true,true,true,false,0,,0,0,"master",1
"FuhuaChen/MotorBridgeCapeFirmware",28652,"User",,0,0,true,true,true,false,0,,0,0,"master",1
"federicotula/utncrypto2015",375,"User",,0,0,true,true,true,false,1,,1,1,"master",1
"jrg94/EECS-338-Assignment-4",184,"User",,0,0,true,true,true,false,0,,0,0,"master",1
"mfasia/mod-parp",5184,"Organization","http://sourceforge.net/projects/parp/",0,0,true,true,true,false,0,,0,0,"master",1
"kylehogan/410-Assignment-3",188,"User",,0,0,true,true,true,false,0,,0,0,"master",1
"RuiHLOliveira/TCCC",264,"User",,0,0,true,true,true,false,0,,0,0,"master",1
"rwogburn/gcp-arcfile",228,"User",,0,0,true,true,true,false,0,,0,0,"master",1
"rcn-ee/meta-arago",10848,"Organization",,0,0,true,true,true,false,0,,0,0,"master",1
"ishu63/binarytree-in-C",124,"User",,0,0,true,true,true,false,0,,0,0,"master",1
"dayslayer/sockutils",112,"User",,0,0,true,true,true,false,0,,0,0,"master",1
"NEA33/word2vec",276,"User",,0,0,true,false,false,false,0,,35,0,"master",1
"rishi8313/gainos",5332,"User",,0,0,true,false,false,false,0,,0,0,"master",1
"dayslayer/hashtable",108,"User",,0,0,true,true,true,false,0,,0,0,"master",1
"marcus255/globus_v6",232,"User",,0,0,true,true,true,false,0,,0,0,"master",1
"zhangxaochen/openni1x-samples",392,"User",,0,0,true,true,true,false,0,,0,0,"master",1
"robert0206liu/hello_world",108,"User",,0,0,true,true,true,false,0,,0,0,"master",1
"LuisF06/AEP-LFLA",872,"User",,0,0,true,true,true,false,0,,0,0,"master",1
"tlively/sdl_seminar",132,"User",,0,0,true,true,true,false,0,,0,0,"master",1
"kepingbi/word2vec",272,"User",,0,0,true,false,false,false,0,,35,0,"master",1
"ashish4145/Test",124,"User",,0,0,true,true,true,false,0,,0,0,"master",1
"jcoady9/python-for-android",60624,"User",,0,0,true,false,false,false,0,,62,0,"master",1
"luismidelgado/papercrop",24048,"User",,0,0,true,false,false,false,0,,31,0,"master",1
"crasiak/ergodox-layouts",304,"User",,0,0,true,true,true,false,0,,0,0,"master",1
"vilhelmgray/linux-gpio",1148732,"User",,0,0,true,true,true,false,0,,0,0,"master",1
"giovannioliveira/Anagrams",140,"User",,0,0,true,true,true,false,0,,0,0,"master",1
"chiranjeevjain/c-programs",144,"User",,0,0,true,true,true,false,0,,0,0,"master",1
"nuujay/legacy-project",1328,"User",,0,0,true,false,false,false,0,,3,0,"master",1
"MatheusPinheiroLaSalle/Av2Trabalho2Prog1",140,"User",,0,0,true,true,true,false,0,,0,0,"master",1
"asdlei00/pdfviewer-win32",15084,"User",,0,0,true,false,false,false,0,,26,0,"master",1
"conquerork6/sdl",144,"User",,0,0,false,true,false,false,0,,0,0,"master",1
"johanvts/FN-Implementations",28188,"User","http://link.springer.com/chapter/10.1007/978-3-319-25087-8_1",0,0,true,true,true,false,0,,0,0,"master",1
"DavidAlphaFox/openbsd-kernel",23456,"User",,0,0,true,true,true,false,0,,0,0,"master",1
"knusbaum/C-Garbage-Collection",128,"User",,0,0,true,true,true,false,0,,0,0,"master",1
"APOPHIS9283/vortex-lp",907284,"User",,0,0,true,true,true,false,0,,0,0,"lp5.1",1
"g3hezhi/router",276,"User",,0,0,true,true,true,false,0,,0,0,"master",1
"krow17/CSCE-315",116,"User",,0,0,true,true,true,false,0,,0,0,"master",1
"iamthememory/superquine",140,"User",,0,0,true,true,true,false,0,,0,0,"master",1
"ChronoMonochrome/Rijndael",2648,"User","",0,0,true,true,true,false,0,,0,0,"master",1
"ahmadharis4u/ahmadharis.github.io",1012,"User",,0,0,true,true,true,false,0,,0,0,"master",1
"timrsfo/CountThrees_C",13672,"User",,0,0,true,true,true,false,0,,0,0,"master",1
"odrevet/Chess-Wii",1092,"User",,0,0,true,true,true,false,0,,0,0,"master",1
"mnsk/OS",113,"User",,0,0,true,true,true,false,1,,0,1,"master",1
"Shell64/LOVE-SMAA",4432,"User","",0,0,true,true,true,false,0,,0,0,"master",1
"yanyan1119/ThirdPay",8448,"User",,0,0,true,true,true,false,0,,0,0,"master",1
"stuartsoft/CipherLab",23948,"User",,0,0,true,true,true,false,0,,0,0,"master",1
"tectronics/blazingstars",30984,"User",,0,0,true,false,false,false,0,,31,0,"master",1
"priyankatdombale/schoolbilling",112,"User",,0,0,true,true,true,false,0,,0,0,"master",1
"xpemail/ijkplayer2",324,"User",,0,0,true,true,true,false,0,,0,0,"master",1
"xuxiandi/dolphin-player",303164,"User",,0,0,true,false,false,false,0,,35,0,"master",1
"dorayo/Demo1028",699,"User",,0,0,true,true,true,false,21,,17,21,"master",1
"coolmarat/rvoix",1304,"User",,0,0,true,false,false,false,0,,11,0,"master",1
"ragebreakfast/bn",10512,"Organization","",0,0,true,true,true,false,0,,0,0,"master",1
"licess/openwrt-dist-luci",120,"User",,0,0,true,true,true,false,0,,0,0,"master",1
"Kidrc/ABURobocon2012",2260,"User","",0,0,true,true,true,false,0,,0,0,"master",1
"KyletheFox/hide_message_in_ppm_pic",152,"User",,0,0,true,true,true,false,0,,0,0,"master",1
"uberlaggydarwin/sharp-306sh-reference_kernel",465538,"User","",0,0,true,true,true,false,1,,0,1,"master",1
"Jeremy-D-Miller/wiiflow",26724,"User",,0,0,true,false,false,false,0,,0,0,"master",1
"caps-liu/libcoap",344,"User",,0,0,true,true,true,false,0,,0,0,"master",1
"NSInteger/guizmovpn",1748,"User",,0,0,true,false,false,false,0,,0,0,"master",1
"Jeremy-D-Miller/diosmios",364,"User",,0,0,true,false,false,false,0,,1,0,"master",1
"lksbh/testecomrafael",140,"User",,0,0,true,true,true,false,0,,0,0,"master",1
"HuangWeidong1/-",112,"User",,0,0,true,true,true,false,0,,0,0,"master",1
"shirley-zhou/CS35L",348,"User","",0,0,true,true,true,false,0,,0,0,"master",1
"HuangWeidong1/day07",108,"User",,0,0,true,true,true,false,0,,0,0,"master",1
"HuangWeidong1/ti",108,"User",,0,0,true,true,true,false,0,,0,0,"master",1
"ymatsushi/UraniumSampleSimulation",148,"User",,0,0,true,true,true,false,0,,0,0,"master",1
"odrevet/textgame",196,"User",,0,0,true,true,true,false,0,,0,0,"master",1
"drbeat/CProg",108,"User",,0,0,true,true,true,false,0,,0,0,"master",1
"flyfeifan/openGL",227040,"User",,0,0,true,true,true,false,0,,0,0,"master",1
"yijianggit/oslab",21252,"User",,0,0,true,true,true,false,0,,0,0,"master",1
"shirley-zhou/CS33",108,"User",,0,0,true,true,true,false,0,,0,0,"master",1
"codinn/libssh",4516,"Organization",,0,0,true,true,true,false,0,,0,0,"master",1
"devint1/Descent-iOS",11844,"User",,0,0,true,true,true,false,0,,11,0,"master",1
"rocaltair/lbloomfilter",124,"User",,0,0,true,true,true,false,0,,0,0,"master",1
"nico7et8/stampify",1692,"User",,0,0,true,true,true,false,0,,0,0,"master",1
"lucavgobbi/mc326s22009",404,"User",,0,0,true,false,false,false,0,,4,0,"master",1
"ZhaoShuai0624/5_5",108,"User",,0,0,true,true,true,false,0,,0,0,"master",1
"guoyuqing/ffmpeg",800,"User",,0,0,true,true,true,false,0,,0,0,"master",1
"Wangwenxue/FutureMove-T-box",156044,"User",,0,0,true,true,true,false,0,,0,0,"master",1
