"kfiros/SSH-Alert",132,"User",,0,0,true,true,true,false,0,,0,0,"master",1
"apolcyn/ee329_assign3",176,"User",,0,0,true,true,true,false,0,,0,0,"master",1
"prodhe/knr2",144,"User",,0,0,true,true,true,false,0,,0,0,"master",1
"ThinkManhattan/Hello-world1",136,"User",,0,0,true,true,true,false,0,,0,0,"master",1
"alu0100601398/LPP_10",128,"User",,0,0,true,true,true,false,0,,0,0,"master",1
"itch96/cseDS",136,"User",,0,0,true,true,true,false,0,,0,0,"master",1
"rafaellopesdesa/DYMVA_WWxsec_2015",1260,"User",,0,0,true,true,true,false,0,,0,0,"master",1
"MinimalOS-AOSP/platform_device_qcom_common",264,"Organization",,0,0,true,true,true,false,0,,0,0,"mm-6.0",1
"gudeno/polar-cnc",136,"User",,0,0,true,true,true,false,0,,0,0,"master",1
"zhgeaits/ChaosC",264,"User",,0,0,true,true,true,false,0,,0,0,"master",1
"shimare/AnybusDemo",200,"User",,0,0,true,true,true,false,0,,0,0,"master",1
"AnaMartinez4512/ActividadesC",128,"User",,0,0,true,true,true,false,0,,0,0,"master",1
"albechew/hello-world",152,"User",,0,0,true,true,true,false,0,,0,0,"master",1
"IvanoAlvino/ADT_list",136,"User",,0,0,true,true,true,false,0,,0,0,"master",1
"MRdotB/c-exercises",152,"User",,0,0,true,true,true,false,0,,0,0,"master",1
"alu0100789355/LPP_18",132,"User",,0,0,true,true,true,false,0,,0,0,"master",1
"akehatatoshiki/takao",140,"User",,0,0,true,true,true,false,0,,0,0,"master",1
"mguindin/vim-led-capslock",116,"User",,0,0,true,true,true,false,0,,0,0,"master",1
"mzbotreprap/VORON",4704,"User",,0,0,true,true,true,false,0,,0,0,"master",1
"anilchowdary2050/Basics",136,"User",,0,0,true,true,true,false,0,,0,0,"master",1
"Akagi201/ffmpeg-helloworld",136,"User",,0,0,true,true,true,false,0,,0,0,"master",1
"lbs116300/test",104,"User",,0,0,true,true,true,false,0,,0,0,"master",1
"ssfk7416/asdf",120,"User",,0,0,true,true,true,false,0,,0,0,"master",1
"JosueTC94/LPP_21",128,"User",,0,0,true,true,true,false,0,,0,0,"master",1
"CobusHoffmann/METR2800_V3",176,"User",,0,0,true,true,true,false,0,,0,0,"master",1
"bpotatog/stm32f429_stepMotor",2208,"User",,0,0,true,true,true,false,0,,0,0,"master",1
"alu0100830064/Grupo_15_LPP",128,"User",,0,0,true,true,true,false,0,,0,0,"master",1
"willnova/USBReadFlash",480,"User",,0,0,true,true,true,false,0,,0,0,"master",1
"android-x86-mirror/kernel_common",1095476,"Organization",,0,0,true,true,true,false,0,,0,0,"master",1
"National-Control-Devices/NCD4RelayIFTTT",81348,"Organization",,0,0,true,true,true,false,0,,0,0,"latest",1
"JiYangE/LibraryManagement",140,"User",,0,0,true,true,true,false,0,,0,0,"master",1
"jonneytest/sma-bluetooth",232,"User",,0,0,true,false,false,false,0,,111,0,"master",1
"pengshuai2010/mergesort",160,"User",,0,0,true,true,true,false,0,,0,0,"master",1
"Tribal-Peepers/Test",104,"User",,0,0,true,true,true,false,0,,0,0,"master",1
"pletzer/pytriangle",264,"User",,0,0,true,true,true,false,0,,0,0,"master",1
"degoossez/MyOCRTEST",40060,"User",,0,0,true,true,true,false,0,,0,0,"master",1
"tectronics/colditzescape",5312,"User",,0,0,true,false,false,false,0,,3,0,"master",1
"tectronics/pure-lang",20928,"User",,0,0,true,false,false,false,0,,0,0,"master",1
"shiyingzheng/CS342_hw3",124,"User",,0,0,true,true,true,false,0,,0,0,"master",1
"rbaghdadi/non-linear-FM",176,"User",,0,0,true,true,true,false,0,,0,0,"master",1
"gcpmendez/LPP_03",128,"User","",0,0,true,true,true,false,0,,0,0,"master",1
"Drakirus/SPI_INFO_L2",155,"User",,0,0,true,true,true,false,1,,0,1,"master",1
"haoranzeus/algorithms_realize",128,"User",,0,0,true,true,true,false,0,,0,0,"master",1
"Rexikon/droidsheep",3308,"User",,0,0,true,false,false,false,0,,11,0,"master",1
"AdrianeRodrigues/atividade-ordenacao-c",132,"User",,0,0,true,true,true,false,0,,0,0,"master",1
"dtkav/input-wacom",511,"User",,0,0,false,true,true,false,0,,0,0,"master",1
"h34tn/luainterface",1152,"User",,0,0,true,false,false,false,0,,47,0,"master",1
"cherrystream/t1lib",1940,"User",,0,0,true,true,true,false,0,,0,0,"master",1
"qacpiweb/saberproject",824,"User",,0,0,true,true,true,false,0,,0,0,"master",1
"KevinWangJian/EEPROM_M95106",936,"User",,0,0,true,true,true,false,0,,0,0,"master",1
"openedbox/word2vec",268,"User",,0,0,true,false,false,false,0,,35,0,"master",1
"3nj0y/skipfish",520,"User",,0,0,true,false,false,false,0,,39,0,"master",1
"ecgrobotics/FTC-5795",136,"User",,0,0,true,true,true,false,0,,0,0,"master",1
"JuneXia/protobuf-c",676,"User",,0,0,true,false,false,false,0,,43,0,"master",1
"t-k-/cowpie-lab",108,"User","",0,0,true,true,true,false,0,,0,0,"master",1
"apolcyn/trees",124,"User",,0,0,true,true,true,false,0,,0,0,"master",1
"Hoangngo-dev/OS",204,"User",,0,0,true,true,true,false,0,,0,0,"master",1
"cerevo/BlueNinja_ble_ticker",1774,"Organization",,0,0,true,true,true,false,0,,0,0,"master",1
"YuZhang1989/Operating-System-Assignments",256,"User","",0,0,true,true,true,false,0,,0,0,"master",1
"Wazzymandias/Wish",552,"User",,0,0,true,true,true,false,0,,0,0,"master",1
"w-maeda/bigdata",148,"User",,0,0,true,true,true,false,0,,0,0,"master",1
"dudalev/word2vec",268,"User",,0,0,true,false,false,false,0,,35,0,"master",1
"dreal-deps/gsl-1.16",3512,"Organization","http://www.gnu.org/software/gsl/",0,0,true,true,true,false,0,,0,0,"master",1
"Abhinav1997/android_device_lge_geehrc",29529,"User",,0,0,true,true,true,false,4,,0,4,"master",1
"xingbupt/word2vec",232,"User",,0,0,true,false,false,false,0,,35,0,"master",1
"RageFlo/QuadSTM32",624,"User",,0,0,true,true,true,false,0,,0,0,"master",1
"wallymathieu/Thompson_Regex",220,"User","",0,0,true,true,true,false,0,,0,0,"master",1
"bechea/tp_c",1016,"User",,0,0,true,true,true,false,0,,0,0,"master",1
"SkySpecial/OpenMP-studying",176,"User",,0,0,true,true,true,false,0,,0,0,"master",1
"190235047/mydbproxy",23080,"User",,0,0,true,true,true,false,0,,0,0,"master",1
"catatsuy/isucon5q",45296,"User",,0,0,true,true,true,false,0,,0,0,"master",1
"pjd10/sysnet-p3-lizards",144,"User",,0,0,true,true,true,false,0,,0,0,"master",1
"danielxia/csapp",452,"User",,0,0,true,true,true,false,0,,0,0,"master",1
"giacomov/pyggop",304,"User",,0,0,true,true,true,false,0,,0,0,"master",1
"bryantjs6/c",156,"User",,0,0,true,true,true,false,0,,0,0,"master",1
"phytomine/PixelGridDigital",452,"User",,0,0,true,true,true,false,0,,0,0,"master",1
"akensho/life_game",152,"User",,0,0,true,true,true,false,0,,1,0,"master",1
"alexanderzero/BulletHell2",24984,"User",,0,0,true,true,true,false,0,,0,0,"master",1
"EvolBioInf/hotspot",387,"Organization",,0,0,true,true,true,false,0,,0,0,"master",1
"UWMRO/ScienceCamera",15728,"Organization",,0,0,true,true,true,false,0,,0,0,"master",1
"aqui/opsys",337,"User",,0,0,true,true,true,false,0,,0,0,"master",1
"srikanth-dabbiru/chips",2152,"User",,0,0,true,true,true,false,0,,0,0,"master",1
"nczulaybar/BattOr",512,"User",,0,0,true,true,true,false,0,,0,0,"master",1
"karanmc/lab-2",193,"User",,0,0,true,true,true,false,2,,3,2,"master",1
"Twinkle0613/Blinky",436,"User",,0,0,true,true,true,false,0,,0,0,"master",1
"yenng/test1",556,"User",,0,0,true,true,true,false,0,,0,0,"master",1
"timsavage/fg100alt-firmware",372,"User",,0,0,true,true,true,false,0,,0,0,"master",1
"szwally/UM-Dearborn-Mars-Rover-Challenge",644,"User","",0,0,true,true,true,false,0,,1,0,"master",1
"andyroiiid/cppclass",0,"User",,0,0,true,true,true,false,0,,0,0,"master",1
"Tedderic/MAPP",168,"User",,0,0,true,true,true,false,1,,2,1,"master",1
"bekeband/Process18",160,"User",,0,0,true,true,true,false,0,,0,0,"master",1
"shreyasgune/SensorTagFirmware",268,"User",,0,0,true,true,true,false,1,,0,1,"master",1
"eemei/Blinky",408,"User",,0,0,true,true,true,false,0,,0,0,"master",1
"jbrower95/chashtable",124,"User",,0,0,true,true,true,false,0,,0,0,"master",1
"Heikki00/DareEngine2",700,"User",,0,0,true,true,true,false,0,,0,0,"master",1
"jiaqimu2/lexemeWSD",32596,"User",,0,0,true,true,true,false,0,,0,0,"master",1
"ygalanter/Clean_and_Smart",308,"User",,0,0,true,true,true,false,0,,0,0,"master",1
"xlongfeng/watertower",196,"User",,0,0,true,true,true,false,0,,0,0,"master",1
"vag1830/MultiprocSimulationLabs",3932,"User",,0,0,true,true,true,false,0,,0,0,"master",1
"nworkers/smsplus",464,"User",,0,0,true,true,true,false,0,,0,0,"master",1
