"jason11ac/Data-Lab",120,"User",,0,0,true,true,true,false,0,,0,0,"master",1
"Wolfgange3311999/Aura-Launcher",2044,"User","http://Wolfgange3311999.github.io/Aura-Launcher",0,0,true,true,true,true,0,,3,0,"master",1
"wbangbang/Leetcode",0,"User",,0,0,true,true,true,false,0,,0,0,"master",1
"snk11/ls",144,"User",,0,0,true,true,true,false,0,,0,0,"master",1
"nonewbie/binarysearchtree",144,"User",,0,0,true,true,true,false,0,,0,0,"master",1
"untra/textures",8696,"User",,0,0,true,true,true,false,0,,0,0,"master",1
"TheAomx/irc-parser",192,"User","",0,0,true,true,true,false,0,,0,0,"master",1
"DWethmar/monster",128,"User",,0,0,true,true,true,false,0,,0,0,"master",1
"gotoco/low_level_stuff",148,"User",,0,0,true,true,true,false,1,,0,1,"master",1
"Gnamba/Campanaro",436,"User",,0,0,true,true,true,false,0,,0,0,"master",1
"Parrot-Developers/lua",396,"Organization",,0,0,true,true,true,false,0,,0,0,"master",1
"CryptoVoter-Client/btc-ubuntu32compiledeps",27104,"Organization",,0,0,true,true,true,false,0,,0,0,"master",1
"zrw/code",168,"User",,0,0,true,true,true,false,0,,0,0,"master",1
"coolmile23/cs50",912,"User",,0,0,true,true,true,false,0,,0,0,"master",1
"suhasjains/simPar",144,"User","",0,0,true,true,true,false,0,,0,0,"master",1
"BitMerc/TC7.1a_two",1840,"User",,0,0,true,true,true,false,0,,0,0,"master",1
"CloudAtlas13/P2",1502,"User",,0,0,true,true,true,false,1,,1,1,"master",1
"bhagwat070919/bicubic-interpolation-image-processing",1944,"User",,0,0,true,false,false,false,0,,0,0,"master",1
"vipersnh/pyjaswd",140,"User",,0,0,true,true,true,false,0,,0,0,"master",1
"Onyxus999/mario",140,"User",,0,0,true,true,true,false,0,,0,0,"master",1
"yuan51/CS240",14096,"User",,0,0,true,true,true,false,0,,0,0,"master",1
"streiten/sfpc-rtp-whitney",78912,"User","",0,0,true,true,true,false,0,,0,0,"master",1
"bohric/obtuse-spork",108,"User",,0,0,true,true,true,false,0,,0,0,"master",1
"snel13/CS-261",140,"User",,0,0,true,true,true,false,0,,0,0,"master",1
"ivanmilevtues/Kravitemisamnogopodobriotkraviteti",108,"User",,0,0,true,true,true,false,0,,0,0,"master",1
"wltrtn/Tiny-Shell",124,"User",,0,0,true,true,true,false,0,,0,0,"master",1
"BboyEkinox/FilRouge",112,"User",,0,0,true,true,true,false,0,,0,0,"master",1
"StephAO/Connect6",144,"User",,0,0,true,true,true,false,0,,0,0,"master",1
"marouane-tradelab/pdsh",2496,"User",,0,0,true,false,false,false,0,,26,0,"master",1
"BlueeTheReed/NMV",916,"User",,0,0,true,true,true,false,0,,0,0,"master",1
"solb/cpuid",108,"User","",0,0,true,true,true,false,0,,0,0,"master",1
"nguyenphanhuynh/iphonerfk",416,"User",,0,0,true,false,false,false,0,,0,0,"master",1
"VincentS/valgrind",32348,"User",,0,0,true,true,true,false,0,,0,0,"master",1
"21CamBam/Simple-Client-Server-Comm",144,"User",,0,0,true,true,true,false,0,,0,0,"master",1
"zackw/html5-chardet",176,"User",,0,0,true,true,true,false,0,,0,0,"master",1
"w3nd1go/android_external_busybox",23498,"User",,0,0,true,true,true,false,1,,0,1,"m-caf",1
"septemtrio-ager/calc-center-of-gravity",220,"User","",0,0,true,true,true,false,0,,0,0,"master",1
"LuckyGeck/libtask",136,"User",,0,0,true,false,false,false,0,,1,0,"master",1
"karunakarg/word2vec",272,"User",,0,0,true,false,false,false,0,,35,0,"master",1
"victronenergy/crypt_blowfish",156,"Organization",,0,0,true,true,true,false,0,,0,0,"master",1
"CalvinChhour/Binary-Bomb",136,"User","",0,0,true,true,true,false,0,,0,0,"master",1
"Shootervm/IJC-project2",148,"User",,0,0,true,true,true,false,0,,0,0,"master",1
"Rekoz/CS35L",13516,"User","",0,0,true,true,true,false,0,,0,0,"master",1
"faschr08/os-lab2",468,"User",,0,0,true,true,true,false,0,,0,0,"master",1
"faschr08/os-lab2-2",468,"User",,0,0,true,true,true,false,0,,0,0,"master",1
"Mitsos101/winocr",724,"User",,0,0,true,true,true,false,0,,0,0,"master",1
"shukailin/Mytest",124,"User",,0,0,true,true,true,false,0,,0,0,"master",1
"maxrbc/geekos",384,"User",,0,0,true,false,false,false,0,,0,0,"master",1
"kituprajapati/kitu_test",108,"User",,0,0,true,true,true,false,0,,0,0,"master",1
"haozpu/C-exercises",120,"User",,0,0,true,true,true,false,0,,0,0,"master",1
"460189852/Gateway-Project",136,"User",,0,0,true,true,true,false,0,,0,0,"master",1
"erdincay/pjsip-project",25504,"User",,0,0,true,true,true,false,0,,0,0,"master",1
"kenziD/Other-People-Program",2344,"User",,0,0,true,true,true,false,0,,0,0,"master",1
"C-Seebacher/colibri-laserscanning",38928,"User","",0,0,true,false,true,false,0,,1,0,"master",1
"shakalaca/ASUS_PadFone_PF500KL",128320,"User",,0,0,true,true,true,false,0,,0,0,"android-5.0",1
"nassarhuda/WaterSimulator",29332,"User",,0,0,true,true,true,false,0,,0,0,"master",1
"itahoe/avago_test",212,"User",,0,0,true,true,true,false,0,,0,0,"master",1
"vortexxx192/System-programming-labs",152,"User",,0,0,true,true,true,false,0,,0,0,"master",1
"thaaddd/projects",156,"User",,0,0,true,true,true,false,0,,0,0,"master",1
"GusMonod/index-tmp",156,"User",,0,0,true,true,true,false,0,,0,0,"master",1
"smallerbug/smallDemo",128,"User",,0,0,true,true,true,false,0,,0,0,"master",1
"panoti/word2vec",272,"User",,0,0,true,false,false,false,0,,35,0,"master",1
"collision9/torque",116,"User",,0,0,true,true,true,false,0,,0,0,"master",1
"spetex/OSS-Course-1-CS50",952,"User","",0,0,true,true,true,false,0,,0,0,"master",1
"endfighting/-",124,"User",,0,0,true,true,true,false,0,,0,0,"master",1
"hamayun/KVMAnnotationManager",112,"User",,0,0,true,true,true,false,0,,0,0,"master",1
"jhcepas/crender",88,"User",,0,0,true,true,true,false,1,,0,1,"master",1
"sebbekarlsson/Simple-C-File-Parser",124,"User",,0,0,true,true,true,false,0,,0,0,"master",1
"zbh-gitbub/phy_pos_wlan",4436,"User",,0,0,true,true,true,false,0,,0,0,"master",1
"dolpang2/Basic-TCP-Server-Client",140,"User",,0,0,true,true,true,false,0,,0,0,"master",1
"CSL-KU/IsolBench",304,"Organization",,0,0,true,true,true,false,0,,0,0,"master",1
"WebF0x/APP4",168,"User",,0,0,true,true,true,false,0,,0,0,"master",1
"EddiG/ledjs",2720,"User",,0,0,true,true,true,false,0,,0,0,"master",1
"Slazzyer/littleThings",156,"User","",0,0,true,true,true,false,0,,0,0,"master",1
"ayankr1/CProg",156,"User","",0,0,true,true,true,false,0,,0,0,"master",1
"double1217/data-structure",160,"User",,0,0,true,true,true,false,0,,0,0,"master",1
"nachochiappe/7541-abb",168,"User",,0,0,true,true,true,false,0,,0,0,"master",1
"githubcai/hdu",136,"User",,0,0,true,true,true,false,0,,0,0,"master",1
"rench1988/ngx_http_upstream_consistent_plus_module",116,"User",,0,0,true,true,true,false,0,,0,0,"master",1
"vuthanhdat1993/Mytest",108,"User",,0,0,true,true,true,false,0,,0,0,"master",1
"fetchhell/topaz_example",49224,"User",,0,0,true,true,true,false,0,,0,0,"master",1
"liuning587/arducam-osd",9172,"User",,0,0,true,false,false,false,0,,39,0,"master",1
"Deneesh/deneesh",108,"User",,0,0,true,true,true,false,0,,0,0,"master",1
"yhern006/BlockDude",272,"User",,0,0,true,true,true,false,0,,0,0,"master",1
"HyperManTT/dateIncrementer",136,"User",,0,0,true,true,true,false,0,,0,0,"master",1
"nbshelton/mysql_cracker",152,"User",,0,0,true,true,true,false,0,,0,0,"master",1
"zkan51/NETMARK_W100",188,"User",,0,0,true,true,true,false,1,,0,1,"master",1
"HyperManTT/0-1-Knapsack-Problem",140,"User",,0,0,true,true,true,false,0,,0,0,"master",1
"nmindz/bankme",120,"User",,0,0,true,true,true,false,0,,0,0,"master",1
"MallowDev/external_libpng",4108,"Organization",,0,0,true,true,true,false,0,,0,0,"master",1
"flying-dutchmen/NDS-nanox-keyboard",116,"Organization",,0,0,true,true,true,false,0,,0,0,"master",1
"swhaigh/r-kleene",8668,"User",,0,0,true,true,true,false,0,,0,0,"master",1
"amandasabroad/skipfish",524,"User",,0,0,true,false,false,false,0,,39,0,"master",1
"gspeedtech/Audacity-2",44756,"User",,0,0,true,true,true,false,0,,0,0,"master",1
"bvicinus/BandwidthPouringAlgorithm",696,"User","",0,0,true,true,true,false,0,,0,0,"master",1
"SovietColossus/Panini-Invaders-in-C",1456,"User",,0,0,true,true,true,false,0,,0,0,"master",1
"sedihglow/get_num",108,"User",,0,0,true,true,true,false,0,,0,0,"master",1
"sedihglow/euler_project",136,"User",,0,0,true,true,true,false,0,,0,0,"master",1
"mruth1022/ucsb-projects",124,"User",,0,0,true,true,true,false,0,,0,0,"master",1
"lukenels/GPU-Toys",128,"User",,0,0,true,true,true,false,0,,0,0,"master",1
