"caseyparker/alsa-lib",3080,"User",,0,0,true,true,true,false,0,,0,0,"master",1
"AlexJakeGreen/cweb",140,"User",,0,0,true,true,true,false,0,,0,0,"master",1
"irushavm/IoTEmulationProcesses",148,"User",,0,0,true,true,true,false,0,,0,0,"master",1
"Northewind/postm",148,"User",,0,0,true,true,true,false,0,,0,0,"master",1
"zsoltm/linux-sunxi-exp",799284,"User",,0,0,true,true,true,false,0,,0,0,"v3.4.39-sunxi",1
"MichaelMcBreen/Cpts455Client",14184,"User",,0,0,true,true,true,false,0,,0,0,"master",1
"HenriqueLimas/semaforo-dijkstra",136,"User","",0,0,true,true,true,false,0,,0,0,"master",1
"pjgraber03/Shamu_kernel",907176,"User",,0,0,true,true,true,false,0,,0,0,"master",1
"kirillsmirnov1/lab2",140,"User",,0,0,true,true,true,false,0,,0,0,"master",1
"pati-ni/zookeeper-learning",132,"User",,0,0,true,true,true,false,0,,0,0,"master",1
"grouper-nvidia/android_device_asus_grouper",1473,"Organization",,0,0,true,true,true,false,1,,0,1,"nv-3.4",1
"imdark/word2vec",272,"User",,0,0,true,false,false,false,0,,35,0,"master",1
"longduzboub/asetp3",128,"User",,0,0,true,true,true,false,0,,0,0,"master",1
"ryanfantus/opendoors",600,"User",,0,0,true,true,true,false,0,,0,0,"master",1
"hansongcal/CS61C",10247,"User",,0,0,true,true,true,false,1,,0,1,"master",1
"huangbohui/tengine-210",1972,"User",,0,0,true,true,true,true,0,,0,0,"master",1
"linuxsky/ipt-account",168,"User",,0,0,true,false,false,false,0,,1,0,"master",1
"racer123/android_kernel_samsung_a3ulte",136016,"User",,0,0,true,true,true,false,0,,0,0,"master",1
"Jose90/jnlua-android",392,"User",,0,0,true,false,false,false,0,,1,0,"master",1
"dgrisham/web-server",144,"User",,0,0,true,true,true,false,0,,0,0,"master",1
"lixiantai/backfire",77084,"User",,0,0,true,true,true,false,0,,0,0,"master",1
"evargas56/droidsheep",3312,"User",,0,0,true,false,false,false,0,,11,0,"master",1
"qserqses/testrep",144,"User",,0,0,true,true,true,false,0,,0,0,"master",1
"pstglia/platform-external-bluetooth-bluez",23716,"User",,0,0,true,true,true,false,0,,0,0,"lollipop-x86_fork",1
"NickEngmann/DJ-Setup",2088,"User",,0,0,true,true,true,false,0,,0,0,"master",1
"chden/pong",140,"User",,0,0,true,true,true,false,0,,0,0,"master",1
"SlimRoms/android_external_bson",264,"Organization",,0,0,true,true,true,false,0,,0,0,"lp5.1",1
"skrawn/tddec-code",1000,"User",,0,0,true,true,true,false,0,,0,0,"master",1
"caseyparker/cinnamon-screensaver",616,"User",,0,0,true,true,true,false,0,,0,0,"master",1
"smipi1/bbb_kernel",1077328,"User",,0,0,true,true,true,false,0,,0,0,"HEAD",1
"cmotc/schs738c-bionic",1612,"User",,0,0,true,true,true,false,0,,0,0,"master",1
"gadrenayan/Task8",124,"User",,0,0,true,true,true,false,0,,0,0,"master",1
"eanson07/varianceInSpheres",168,"User",,0,0,true,true,true,false,0,,0,0,"master",1
"miguelangelo78/ShiftPWM-for-PIC",148,"User",,0,0,true,true,true,false,0,,0,0,"master",1
"nypdmax/NUMA",17992,"User",,0,0,true,true,true,false,0,,1,0,"master",1
"brunocampiol/Berry2HomeC",232,"User",,0,0,true,true,true,false,0,,0,0,"master",1
"tuttlem/freak",196,"User",,0,0,true,true,true,false,0,,0,0,"master",1
"1451762067/cmatrix",192,"User",,0,0,true,true,true,false,0,,0,0,"master",1
"mnemonyc/platform_hardware_broadcom_libbt",372,"User",,0,0,true,true,true,false,0,,0,0,"hazy-mallow",1
"mnemonyc/platform_hardware_broadcom_wlan",39820,"User",,0,0,true,true,true,false,0,,0,0,"hazy-mallow",1
"bassjansson/BassLive",5516,"User",,0,0,true,true,true,false,0,,0,0,"master",1
"jeremysiebers/Siebwalde-Source",8376,"User","http://www.siebers.org/Siebwalde%202014/index.html",0,0,true,false,false,false,0,,0,0,"master",1
"satheeskr/thiran_rpi",212,"User",,0,0,true,true,true,false,0,,0,0,"master",1
"igorbeilner/Roteador-UDP",288,"User",,0,0,true,true,true,false,0,,0,0,"master",1
"amybruderer/CS50",3052,"User",,0,0,true,true,true,false,0,,0,0,"master",1
"tangxinfa/crash-reportor",148,"User",,0,0,true,true,true,false,0,,0,0,"master",1
"fbli41/android_device_samsung_cs02",10900,"User",,0,0,true,true,true,false,0,,0,0,"cm-11.0",1
"ThatThings/ThatDataStructure",136,"Organization",,0,0,true,true,true,false,0,,0,0,"master",1
"sanghoon61/embeded",3296,"User",,0,0,true,true,true,false,0,,0,0,"master",1
"harunrashidanver/Automatic-Code-Punctuator",144,"User",,0,0,true,true,true,false,0,,0,0,"master",1
"JanuszProgramowania/Embedded-systems",904,"User",,0,0,true,true,true,false,0,,0,0,"master",1
"hellhoundmipt/3rd_semester",196,"User",,0,0,true,true,true,false,0,,0,0,"master",1
"makotolusi/SWiOS",11768,"User",,0,0,true,true,true,false,0,,0,0,"master",1
"errbufferoverfl/university",132,"User","",0,0,true,true,true,false,0,,0,0,"master",1
"JayStuy/SystemsClassNotes",152,"User",,0,0,true,true,true,false,0,,0,0,"master",1
"touyu/isprogex",240,"User","",0,0,true,true,true,false,0,,0,0,"master",1
"hongwozai/utils",192,"User",,0,0,true,true,true,false,0,,0,0,"master",1
"MarcusAndren/asdf70ansi",132,"User",,0,0,true,true,true,false,0,,0,0,"master",1
"theconsummate/gst-plugin",476,"User",,0,0,true,true,true,false,0,,0,0,"master",1
"AntThuiqi/iOS_Pro",252,"User",,0,0,true,true,true,false,0,,0,0,"master",1
"huangbohui/tengine-152",1708,"User",,0,0,true,true,true,true,0,,0,0,"master",1
"fullmute/project-euler",136,"User",,0,0,true,true,true,false,0,,0,0,"master",1
"irmana/libmfcc",336,"User",,0,0,true,false,false,false,0,,0,0,"master",1
"TheProjecter/rerace",68860,"User",,0,0,true,false,false,false,0,,0,0,"master",1
"grateDvyde/xv6_p2",196,"User",,0,0,true,true,true,false,0,,0,0,"master",1
"ajessup/discoweasel",620,"User",,0,0,true,true,true,false,0,,0,0,"master",1
"ag4ml/bookSnap",44028,"User","",0,0,true,true,true,false,0,,0,0,"master",1
"freliver/teste",124,"User",,0,0,true,true,true,false,0,,0,0,"master",1
"Theheck1/minDFA",116,"User",,0,0,true,true,true,false,0,,0,0,"master",1
"codershashank/Mario",228,"User",,0,0,true,true,true,false,0,,0,0,"master",1
"abhishekdutta/abhi_list",144,"User","",0,0,true,true,true,false,0,,0,0,"master",1
"pstglia/platform-external-bluetooth-glib",39428,"User",,0,0,true,true,true,false,0,,0,0,"lollipop-x86_fork",1
"pstglia/platform-external-bluetooth-sbc",316,"User",,0,0,true,true,true,false,0,,0,0,"lollipop-x86_fork",1
"Euphoria-OS/android_external_busybox",26388,"Organization",,0,0,true,true,true,false,0,,0,0,"marshmallow-6.0",1
"kfechter/OSS-IntroToCS",104,"User",,0,0,true,true,true,false,2,,0,2,"master",1
"xavierpinho/Turner",140,"User",,0,0,true,true,true,false,0,,0,0,"master",1
"CptKirklnd/hella-rad-shell",132,"User",,0,0,true,true,true,false,0,,0,0,"master",1
"DIRECTIONNZ/CS3013-Proj4",108,"User",,0,0,true,true,true,false,0,,0,0,"master",1
"brosnanyuen/vusbtiny",284,"User",,0,0,true,true,true,false,0,,0,0,"master",1
"atslughorn/charliePrank",196,"User",,0,0,true,true,true,false,0,,0,0,"master",1
"rickchung1082/blink-nohal-stm32f429disco",2416,"User",,0,0,true,true,true,false,0,,0,0,"master",1
"kachkov98/brainfuck-quine",924,"User",,0,0,true,true,true,false,0,,0,0,"master",1
"wcf873455992/YTJ",11172,"User",,0,0,true,true,true,false,0,,0,0,"master",1
"josephholsten/what-happens-when-hello-world",104,"User",,0,0,true,true,true,false,0,,0,0,"master",1
"Chinikaptain/leargit",128,"User",,0,0,true,true,true,false,0,,0,0,"master",1
"philkuz/MusicGenerator",1744,"User",,0,0,true,true,true,false,2,,0,2,"master",1
"14bmkelley/tab_converter",128,"User",,0,0,true,true,true,false,0,,0,0,"master",1
"udoyen/Mytest",108,"User",,0,0,true,true,true,false,0,,0,0,"master",1
"Matthew-333/ARTER",634260,"User",,0,0,true,true,true,false,0,,0,0,"adreno_idler",1
"gaochengcheng/Pointer-on-c",164,"User",,0,0,true,true,true,false,0,,0,0,"master",1
"RealNagus/rotaryencoder",160,"User","",0,0,true,true,true,false,0,,0,0,"master",1
"lixiantai/attitude_adjustment",12188,"User",,0,0,true,true,true,false,0,,0,0,"master",1
"lilingyu/list_merge_sort",148,"User",,0,0,true,true,true,false,0,,0,0,"master",1
"samiezkay/Deep-Learning-Algorithm-and-Spark",6608,"User","",0,0,true,true,true,false,1,,0,1,"master",1
"ThomHPL/FSi6_updater",160,"User",,0,0,true,true,true,false,0,,0,0,"master",1
"ilyaseeyousoon/stm32f100_display_hal",3984,"User","",0,0,true,true,true,false,0,,0,0,"master",1
"SDRLurker/WACOP",15908,"User","",0,0,true,true,true,false,0,,0,0,"master",1
"luaman/g3d-cvs",105820,"User",,0,0,true,true,true,false,0,,0,0,"master",1
"swhaigh/family_vacation_problem",108,"User",,0,0,true,true,true,false,0,,0,0,"master",1
"sakah/pvalue",152,"User",,0,0,true,true,true,false,0,,0,0,"master",1
