"marssaxman/startc",142,"User",,245,245,true,true,true,false,7,,1,7,"master",1
"Netgate/netmap-fwd",1464,"Organization",,46,46,true,true,true,false,5,,0,5,"master",1
"OrkoHunter/nxcpy",299,"User","",7,7,true,true,true,false,2,,4,2,"master",1
"isra17/shelltrace",192,"User",,4,4,true,true,true,false,0,,0,0,"master",1
"Fittings/BulletHell3DS",4256,"User",,3,3,true,true,true,false,0,,0,0,"master",1
"sallaigy/sallang",176,"User",,3,3,true,true,true,false,0,,0,0,"master",1
"Ginkgo23/PiFmRPi2",3568,"User",,3,3,true,true,true,false,0,,0,0,"master",1
"Molizane/ILI9340_Uno",4340,"User","",2,2,true,true,true,false,0,,0,0,"master",1
"drzunny/hydrus",2685,"User","",2,2,true,true,true,false,1,,0,1,"master",1
"raulsenaferreira/Computer-Science-UFRRJ",20840,"User",,2,2,true,true,true,false,0,,0,0,"master",1
"xpacks/stm32f4-hal",1420,"Organization","",2,2,true,true,false,false,0,,0,0,"master",1
"mymatuda/gama_tts_mswindows",1552,"User",,1,1,false,true,false,false,0,,0,0,"master",1
"lns/libgbm",504,"User",,1,1,true,true,true,false,0,,0,0,"master",1
"DSMKexec/arm-eabi-4.6",133420,"Organization",,1,1,true,true,true,false,0,,0,0,"master",1
"binwang0105/os_hmwk3",131940,"User",,1,1,true,true,true,false,0,,0,0,"master",1
"xtrium-lnx/gbadev",116,"User",,1,1,true,true,true,false,0,,0,0,"master",1
"pranavcode/ttf2eot",320,"User","",1,1,true,false,false,false,0,,25,0,"master",1
"FSMaxB/mcJSON",656,"User",,1,1,true,true,true,false,0,,0,0,"master",1
"MersenneInteger/Reminder",200,"User","",1,1,true,true,true,false,0,,0,0,"master",1
"gkostka/stm32f429disco-lwext4",988,"User",,1,1,true,true,true,false,0,,0,0,"master",1
"sleepandeat/80S51",216,"User",,1,1,true,true,true,false,0,,0,0,"master",1
"copperhead/android_system_extras_su",4016,"Organization",,1,1,false,true,false,false,0,,0,0,"cm-12.1",1
"sjs205/uMQTT",196,"User",,1,1,true,true,true,false,0,,1,0,"master",1
"DrewBarrett/devcallegro",48828,"User",,1,1,true,true,true,false,0,,0,0,"master",1
"AOSParadox/android_hardware_qcom_camera",5880,"Organization",,1,1,true,true,true,false,0,,0,0,"LA.BF.1.1.1.c5",1
"AndroidFire/android_device_xiaomi_hmnote1w",5960,"User",,1,1,true,true,true,false,0,,0,0,"master",1
"0intro/plan9-mips",524,"User",,1,1,true,true,true,false,0,,0,0,"master",1
"JohSchneider/ppk_usb_lufa",1304,"User",,1,1,true,true,true,false,0,,0,0,"master",1
"binwang0105/os_hmwk2",129232,"User",,1,1,true,true,true,false,0,,0,0,"master",1
"weimingtom/luainterface",1100,"User",,1,1,true,false,false,false,0,,47,0,"master",1
"weimingtom/ffmpeg-msvc",10208,"User",,1,1,true,false,false,false,0,,0,0,"master",1
"Embedded-Software/Embedded-Sistems-Abr",6588,"Organization",,1,1,true,true,true,false,2,,0,2,"master",1
"omeripek/krnl-exp",120,"User",,1,1,true,true,true,false,0,,0,0,"master",1
"jazzboysc/SwingEngine2",153792,"User",,1,1,true,true,true,false,0,,0,0,"master",1
"LiraNuna/dualSwan",584,"User",,1,1,true,true,true,false,0,,0,0,"master",1
"mmicu/mnist-neural-network",11816,"User",,1,1,true,true,true,false,0,,0,0,"master",1
"HARDLINUX/DNSSEC",9948,"Organization",,1,1,true,true,true,false,0,,0,0,"master",1
"mmartins000/memory-vulnerabilities",291,"User","",1,1,true,true,true,false,2,,0,2,"master",1
"MagicCrayon/Notes",188,"User",,1,1,true,true,true,false,0,,0,0,"master",1
"initialneil/PebbleFace-initTick",652,"User",,1,1,true,true,true,true,0,,0,0,"master",1
"weimingtom/avgscript",4132,"User",,1,1,true,false,false,false,0,,0,0,"master",1
"RobertoBochet/AVR-Libraries-C",156,"User",,1,1,true,true,true,false,0,,0,0,"master",1
"pedrolcl/android",752,"User","",1,1,true,true,true,false,1,,0,1,"master",1
"KatolaZ/mammult",649,"User",,1,1,true,true,true,false,1,,0,1,"master",1
"weimingtom/nesf",820,"User",,1,1,true,false,false,false,0,,1,0,"master",1
"Elv13/lua_async_binding",156,"User",,1,1,true,true,true,false,0,,0,0,"master",1
"velavokr/Tracer_Tutorials",144,"User",,1,1,true,true,true,false,0,,0,0,"master",1
"source-foundry/code-corpora",15384,"Organization","",1,1,true,true,true,false,0,,1,0,"master",1
"plushmonkey/MCClient",7548,"User",,1,1,true,true,true,false,0,,0,0,"master",1
"sharmrit/PoolGame_Animation",9076,"User",,0,0,true,true,true,false,0,,0,0,"master",1
"bosito7/freestyledash",30840,"User",,0,0,true,false,false,false,0,,1,0,"master",1
"OS2World/UTIL-DISK-Showfrag",156,"Organization",,0,0,true,true,true,false,0,,0,0,"master",1
"PAC-ROM/android_vendor_qcom_opensource_time-services",116,"Organization",,0,0,true,true,true,false,0,,0,0,"pac-6.0",1
"RnaodmBiT/os",128,"User",,0,0,true,true,true,false,0,,0,0,"master",1
"PAC-ROM/android_hardware_ti_wpan",2388,"Organization",,0,0,true,true,true,false,0,,0,0,"pac-6.0",1
"sgall17a/Arduino_old",4348,"User",,0,0,true,true,true,false,0,,0,0,"master",1
"fmenozzi/comp633-pa1b",196,"User",,0,0,true,true,true,false,0,,0,0,"master",1
"Jackeagle/kernel_stock_e53g",145272,"User",,0,0,true,true,true,false,0,,0,0,"stock",1
"77ganesh/sqlite3",1916,"User",,0,0,true,true,true,false,0,,0,0,"master",1
"jlugao/Project2-FiniteStateMachines",132,"User",,0,0,true,true,true,false,0,,0,0,"master",1
"plasticbug/C_DS",128,"User",,0,0,true,true,true,false,0,,0,0,"master",1
"mr-zeratul/hello-world",120,"User",,0,0,true,true,true,false,0,,0,0,"master",1
"hetra/cweb",120,"User",,0,0,true,true,true,false,0,,0,0,"master",1
"mymy49/lss",216,"User",,0,0,true,true,true,false,0,,0,0,"master",1
"jimmystocco/C",160,"User",,0,0,true,true,true,false,0,,0,0,"master",1
"binomaiheu/libbpm",3776,"User","",0,0,true,true,true,false,0,,0,0,"master",1
"boulzordev/android_vendor_qcom_opensource_softap",228,"Organization",,0,0,true,true,true,false,0,,0,0,"caf-6.0",1
"elraro/procfw",3708,"User",,0,0,true,false,false,false,0,,177,0,"master",1
"gnfigueroa/TP-integrador",107,"User",,0,0,true,true,true,false,1,,0,1,"master",1
"ReadBooks/UnixtNetworkProgramming",864,"Organization",,0,0,true,true,true,false,0,,0,0,"master",1
"lnaresh/git1",132,"User",,0,0,true,true,true,false,0,,0,0,"master",1
"aminRX/ergodox",152,"User",,0,0,true,true,true,false,0,,0,0,"master",1
"harrifeng/for-lwx",144,"User",,0,0,true,true,true,false,0,,0,0,"master",1
"nypgit/compact-proofs-of-retrievability",172,"User",,0,0,true,false,false,false,0,,0,0,"master",1
"danieldyo/CS-111-WeensyOS2",168,"User",,0,0,true,true,true,false,0,,0,0,"master",1
"danieldyo/CS-111-Lab--Ramdisk",152,"User",,0,0,true,true,true,false,0,,0,0,"master",1
"jhswartz/nullgroup",120,"User","",0,0,true,true,true,false,0,,0,0,"master",1
"bsmr-games/lipsofsuna",297720,"Organization",,0,0,true,true,true,false,0,,0,0,"master",1
"2015cnugithub/2151002028SunNa",144,"User",,0,0,true,true,true,false,0,,0,0,"master",1
"Vivek1010/HackerRank_Mysolution_algorithms",120,"User",,0,0,true,true,true,false,0,,0,0,"master",1
"buhman/prc",328,"User",,0,0,true,true,true,false,0,,0,0,"master",1
"AndreasOikonomakis/test",128,"User",,0,0,true,true,true,false,0,,0,0,"master",1
"secaor1516daw2/mitja",132,"User",,0,0,true,true,true,false,0,,0,0,"master",1
"cbolumar/android_kernel_samsung_a3ultexx",139684,"User",,0,0,true,true,true,false,0,,0,0,"CM-12.1",1
"ybw6485/KanBanServer",148,"User",,0,0,true,true,true,false,0,,0,0,"master",1
"maarga1516daw2/mitja",128,"User",,0,0,true,true,true,false,0,,0,0,"master",1
"Futrzasty/TINY13A_TeaTimer",144,"User",,0,0,true,true,true,false,0,,0,0,"master",1
"mkevac/cachetest",112,"User",,0,0,true,true,true,false,0,,0,0,"master",1
"tungpt154/TMess",23384,"User",,0,0,true,true,true,false,0,,0,0,"master",1
"UBERMALLOW/external_jpeg",1148,"Organization",,0,0,true,true,true,false,1,,0,1,"master",1
"namhoonlee/db_b-tree",2340,"User",,0,0,true,true,true,false,0,,0,0,"master",1
"aashidham/ngspice-cm",6160,"User",,0,0,true,true,true,false,0,,0,0,"master",1
"MaxPoly/Album-Cover-Generator",27356,"User",,0,0,true,true,true,false,0,,0,0,"master",1
"medvedmike/olimp_projects",132,"User",,0,0,true,true,true,false,0,,0,0,"master",1
"XianB/u-boot-yaffs2mpc837xerdb",13656,"User",,0,0,true,true,true,false,0,,0,0,"master",1
"bullno1/TouchJoy",604,"User",,0,0,true,true,true,false,0,,0,0,"master",1
"oddcoder/pintos",540,"User",,0,0,true,true,true,false,0,,0,0,"master",1
"civicpilot/Quadcopter",1924,"User",,0,0,true,true,true,false,0,,0,0,"master",1
"xxprime/MP1",1048,"User",,0,0,true,true,true,false,0,,2,0,"master",1
"sophiallen/CS50-server",298,"User",,0,0,true,true,true,false,1,,0,1,"master",1
