"anykno/firmware-mod-kit",10404,"User",,0,0,true,false,false,false,0,,41,0,"master",1
"DreamLyn/BootLoader",2648,"User",,0,0,true,true,true,false,0,,0,0,"master",1
"srtlg/cscope-win32",904,"User",,0,0,true,false,false,false,0,,4,0,"master",1
"ringsd/mp4sdk",41896,"User",,0,0,true,false,false,false,0,,17,0,"master",1
"akerenyi/ess",1556,"User",,0,0,true,true,true,false,0,,0,0,"master",1
"akhirsch/quotebot",37692,"User",,0,0,true,true,true,false,0,,0,0,"master",1
"harshadwaghmare/fromthestart",128,"User","https://harshad2k12.wordpress.com/2015/10/27/right-from-start/",0,0,true,true,true,false,0,,0,0,"master",1
"TobbHuang/OS-myshell",140,"User","",0,0,true,true,true,false,0,,0,0,"master",1
"zzqcn/dpdk_demo",176,"User",,0,0,true,true,true,false,0,,0,0,"master",1
"xy2012/bignumber",15376,"User",,0,0,true,true,true,false,0,,0,0,"master",1
"mdickison/SimpleApp",572,"User",,0,0,true,true,true,false,0,,0,0,"master",1
"Andrew-Klaas/gcc-cross-compiler",38568,"User",,0,0,true,true,true,false,0,,0,0,"master",1
"tkadom/twi",98,"User",,0,0,true,true,true,false,1,,0,1,"master",1
"diasssavio/bplus_tree",156,"User",,0,0,true,true,true,false,0,,0,0,"master",1
"arjona00/mpitutorial",4232,"User",,0,0,true,true,true,false,0,,0,0,"master",1
"avrdct/test",160,"User",,0,0,true,true,true,false,0,,0,0,"master",1
"sss22213/C-language-dome",184,"User",,0,0,true,true,true,false,0,,0,0,"master",1
"giatro/Grid-Color",416,"User",,0,0,true,true,true,true,0,,0,0,"master",1
"davemachado/Decimal-to-Binary",144,"User",,0,0,true,true,true,false,0,,0,0,"master",1
"derekolsson/Robot",132,"User",,0,0,true,true,true,false,0,,0,0,"master",1
"zhujunpengguizhou/zhujunpeng",132,"User",,0,0,true,true,true,false,0,,0,0,"master",1
"Mend-Amar/Encode-Decode",156,"User",,0,0,true,true,true,false,0,,0,0,"master",1
"MaxLeiter/CoreLibCDemo",20006,"User",,0,0,true,true,true,false,1,,0,1,"master",1
"bekher/SDB",172,"User",,0,0,true,true,true,false,0,,0,0,"master",1
"FilWisher/soap",152,"User",,0,0,true,true,true,false,0,,0,0,"master",1
"wctstc/EarthExplore",1748,"User",,0,0,true,true,true,false,0,,0,0,"master",1
"srakowski/Thailog",184,"User",,0,0,true,true,true,false,0,,0,0,"master",1
"438009/imc-.prog-",144,"User",,0,0,true,true,true,false,0,,0,0,"master",1
"itgb/opwrt_ap",9776,"User",,0,0,true,true,true,false,0,,0,0,"master",1
"lucas95123/ZPC_MIPS",13832,"User",,0,0,true,true,true,false,0,,0,0,"master",1
"MichaelGrupp/Computational_Intelligence",192,"User",,0,0,true,true,true,false,0,,0,0,"master",1
"Froy137/openMP",148,"User",,0,0,true,true,true,false,0,,0,0,"master",1
"alfredocp/FUP1A_2da_Evidencia",144,"User",,0,0,true,true,true,false,0,,0,0,"master",1
"XuShaohua/deepin-installer",47162,"User",,0,0,true,true,true,false,1,,0,1,"master",1
"diegotaraujo/Trabalho3Ed2-Hashing",280,"User",,0,0,true,true,true,false,0,,0,0,"master",1
"jlcd0004/uja_ppt_p3_g04",160,"User",,0,0,true,true,true,false,0,,0,0,"master",1
"akmcinto/CMPUT379_Assignment2",324,"User",,0,0,true,true,true,false,0,,0,0,"master",1
"Dobroserdoff/C",180,"User",,0,0,true,true,true,false,0,,0,0,"master",1
"tcdog001/sdk_changes_v2",1960,"User",,0,0,true,true,true,false,0,,0,0,"master",1
"Hongtaewon/Image_Process",184,"User",,0,0,true,true,true,false,0,,0,0,"master",1
"DJONATAS/PIM_IV_UNIP",208,"User",,0,0,true,true,true,false,0,,0,0,"master",1
"hiddevuijk/coherence",2740,"User",,0,0,true,true,true,false,0,,0,0,"master",1
"xiaohai95/LearnProject",108,"User",,0,0,true,true,true,false,0,,0,0,"master",1
"horstmannmat/joguinho",300,"User",,0,0,true,true,true,false,0,,0,0,"master",1
"CalvoR/Diff",144,"User",,0,0,true,true,true,false,0,,0,0,"master",1
"roblabla42/mlx_x11",148,"Organization",,0,0,true,true,true,false,0,,0,0,"master",1
"krh/ksim",412,"User",,0,0,true,true,true,false,0,,0,0,"master",1
"AlexandrShcherbakov/Demo2",160,"User",,0,0,true,true,true,false,0,,0,0,"master",1
"bobbymcshane/i3mux",188,"User",,0,0,true,true,true,false,0,,0,0,"master",1
"yaroslav-kuzmin/scfm",176,"User","",0,0,true,true,true,false,0,,0,0,"stable",1
"nikolasjchaconas/CS176A_HW3",160,"User",,0,0,true,true,true,false,0,,0,0,"master",1
"janelia-arduino/JsonSanitizer",119,"Organization","",0,0,true,true,true,false,1,,0,1,"master",1
"bennybroseph/AIE_Framework-2015",2591,"User",,0,0,true,true,true,false,16,,0,16,"master",1
"garogers01/my_switch_work",19680,"User",,0,0,true,true,true,false,0,,0,0,"master",1
"NPPT/icelib",198,"Organization",,0,0,true,true,true,false,1,,0,1,"master",1
"mstehula/CS3411-Project2",140,"User",,0,0,true,true,true,false,0,,0,0,"master",1
"zixiao-zhao/UCSD-CSE240A-PA1",2217,"User",,0,0,true,true,true,false,0,,0,0,"master",1
"HighLevelWizardsWin/HighLevelWizardWin",204,"Organization",,0,0,true,true,true,false,0,,0,0,"master",1
"pnn1510/pnn",152,"User",,0,0,true,true,true,false,0,,0,0,"master",1
"smurray47/Branch-Prediction-Dark-Silicon",180,"User",,0,0,true,true,true,false,0,,0,0,"master",1
"kevinlekiller/amdctl",616,"User","",0,0,true,true,true,false,0,,0,0,"master",1
"crseiler/CProjects",136,"User",,0,0,true,true,true,false,0,,0,0,"master",1
"andreas-bok-sociomantic/libdrizzle-redux-extended",2468,"User",,0,0,false,true,true,false,0,,0,0,"master",1
"darkostimac/driver_ccf_logiclk",164,"User",,0,0,true,true,true,false,0,,0,0,"master",1
"remcor/robot2015",176,"Organization",,0,0,true,true,true,false,0,,0,0,"master",1
"annaymj/C_Code",1128,"User",,0,0,true,true,true,false,0,,0,0,"master",1
"keiya/rubbish",132,"User",,0,0,true,true,true,false,0,,0,0,"master",1
"Gabrio94/Clibs",116,"User",,0,0,true,true,true,false,0,,0,0,"master",1
"samyonr/memcached_RDMA",624,"User",,0,0,true,true,true,false,0,,0,0,"master",1
"lipro/fdutils",452,"Organization","http://www.fdutils.linux.lu/",0,0,false,true,false,false,0,,0,0,"fdutils-5.5/devel",1
"ljcui/Practice",152,"User",,0,0,true,true,true,false,0,,0,0,"master",1
"thinkfat/openocd-cortex",14036,"User",,0,0,true,true,true,false,0,,0,0,"master",1
"himanshushukla254/spoj_solution",124,"User",,0,0,true,true,true,false,0,,0,0,"master",1
"jstanley0/pumpkin-pi",172,"User",,0,0,true,true,true,false,0,,0,0,"master",1
"AnilC0004/programmingcontest",108,"User",,0,0,true,true,true,false,0,,0,0,"master",1
"MagnetoHydroDynamics/Arkenstone0",228,"User",,0,0,true,true,true,false,0,,0,0,"master",1
"dwhitfield6/MSP_Launchpad_MSP430FR6989_Test",292,"User",,0,0,true,true,true,false,0,,0,0,"master",1
"mczz01/keystone-workshop",270060,"User",,0,0,true,false,false,false,0,,0,0,"master",1
"yf0994/addsection",112,"User",,0,0,true,true,true,false,0,,0,0,"master",1
"robinsonsam/USB_STEPPER_MOTOR",20880,"User",,0,0,true,true,true,false,0,,0,0,"master",1
"initc/droidsheep",3316,"User",,0,0,true,false,false,false,0,,11,0,"master",1
"xin3liang/libdrm",10400,"User",,0,0,true,true,true,false,0,,0,0,"master",1
"JefChou/npapi-sdk",188,"User",,0,0,true,false,false,false,0,,13,0,"master",1
"peter0749/Help_repo",140,"User",,0,0,true,true,true,false,0,,0,0,"master",1
"sceext222/vadsl_linux",172,"Organization",,0,0,false,true,true,false,0,,0,0,"version",1
"vineetgh01/Mytest",112,"User",,0,0,true,true,true,false,0,,0,0,"master",1
"Thedemon007/bcmon",24992,"User",,0,0,true,false,false,false,0,,103,0,"master",1
"rahues1516daw2/mitja",128,"User",,0,0,true,true,true,false,0,,0,0,"master",1
"arter97/arm-linux-androideabi-5.2",55588,"User",,0,0,true,true,true,false,0,,0,0,"master",1
"pelope1516daw2/mitja",128,"User",,0,0,true,true,true,false,0,,0,0,"master",1
"AhmedGaber/linux-shell",124,"User",,0,0,true,true,true,false,0,,0,0,"master",1
"watrt/wibrain-b1l",3912,"User",,0,0,true,false,false,false,0,,5,0,"master",1
"EmirKalaci/LinkedListTest",128,"User",,0,0,true,true,true,false,0,,8,0,"master",1
"Jlkim56/frdm-tfc",6696,"User",,0,0,true,false,false,false,0,,0,0,"master",1
"typp/malloc",128,"User",,0,0,true,true,true,false,0,,0,0,"master",1
"typp/microshell",152,"User",,0,0,true,true,true,false,0,,0,0,"master",1
"BillTTTTT/ampt-correlations",1800,"User",,0,0,true,true,true,false,0,,0,0,"master",1
"AlexisMoragues/ARQ-2015-2C-Moragues-Gonzalez-",1160,"User",,0,0,true,true,true,false,0,,0,0,"master",1
"sllawap/pasman",152,"User",,0,0,true,false,false,false,0,,0,0,"master",1
"lsdace30095/cmr_2015",120,"User",,0,0,true,true,true,false,0,,0,0,"master",1
