"vilesovds/code_samples_portfolio",292,"User",,0,0,true,true,true,false,0,,0,0,"master",1
"murasaki-uma/openFrameworks_Simple_Vj_System-",6644,"User",,0,0,true,true,true,false,0,,0,0,"master",1
"marcelosedano/cse430project",108,"User",,0,0,true,true,true,false,1,,0,1,"master",1
"ehudkaldor/home-gateway",4884,"User",,0,0,true,true,true,false,0,,0,0,"master",1
"OpenKore/grftool",424,"Organization",,0,0,true,true,true,false,0,,0,0,"master",1
"csse232/lab07",444,"Organization",,0,0,true,true,true,false,0,,0,0,"master",1
"jpino1/er9x-frsky-mavlink",1980,"User",,0,0,true,false,false,false,0,,1,0,"master",1
"periphrasislove/krc_calc",144,"User",,0,0,true,true,true,false,0,,0,0,"master",1
"omerk/fpga-cam",19280,"User","",0,0,true,false,false,false,0,,1,0,"master",1
"vuokko/libsigrok",6956,"User",,0,0,true,true,true,false,0,,0,0,"velleman-labps3005d",1
"rbrady/sous-vide-lib",146,"User",,0,0,true,true,true,false,1,,0,1,"master",1
"Kadlexious/droidsheep",3312,"User",,0,0,true,false,false,false,0,,11,0,"master",1
"jevkid/C_Employee_Records",120,"User","",0,0,true,true,true,false,0,,0,0,"master",1
"JoakimSoderberg/wordexp_test",140,"User",,0,0,true,true,true,false,0,,0,0,"master",1
"haroonhassan/gitC",192,"User",,0,0,true,true,true,false,0,,0,0,"master",1
"Sanyao/GasCounter-1prototype",2744,"User",,0,0,true,true,true,false,0,,0,0,"Development_V2",1
"tecbea/fumega-kernell",152,"User",,0,0,true,false,false,false,0,,0,0,"master",1
"Nihilus89/ECG",1184,"User",,0,0,true,true,true,false,0,,0,0,"master",1
"JCisneros77/PATarea3",148,"User",,0,0,true,true,true,false,0,,0,0,"master",1
"chuym/pearls",136,"User",,0,0,true,true,true,false,0,,0,0,"master",1
"lusorg/Alarm.x",152,"User","",0,0,true,true,true,false,0,,0,0,"master",1
"Tridy/Waveman-433.92",160,"User","",0,0,true,true,true,false,0,,0,0,"master",1
"Neutree/stm32F103MPU9150",5292,"User",,0,0,true,true,true,false,0,,0,0,"master",1
"tchieze/LineArt",172,"User",,0,0,true,true,true,false,0,,0,0,"master",1
"dbahn25/ardu-blaster",124,"User",,0,0,true,true,true,false,0,,0,0,"master",1
"nrmmota/mongoose",844,"User",,0,0,true,false,false,false,0,,32,0,"master",1
"c4joy/c-basic",136,"User",,0,0,true,true,true,false,0,,0,0,"master",1
"JX7P/Red-C",220,"User",,0,0,true,true,true,false,0,,0,0,"master",1
"Chumba/endian",124,"User",,0,0,true,true,true,false,0,,0,0,"master",1
"CTrigger/spoj.com",140,"User",,0,0,true,true,true,false,0,,0,0,"master",1
"UrbanDev/calc",124,"User",,0,0,true,true,true,false,0,,0,0,"master",1
"shivtej1505/Shell-in-C",132,"User",,0,0,true,true,true,false,0,,0,0,"master",1
"jordanSu/Internet-Console",220,"User",,0,0,true,true,true,false,0,,0,0,"master",1
"lcamposxd/trabalho_prog",592,"User",,0,0,true,true,true,false,0,,0,0,"master",1
"5604Pocusset/LeetCode",228,"Organization",,0,0,true,true,true,false,0,,0,0,"master",1
"yorsahj/amistom",1212,"User","",0,0,true,true,true,false,0,,0,0,"master",1
"shintoo/Platformer",764,"User",,0,0,true,true,true,false,1,,0,1,"master",1
"haojianzong/csapp-files",536,"User",,0,0,true,true,true,false,0,,0,0,"master",1
"DECOPON0220/AccessPoint",156,"User",,0,0,true,true,true,false,0,,0,0,"master",1
"t4nzformer/codesharing",148,"User",,0,0,true,true,true,false,0,,0,0,"master",1
"MonzUn/BTH_Resource_Manager",5732,"User",,0,0,true,true,true,false,0,,0,0,"master",1
"paulsemel/FacialRecognition",1282,"User",,0,0,true,true,true,false,1,,0,1,"master",1
"lasshi/GamesAndAgor",11866,"User",,0,0,true,true,true,false,0,,0,0,"master",1
"konstantin-psu/cs591_intro_to_security",180,"User",,0,0,true,true,true,false,0,,0,0,"master",1
"Black-Sphere-Studios/upatch",444,"Organization",,0,0,true,true,true,false,0,,0,0,"master",1
"icemoonsoul/audit",4928,"User",,0,0,true,true,true,false,0,,0,0,"master",1
"kofikofi123/StickOS",808,"User","",0,0,true,true,true,false,1,,0,1,"master",1
"Zetitine/IN301",176,"User",,0,0,true,true,true,false,0,,0,0,"master",1
"paulghaddad/programming_in_c",208,"User",,0,0,true,true,true,false,0,,0,0,"master",1
"robmcrosby/FelixEngine",4956,"User",,0,0,true,true,true,false,0,,0,0,"master",1
"a1ien/nuttx_boards",15052,"User",,0,0,true,true,true,false,0,,0,0,"master",1
"MaximGolubev/OS",200,"User",,0,0,true,true,true,false,1,,1,1,"master",1
"anaghajoshi/HackerRank",196,"User",,0,0,true,true,true,false,0,,0,0,"master",1
"linux2013/apue",200,"User",,0,0,true,true,true,false,0,,0,0,"master",1
"DECOPON0220/Client",184,"User",,0,0,true,true,true,false,0,,0,0,"master",1
"sfjmt/ofxSharpy",9432,"User",,0,0,true,true,true,false,0,,0,0,"master",1
"astrophysically/ATNF-Pulsar-Cat",1380,"User","",0,0,true,true,true,false,0,,0,0,"master",1
"EnriqueSoria/Compilador-MenosC",2188,"User",,0,0,true,true,true,false,0,,0,0,"master",1
"Avtelyes/Segundo_Parcial",192,"User",,0,0,true,true,true,false,0,,0,0,"master",1
"sumedhghaisas/gyp-zlib",792,"User",,0,0,true,true,true,false,0,,0,0,"master",1
"rixhack/4v4",148,"User",,0,0,true,true,true,false,0,,0,0,"master",1
"yuki0302/suuchikeisan",124,"User","",0,0,true,true,true,false,0,,0,0,"master",1
"oott123/csaori",7444,"User",,0,0,true,false,false,false,0,,1,0,"master",1
"audionowdigital/openplayer-ios",56268,"User",,0,0,true,true,true,false,0,,0,0,"master",1
"alvarohz/shell",156,"User",,0,0,true,true,true,false,0,,0,0,"master",1
"TheWOLF26/academy-plus",148,"User",,0,0,true,true,true,false,0,,0,0,"master",1
"jarroddunne/minimax_tic_tac_toe_c",144,"User",,0,0,true,true,true,false,0,,0,0,"master",1
"JCisneros77/PAExamenRapidoOct1",140,"User",,0,0,true,true,true,false,0,,0,0,"master",1
"karamcnair/crypto-base64",2292,"User",,0,0,true,true,true,false,0,,1,0,"master",1
"Nitinkmr/DS",140,"User",,0,0,true,true,true,false,0,,0,0,"master",1
"moollauzair/hw3",148,"User",,0,0,true,true,true,false,0,,0,0,"master",1
"MilanSVN/ZMIJUGA",404,"User",,0,0,true,true,true,false,0,,0,0,"develop",1
"android-ia/wcs_vendor_intel_hardware_bt_wcs_bluedroid",8372,"Organization",,0,0,true,true,true,false,0,,0,0,"master",1
"android-ia/wcs_vendor_intel_hardware_bt_wcs_libbt",788,"Organization",,0,0,true,true,true,false,0,,0,0,"master",1
"linkshare/cdh-redis",2720,"Organization","",0,0,true,true,true,false,0,,0,0,"master",1
"tincann/cpu-cache-simulator",7432,"User",,0,0,true,true,true,false,0,,0,0,"master",1
"gparodi/Proyecto-Final",1048,"User",,0,0,true,true,true,false,0,,0,0,"master",1
"eccarrilloe/HardTLON",2536,"User",,0,0,true,true,true,false,0,,0,0,"master",1
"datamanage/Mytest",108,"User",,0,0,true,true,true,false,0,,0,0,"master",1
"nhtranngoc/CS2303_Assignment5",140,"User",,0,0,true,true,true,false,0,,0,0,"master",1
"Nihilus89/VLC_com",136,"User","",0,0,true,true,true,false,0,,0,0,"master",1
"samudraagni/pdfComparison",196,"User",,0,0,true,true,true,false,0,,0,0,"master",1
"sakajo/workspace",13208,"User",,0,0,true,true,true,false,0,,0,0,"master",1
"Waxford/AITechniques",13156,"User",,0,0,true,true,true,false,0,,0,0,"master",1
"devnexen/deviceatlas-cloud-c",244,"User",,0,0,true,true,true,true,0,,0,0,"master",1
"PauloRRR/trabArqII",1015,"User",,0,0,true,true,true,false,1,,0,1,"master",1
"Sohamlad7/kernel_sony_msm8930",648436,"User","",0,0,true,true,true,false,0,,0,0,"lp5.1",1
"guochunyang/test",108,"User",,0,0,true,true,true,false,0,,0,0,"master",1
"9394974/LeetCode",144,"User",,0,0,true,true,true,false,0,,0,0,"master",1
"iKoulee/dwm",5780,"User",,0,0,true,true,true,false,0,,0,0,"mine",1
"rhuanito/driscolls",164,"User",,0,0,true,true,true,false,0,,0,0,"master",1
"edwardkw/programming-languages-hw1",156,"User",,0,0,true,true,true,false,0,,0,0,"master",1
"shanmukhsista/Lu-Factorization---Intel-MKL-BLAS",112,"User",,0,0,true,true,true,false,0,,0,0,"master",1
"staehle/testpl",332,"User",,0,0,true,true,true,false,0,,0,0,"master",1
"aunueget/plasticPrusaI3Marlin",4372,"User",,0,0,true,true,true,false,0,,0,0,"master",1
"flynnmjr/Test_C",156,"User",,0,0,true,true,true,false,0,,0,0,"master",1
"yonh/book_src",1936,"User",,0,0,true,true,true,false,0,,0,0,"master",1
"srli/Chip8-emulator",4240,"User",,0,0,true,true,true,false,0,,0,0,"master",1
"zaddan/PCA_Lab_1.1",268,"User",,0,0,true,true,true,false,0,,0,0,"master",1
"giansalex/public",108,"User",,0,0,true,true,true,false,0,,0,0,"master",1
