"Hypsurus/skod",556,"User","",174,174,true,true,true,false,11,,0,11,"master",1
"dimok789/loadiine",693,"User",,33,33,true,true,true,false,10,,4,10,"master",1
"jkingsman/whyami",275,"User",,21,21,true,true,true,false,5,,2,5,"master",1
"loboris/OrangePI-Kernel",199952,"User",,14,14,true,true,true,false,14,,3,14,"master",1
"ntop/nProbe",2292,"Organization","http://ntop.org",14,14,true,true,true,false,0,,4,0,"master",1
"duxingkei33/orangepi_PC_gpio_pyH3",133,"User",,6,6,true,true,true,false,3,,1,3,"master",1
"akornatskyy/lua-libmemcached",213,"User","",4,4,true,true,true,false,1,,0,1,"master",1
"Akvelog/servcraft",232,"User",,3,3,true,true,true,false,0,,0,0,"master",1
"vitorallo/dronity",835,"User",,3,3,true,true,true,false,2,,0,2,"master",1
"9468305/crsync",3896,"User","",2,2,true,true,true,false,0,,0,0,"master",1
"ROBAST/ROBAST",807,"Organization","http://robast.github.io/",2,2,true,true,true,true,0,,10,0,"master",1
"sutble/CalHacks2015",15684,"User",,2,2,true,true,true,false,0,,0,0,"master",1
"ylaguna/transdutor",188,"User",,2,2,true,true,true,false,0,,2,0,"master",1
"zwh8800/lua-libuv",456,"User","",2,2,true,true,true,false,0,,0,0,"master",1
"anyc/avcut",160,"User","",2,2,true,true,true,false,1,,0,1,"master",1
"Memecy/WelcomeProject",162,"User",,1,1,true,true,true,false,1,,1,1,"master",1
"odysseus-educosmos/ODYSSEUS-EduCOSMOS",6872,"User",,1,1,false,true,false,false,0,,0,0,"master",1
"OscarRPR/extreme-blocks",8740,"User",,1,1,true,true,true,false,0,,0,0,"master",1
"Michaeldgeek/Whisper",3508,"User",,1,1,true,true,true,false,0,,0,0,"master",1
"0dayZh/librtmp",248,"User","",1,1,true,true,true,false,0,,0,0,"master",1
"BPS-projects/os",19590,"Organization",,1,1,true,true,true,false,1,,0,1,"master",1
"FenomenalSabderMOD/MOTOE",130668,"Organization",,1,1,true,true,true,false,0,,0,0,"master",1
"akhil22/ekf_turtlebot",10060,"User",,1,1,true,true,true,false,0,,0,0,"master",1
"yiyus/dynamic-io",152,"User",,1,1,true,false,false,false,0,,3,0,"master",1
"VTCAKAVSMoACE/ShadyAsFuck",164,"User",,1,1,true,true,true,false,0,,0,0,"master",1
"suiyuinfo/blackwifi",17900,"User","http://www.suiyu.info",1,1,true,true,true,false,0,,0,0,"master",1
"enikulenkov/wsplugin-nsimulator",148,"User",,1,1,true,true,true,false,0,,0,0,"master",1
"zhulianhua/dugksFoam",272,"User","",1,1,true,true,true,false,1,,0,1,"master",1
"puputskov/jmp",132,"User","",1,1,true,true,true,false,0,,0,0,"master",1
"8l/ted",252,"User","http://ftp.x.org/contrib/editors",1,1,true,true,true,false,0,,0,0,"master",1
"DavyL/BeaverRexProject",128,"User",,1,1,true,true,true,false,0,,0,0,"master",1
"ventosus/patchdummy.lv2",116,"User",,1,1,true,true,true,false,0,,0,0,"master",1
"circulosmeos/circle",144,"User",,1,1,true,true,true,false,0,,0,0,"master",1
"murasesyuka/mruby-c11thread",204,"User",,1,1,true,true,true,false,0,,0,0,"c11thread",1
"Wrenhen/WIRED2015",9377,"User",,1,1,true,true,true,false,2,,0,2,"master",1
"BeMg/DataStructure",2497,"User",,1,1,true,true,true,false,0,,0,0,"master",1
"DI-3/Distance-Vector-Routing",8836,"User",,1,1,true,true,true,false,0,,0,0,"master",1
"andreiw/ppc64le-edk2",246732,"User","",1,1,true,true,true,false,0,,9,0,"master",1
"uecker/hashcache",132,"User","",0,0,true,true,true,false,0,,0,0,"master",1
"jsturiao/AtividadeNotaC",128,"User","",0,0,true,true,true,false,0,,0,0,"master",1
"oaestay/EDD",1336,"User",,0,0,true,true,true,false,0,,0,0,"master",1
"dingdongclack/C_Track_AVR_v3.0",188,"User",,0,0,true,true,true,false,0,,0,0,"master",1
"phillyembedded/TeensyHAL",135,"Organization",,0,0,true,true,true,false,0,,0,0,"master",1
"DC07/spirit_msm8916",901212,"User",,0,0,true,true,true,false,1,,0,1,"cm-12.1-amss-1.0.2",1
"grayy921013/CShell",160,"User",,0,0,true,true,true,false,0,,0,0,"master",1
"HunterPlus/study",200,"User",,0,0,true,true,true,false,0,,0,0,"master",1
"lucaciavatta/c-project",164,"User",,0,0,true,true,true,false,0,,0,0,"master",1
"cristhiand3/lib-obj",260,"User",,0,0,true,false,false,false,0,,0,0,"master",1
"jmlien/cshape",8812,"User",,0,0,true,true,true,false,0,,0,0,"master",1
"hnwenjin/vudroid",31412,"User",,0,0,true,false,false,false,0,,107,0,"master",1
"kisseternity/ThunderHammer",4756,"User",,0,0,true,true,true,false,0,,0,0,"master",1
"nathanhicks/hackerrank_solutions",140,"User",,0,0,true,true,true,false,0,,0,0,"master",1
"lsc1414/palresearch",7804,"User",,0,0,true,false,false,false,0,,0,0,"master",1
"s2607/ct",120,"User",,0,0,true,true,true,false,0,,0,0,"master",1
"konlzp/mcertikos",288,"User",,0,0,true,true,true,false,0,,0,0,"master",1
"Virtual-/SystemGrab",144,"User",,0,0,true,true,true,false,0,,0,0,"master",1
"HarishFulara07/ShellWithparser-Harish_OS_IIITD",128,"User","",0,0,true,true,true,false,0,,0,0,"master",1
"sunilraiyani/E-voting",124,"User",,0,0,true,true,true,false,0,,0,0,"master",1
"vivekjne/RM",148,"User",,0,0,true,true,true,false,0,,0,0,"master",1
"zck15/matrix-multiplying",104,"User",,0,0,true,true,true,false,0,,0,0,"master",1
"dereklh24/xtokey",252,"User",,0,0,true,true,true,false,0,,0,0,"master",1
"LordNerevar/external_tremolo",752,"User",,0,0,true,true,true,false,0,,0,0,"master",1
"willmtemple/p3",104,"User",,0,0,true,true,true,false,0,,0,0,"master",1
"yuan9778/MIDI-recorder-and-player",240,"User",,0,0,true,true,true,false,0,,0,0,"master",1
"vyas45/Data-Structures",164,"User",,0,0,true,true,true,false,0,,0,0,"master",1
"canruoying/temp",120,"User",,0,0,true,true,true,false,0,,0,0,"master",1
"leonnorth/TempScratch",5104,"User",,0,0,true,true,true,false,0,,0,0,"master",1
"bencentra/pebble-tutorial",176,"User",,0,0,true,true,true,false,0,,0,0,"master",1
"weiweikaikai/using-C-imitate-bash-simply",136,"User",,0,0,true,true,true,false,0,,0,0,"master",1
"nxtjinzhi/nxTest",120,"User",,0,0,true,true,true,false,0,,0,0,"master",1
"moguriso/sandbox",108,"User",,0,0,true,true,true,false,0,,0,0,"master",1
"daviddhas/Spread-Delta-Calculator",56248,"User",,0,0,true,true,true,false,0,,0,0,"master",1
"dan-gittik/KVS",123,"User",,0,0,true,true,true,false,1,,0,1,"master",1
"Ubica/avr_motor",364,"User",,0,0,true,true,true,false,0,,0,0,"master",1
"shmuga/99-haskell-problems",2700,"User",,0,0,true,true,true,false,0,,0,0,"master",1
"muhin-cse/apv",64744,"User",,0,0,true,false,false,false,0,,116,0,"master",1
"NickEngmann/EE445L-Projects",652,"User",,0,0,true,true,true,false,0,,0,0,"master",1
"24sec/socket-program",204,"User",,0,0,true,true,true,false,0,,0,0,"master",1
"TWRP-C4/android_device_sony_cosmos",6564,"Organization",,0,0,true,true,true,false,0,,0,0,"5.1",1
"RafaelSa94/Fila_Pilha",124,"User",,0,0,true,true,true,false,0,,0,0,"master",1
"mlb406/base-analogue",116,"User",,0,0,true,true,true,false,0,,0,0,"master",1
"LVPlayground/echo-plugin",168,"Organization",,0,0,true,true,true,false,0,,0,0,"master",1
"elspark/VirtGraphics",952,"User",,0,0,true,true,true,false,0,,0,0,"master",1
"fabiopedrosa/iphone-dataprotection.keychainviewer",192,"User",,0,0,true,false,false,false,0,,0,0,"master",1
"hanketgithub/iList",120,"User",,0,0,true,true,true,false,0,,0,0,"master",1
"huangbohui/tengine-151",1732,"User",,0,0,true,true,true,true,0,,0,0,"master",1
"swhaigh/pipelined_cpu_sim",124,"User",,0,0,true,true,true,false,0,,0,0,"master",1
"Dulun/AUTUMN2015",120,"User",,0,0,true,true,true,false,0,,0,0,"master",1
"sofianugraha/testa",136,"User",,0,0,true,true,true,false,0,,0,0,"master",1
"BalintBanyasz/bluez-rda",1284,"User",,0,0,true,true,true,false,0,,0,0,"master",1
"jon208/droidsheep",3312,"User",,0,0,true,false,false,false,0,,11,0,"master",1
"AOMIDORI/Minix3-Function-Keys-mapping",212,"User",,0,0,true,true,true,false,0,,0,0,"master",1
"ronalddas/LearningToCode",180,"User",,0,0,true,true,true,false,0,,0,0,"master",1
"AlexZielinski/C-Programming-Lab-1",136,"User",,0,0,true,true,true,false,0,,0,0,"master",1
"AlexZielinski/C-Programming-Lab-3",140,"User",,0,0,true,true,true,false,0,,0,0,"master",1
"AlexZielinski/C-Programming-Lab-2",136,"User",,0,0,true,true,true,false,0,,0,0,"master",1
"markcsie/TrivialFileTransferProtocol",140,"User",,0,0,true,true,true,false,0,,0,0,"master",1
"krnlyng/tint2",3376,"User",,0,0,true,true,true,false,0,,0,0,"master",1
"LoganLautt/Zarbonific",152,"User",,0,0,true,true,true,false,0,,1,0,"master",1
"Timxuhj/david-mysql-tools",25084,"User",,0,0,true,false,false,false,0,,7,0,"master",1
