"shtony/binary",108,"User",,0,0,true,true,true,false,0,,0,0,"master",1
"clarityjustin/new",152,"User",,0,0,true,true,true,false,0,,0,0,"master",1
"zyx112334/Compress",124,"User",,0,0,true,true,true,false,0,,0,0,"master",1
"nejmd/quiestce",148,"User","",0,0,true,true,true,false,0,,0,0,"master",1
"jdumas/libsl",10764,"User",,0,0,true,true,true,false,0,,0,0,"master",1
"ljj476953950/scull_test",108,"User",,0,0,true,true,true,false,0,,0,0,"master",1
"kumarravi123/word2vec",272,"User",,0,0,true,false,false,false,0,,35,0,"master",1
"SerCubus/VSGame",3328,"User",,0,0,true,true,true,false,0,,0,0,"master",1
"mrphaell/clean",1147296,"User",,0,0,true,true,true,false,0,,0,0,"master",1
"kanect/test",192,"User",,0,0,true,true,true,false,0,,0,0,"master",1
"letimendieta/tarea_compiladores2015",148,"User",,0,0,true,true,true,false,0,,0,0,"master",1
"hermanlu/rxwen-blog-stuff",9200,"User",,0,0,true,false,false,false,0,,2,0,"master",1
"virgree/stardict-2.4.8",6948,"User",,0,0,true,true,true,false,0,,0,0,"master",1
"Jianbo-Yang/jos",236,"User",,0,0,true,true,true,false,0,,0,0,"master",1
"Alone-wyr/linux-kernel.",85040,"User",,0,0,true,true,true,false,0,,0,0,"master",1
"Snowyying/qrencode-win32",1576,"User",,0,0,true,false,false,false,0,,0,0,"master",1
"kerneltask/fastlz",172,"User",,0,0,true,false,false,false,0,,10,0,"master",1
"erping/network_programming",108,"User",,0,0,true,true,true,false,0,,0,0,"master",1
"alvarop/stm32l1xx-gcc-barebones",564,"User",,0,0,true,true,true,false,0,,0,0,"master",1
"Ronald-Liu/RubyPrism",120,"User",,0,0,true,true,true,false,0,,0,0,"master",1
"Koroeskohr/timidity-utauloid",19728,"User",,0,0,true,false,false,false,0,,0,0,"master",1
"Pingmin/swt",1500,"User","http://forge.scilab.org/index.php/p/swt/",0,0,true,true,true,false,0,,0,0,"master",1
"wykys/complex_c",112,"User",,0,0,true,true,true,false,0,,0,0,"master",1
"jasonLJ/StandardDeviationCalculator",112,"User",,0,0,true,true,true,false,0,,0,0,"master",1
"mtetreault/barebox",40024,"User",,0,0,true,true,true,false,0,,0,0,"master",1
"wtkns/blink",1184,"User",,0,0,true,true,true,false,0,,0,0,"master",1
"gugamm/NumericalAnalysis-IntegralAndDerivative",148,"User",,0,0,true,true,true,false,0,,0,0,"master",1
"lupescu/device_hdc_not4",4988,"User",,0,0,true,true,true,false,0,,0,0,"master",1
"uberius/syko-project",1648,"User",,0,0,true,true,true,false,0,,0,0,"mb-devel",1
"mackron/easy_draw",196,"User",,0,0,true,true,true,false,0,,0,0,"master",1
"nmilkosky/os_refstrings",160,"User",,0,0,true,true,true,false,0,,0,0,"master",1
"iknowsomething/gitkill",148,"User",,0,0,true,true,true,false,0,,0,0,"master",1
"Villemoes/get_size",152,"User",,0,0,true,true,true,false,0,,0,0,"master",1
"Cube-Controls/ctaloader",144,"User",,0,0,true,true,true,false,0,,0,0,"master",1
"liujun77/Yalnix-Operating-System-Kernel",500,"User",,0,0,true,true,true,false,0,,0,0,"master",1
"liujun77/Yalnix-File-System",260,"User",,0,0,true,true,true,false,0,,0,0,"master",1
"sths0614/CS118-concurrent-web-server",300,"User",,0,0,true,true,true,false,0,,0,0,"master",1
"Alexandre-Herve/euler",136,"User",,0,0,true,true,true,false,0,,0,0,"master",1
"redmi2/android_system_bt",8044,"Organization",,0,0,true,true,true,false,0,,0,0,"m",1
"Nejuf/monit",1932,"User",,0,0,true,true,true,false,0,,0,0,"master",1
"krallice/cplay",112,"User",,0,0,true,true,true,false,0,,0,0,"master",1
"kench1994/ASOS",152,"User","",0,0,true,true,true,false,0,,0,0,"master",1
"ShubhamWadhe/calculate",140,"User",,0,0,true,true,true,false,0,,0,0,"master",1
"diasssavio/b_tree",148,"User",,0,0,true,true,true,false,0,,0,0,"master",1
"javierdihu/t2",476,"User",,0,0,true,true,true,false,0,,0,0,"master",1
"ssaemo/ubuntu_src",136,"User",,0,0,true,true,true,false,0,,0,0,"master",1
"Mehdi-Addibi/LibASM",144,"User",,0,0,true,true,true,false,0,,0,0,"master",1
"stoffie/LABSO2015",532,"User","",0,0,true,true,true,false,0,,0,0,"master",1
"nightstalker6669/procfw",3712,"User",,0,0,true,false,false,false,0,,177,0,"master",1
"Damonvvong/DWLog",156,"User",,0,0,true,true,true,false,0,,0,0,"master",1
"dkmarquez/HelloWorld",148,"User",,0,0,true,true,true,false,0,,0,0,"master",1
"quentinncl/Test_Projet_CodeBlock",172,"User",,0,0,true,true,true,false,0,,0,0,"master",1
"sv00111/DFS",128,"User",,0,0,true,true,true,false,0,,0,0,"master",1
"backto-505/ProgramsDS",132,"User",,0,0,true,true,true,false,0,,0,0,"master",1
"CanerHuang/Pololu3piRobot",148,"User",,0,0,true,true,true,false,0,,0,0,"master",1
"masenar/repositori_2",120,"User",,0,0,true,true,true,false,0,,0,0,"master",1
"jevinskie/iphone-dataprotection.keychainviewer",192,"User",,0,0,true,false,false,false,0,,0,0,"master",1
"hguduru/cachelab",112,"User",,0,0,true,true,true,false,0,,0,0,"master",1
"Gamecredits-Universe/playstation3-miner-gamecredits",172,"Organization","",0,0,true,true,true,false,0,,0,0,"master",1
"ReyesDiana/-Evidencia2",108,"User",,0,0,true,true,true,false,0,,0,0,"master",1
"socampbell/fluffy-octo-wookie",156,"User",,0,0,true,true,true,false,0,,0,0,"master",1
"eta4ever/uv_meter_tiny85",152,"User",,0,0,true,true,true,false,0,,0,0,"master",1
"JoseGarciia/Sistemas-",124,"User",,0,0,true,true,true,false,0,,0,0,"master",1
"Bertoni94/evidencia2",112,"User",,0,0,true,true,true,false,0,,0,0,"master",1
"SkylerMchp/ESI_HelloWorld",152,"User",,0,0,true,true,true,false,0,,0,0,"master",1
"ashwin2990/Senior-Design-Firmware",120,"User",,0,0,true,true,true,false,0,,0,0,"master",1
"Vicmart1/c-eometry-wars",180,"User","",0,0,true,true,true,false,0,,0,0,"master",1
"scbs2007/Networks",124,"User",,0,0,true,true,true,false,0,,0,0,"master",1
"sigma-embedded/elito-testsuite",128,"Organization",,0,0,true,true,true,false,0,,0,0,"master",1
"AnakhaDracon/MPLAB-X-GIT-Test",148,"User",,0,0,true,true,true,false,0,,0,0,"master",1
"GacnV/HarmonyGit",152,"User",,0,0,true,true,true,false,0,,0,0,"master",1
"fritschy/pebble-boxy",196,"User",,0,0,true,true,true,false,0,,0,0,"master",1
"arismckenzie/hw1",370,"User",,0,0,true,true,true,false,1,,0,1,"master",1
"panqiincs/RTFSC",156,"User",,0,0,true,true,true,false,0,,0,0,"master",1
"blaxill/fuse-lru",128,"User",,0,0,true,true,true,false,0,,0,0,"master",1
"alpiga1516daw2/mitja",124,"User",,0,0,true,true,true,false,0,,0,0,"master",1
"11NJ/ldd3-example",268,"User",,0,0,true,true,true,false,0,,0,0,"master",1
"liamh17/RoboticsPrograms",116,"User",,0,0,true,true,true,false,0,,0,0,"master",1
"liujun77/Operating-System-Device-Drivers",272,"User",,0,0,true,true,true,false,0,,0,0,"master",1
"cm-heclouds/MQTT",260,"User",,0,0,true,true,true,false,0,,0,0,"master",1
"lucassklp/Hashing",1312,"User",,0,0,true,true,true,false,0,,0,0,"master",1
"kjih/cs176a-h3p",160,"User",,0,0,true,true,true,false,0,,0,0,"master",1
"DECOPON0220/Server",152,"User",,0,0,true,true,true,false,0,,0,0,"master",1
"Mathasyu/blitzkiller",176,"User",,0,0,true,true,true,false,0,,0,0,"master",1
"giacobenin/sea50",1011,"User",,0,0,true,true,true,false,0,,0,0,"master",1
"LeStarch/touchscreen",156,"User","",0,0,true,true,true,false,0,,0,0,"master",1
"frap129/abt",196,"User","",0,0,true,true,true,false,0,,0,0,"master",1
"matheusbsilva/CRUD-Conte-do",164,"User",,0,0,true,true,true,false,0,,0,0,"master",1
"alexkuehn/rockclock",248,"User",,0,0,true,true,true,false,0,,0,0,"master",1
"ofrinevo/Nim",264,"User",,0,0,true,true,true,false,0,,0,0,"master",1
"wuwenvogue/hello-world",168,"User",,0,0,true,true,true,false,0,,0,0,"master",1
"taboularasa/twenty_first_century_c",128,"User",,0,0,true,true,true,false,0,,0,0,"master",1
"roamingunner/timer",144,"User",,0,0,true,true,true,false,0,,0,0,"master",1
"JAV-Team-qcom/android_kernel_wingtech_msm8916",137612,"Organization",,0,0,true,true,true,false,0,,0,0,"stock-android-5.0.2",1
"PaulGuillot/ft_ls",184,"User",,0,0,true,true,true,false,0,,0,0,"master",1
"oncebasun/ComputerOrganization",488,"User",,0,0,true,true,true,false,0,,0,0,"master",1
"sysopfb/Rookit_Arsenal",144,"User",,0,0,true,true,true,false,0,,0,0,"master",1
"SomeshThakur/Xeon-Kernel",929684,"User",,0,0,true,true,true,false,0,,0,0,"xeon-reka",1
"lobocode/preloader",152,"User",,0,0,true,true,true,false,0,,0,0,"master",1
"glampert/quake2-for-ps2",1361,"User","http://glampert.com/",0,0,true,true,true,false,1,,0,1,"master",1
