"AlwaysGeeky/Vox",32526,"User","",70,70,true,true,true,false,10,,3,10,"master",1
"gdbinit/rootfool",624,"User",,61,61,true,true,true,false,5,,1,5,"master",1
"briankendall/forceFullDesktopBar",180,"User",,16,16,true,true,true,false,0,,0,0,"master",1
"mhroth/tinywav",125,"User","",4,4,false,true,false,false,3,,0,3,"master",1
"cedar-renjun/RemoteControl-Car",10611,"User",,3,3,true,true,true,false,3,,0,3,"master",1
"hawx/evmpd",132,"User","",2,2,true,true,true,false,0,,0,0,"master",1
"jbangert/taint-entropy-panda",25796,"User",,2,2,true,true,true,false,0,,0,0,"master",1
"hugolino/Libft",180,"User",,2,2,true,true,true,false,0,,0,0,"master",1
"baidubce/bce-live-capture-sample-win",8120,"Organization",,2,2,true,true,true,false,0,,0,0,"master",1
"numist/is31io7326_clone",7282,"User",,2,2,true,true,true,false,2,,0,2,"master",1
"rosslagerwall/xsplice-build",196,"User",,2,2,true,true,true,false,0,,0,0,"master",1
"zy-opensdn/SynFlow-switch",4548,"User",,2,2,true,true,true,false,0,,0,0,"master",1
"jbangert/schannel-sat",2584,"User",,2,2,true,true,true,false,0,,0,0,"master",1
"buffer/libemu",1789,"User",,2,2,true,true,true,false,2,,1,2,"master",1
"daozeiwang45/nazhe",26528,"User",,1,1,true,true,true,false,0,,0,0,"master",1
"sysperf/gperftools-httpd",248,"Organization",,1,1,true,true,true,false,0,,0,0,"master",1
"pakutoma/ProCon26",128,"User",,1,1,true,true,true,false,0,,0,0,"master",1
"coolstar/SeaBIOS",3540,"User",,1,1,true,true,true,false,0,,0,0,"chromeos-2014.11.03",1
"1106911190/Learn-C",3664,"User",,1,1,true,true,true,false,0,,0,0,"master",1
"qwerty258/libGBT28181",460,"User",,1,1,true,true,true,false,0,,0,0,"master",1
"hbuwxc/FFmpegVideo",10176,"User",,1,1,true,true,true,false,0,,0,0,"master",1
"infelt/android-vnc",164,"User",,1,1,true,false,false,false,0,,14,0,"master",1
"Lauszus/Nucleo_F446RE_USBHost",2756,"User","",1,1,true,true,true,false,0,,0,0,"master",1
"NizarBoussarsar/chrdev",118,"User",,1,1,true,true,true,false,1,,0,1,"master",1
"CyanogenMod/android_vendor_qcom_opensource_time-services",144,"Organization",,1,1,true,true,true,false,1,,0,1,"cm-13.0",1
"ManhIT-CMB/SpaceX-Kernel-Exynos7420",148759,"User",,1,1,true,true,true,false,3,,0,3,"master",1
"yantangucsb/Potato",204,"User",,1,1,true,true,true,false,0,,0,0,"master",1
"joeljk13/zsh",17512,"User",,1,1,true,true,true,false,0,,0,0,"master",1
"zyjzym/CloudCamera",101,"User",,1,1,true,true,true,false,1,,0,1,"master",1
"philiplin4sp/RS-232",161,"User",,1,1,true,true,true,false,1,,1,1,"master",1
"zzzbit/MyC",144,"User",,1,1,true,true,true,false,0,,0,0,"master",1
"J-Nunes/Game-Development",33386,"User",,1,1,true,true,true,false,1,,0,1,"master",1
"mansigoel/ARM-Simulator",129,"User",,1,1,true,true,true,false,1,,1,1,"master",1
"b123400/useless",104,"User",,1,1,true,true,true,false,0,,0,0,"master",1
"lambdadroid/android_kernel_samsung_serranoveltexx",912568,"User",,1,1,true,true,false,false,0,,0,0,"cm-12.1",1
"DSMKexec/kexec-kernel-g720n0",141524,"Organization","",1,1,true,true,true,false,0,,0,0,"master",1
"CyanogenMod/android_system_bt",8012,"Organization",,1,1,true,true,true,false,0,,0,0,"cm-13.0",1
"maginfo-team/json2pgcopy",120,"Organization",,1,1,true,true,true,false,0,,0,0,"master",1
"pgerlich/MemeGenerator",33400,"User",,1,1,true,true,true,false,0,,0,0,"master",1
"Ninals-GitHub/TRON",6377,"User",,1,1,true,true,true,false,1,,0,1,"master",1
"phdesign/pebble-phd",736,"User",,1,1,true,true,true,true,0,,0,0,"master",1
"msesmart/OperatingSystem",1328,"User","",1,1,true,true,true,false,0,,0,0,"master",1
"rthys42/get_next_line",700,"User",,1,1,true,true,true,false,0,,0,0,"master",1
"m45t3r/BootCtr",340,"User","",1,1,true,true,true,false,0,,0,0,"master",1
"kevin-dong-nai-jia/C-Container-Collection",148,"User","",0,0,true,true,true,false,0,,0,0,"master",1
"Argonne-National-Laboratory/PIPS",30041,"Organization",,0,0,true,true,true,false,1,,1,1,"master",1
"bo-rc/AmazingBallSystem",168,"User",,0,0,true,true,true,false,0,,1,0,"master",1
"lucastai/CIS380_Shell",588,"User",,0,0,true,true,true,false,0,,0,0,"master",1
"WellMet/ECE372_LAB2_P1",156,"User",,0,0,true,true,true,false,0,,0,0,"master",1
"0706209w/AdvProg",108,"User",,0,0,true,true,true,false,0,,0,0,"master",1
"TrabajoLepra2015-2/head",116,"Organization",,0,0,true,true,true,false,0,,0,0,"master",1
"goelvidhi/reliable-file-transfer-custom-protocol",140,"User",,0,0,true,true,true,false,0,,0,0,"master",1
"sagarjadhav45/pmcd",184,"User",,0,0,true,true,true,false,0,,0,0,"master",1
"savoca/ifc6540",876420,"User",,0,0,true,true,true,false,0,,0,0,"LA.BF.2.1_rb1.10",1
"smashmyster/hw3",108,"User",,0,0,true,true,true,false,0,,0,0,"master",1
"exaphaser/iphonetunnel-usbmuxconnectbyport",1480,"User",,0,0,true,false,false,false,0,,8,0,"master",1
"MarkovaDA/Task1_Parallel",136,"User",,0,0,true,true,true,false,0,,0,0,"master",1
"virtapj/MyGitDL",104,"User",,0,0,true,true,true,false,0,,0,0,"master",1
"TheEye/DudeBro",860,"User",,0,0,true,true,true,false,0,,0,0,"master",1
"vanlin/qrencode-win32",1564,"User",,0,0,true,false,false,false,0,,0,0,"master",1
"amitchavan/dataparksearch",7860,"User",,0,0,true,false,false,false,0,,21,0,"master",1
"juriwiens/programming_languages",104,"User",,0,0,true,true,true,false,0,,0,0,"master",1
"vi300954/testrepo",132,"User",,0,0,true,true,true,false,0,,0,0,"master",1
"re-Kay/uva-problem-solution",144,"User",,0,0,true,true,true,false,0,,0,0,"master",1
"dwhinham/rpcemu",552,"User",,0,0,true,true,true,false,0,,0,0,"master",1
"MaxiCM/android_device_qcom_common",168,"Organization","",0,0,true,true,true,false,0,,0,0,"maxi-5.1",1
"cmjonze/libexif",3876,"User",,0,0,true,true,true,false,0,,0,0,"master",1
"Eridor77/libft",112,"User",,0,0,true,true,true,false,0,,0,0,"master",1
"elestranobaron/T4C2TnC",243544,"User",,0,0,true,true,true,false,0,,0,0,"master",1
"hryamzik/vusb",328,"User",,0,0,true,true,true,false,0,,0,0,"master",1
"kumar-9/basics",572,"User",,0,0,true,true,true,false,0,,0,0,"master",1
"balijanos/rpi64",2216,"User",,0,0,true,true,true,false,0,,0,0,"master",1
"cmjonze/faac",356,"User",,0,0,true,true,true,false,0,,0,0,"master",1
"pexcn/openwrt-wr740n",13128,"User",,0,0,true,true,true,false,0,,0,0,"14.07",1
"openshmem-org/lsms-shmem",4040,"Organization",,0,0,true,true,true,false,0,,0,0,"master",1
"JuGeer/HDK",122400,"User",,0,0,true,true,true,false,0,,0,0,"master",1
"xzpeter/soupdate",136,"User",,0,0,true,true,true,false,0,,0,0,"master",1
"mahongliang/01DataStructureAndAlog",1736,"User",,0,0,true,true,true,false,0,,0,0,"master",1
"Tesla-M/external_libpng",3820,"Organization",,0,0,true,true,true,false,0,,0,0,"6.0",1
"adrian-bueno/hashtable",144,"User",,0,0,true,true,true,false,0,,0,0,"master",1
"exnotime/KlurifaxRay",20180,"User",,0,0,true,true,true,false,0,,0,0,"master",1
"HPCStack/ior",472,"Organization",,0,0,true,true,true,false,0,,0,0,"master",1
"MortalCornflake/Calculator",144,"User",,0,0,true,true,true,false,0,,0,0,"master",1
"botord/perf",132,"User",,0,0,true,true,true,false,0,,0,0,"master",1
"juleari/acm",132,"User",,0,0,true,true,true,false,0,,0,0,"master",1
"yuanintw/NCut-Workspace",136,"User",,0,0,true,true,true,false,0,,0,0,"master",1
"mimunzar/bwted",112,"User",,0,0,true,true,true,false,0,,0,0,"master",1
"estabroo/pwait",156,"User",,0,0,true,true,true,false,0,,0,0,"master",1
"amycontreras/Ian_2016",108,"User","",0,0,true,true,true,false,0,,0,0,"master",1
"moskovskay/odev",104,"User",,0,0,true,true,true,false,0,,0,0,"master",1
"Metallium-ROM/android_vendor_qcom_opensource_time-services",112,"Organization",,0,0,true,true,true,false,0,,0,0,"temp",1
"jmcdonald-ut/hello_open_gl",124,"User",,0,0,true,true,true,false,0,,0,0,"master",1
"elkoniu/st-periph-lib",20156,"User",,0,0,true,true,true,false,0,,0,0,"master",1
"suhasjains/u3D-NS-SG",128,"User","",0,0,true,true,true,false,0,,0,0,"master",1
"hpjansson/stasis-blb",714,"User",,0,0,true,true,true,false,1,,0,1,"master",1
"Richarddestiny/vpu_net",608,"User",,0,0,true,true,true,false,0,,0,0,"master",1
"Eldar322/ipslab5",140,"User",,0,0,true,true,true,false,0,,0,0,"master",1
"theconsummate/gst-rtsp-server",3792,"User",,0,0,true,true,true,false,0,,0,0,"master",1
"TZim/Chronochrome",140,"User",,0,0,true,true,true,false,0,,0,0,"master",1
"MarcoBodega/STM32-TEMPLATE-UART",972,"User",,0,0,true,true,true,false,0,,0,0,"STM32VL-DISCOVERY",1
