"jokerxs/ldapssh",192,"User",,0,0,true,true,true,false,0,,0,0,"master",1
"VRToxin-Devices/android_kernel_google_msm",731088,"Organization",,0,0,true,true,true,false,0,,0,0,"mm6.0",1
"joshwertheim/Sudoku-Solution-Checker",104,"User",,0,0,true,true,true,false,0,,0,0,"master",1
"nathanandersen/cs237",428,"User",,0,0,true,true,true,false,0,,0,0,"master",1
"devansc/464",1744,"User",,0,0,true,true,true,false,0,,0,0,"master",1
"templetontsai/parallel_computing_n_body",160,"User",,0,0,true,true,true,false,0,,0,0,"master",1
"ggramlich26/TP2-SEPC",280,"User",,0,0,true,true,true,false,0,,0,0,"master",1
"fffaraz/inSecure-SHell",188,"User",,0,0,true,true,true,false,0,,0,0,"master",1
"nullbites/FakeCUPS",123,"User",,0,0,true,true,true,false,1,,0,1,"master",1
"LongXQ/RESP-client",192,"User",,0,0,true,true,true,false,1,,0,1,"master",1
"yoakim82/aircom",164,"User",,0,0,true,true,true,false,0,,0,0,"master",1
"computer-developers/data-structure",180,"Organization","",0,0,true,true,true,false,0,,0,0,"master",1
"fanscky/020203_Network_Wire_Test_V2_Application",188,"User",,0,0,true,true,true,false,0,,0,0,"master",1
"Tzinov15/C-Web-Distributed-Server",344,"User",,0,0,true,true,true,false,0,,0,0,"master",1
"geraint36/CTheHardWay",232,"User",,0,0,true,true,true,false,0,,0,0,"master",1
"BenzoRom/system_bt",9056,"Organization",,0,0,true,true,true,false,0,,0,0,"marshmallow",1
"Jarvishappy/Pebble_Kernel",2596,"User","",0,0,false,true,true,false,1,,0,1,"master",1
"Nigish/UPOL",200,"User","",0,0,true,true,true,false,0,,0,0,"master",1
"halfdevil/fluidengine",152,"User",,0,0,true,true,true,false,0,,0,0,"master",1
"nils-hamel/csps-suite",1016,"User","",0,0,true,true,true,false,0,,0,0,"master",1
"nils-hamel/libinter",1228,"User","",0,0,true,true,true,false,0,,0,0,"master",1
"DickingAround/StrongAI",208,"User",,0,0,true,true,true,false,0,,0,0,"master",1
"oguzey/modern-cryptology",136,"User",,0,0,true,true,true,false,0,,0,0,"master",1
"kanovas/OS-again",180,"User",,0,0,true,true,true,false,0,,0,0,"master",1
"eSDK/esdk_byod",25112,"Organization",,0,0,true,true,true,false,0,,0,0,"master",1
"darksimpson/mtcmcutool",240,"User",,0,0,true,true,true,false,0,,0,0,"master",1
"goutamnair7/Two-Phase-Multiway-Mergesort",200,"User",,0,0,true,true,true,false,0,,0,0,"master",1
"yi-lu/DistributedComputing",164,"User",,0,0,true,true,true,false,0,,0,0,"master",1
"comethalley/OS-Assignments",1868,"User",,0,0,true,true,true,false,0,,0,0,"master",1
"fluxuator/DSF-Pack-Binaries",156,"User",,0,0,true,true,false,false,0,,0,0,"master",1
"1451762067/gobang",152,"User",,0,0,true,true,true,false,0,,0,0,"master",1
"Lodovicogatti/progetto",112,"User",,0,0,true,true,true,false,0,,0,0,"master",1
"lrice/cpassword",144,"User",,0,0,true,true,true,false,0,,0,0,"master",1
"llrun/ccpp",128,"User",,0,0,true,true,true,false,0,,0,0,"master",1
"yongjl0815/Software-Testing-Assignment",224,"User",,0,0,true,true,true,false,0,,0,0,"master",1
"KulshanTechnology/ST32F4Discovery",1196,"Organization",,0,0,true,true,true,false,0,,1,0,"master",1
"hoffm386/sunburst-watchface",156,"User",,0,0,true,true,true,false,0,,0,0,"master",1
"ASDF-UNICORNS/Tree-Hack",45132,"Organization",,0,0,true,true,true,false,0,,0,0,"master",1
"zhangshifa/sa",128,"User","",0,0,true,true,true,false,0,,0,0,"master",1
"mgpsp/LCOM-FEUP",1644,"User",,0,0,true,true,true,false,0,,0,0,"master",1
"arthur-xavier/simple-math-parser",108,"User",,0,0,true,true,true,false,0,,0,0,"master",1
"SerCubus/embeddedGame",176,"User",,0,0,true,true,true,false,0,,0,0,"master",1
"JakobPetersson/osmocom-bb-snake",4220,"User",,0,0,true,true,true,false,0,,0,0,"master",1
"HyperManTT/longestCommonSubsequence",136,"User",,0,0,true,true,true,false,0,,0,0,"master",1
"espacioAntonio/C_Galileo_Intel_Gen2",136,"User",,0,0,true,true,true,false,0,,0,0,"master",1
"yuuko/Lambda-Fisher",132,"User",,0,0,true,true,true,false,0,,0,0,"master",1
"ArnoNuehm/bcmon",24980,"User",,0,0,true,false,false,false,0,,103,0,"master",1
"GalaxyTab4/workbench",179208,"Organization",,0,0,true,true,true,false,0,,0,0,"master",1
"etoah/FreeScale",1084,"User","",0,0,true,true,true,false,0,,0,0,"master",1
"extraclean/gitTest",144,"User",,0,0,true,true,true,false,0,,0,0,"master",1
"arturmaciag/TestGit",484,"User",,0,0,true,true,true,false,0,,0,0,"master",1
"bhivert/Bomberman",167028,"User",,0,0,false,true,true,false,0,,0,0,"master",1
"DylanEHolland/CompSci",148,"User",,0,0,true,true,true,false,0,,0,0,"master",1
"gugamm/NumericalAnalysis_PolynomialInterpolation",152,"User",,0,0,true,true,true,false,0,,0,0,"master",1
"pooniki/teraterm",4940,"User",,0,0,true,true,true,false,0,,0,0,"master",1
"nevers/esp-httpd-docker",184,"User",,0,0,true,true,true,false,0,,0,0,"master",1
"CM-zenfone2/android_hardware_intel_common_libwsbm",156,"Organization",,0,0,true,true,true,false,0,,0,0,"cm-13.0",1
"rob72/Prime-numbers-generator",552,"User","",0,0,false,true,false,false,0,,0,0,"master",1
"ilyaseeyousoon/stm32f429_spi_slave",5836,"User",,0,0,true,true,true,false,0,,0,0,"master",1
"kimski/calculator",140,"User",,0,0,true,true,true,false,0,,0,0,"master",1
"fergy/android_device_htc_a51dtulu",10372,"User",,0,0,true,true,true,false,0,,0,0,"master",1
"NHALX/blender_glsl_material",1056,"User",,0,0,true,true,true,false,0,,0,0,"pre",1
"VantanCreativeStudio/ItemManagement",4788,"Organization",,0,0,true,true,true,false,0,,0,0,"master",1
"korokorotune/league-match",140,"User",,0,0,true,true,true,false,0,,0,0,"master",1
"jackaly/Web51",496,"User",,0,0,true,true,true,false,0,,0,0,"master",1
"ukhan2014/stm32f4",11144,"User",,0,0,true,true,true,false,0,,0,0,"master",1
"cptaffe/vector",136,"User",,0,0,true,true,true,false,0,,0,0,"master",1
"csgxy123/GL-Experiment",1056,"User",,0,0,true,true,true,false,0,,0,0,"master",1
"cassioticotico/BlackOut",128,"User",,0,0,true,true,true,false,0,,0,0,"master",1
"socherbyc/8puzzle",164,"User",,0,0,true,true,true,false,0,,0,0,"master",1
"zawata/Asteroid-GCC",24792,"User",,0,0,true,true,true,false,0,,0,0,"master",1
"JongyoonOh/study",140,"User",,0,0,true,true,true,false,0,,0,0,"master",1
"Xiaoning1943/vudroid",31380,"User",,0,0,true,false,false,false,0,,77,0,"master",1
"VRToxin-Devices/android_device_samsung_galaxys2-common",1052,"Organization",,0,0,true,true,true,false,0,,0,0,"mm6.0",1
"loucru1/LCTHW",120,"User",,0,0,true,true,true,false,0,,0,0,"master",1
"fataldesire25/diosmios",364,"User",,0,0,true,false,false,false,0,,1,0,"master",1
"sairamkolla/Bash-shell-in-C",148,"User",,0,0,true,true,true,false,0,,0,0,"master",1
"S4KH/algo-analyse",164,"User",,0,0,true,true,true,false,0,,0,0,"master",1
"tomdyq/word2vec",268,"User",,0,0,true,false,false,false,0,,35,0,"master",1
"othocaes/skylines-terraintools",1644,"User",,0,0,true,true,true,false,0,,0,0,"master",1
"tmr232/regshot",940,"User",,0,0,true,false,false,false,0,,0,0,"master",1
"ly0201/SudaMod_device_oneplus_oneplus2",648,"User",,0,0,true,true,true,false,0,,0,0,"master",1
"deerishi/OS161",752,"User",,0,0,true,true,true,false,0,,0,0,"master",1
"rshin/tcmportmapper",3084,"User",,0,0,true,false,false,false,0,,65,0,"master",1
"lawlietfans/learn-linux-c",144,"User",,0,0,true,true,true,false,0,,0,0,"master",1
"tyler6389/android_kernel_samsung_slte",117280,"User","",0,0,true,true,true,false,0,,0,0,"master",1
"jonbaraq/openwrt",21292,"User",,0,0,true,true,true,false,0,,0,0,"master",1
"KaranSrivastava/kernel_xiaomi_armani_kk",610890,"User","",0,0,true,true,true,false,0,,0,0,"cm-13.0",1
"paterry/specular-difference",112,"User",,0,0,true,true,true,false,0,,0,0,"master",1
"gromaudio/android_external_busybox",27700,"User",,0,0,true,true,true,false,0,,0,0,"vline-kk_4.4.3",1
"rzmudzin/doubango",347484,"User",,0,0,true,false,false,false,0,,216,0,"master",1
"instantdelay/learnc",108,"User",,0,0,true,true,true,false,0,,0,0,"master",1
"pgerlich/ImageManipulator",35472,"User",,0,0,true,true,true,false,0,,0,0,"master",1
"emcongiu/splint",140,"User",,0,0,true,true,true,false,0,,0,0,"master",1
"alierdemsunar/AESUDPTester",104,"User",,0,0,true,true,true,false,0,,0,0,"master",1
"SargisYonan/ARDUINO_MEGA-UART",112,"User",,0,0,true,true,true,false,0,,0,0,"master",1
"h-betz/ClinkedList",104,"User",,0,0,true,true,true,false,0,,0,0,"master",1
"insanity54/batox",432,"User",,0,0,true,true,true,false,0,,0,0,"master",1
"yash069/puttycyg",1832,"User",,0,0,true,false,false,false,0,,26,0,"master",1
"jauffretp/IT-System",2336,"User",,0,0,true,true,true,false,0,,0,0,"master",1
