"Aweosme/TwitchOS",401,"Organization",,19,19,true,true,true,false,11,,1,11,"master",1
"inikep/lzbench",1696,"User","",9,9,true,true,true,false,1,,5,1,"master",1
"toolpunk/dmenu-ee",160,"User",,5,5,true,true,true,false,0,,0,0,"master",1
"overxfl0w/APKMalwareDetect",272,"User",,3,3,true,true,true,false,0,,0,0,"master",1
"kdiggity76/cs2123p5",133,"User",,2,2,true,true,true,false,2,,0,2,"master",1
"Hannarea/aMAZEd",152,"User",,2,2,true,true,true,false,0,,0,0,"master",1
"shawnanastasio/mkbootimg-bullhead",180,"User",,2,2,true,true,true,false,0,,0,0,"master",1
"Kh4L/kheadgen",111,"User",,1,1,true,true,true,false,1,,0,1,"master",1
"cxong/SDL_JoystickButtonNames",292,"User",,1,1,true,true,true,false,0,,0,0,"master",1
"702nADOS/Fiasco-L4Re",64884,"Organization",,1,1,true,true,true,false,0,,0,0,"master",1
"mk12/eva",184,"User",,1,1,true,true,true,false,0,,0,0,"master",1
"maandree/libsha2",136,"User",,1,1,true,true,true,false,0,,0,0,"master",1
"forthdim/ics2015",2352,"User",,1,1,true,true,true,false,0,,0,0,"master",1
"ghostecoli/WatchdogFramebuffer",152,"User","",1,1,true,true,true,false,0,,0,0,"master",1
"cloud111/hash_include_NIT_SXR",6958,"User",,1,1,true,true,true,false,1,,0,1,"master",1
"kcouliba/MoreOrLess",128,"User",,1,1,true,true,true,false,0,,0,0,"master",1
"weimingtom/WinClipboardExporter",6624,"User",,1,1,true,true,true,false,0,,0,0,"master",1
"axling/fannerl",384,"User",,1,1,true,true,true,true,0,,0,0,"master",1
"Lembed/uClinux-Cortex",396336,"Organization","",1,1,true,true,true,false,0,,0,0,"master",1
"find7a/android_device_oppo_msm8974-common",1364,"User",,1,1,true,true,true,false,0,,0,0,"m-caf",1
"gesangtome/wpa_supplicant",148,"User",,1,1,true,true,true,false,0,,0,0,"master",1
"MattRMcFarland/HashMap",284,"User",,1,1,true,true,true,false,0,,0,0,"master",1
"postgrespro/pg_dtm",172,"Organization",,1,1,true,true,true,false,0,,0,0,"master",1
"004helix/mod_ugidctl",116,"User",,1,1,true,true,true,false,0,,0,0,"master",1
"Polyg0n/oblib",12640,"User","",1,1,true,true,true,false,0,,4,0,"master",1
"zhouzxi/GetSecNumBetweenTwoYear",120,"User","http://blog.csdn.net/zhouzhaoxiong1227/article/details/45848241",0,0,true,true,true,false,0,,0,0,"master",1
"luviiit/CShell",108,"User",,0,0,true,true,true,false,0,,0,0,"master",1
"cloudbearings/proc4j",344,"User",,0,0,true,false,false,false,0,,0,0,"master",1
"florentchauveau/putty",79076,"User",,0,0,true,true,true,false,0,,0,0,"fc-puttygen-confirm",1
"fyquah95/gpu.matrix",336,"User",,0,0,true,true,true,false,0,,0,0,"master",1
"11haanyan24/FizzBuzz",115,"User",,0,0,true,true,true,false,1,,0,1,"master",1
"panneersel/android-screenshot-library",564,"User",,0,0,true,false,false,false,0,,40,0,"master",1
"JeremyJacquemont/SchoolProjects",33828,"User",,0,0,true,true,true,false,0,,0,0,"master",1
"february29/ffmpeg-kxmovie",39356,"User",,0,0,true,true,true,false,0,,0,0,"master",1
"zhouzxi/ReadConfig",120,"User","http://blog.csdn.net/zhouzhaoxiong1227/article/details/45563263",0,0,true,true,true,false,0,,0,0,"master",1
"zhouzxi/SimpleLogSystem-Windows",120,"User","http://blog.csdn.net/zhouzhaoxiong1227/article/details/44592819",0,0,true,true,true,false,0,,0,0,"master",1
"zhouzxi/SimpleLogSystem-Linux",124,"User","http://blog.csdn.net/zhouzhaoxiong1227/article/details/45917613",0,0,true,true,true,false,0,,0,0,"master",1
"RyanBreaker/Foo",120,"User",,0,0,true,true,true,false,0,,0,0,"master",1
"murli-9585/ADTs",140,"User","",0,0,true,true,true,false,0,,0,0,"master",1
"christiandaley/AES",144,"User",,0,0,true,true,true,false,0,,0,0,"master",1
"hekima8/test",112,"User",,0,0,true,true,true,false,0,,0,0,"master",1
"nguyenvuhung/TivaWare",70788,"User",,0,0,true,true,true,false,0,,0,0,"master",1
"OS-Project/u-boot",15584,"Organization",,0,0,true,true,true,false,0,,0,0,"master",1
"tectronics/android-thomson-key-solver",42068,"User",,0,0,true,false,false,false,0,,2,0,"master",1
"PrinzEugen7/FileProcessing",304,"User",,0,0,true,true,true,false,0,,0,0,"master",1
"amitbatajoo/tcpw-project",6824,"User",,0,0,true,false,false,false,0,,0,0,"master",1
"everanurag/word2vec",276,"User",,0,0,true,false,false,false,0,,35,0,"master",1
"mynameisvinn/c",108,"User",,0,0,true,true,true,false,0,,0,0,"master",1
"OneRom/external_tinycompress",132,"Organization",,0,0,true,true,true,false,0,,0,0,"mm6.0",1
"OneRom/external_wpa_supplicant_8",11752,"Organization",,0,0,true,true,true,false,0,,0,0,"mm6.0",1
"s1023016/hello-project",108,"User",,0,0,true,true,true,false,0,,0,0,"master",1
"xornand/decaf-platform",21440,"User",,0,0,true,false,false,false,0,,6,0,"master",1
"UPS-SRI-2015/TP_C",148,"Organization",,0,0,true,true,true,false,0,,0,0,"master",1
"JWC1500/test",136,"User",,0,0,true,true,true,false,0,,0,0,"master",1
"ulaskaraoren/coremark",1360,"User",,0,0,true,false,false,false,0,,0,0,"master",1
"abeobk/sam9x35",149952,"User",,0,0,true,true,true,false,0,,0,0,"master",1
"pseudoblau/Versuch1",156,"User",,0,0,true,true,true,false,0,,0,0,"master",1
"Folcogh/pdtlib",144,"User",,0,0,true,true,true,false,0,,0,0,"master",1
"vivier/portals4",6444,"User",,0,0,true,false,false,false,0,,4,0,"master",1
"fighterCui/L4ReFiascoOC",63380,"User",,0,0,true,true,true,false,0,,0,0,"master",1
"dvb-adenin/dvbsnoop",524,"User",,0,0,true,true,true,false,0,,0,0,"master",1
"jeffrobots/RFComm",196,"User",,0,0,true,true,true,false,0,,0,0,"master",1
"Ergua/test",144,"User",,0,0,true,true,true,false,0,,0,0,"master",1
"wrfly/firmware-mod-kit",10404,"User","http://code.google.com/p/firmware-mod-kit",0,0,true,false,false,false,0,,41,0,"master",1
"ydavit/stm32f7_discovery_template",4628,"User",,0,0,true,true,true,false,0,,0,0,"master",1
"GluonTakeuchi/PROGNAGYHAZI",108,"User",,0,0,true,true,true,false,0,,0,0,"master",1
"ColourfulBlank/cs458",128,"User",,0,0,true,true,true,false,0,,0,0,"master",1
"MSM8930-Samsung/android_kernel_samsung_wilcoxltexx",147304,"Organization",,0,0,true,true,true,false,0,,0,0,"cm-13.0",1
"Ginfung/linux-variability-analysis-tools.exconfig",584,"User",,0,0,true,false,false,false,0,,0,0,"master",1
"killer18ys/FirstCoursework",9912,"User",,0,0,true,true,true,false,0,,0,0,"master",1
"PAC-ROM/android_external_yaffs2",260,"Organization",,0,0,true,true,true,false,0,,0,0,"pac-6.0",1
"syagbasan/STM32CUBE",5832,"User",,0,0,true,true,true,false,0,,0,0,"master",1
"Efemer/apv",64744,"User",,0,0,true,false,false,false,0,,116,0,"master",1
"Muki-SkyWalker/anic",1076,"User",,0,0,true,false,false,false,0,,5,0,"master",1
"miyako/4d-plugin-photo",696,"User",,0,0,true,true,true,false,0,,0,0,"master",1
"San112/iphone-elite",87516,"User",,0,0,true,false,false,false,0,,102,0,"master",1
"mdejong/KittyBoom",2128,"User",,0,0,true,true,true,false,0,,0,0,"master",1
"Oryon/ietf94hackathon",136,"User",,0,0,true,true,true,false,0,,0,0,"master",1
"lwkvenus/s5pv210",44356,"Organization",,0,0,true,true,true,false,0,,0,0,"master",1
"GaryMace/CTRL-F-C",816,"User",,0,0,true,true,true,false,0,,0,0,"master",1
"HerbFargus/opentyrian",2008,"User",,0,0,true,true,true,false,0,,0,0,"master",1
"matbech/zlib",360,"User",,0,0,true,true,true,false,0,,0,0,"master",1
"richwolski/bluesky",29099,"User",,0,0,true,true,true,false,1,,0,1,"master",1
"AlonsoVallejo/TFC_SM_2016",12812,"User",,0,0,true,true,true,false,0,,0,0,"master",1
"Scythe14/Keylogger",144,"User",,0,0,true,true,true,false,0,,0,0,"master",1
"santos10-dev/android_device_samsung_santos10-common",3108,"Organization","",0,0,false,true,false,false,0,,0,0,"aosp-6.0",1
"lanyutc/LockFreeQueue",148,"User",,0,0,true,true,true,false,0,,0,0,"master",1
"taboularasa/devpkg",172,"User",,0,0,true,true,true,false,0,,0,0,"master",1
"DSooch/ECE368-Project1",6316,"User","",0,0,true,true,true,false,0,,0,0,"master",1
"sirhcbuilt15/blink",136,"User",,0,0,true,true,true,false,0,,0,0,"master",1
"feute/dotfiles",148,"User",,0,0,true,true,true,false,0,,0,0,"master",1
"dtyaden/rays",264,"User",,0,0,true,true,true,false,0,,0,0,"master",1
"lujun723/Ebase",3244,"User",,0,0,true,true,true,false,0,,0,0,"master",1
"adwaitnd/test-of-time",144,"User",,0,0,true,true,true,false,0,,0,0,"master",1
"Tabaie/CompilerCA2",976,"User",,0,0,true,true,true,false,0,,0,0,"master",1
"HTC-MSM8916/android_kernel_htc_msm8916",139108,"Organization",,0,0,true,true,true,false,0,,0,0,"cm-12.1",1
"feng01/hostapd",1688,"User","",0,0,true,true,true,false,0,,0,0,"master",1
"dejdav/BaseConverter",176,"User",,0,0,true,true,true,false,0,,0,0,"master",1
"juvenn/build-lisp",144,"User",,0,0,true,true,true,false,0,,0,0,"master",1
"fortunaFiWn/android_external_libexif",1595,"Organization",,0,0,false,true,true,false,0,,0,0,"cm-11.0",1
