"bwall/pemcracker",125,"User",,54,54,true,true,true,false,3,,2,3,"master",1
"rxi/sandbird",121,"User","",30,30,true,true,true,false,1,,0,1,"master",1
"isra17/CryptBackdoor",212,"User",,6,6,true,true,true,false,2,,0,2,"master",1
"Entware-ng/Entware-ng",4367,"Organization","",6,6,true,true,true,false,1,,17,1,"master",1
"HustBroventure/iOSRSAHandler",10003,"User",,3,3,true,true,true,false,1,,0,1,"master",1
"C0D3D3V/BYEbye",20348,"User",,2,2,true,true,true,false,0,,0,0,"master",1
"Jovy23/N920TUVU2COI5_Kernel",148932,"User",,2,2,true,true,true,false,0,,0,0,"master",1
"iicc1/android_device_meizu_m1note",21820,"User","",2,2,true,true,true,false,1,,1,1,"master",1
"xydang/Beaglebone",112,"User",,2,2,true,true,true,false,0,,0,0,"master",1
"OMAP4-AOSP/android_kernel_samsung_espresso",480693,"Organization",,2,2,true,true,true,false,1,,0,1,"aosp-6.0",1
"222464/Link",4792,"User",,2,2,true,true,true,false,0,,0,0,"master",1
"Schischu/android_device_samsung_chagallwifi",6432,"User",,2,2,true,true,true,false,0,,0,0,"aosp-6.0",1
"ZacharyIgielman/multiplication",135,"User","",1,1,true,true,true,false,1,,0,1,"master",1
"omnirom/android_hardware_sony_boringssl-compat",172,"Organization",,1,1,true,true,true,false,0,,0,0,"android-6.0",1
"vadimtk/moto-x-kernel",934504,"User",,1,1,true,true,true,false,1,,1,1,"master",1
"zero2sixd/macipgw",176,"User","https://github.com/zero2sixd/macipgw/wiki",1,1,true,true,true,false,0,,0,0,"master",1
"federicomarulli/CosmoBolognaLib",3792,"User",,1,1,true,true,true,false,0,,0,0,"master",1
"zhuowei/Kat",116,"User",,1,1,true,true,true,false,0,,0,0,"master",1
"rshnn/allocator",132,"User",,1,1,true,true,true,false,0,,0,0,"master",1
"dozepih/netns-erlang",144,"User",,1,1,true,true,true,false,1,,0,1,"master",1
"roceh/stm32f7disco_llilum_lcdtest",8028,"User","",1,1,true,true,true,false,0,,1,0,"master",1
"alfredh/jsonperf",148,"User",,1,1,true,true,true,false,0,,0,0,"master",1
"alkutnikar/CSE509SystemSecurity",136,"User",,1,1,true,true,true,false,0,,0,0,"master",1
"jqt3of5/io-lib",184,"User",,1,1,true,true,true,false,0,,0,0,"master",1
"GregJns213/CS50",176,"User",,1,1,true,true,true,false,0,,0,0,"master",1
"JoeGlancy/xtools",192,"User",,1,1,true,true,true,false,1,,1,1,"master",1
"rafael-santiago/websybil",148,"User",,1,1,true,true,true,false,0,,0,0,"master",1
"siyaoZHANG/KnR-Solutions",172,"User",,1,1,true,true,true,false,0,,0,0,"master",1
"ant888/CTRLIB9",184,"User","",1,1,true,true,true,false,0,,0,0,"master",1
"AnClark/iSicun-Homework",3972,"User",,1,1,true,true,true,false,0,,0,0,"master",1
"SkinnerSweet/barelog",1488,"User",,1,1,true,true,true,false,0,,0,0,"master",1
"aosen/cproxy",176,"User","",1,1,true,true,true,false,0,,0,0,"master",1
"tarnacious/tarnos",216,"User",,1,1,true,true,true,false,0,,0,0,"master",1
"weimingtom/easywar",3080,"User",,1,1,true,false,false,false,0,,0,0,"master",1
"guptashark/Statshell",196,"User",,1,1,true,true,true,false,0,,0,0,"master",1
"AlexSafatli/os",265,"User","",1,1,false,true,false,false,0,,0,0,"master",1
"lovekernel/pingpingsearch",7524,"User",,1,1,true,true,true,false,1,,0,1,"master",1
"AppliedLogicSystems/ALSProlog",17640,"Organization","",1,1,true,true,true,false,0,,7,0,"master",1
"saeidsds/freemp3fordroid",780,"User",,0,0,true,false,false,false,0,,1,0,"master",1
"cosmoio/MP3Foo",156,"User",,0,0,true,true,true,false,0,,0,0,"master",1
"cosmoio/Curses",148,"User",,0,0,true,true,true,false,0,,0,0,"master",1
"diegode/entropy-rsa-ng",1400,"User",,0,0,true,false,false,false,0,,1,0,"master",1
"slava-kohut/MPI-C-Efficient-Matrix-Multiplication",136,"User",,0,0,true,true,true,false,0,,0,0,"master",1
"SirIndubitable/quadcopter",520,"User",,0,0,true,true,true,false,0,,0,0,"master",1
"Evervolv/android_vendor_qcom_opensource_time-services",128,"Organization",,0,0,true,true,true,false,0,,0,0,"mm-6.0",1
"hirakida/linux-kernel-module-sample",140,"User",,0,0,true,true,true,false,0,,0,0,"master",1
"cscjx321/hge_game",18452,"User",,0,0,true,true,true,false,0,,0,0,"master",1
"denisndimitrov/Test",108,"User",,0,0,true,true,true,false,0,,0,0,"master",1
"boulzordev/android_vendor_qcom_opensource_wlan_prima",16264,"Organization",,0,0,true,true,true,false,0,,0,0,"caf-6.0",1
"wanlizhi/lantern",3476,"User",,0,0,true,true,true,false,0,,0,0,"master",1
"DeepinDream/etootle-flight",37648,"User",,0,0,true,false,false,false,0,,0,0,"master",1
"BartoszKlakla/TankClient",112,"User",,0,0,true,true,true,false,0,,0,0,"master",1
"Wolfx56/test",144,"User",,0,0,true,true,true,false,0,,0,0,"master",1
"ntanibata/meta-renesas",392,"User",,0,0,true,true,true,false,0,,0,0,"GENIVI_handson",1
"manoeljfneto/ListaAlunos",152,"User",,0,0,true,true,true,false,0,,0,0,"master",1
"sgravrock/gi",160,"User","",0,0,true,true,true,false,0,,0,0,"master",1
"phailsafe/TwitchPlaysPokemon-the-Game",12276,"User",,0,0,true,true,true,false,0,,0,0,"master",1
"PAC-ROM/android_external_vim",15640,"Organization",,0,0,true,true,true,false,0,,0,0,"pac-6.0",1
"PAC-ROM/android_external_tinycompress",132,"Organization",,0,0,true,true,true,false,0,,0,0,"pac-6.0",1
"scottlawsonbc/edc-ubc",288,"User",,0,0,true,true,true,false,0,,0,0,"master",1
"sniper42434/minimosd-extra",12528,"User",,0,0,true,false,false,false,0,,37,0,"master",1
"zhan1182/Demo-Projects",160,"User",,0,0,true,true,true,false,0,,0,0,"master",1
"Infinitive-OS/hardware_qcom_audio",3228,"Organization",,0,0,true,true,true,false,0,,0,0,"m-6.0",1
"caizone/syspro_hw",144,"User",,0,0,true,true,true,false,0,,0,0,"master",1
"ffmv/alfred-json",156,"User",,0,0,true,true,true,false,0,,0,0,"master",1
"dev-huawei-g8/android_kernel_huawei_rio",138956,"Organization",,0,0,true,true,true,false,0,,0,0,"cm-12.1",1
"EduardaTI/repo",144,"User",,0,0,true,true,true,false,0,,0,0,"master",1
"fjtsai/realtime-emd",152,"User",,0,0,true,false,false,false,0,,2,0,"master",1
"PAC-ROM/android_external_libusbx",2100,"Organization",,0,0,true,true,true,false,0,,0,0,"pac-6.0",1
"PAC-ROM/android_external_lzo",1132,"Organization",,0,0,true,true,true,false,0,,0,0,"pac-6.0",1
"q4a/vcmi-data-src",112992,"User",,0,0,true,true,true,false,0,,0,0,"master",1
"lucasfernandesrj/MeuTrabalho1deProg1",140,"User",,0,0,true,true,true,false,0,,0,0,"master",1
"georgiy-pruss/Cryptography",308,"User","",0,0,true,true,true,false,0,,0,0,"master",1
"wkatsak/memtest86-plus",352,"User",,0,0,true,true,true,false,0,,0,0,"master",1
"sandeepsmalviya/c_programs",3920,"User",,0,0,true,true,true,false,0,,0,0,"master",1
"cosmoio/Feistel",156,"User",,0,0,true,true,true,false,0,,0,0,"master",1
"bawejakunal/Set-Associative-Cache",6672,"User",,0,0,true,true,true,false,0,,0,0,"master",1
"montyanderson/bash-utils",144,"User",,0,0,true,true,true,false,0,,0,0,"master",1
"SimranVasir/LinuxMessenger",112,"User",,0,0,true,true,true,false,0,,0,0,"master",1
"krave181/pipecut",316,"User",,0,0,true,false,false,false,0,,0,0,"master",1
"rtbn/2HARD4U",336,"User",,0,0,true,true,true,false,0,,0,0,"master",1
"player999/BeagleBoardLeds",108,"User",,0,0,true,true,true,false,0,,0,0,"master",1
"jrwdunham/foma",1000,"User",,0,0,true,false,false,false,0,,50,0,"master",1
"cemoses/grafx2",20464,"User",,0,0,true,false,false,false,0,,122,0,"master",1
"mouratos66/vtuner.linux-driver",144,"User",,0,0,true,false,false,false,0,,0,0,"master",1
"Malaxiz/LuaBridgeComponentWrapper",644,"User",,0,0,true,true,true,false,0,,0,0,"master",1
"shravanshandilya/LinuxDeviceDrivers",152,"User",,0,0,true,true,true,false,0,,0,0,"master",1
"Glastis/Header-Generator",148,"User",,0,0,true,true,true,false,0,,0,0,"master",1
"markqvist/otp",140,"User",,0,0,true,true,true,false,0,,0,0,"master",1
"Helrohir/lkm_synch",152,"User",,0,0,true,true,true,false,0,,0,0,"master",1
"Helrohir/tob",1196,"User",,0,0,true,true,true,false,0,,0,0,"master",1
"cvonk/fpga-math_multiplier_array",1256,"User",,0,0,true,true,true,false,0,,0,0,"master",1
"dg14/dns320_utils",144,"User",,0,0,true,true,true,false,0,,0,0,"master",1
"PAC-ROM/android_external_curl",5788,"Organization",,0,0,true,true,true,false,0,,0,0,"pac-6.0",1
"jcloudpld/srpc",2228,"User",,0,0,true,false,false,false,0,,0,0,"master",1
"qizhu8/HelloWorld",140,"User",,0,0,true,true,true,false,0,,0,0,"master",1
"joshuacox/cplusplusexamples",115,"User",,0,0,true,true,true,false,1,,0,1,"master",1
"zOrg1331/aircrack-ng",2052,"User",,0,0,true,true,true,false,0,,0,0,"master",1
"wangyiduo999/before_leave",112,"User",,0,0,true,true,true,false,0,,0,0,"master",1
"Infinitive-OS/external_ant-wireless_ant_native",280,"Organization",,0,0,true,true,true,false,0,,0,0,"m-6.0",1
