"dnozza/word2vec",268,"User",,0,0,true,false,false,false,0,,35,0,"master",1
"GitDidNotExitCleanly/TEST",141,"User",,0,0,true,true,true,false,1,,0,1,"master",1
"vinayjoshi22/audio2midi",8292,"User",,0,0,true,false,false,false,0,,1,0,"master",1
"liviuflore/esp_pilight",148,"User",,0,0,true,true,true,false,0,,0,0,"master",1
"alu0100837353/LPP_i",132,"User",,0,0,true,true,true,false,0,,0,0,"master",1
"RE-design/pa2",184,"Organization",,0,0,true,true,true,false,0,,0,0,"master",1
"toekhaing/udpstorm",136,"User",,0,0,true,true,true,false,0,,0,0,"master",1
"wongshandev/QRCODE_SLC",208,"User",,0,0,true,true,true,false,0,,0,0,"master",1
"oscarcv/vnsea",3148,"User",,0,0,true,false,false,false,0,,9,0,"master",1
"artemrudoj/parallels-native-folder",3064,"User",,0,0,true,true,true,false,0,,0,0,"master",1
"alu0100812503/LPP_14",128,"User",,0,0,true,true,true,false,0,,0,0,"master",1
"alu0100814651/LPP_22",128,"User",,0,0,true,true,true,false,0,,0,0,"master",1
"alu0100768152/LPP_61",128,"User",,0,0,true,true,true,false,0,,0,0,"master",1
"Marsh-Rom/android_bionic",23832,"Organization",,0,0,true,true,true,false,0,,0,0,"marsh-6.0",1
"DanielHit/reaver-wps",1004,"User",,0,0,true,false,false,false,0,,582,0,"master",1
"YamaArashi/pokebinutils",278880,"User",,0,0,true,true,true,false,0,,0,0,"master",1
"gkashinath/CUDA-Tests",156,"User",,0,0,true,true,true,false,0,,0,0,"master",1
"AvaKathrynShaw/Signal-Handler",104,"User",,0,0,true,true,true,false,0,,0,0,"master",1
"warwick-one-metre/pixelshift",140,"Organization",,0,0,true,true,true,false,0,,0,0,"master",1
"Fusion-Devices/android_hardware_samsung",1860,"Organization",,0,0,true,true,true,false,0,,0,0,"mm6.0",1
"mrphs/torperf",164,"User",,0,0,true,true,true,false,0,,0,0,"master",1
"kumar8600/DeathMatchDepsWin",3840,"User",,0,0,true,true,true,false,0,,0,0,"master",1
"stevezilla/dplive-uboot",23212,"User",,0,0,true,true,true,false,0,,0,0,"master",1
"youtux/Spiral",128,"User",,0,0,true,true,true,false,0,,0,0,"master",1
"FDOS/diskcomp",116,"Organization",,0,0,true,true,true,false,0,,0,0,"master",1
"file13/proxyfeed",524,"User",,0,0,true,true,true,false,0,,0,0,"master",1
"ViN3r/Content-Adressable-Network-Algo",112,"User",,0,0,true,true,true,false,0,,0,0,"master",1
"snk11/minishell",108,"User",,0,0,true,true,true,false,0,,0,0,"master",1
"alb42/AROS-libraries",197,"User",,0,0,true,true,true,false,1,,0,1,"master",1
"leinxx/Mytest",104,"User",,0,0,true,true,true,false,0,,0,0,"master",1
"rohanphatak/mytest",104,"User",,0,0,true,true,true,false,0,,0,0,"master",1
"willemolding/SurfWatch",1696,"User",,0,0,true,true,true,true,1,,0,1,"master",1
"cmstas/bTagEfficiencyTools",120,"Organization",,0,0,true,true,true,false,0,,0,0,"master",1
"d3crypt/dcat",132,"User",,0,0,true,true,true,false,0,,0,0,"master",1
"EmbeddedHub/OV7670-Driver-Experimental",140,"User",,0,0,true,true,true,false,0,,0,0,"master",1
"srzeppa/computers-architecture",108,"User",,0,0,true,true,true,false,0,,0,0,"master",1
"srzeppa/database-applications",784,"User",,0,0,true,true,true,false,0,,0,0,"master",1
"EmuxEvans/sailing",14812,"User",,0,0,true,false,false,false,0,,0,0,"master",1
"feel88free/TEST",104,"User",,0,0,true,true,true,false,0,,0,0,"master",1
"danielahn22kor/test",3144,"User","",0,0,true,true,true,false,0,,0,0,"master",1
"erjiaqing/eEncry",136,"User",,0,0,true,true,true,false,0,,0,0,"master",1
"ronaldofilho/rxwen-blog-stuff",9192,"User",,0,0,true,false,false,false,0,,2,0,"master",1
"WangChun420/nucleo-f4x1-motion-player-project",8424,"User",,0,0,true,false,false,false,0,,0,0,"master",1
"SmileOrDie/Poucelina",144,"User",,0,0,true,true,true,false,0,,0,0,"master",1
"bohuihuang/nginx-192",1044,"User",,0,0,true,true,true,true,0,,0,0,"master",1
"alu0100753653/LPP_26",128,"User",,0,0,true,true,true,false,0,,0,0,"master",1
"nickziv/libparse",148,"User",,0,0,true,true,true,false,0,,0,0,"master",1
"alu0100785265/LPP_67",128,"User",,0,0,true,true,true,false,0,,0,0,"master",1
"a-guillot/Programming",144,"User",,0,0,true,true,true,false,0,,0,0,"master",1
"alu0100309553/LPP2-17",128,"User",,0,0,true,true,true,false,0,,0,0,"master",1
"AleixBV/Dev_class6_handout",3440,"User",,0,0,true,true,true,false,0,,0,0,"master",1
"lhings/lhings-c-linux",728,"Organization",,0,0,true,true,true,true,0,,0,0,"master",1
"NicolaFerracin/oss",464,"User",,0,0,true,true,true,false,0,,0,0,"master",1
"HungryMilk/lunhualun",518,"User",,0,0,true,true,true,false,0,,0,0,"master",1
"SamsungGalaxyTab2-AOSP/aosp_kernel_samsung_espresso",460094,"User",,0,0,true,true,true,false,1,,0,1,"aosp-6.0",1
"JavaWarrior/lab1",2296,"User",,0,0,true,true,true,false,1,,0,1,"master",1
"Dimi20210/Ruzzle",1232,"User",,0,0,true,true,true,false,0,,0,0,"master",1
"tomster954/RakNetTest",28560,"User",,0,0,true,true,true,false,0,,0,0,"master",1
"heejongahn/kcov",224,"User","",0,0,true,true,true,false,0,,0,0,"master",1
"Kurdiumov/Snake",176,"User",,0,0,true,true,true,false,0,,0,0,"master",1
"mjftw/CubeSat",133,"User",,0,0,true,true,true,false,0,,0,0,"master",1
"amsimoes/ppp_project",152,"User",,0,0,true,true,true,false,0,,0,0,"master",1
"Hirokuzu/CPEN391",2212,"User",,0,0,true,true,true,false,0,,0,0,"master",1
"edmondse/GroupF",136,"User",,0,0,true,true,true,false,0,,0,0,"master",1
"garion9013/daycode",11580,"User",,0,0,true,true,true,false,0,,0,0,"master",1
"stevewangamm/ComputerGraphics",996,"User","",0,0,true,true,true,false,0,,0,0,"master",1
"bas-t/tbs-dvbloopback",212,"User",,0,0,true,true,true,false,0,,0,0,"master",1
"guilhermecd/Metodos_de_Ordenacao_Linguagem-C",132,"User","",0,0,true,true,true,false,0,,0,0,"master",1
"Sephage/reseau",3100,"User",,0,0,true,true,true,false,0,,0,0,"master",1
"TecDroiD/rocs",524,"User",,0,0,true,true,true,false,0,,0,0,"master",1
"CarltonYang/COSC301",216,"User",,0,0,true,true,true,false,0,,0,0,"master",1
"jnutzmann/d1k",728,"User",,0,0,true,true,true,false,0,,0,0,"master",1
"JimR21/MyTest",164,"User",,0,0,true,true,true,false,0,,0,0,"master",1
"ShirazSuleman/CS50",156,"User",,0,0,true,true,true,false,0,,0,0,"master",1
"mdejong/AVSync",14812,"User","",0,0,true,true,true,false,0,,0,0,"master",1
"localvin/Lab",392,"User",,0,0,true,true,true,false,0,,0,0,"master",1
"glguida/mh",1748,"User",,0,0,true,true,true,false,1,,0,1,"master",1
"titux75/arduino_trafficlight",160,"User",,0,0,true,true,true,true,0,,0,0,"master",1
"osbroks/ysu_demidova",156,"User",,0,0,true,true,true,false,0,,0,0,"master",1
"diegowangyz/psu_serializer",223,"User",,0,0,false,true,true,false,0,,0,0,"master",1
"citizen-seven/ilab.One_and_only",184,"User",,0,0,true,true,true,false,0,,0,0,"master",1
"nolanar/cs2014-systems-programming",224,"User",,0,0,true,true,true,false,0,,0,0,"master",1
"Future-Cities-Lab/DCOpenFrameworks",12596,"Organization",,0,0,true,true,true,false,0,,0,0,"master",1
"AICP/device_motorola_clark",12000,"Organization",,0,0,true,true,true,false,6,,0,6,"lp5.1",1
"ndtom/TextInsecure",14036,"User","",0,0,true,true,true,false,0,,0,0,"master",1
"WASDMagician/BoltonUniversitySoftwareEngineeringAssignment",0,"User",,0,0,true,true,true,false,0,,0,0,"master",1
"michaelh800/GuildWars",1296,"User",,0,0,true,true,true,false,0,,0,0,"master",1
"abusomani/osprog",152,"User",,0,0,true,true,true,false,0,,0,0,"master",1
"alu0100837353/LPP_68",144,"User",,0,0,true,true,true,false,0,,0,0,"master",1
"degoossez/MyOCRTEST",40060,"User",,0,0,true,true,true,false,0,,0,0,"master",1
"190235047/mydbproxy",23080,"User",,0,0,true,true,true,false,0,,0,0,"master",1
"SkySpecial/OpenMP-studying",176,"User",,0,0,true,true,true,false,0,,0,0,"master",1
"tectronics/pure-lang",20928,"User",,0,0,true,false,false,false,0,,0,0,"master",1
"tectronics/colditzescape",5312,"User",,0,0,true,false,false,false,0,,3,0,"master",1
"wallymathieu/Thompson_Regex",220,"User","",0,0,true,true,true,false,0,,0,0,"master",1
"Drakirus/SPI_INFO_L2",155,"User",,0,0,true,true,true,false,1,,0,1,"master",1
"rbaghdadi/non-linear-FM",176,"User",,0,0,true,true,true,false,0,,0,0,"master",1
"giacomov/pyggop",304,"User",,0,0,true,true,true,false,0,,0,0,"master",1
"shiyingzheng/CS342_hw3",124,"User",,0,0,true,true,true,false,0,,0,0,"master",1
"gcpmendez/LPP_03",128,"User","",0,0,true,true,true,false,0,,0,0,"master",1
