"XWilliamY/practiceC",132,"User",,0,0,true,true,true,false,0,,0,0,"master",1
"weprikjm/PhysicsBodyPosition",2992,"User",,0,0,true,true,true,false,0,,0,0,"master",1
"SarahVictoria/ARM-Experimental",16448,"User",,0,0,true,true,true,false,0,,0,0,"master",1
"lackley/maze",224,"User",,0,0,true,true,true,false,0,,0,0,"master",1
"joaomarcuslf/Help-code",110,"User",,0,0,true,true,true,false,0,,0,0,"master",1
"theluisitorey/Algoritmos_EDA",132,"User",,0,0,true,true,true,false,0,,0,0,"master",1
"ramkripal/Spoj",148,"User",,0,0,true,true,true,false,0,,0,0,"master",1
"vinaykumar1690/xv6",172,"User",,0,0,true,true,true,false,0,,0,0,"master",1
"skycrown/LinuxNetworkProgram",184,"User",,0,0,true,true,true,false,0,,0,0,"master",1
"ZackeesInc/EZBlueSmirfUART",144,"Organization",,0,0,true,true,true,false,0,,0,0,"master",1
"rgooch/mailutils",180,"User",,0,0,true,true,true,false,0,,0,0,"master",1
"KaranDhiran/SuperMarket",140,"User",,0,0,true,true,true,false,0,,0,0,"master",1
"yudi-matsuzake/0xY",108,"User",,0,0,true,true,true,false,0,,0,0,"master",1
"xiyuxiexxy/SetCover",2612,"User",,0,0,true,true,true,false,0,,0,0,"master",1
"dedward3/ds",144,"User",,0,0,true,true,true,false,0,,0,0,"master",1
"xiyuxiexxy/SuffixTree_DynamicProgramming",64208,"User",,0,0,true,true,true,false,0,,0,0,"master",1
"papgo01git/testing_repo",114,"User",,0,0,true,true,true,false,2,,0,2,"master",1
"foobarph/droidsheep",3312,"User",,0,0,true,false,false,false,0,,11,0,"master",1
"robertab/IS1500Lab3",188,"User",,0,0,true,true,true,false,0,,0,0,"master",1
"mingchenaabb/PINY-XLBOMD",1832,"User",,0,0,true,true,true,false,0,,0,0,"master",1
"sirajmuneer123/Unix-shell",140,"User",,0,0,true,true,true,false,0,,0,0,"master",1
"priyankatdombale/railway",116,"User","",0,0,true,true,true,false,0,,0,0,"master",1
"zck15/Joseph-problem",124,"User",,0,0,true,true,true,false,0,,0,0,"master",1
"AlaminMahamud/UVA-Problem-Solving",156,"User",,0,0,true,true,true,false,0,,0,0,"master",1
"zaid09/hackerRank-problems",156,"User",,0,0,true,true,true,false,0,,0,0,"master",1
"lsm/hdfs-fuse",156,"User",,0,0,true,false,false,false,0,,9,0,"master",1
"calebns/freertos_stm32f4_discovery",25100,"User",,0,0,true,true,true,false,0,,0,0,"master",1
"TheMatjaz/C_programming_lanugage_exercises",1044,"User",,0,0,true,true,true,false,0,,0,0,"develop",1
"voroojax/fast-flux",116,"User",,0,0,true,false,false,false,0,,0,0,"master",1
"ariccio/VeraCrypt-static-analysis",24212,"User",,0,0,true,true,true,false,0,,0,0,"master",1
"Morphux/morphux",421908,"Organization",,0,0,true,true,true,false,0,,0,0,"master",1
"gaoshuaixiong/SRIO",14816,"User",,0,0,true,true,true,false,0,,0,0,"master",1
"vladimiroltean/POV.Reloaded",1736,"User",,0,0,true,true,true,false,0,,0,0,"master",1
"Leesin123/Venturesity",124,"User","",0,0,true,true,true,false,0,,0,0,"master",1
"liulu72056/algorithmic",164,"User",,0,0,true,true,true,false,0,,0,0,"master",1
"LadislavSopko/sqdbcpp",1212,"User",,0,0,true,false,false,false,0,,2,0,"master",1
"andpic/scip-edited",11828,"User",,0,0,true,true,true,false,0,,0,0,"master",1
"amontalban/beanstalkd",552,"User",,0,0,true,true,true,false,0,,0,0,"master",1
"lihuanghai/word2vec",272,"User",,0,0,true,false,false,false,0,,35,0,"master",1
"d0tiKs/PRF",184,"User",,0,0,true,true,true,false,0,,0,0,"master",1
"dianlujitao/platform_hardware_qcom_gps",1228,"User",,0,0,true,true,true,false,0,,0,0,"LA.BF64.1.2.1_rb2.37",1
"zonque/libnftnl",1276,"User",,0,0,true,true,true,false,0,,0,0,"master",1
"sigma-embedded/mx6-usbloader",120,"Organization",,0,0,true,true,true,false,0,,0,0,"master",1
"Uinelj/L-epicerie-des-mots",118,"User",,0,0,true,true,true,false,1,,0,1,"master",1
"mcnestrb/FreeRDP",34032,"User",,0,0,true,true,true,false,0,,0,0,"master",1
"sambeaven/FirstPebbleFace",180,"User",,0,0,true,true,true,false,0,,0,0,"master",1
"yterrade/C",108,"User",,0,0,true,true,true,false,0,,0,0,"master",1
"sigma-embedded/elito-image-stream",156,"Organization",,0,0,true,true,true,false,0,,0,0,"master",1
"burdas07/secure-file-transfer",4928,"User",,0,0,true,true,true,false,0,,0,0,"master",1
"suryasundarraj/pam-password-vusb",242,"User","",0,0,true,true,true,false,1,,0,1,"master",1
"Valadez601/Astonia-New-World-set-up",11208,"User",,0,0,true,true,true,false,0,,0,0,"master",1
"nfxosp/platform_device_samsung_omap4-common",2560,"Organization","",0,0,true,true,true,false,0,,0,0,"aosp-5.1.1",1
"CorentinLeal/Snake",126,"User",,0,0,true,true,true,false,0,,0,0,"master",1
"trevorta/PracticeC",720,"User",,0,0,true,true,true,false,0,,0,0,"master",1
"ProductQualityPersonne/test2",144,"User",,0,0,true,true,true,false,0,,0,0,"master",1
"raversnet/oversight",74644,"User",,0,0,true,false,false,false,0,,177,0,"master",1
"kristoffer1lundberg/bftrCam",4692,"User",,0,0,true,true,true,false,0,,0,0,"master",1
"kehr/DataStructure",144,"User",,0,0,true,true,true,false,0,,0,0,"master",1
"BoldCloud/libemu",4296,"Organization",,0,0,true,true,true,false,0,,0,0,"master",1
"lucien1011/L1Menu",1892,"User",,0,0,true,true,true,false,0,,0,0,"master",1
"vitorcarvalhoml/lammpi",124,"User",,0,0,true,true,true,false,0,,0,0,"develop",1
"aakashsheth/shell",140,"User",,0,0,true,true,true,false,0,,0,0,"master",1
"ArchQsk/test",176,"User",,0,0,true,true,true,false,0,,0,0,"master",1
"BigGuyWhoKills/Final-Project",128,"User",,0,0,true,true,true,false,0,,0,0,"master",1
"markmerz/linux-surround-sound",156,"User",,0,0,true,true,true,false,0,,0,0,"master",1
"OpenInkpot-archive/iplinux-libpng",1200,"Organization",,0,0,true,true,true,false,0,,0,0,"master",1
"OpenInkpot-archive/iplinux-libsm",480,"Organization",,0,0,true,true,true,false,0,,0,0,"master",1
"OpenInkpot-archive/iplinux-libxau",224,"Organization",,0,0,true,true,true,false,0,,0,0,"master",1
"OpenInkpot-archive/iplinux-pixman",2368,"Organization",,0,0,true,true,true,false,0,,0,0,"master",1
"OpenInkpot-archive/iplinux-xcb-util",452,"Organization",,0,0,true,true,true,false,0,,0,0,"master",1
"OpenInkpot-archive/iplinux-ncurses",3160,"Organization",,0,0,true,true,true,false,0,,0,0,"master",1
"OpenInkpot-archive/iplinux-readline5",2144,"Organization",,0,0,true,true,true,false,0,,0,0,"master",1
"OpenInkpot-archive/iplinux-shared-mime-info",728,"Organization",,0,0,true,true,true,false,0,,0,0,"master",1
"OpenInkpot-archive/iplinux-tiff",2024,"Organization",,0,0,true,true,true,false,0,,0,0,"master",1
"OpenInkpot-archive/iplinux-zlib",1676,"Organization",,0,0,true,true,true,false,0,,0,0,"master",1
"clementleger/lacktable",4212,"User",,0,0,true,true,true,false,0,,0,0,"master",1
"OpenInkpot-archive/iplinux-linux-libc-dev",428284,"Organization",,0,0,true,true,true,false,0,,0,0,"master",1
"Brlgomez/CMPS101-hashing",152,"User",,0,0,true,true,true,false,0,,0,0,"master",1
"JohnnyPP/AVR-ATtiny85-LED-Timer-IRQ",140,"User",,0,0,true,true,true,false,0,,0,0,"master",1
"OpenInkpot-archive/efreet",1104,"Organization",,0,0,true,true,true,false,0,,0,0,"master",1
"OpenInkpot-archive/emupdf",144,"Organization",,0,0,true,true,true,false,0,,0,0,"master",1
"OpenInkpot-archive/locopdf",440,"Organization",,0,0,true,true,true,false,0,,0,0,"master",1
"OpenInkpot-archive/iplinux-antiword",444,"Organization",,0,0,true,true,true,false,0,,0,0,"master",1
"OpenInkpot-archive/iplinux-redis",540,"Organization",,0,0,true,true,true,false,0,,0,0,"master",1
"OpenInkpot-archive/iplinux-mupdf-fontdump",4960,"Organization",,0,0,true,true,true,false,0,,0,0,"master",1
"OpenInkpot-archive/iplinux-libxcb",620,"Organization",,0,0,true,true,true,false,0,,0,0,"master",1
"OpenInkpot-archive/iplinux-x11proto-trap",248,"Organization",,0,0,true,true,true,false,0,,0,0,"master",1
"OpenInkpot-archive/iplinux-x11proto-xext",620,"Organization",,0,0,true,true,true,false,0,,0,0,"master",1
"OpenInkpot-archive/libextractor-mini",308,"Organization",,0,0,true,true,true,false,0,,0,0,"master",1
"LvYe-Go/15615",7648,"User",,0,0,true,true,true,false,0,,0,0,"master",1
"OpenInkpot-archive/iplinux-alsa-utils",1420,"Organization",,0,0,true,true,true,false,0,,0,0,"master",1
"OpenInkpot-archive/iplinux-binutils",27700,"Organization",,0,0,true,true,true,false,0,,0,0,"master",1
"OpenInkpot-archive/iplinux-eet",2236,"Organization",,0,0,true,true,true,false,0,,0,0,"master",1
"OpenInkpot-archive/iplinux-expat",680,"Organization",,0,0,true,true,true,false,0,,0,0,"master",1
"OpenInkpot-archive/iplinux-fontconfig",4460,"Organization",,0,0,true,true,true,false,0,,0,0,"master",1
"OpenInkpot-archive/iplinux-glib2.0",25272,"Organization",,0,0,true,true,true,false,0,,0,0,"master",1
"cburwell/pcap_analyzer",108,"User",,0,0,true,true,true,false,0,,0,0,"master",1
"OpenInkpot-archive/edje",5080,"Organization",,0,0,true,true,true,false,0,,0,0,"master",1
"OpenInkpot-archive/elock",648,"Organization",,0,0,true,true,true,false,0,,0,0,"master",1
"OpenInkpot-archive/elowbatt",396,"Organization",,0,0,true,true,true,false,0,,0,0,"master",1
