"lasarus/MajorSystemSearcher",172,"User",,0,0,true,true,true,false,0,,0,0,"master",1
"Anubioz/firmware-mod-kit",10404,"User",,0,0,true,false,false,false,0,,41,0,"master",1
"MichaelPalmer1/Systems-Software",168,"User",,0,0,true,true,true,false,0,,0,0,"master",1
"PhantomRom/android_external_libpng",4016,"Organization",,0,0,true,true,true,false,0,,0,0,"mm6.0",1
"PhantomRom/android_external_ipsec-tools",1948,"Organization",,0,0,true,true,true,false,0,,0,0,"mm6.0",1
"YuChen-Qian/Exercise",316,"User",,0,0,true,true,true,false,0,,0,0,"master",1
"PhantomRom/android_external_nano",1624,"Organization",,0,0,true,true,true,false,0,,0,0,"mm6.0",1
"jordan-woyak/wii-banner-player",1116,"User",,0,0,true,false,false,false,0,,2,0,"master",1
"pratikborhade/ARDroneProject",136,"User",,0,0,true,true,true,false,0,,0,0,"master",1
"sbp694/pop_exercise2",148,"User",,0,0,true,true,true,false,0,,0,0,"master",1
"MiniOS/android_device_oneplus_oneplus2",8668,"Organization","https://github.com/Grarak/android_device_oneplus_oneplus2.git",0,0,true,true,true,false,0,,0,0,"cm-12.1",1
"steveunixson/sau",148,"User",,0,0,true,true,true,false,0,,0,0,"master",1
"kerneltask/miniz",532,"User",,0,0,true,false,false,false,0,,27,0,"master",1
"boerge42/Tcl-i2c",152,"User",,0,0,true,true,true,false,0,,0,0,"master",1
"magicseb/zlx",3824,"User",,0,0,true,false,false,false,0,,0,0,"master",1
"magicseb/ced2911repo",1476,"User",,0,0,true,false,false,false,0,,0,0,"master",1
"qiufengmama/sora-core",2016,"User",,0,0,true,false,false,false,0,,0,0,"master",1
"itskhaledmohammad/hangman-terminalised",128,"User",,0,0,true,true,true,false,0,,0,0,"master",1
"HavanneZ/pmaatti",216,"User",,0,0,true,true,true,false,0,,0,0,"master",1
"DanCard/noscroll",156,"User",,0,0,true,true,true,false,0,,0,0,"master",1
"Arvind2222/DS",140,"User",,0,0,true,true,true,false,0,,0,0,"master",1
"diegomendesmoreno/Locked_up",132,"User",,0,0,true,true,true,false,0,,0,0,"master",1
"younglululu/COCACOLA",30892,"User",,0,0,true,true,true,false,0,,0,0,"master",1
"kerneltask/sbzip",988,"User",,0,0,true,true,true,false,0,,0,0,"master",1
"arunkuttiyara/Operating_system_concepts",176,"User",,0,0,true,true,true,false,0,,0,0,"master",1
"rdub/iphone-dataprotection.keychainviewer",196,"User",,0,0,true,false,false,false,0,,0,0,"master",1
"cristiangabor/C-work",148,"User",,0,0,true,true,true,false,0,,0,0,"master",1
"scottlinne/pset62015",120,"User",,0,0,true,true,true,false,0,,0,0,"master",1
"measuredweighed/TORA",144,"User",,0,0,true,true,true,false,0,,0,0,"master",1
"chienhong/AudioTest",2456,"User",,0,0,true,true,true,false,0,,0,0,"master",1
"lanka2w/caf-pluto",913132,"User",,0,0,true,true,true,false,0,,0,0,"test",1
"reubenr/cs425_hw4",276,"User",,0,0,true,true,true,false,0,,0,0,"master",1
"111408023/Train",128,"User",,0,0,true,true,true,false,0,,0,0,"master",1
"BlueMoon-Project/BlueMoon-GEEHRC",745300,"Organization",,0,0,true,true,true,false,1,,0,1,"master",1
"Hadron67/Quadrotor_stm32",2128,"User",,0,0,true,true,true,false,0,,0,0,"master",1
"h4773rJL/gcc-examples",140,"User",,0,0,true,true,true,false,0,,0,0,"master",1
"Clodial/GummyShips2",10988,"User",,0,0,true,true,true,false,0,,0,0,"master",1
"nerox8664/diplom-firmware",5900,"User",,0,0,true,true,true,false,0,,0,0,"master",1
"EdyCisnerosA/Linus_Calculadora",168,"User",,0,0,true,true,true,false,0,,0,0,"master",1
"akinaru/plot-sdl",480,"User",,0,0,true,true,true,false,0,,0,0,"master",1
"arunkuttiyara/linux_device_drivers",244,"User",,0,0,true,true,true,false,0,,0,0,"master",1
"PhantomRom/android_bionic",23292,"Organization",,0,0,true,true,true,false,0,,0,0,"mm6.0",1
"AJ-Moore/Munch",3036,"User",,0,0,true,true,true,false,0,,0,0,"master",1
"Sorinace/libft",156,"User",,0,0,true,true,true,false,0,,0,0,"master",1
"greatecho/ICAC",156,"Organization",,0,0,true,true,true,false,0,,0,0,"master",1
"yenchanghsu/hungarian.torch",144,"User",,0,0,true,true,true,false,0,,0,0,"master",1
"tholberton/openriff",396,"User",,0,0,true,true,true,false,0,,0,0,"master",1
"cy33hc/ffmpeg_sample",11692,"User",,0,0,true,true,true,false,0,,0,0,"master",1
"juteman/acmoj",128,"User",,0,0,true,true,true,false,0,,0,0,"master",1
"franzu/exercicio2.1",188,"User",,0,0,true,true,true,false,0,,0,0,"master",1
"nonapod/libyutil",164,"User",,0,0,true,true,true,false,0,,0,0,"master",1
"Dominik-H/Computational-Artificial-Intelligence-Assignments",408,"User",,0,0,true,true,true,false,0,,0,0,"master",1
"pvphan/bme511",840,"User",,0,0,true,true,true,false,0,,0,0,"master",1
"PabloCipriano/FUP1C",172,"User",,0,0,true,true,true,false,0,,0,0,"master",1
"supercoffee/insolent-prune",424,"User",,0,0,true,true,true,false,1,,0,1,"master",1
"koyung/codeforces",188,"User",,0,0,true,true,true,false,0,,0,0,"master",1
"dustin-biser/CS842",1280,"User","",0,0,true,true,true,false,0,,0,0,"master",1
"schnip/ProjectParty",2712,"User",,0,0,true,true,true,false,0,,0,0,"master",1
"rr-zenfone2/android_kernel_asus_moorefield",138488,"Organization","http://zenfoneph.com",0,0,true,true,true,false,0,,0,0,"master",1
"drkitty/pickler",180,"User",,0,0,true,true,true,false,0,,0,0,"master",1
"hjbyt/Calculator",1872,"User",,0,0,true,true,true,false,0,,0,0,"master",1
"Riyaaaaa/NeCollection",5004,"User",,0,0,true,true,true,false,0,,0,0,"master",1
"kshirsagarbj15/DSA",132,"User","",0,0,true,true,true,false,0,,0,0,"master",1
"prosenkranz/git-demo",136,"User",,0,0,true,true,true,false,0,,0,0,"dev",1
"danrasband/ruby-ffts",152,"User",,0,0,true,true,true,false,0,,0,0,"master",1
"Kike-Ramirez/FiducialMapper",22076,"User",,0,0,true,true,true,false,0,,0,0,"master",1
"DeidaraC/ctype.h",156,"Organization","",0,0,true,true,true,false,0,,0,0,"master",1
"yonh/30day_make_os",10428,"User","",0,0,true,true,true,false,0,,0,0,"master",1
"afaerber/afboot-rx",132,"User",,0,0,true,true,true,false,0,,0,0,"master",1
"Michael-List/Webstats",156,"User",,0,0,true,true,true,false,0,,0,0,"master",1
"allisongrabowski/EE460N-Lab4",372,"User",,0,0,true,true,true,false,0,,1,0,"master",1
"sonodasong/ESP8266_Android_Color_LED",580,"User",,0,0,true,true,true,false,0,,0,0,"master",1
"amaurea/actgetdata",160,"User",,0,0,true,true,true,false,0,,0,0,"master",1
"lab-anaws/lab1",9780,"Organization",,0,0,true,true,true,false,0,,0,0,"master",1
"MrDongQihong/tcpl",172,"User",,0,0,true,true,true,false,0,,0,0,"master",1
"ndi13/tema1",2612,"User",,0,0,true,true,true,false,0,,0,0,"master",1
"jfpadilha/exercicios_C",156,"User",,0,0,true,true,true,false,0,,0,0,"master",1
"metredigm/backlight",144,"User",,0,0,true,true,true,false,0,,0,0,"master",1
"alittlesheep/mywork",124,"User",,0,0,true,true,true,false,0,,0,0,"master",1
"mauriciomage/GEOgram",128,"User",,0,0,true,true,true,false,0,,0,0,"master",1
"enggcs/linux_system_programming",136,"User",,0,0,true,true,true,false,0,,0,0,"master",1
"WiserYaldabaoth/hello-world",148,"User",,0,0,true,true,true,false,0,,0,0,"master",1
"ygalanter/Simons_Cat_Day",124,"User",,0,0,true,true,true,false,0,,0,0,"master",1
"wheelsystems/nvlist",172,"Organization",,0,0,true,true,true,false,0,,0,0,"master",1
"justsuperman/GPS-GSM-Bluth",188,"User",,0,0,true,true,true,false,0,,0,0,"master",1
"jasonwong115/BankServer",168,"User","",0,0,true,true,true,false,0,,0,0,"master",1
"intelfx/transmissionbt",65220,"User",,0,0,true,true,true,false,0,,0,0,"master",1
"PhantomRom/android_external_busybox",27496,"Organization",,0,0,true,true,true,false,0,,0,0,"mm6.0",1
"silizium/ImperialMarch",176,"User",,0,0,true,true,true,false,0,,0,0,"master",1
"ardente/newlib",127700,"User",,0,0,true,true,true,false,0,,0,0,"master",1
"UmbrellaWizard/rose-mud",308,"User",,0,0,true,true,true,false,0,,0,0,"master",1
"yuriprym/Joe_DJ",108,"User",,0,0,true,true,true,false,0,,0,0,"master",1
"Hyunsu-Lee/opencl",8028,"User",,0,0,true,true,true,false,0,,0,0,"master",1
"ale-roy/ft_sh1",144,"User",,0,0,false,true,false,false,0,,0,0,"master",1
"nikitadanilov/fs-repalg",63876,"User",,0,0,true,true,true,false,0,,0,0,"master",1
"gagagaga23/32bitmicro",7912,"User",,0,0,true,false,false,false,0,,0,0,"master",1
"rock12/ALPS.L0.MT6580.SMT.DEV.P1.4_K80_KERNEL",147492,"User",,0,0,true,true,true,false,0,,0,0,"master",1
"patrickToca/rstm",3184,"User",,0,0,true,false,false,false,0,,3,0,"master",1
"nathanhi/steep-beta",148,"User",,0,0,true,true,true,false,0,,0,0,"master",1
"coderw/QuantNetHW1",160,"User",,0,0,true,true,true,false,0,,0,0,"master",1
