"houwentaoff/dog_lion",120,"User",,0,0,true,true,true,false,0,,0,0,"master",1
"cksharpa/opendpi",408,"User",,0,0,true,false,false,false,0,,26,0,"master",1
"natarajanrodrigues/ESD_trees",148,"User",,0,0,true,true,true,false,0,,0,0,"master",1
"Darkmasterpa/Black-Out",140,"User",,0,0,true,true,true,false,0,,0,0,"master",1
"nxdao2000/RcppSQMC",10640,"User",,0,0,true,true,true,false,0,,0,0,"master",1
"dcd/checkpolicy",204,"User",,0,0,true,true,true,false,0,,0,0,"LA.BR.1.2.3",1
"justinbass/magisome_sim",856,"User",,0,0,true,true,true,false,0,,0,0,"master",1
"italogs/Lista-Simplesmente-Encadeada",108,"User",,0,0,true,true,true,false,0,,0,0,"master",1
"ryn-inaba/iphone-dataprotection.keychainviewer",192,"User",,0,0,true,false,false,false,0,,0,0,"master",1
"oberstet/postgres-xl",143579,"User",,0,0,true,true,true,false,1,,0,1,"master",1
"jonadiazz/simulated-machine",132,"User",,0,0,true,true,true,false,0,,0,0,"master",1
"hiddenid01/redis",976,"User",,0,0,true,false,false,false,0,,143,0,"master",1
"kerrot/TouhouARC",26928,"User",,0,0,true,true,true,false,0,,0,0,"master",1
"Uyouii/dict",5284,"User",,0,0,true,true,true,false,0,,0,0,"master",1
"technocf/doom-c",108,"User",,0,0,true,true,true,false,0,,0,0,"master",1
"tedcy/ylibevent",148,"User",,0,0,true,true,true,false,0,,0,0,"master",1
"voroojax/avalanche",25960,"User",,0,0,true,false,false,false,0,,3,0,"master",1
"vincenteof/VinBFInterpreter",140,"User",,0,0,true,true,true,false,0,,0,0,"master",1
"voroojax/ghost-usb-honeypot",868,"User",,0,0,true,false,false,false,0,,3,0,"master",1
"asvkarthick/LearnMakefile",108,"User",,0,0,true,true,true,false,0,,0,0,"master",1
"diroussel/lua-web-tools",352,"User",,0,0,true,false,false,false,0,,0,0,"master",1
"pofferfish/PPE-project",81508,"User",,0,0,true,true,true,false,0,,0,0,"master",1
"myefdok/apv",64744,"User",,0,0,true,false,false,false,0,,116,0,"master",1
"marcopovitch/lsqrsolve",164,"User",,0,0,true,true,true,false,0,,0,0,"master",1
"ddryden/pf2gexf",144,"User",,0,0,true,true,true,false,0,,0,0,"master",1
"jonathan84clark/Flashlight6",372,"User",,0,0,true,true,true,false,0,,0,0,"master",1
"136048599/autoquad",2008,"User",,0,0,true,false,false,false,0,,1,0,"master",1
"lod531/cs3071",796,"User",,0,0,true,true,true,false,0,,0,0,"master",1
"Lprigara/KernelLinuxRaspberry",135040,"User",,0,0,true,true,true,false,0,,0,0,"master",1
"OpenInkpot-archive/contrib-mkv3update",116,"Organization",,0,0,true,true,true,false,0,,0,0,"master",1
"OpenInkpot-archive/liblanguage",172,"Organization",,0,0,true,true,true,false,0,,0,0,"master",1
"jjacobson93/comp280-labs",448,"User","",0,0,true,true,true,false,0,,0,0,"master",1
"TylerWardle/PebbleFace",196,"User",,0,0,true,true,true,false,0,,0,0,"master",1
"tusharjain95/teslaos_device_cancro",4184,"User",,0,0,true,true,true,false,0,,0,0,"cm-12.1",1
"bdevans/spike",992,"User",,0,0,true,true,true,false,0,,0,0,"master",1
"OpenInkpot-archive/iplinux-dpkg",30828,"Organization",,0,0,true,true,true,false,0,,0,0,"master",1
"Brlgomez/CMPS101-sorting",288,"User",,0,0,true,true,true,false,0,,0,0,"master",1
"OpenInkpot-archive/iplinux-librep",1672,"Organization",,0,0,true,true,true,false,0,,0,0,"master",1
"OpenInkpot-archive/iplinux-binutils-host",27676,"Organization",,0,0,true,true,true,false,0,,0,0,"master",1
"Brlgomez/CMPS101-longList",136,"User",,0,0,true,true,true,false,0,,0,0,"master",1
"OpenInkpot-archive/iplinux-cgit",712,"Organization",,0,0,true,true,true,false,0,,0,0,"master",1
"OpenInkpot-archive/iplinux-cloog-ppl",936,"Organization",,0,0,true,true,true,false,0,,0,0,"master",1
"OpenInkpot-archive/iplinux-bzip2",1020,"Organization",,0,0,true,true,true,false,0,,0,0,"master",1
"OpenInkpot-archive/iplinux-dosfstools",316,"Organization",,0,0,true,true,true,false,0,,0,0,"master",1
"OpenInkpot-archive/iplinux-dropbear",2200,"Organization",,0,0,true,true,true,false,0,,0,0,"master",1
"OpenInkpot-archive/iplinux-e2fsprogs",13132,"Organization",,0,0,true,true,true,false,0,,0,0,"master",1
"OpenInkpot-archive/iplinux-eina",1696,"Organization",,0,0,true,true,true,false,0,,0,0,"master",1
"OpenInkpot-archive/iplinux-embryo",1968,"Organization",,0,0,true,true,true,false,0,,0,0,"master",1
"OpenInkpot-archive/iplinux-gnupg",4312,"Organization",,0,0,true,true,true,false,0,,0,0,"master",1
"OpenInkpot-archive/iplinux-libjpeg6b",868,"Organization",,0,0,true,true,true,false,0,,0,0,"master",1
"OpenInkpot-archive/iplinux-libmpdclient",884,"Organization",,0,0,true,true,true,false,0,,0,0,"master",1
"OpenInkpot-archive/iplinux-libpcap",720,"Organization",,0,0,true,true,true,false,0,,0,0,"master",1
"OpenInkpot-archive/iplinux-libxdmcp",232,"Organization",,0,0,true,true,true,false,0,,0,0,"master",1
"OpenInkpot-archive/iplinux-libpthread-stubs",128,"Organization",,0,0,true,true,true,false,0,,0,0,"master",1
"OpenInkpot-archive/iplinux-mupdf",7228,"Organization",,0,0,true,true,true,false,0,,0,0,"master",1
"Brlgomez/CMPS101-intstack",128,"User",,0,0,true,true,true,false,0,,0,0,"master",1
"OpenInkpot-archive/iplinux-sqlite3",4148,"Organization",,0,0,true,true,true,false,0,,0,0,"master",1
"OpenInkpot-archive/iplinux-wireless-tools",376,"Organization",,0,0,true,true,true,false,0,,0,0,"master",1
"OpenInkpot-archive/iplinux-wpasupplicant",1532,"Organization",,0,0,true,true,true,false,0,,0,0,"master",1
"OpenInkpot-archive/iplinux-xorg-server",41856,"Organization",,0,0,true,true,true,false,0,,0,0,"master",1
"OpenInkpot-archive/iplinux-fakeltdl",124,"Organization",,0,0,true,true,true,false,0,,0,0,"master",1
"OpenInkpot-archive/iplinux-hotplug2",168,"Organization",,0,0,true,true,true,false,0,,0,0,"master",1
"OpenInkpot-archive/iplinux-inputattach",128,"Organization",,0,0,true,true,true,false,0,,0,0,"master",1
"OpenInkpot-archive/iplinux-libpicodict",140,"Organization",,0,0,true,true,true,false,0,,0,0,"master",1
"OpenInkpot-archive/iplinux-psmisc",516,"Organization",,0,0,true,true,true,false,0,,0,0,"master",1
"sevengram/simplescalar",2968,"User",,0,0,true,true,true,false,0,,0,0,"lab1-1",1
"AOSP-JF-MM/platform_hardware_broadcom_libbt",312,"Organization",,0,0,true,true,true,false,0,,0,0,"aosp-6.0-test",1
"AOSP-JF-MM/platform_system_bt",8020,"Organization",,0,0,true,true,true,false,0,,0,0,"aosp-6.0-test",1
"snitish/libgmm",176,"User","",0,0,true,true,true,false,0,,0,0,"master",1
"Nerconer/lp",260,"User","",0,0,true,true,true,false,0,,0,0,"master",1
"OpenInkpot-archive/metronomefb-support",124,"Organization",,0,0,true,true,true,false,0,,0,0,"master",1
"OpenInkpot-archive/ecore",8612,"Organization",,0,0,true,true,true,false,0,,0,0,"master",1
"OpenInkpot-archive/iplinux-jbig2dec",612,"Organization",,0,0,true,true,true,false,0,,0,0,"master",1
"OpenInkpot-archive/iplinux-kexec-tools",476,"Organization",,0,0,true,true,true,false,0,,0,0,"master",1
"OpenInkpot-archive/iplinux-libice",524,"Organization",,0,0,true,true,true,false,0,,0,0,"master",1
"OpenInkpot-archive/iplinux-libid3tag",500,"Organization",,0,0,true,true,true,false,0,,0,0,"master",1
"OpenInkpot-archive/iplinux-liblops",116,"Organization",,0,0,true,true,true,false,0,,0,0,"master",1
"OpenInkpot-archive/iplinux-libmad",824,"Organization",,0,0,true,true,true,false,0,,0,0,"master",1
"OpenInkpot-archive/iplinux-lzo2",788,"Organization",,0,0,true,true,true,false,0,,0,0,"master",1
"OpenInkpot-archive/iplinux-evas",22596,"Organization",,0,0,true,true,true,false,0,,0,0,"master",1
"avermeulen/c.thehardway",108,"User",,0,0,true,true,true,false,0,,0,0,"master",1
"maur1th/42-testfiles",152,"User",,0,0,true,true,true,false,0,,0,0,"master",1
"OpenInkpot-archive/iplinux-x11proto-core",716,"Organization",,0,0,true,true,true,false,0,,0,0,"master",1
"OpenInkpot-archive/iplinux-x11proto-kb",268,"Organization",,0,0,true,true,true,false,0,,0,0,"master",1
"OpenInkpot-archive/iplinux-x11proto-randr",332,"Organization",,0,0,true,true,true,false,0,,0,0,"master",1
"OpenInkpot-archive/iplinux-x11proto-render",272,"Organization",,0,0,true,true,true,false,0,,0,0,"master",1
"OpenInkpot-archive/iplinux-x11proto-resource",232,"Organization",,0,0,true,true,true,false,0,,0,0,"master",1
"OpenInkpot-archive/iplinux-x11proto-scrnsaver",240,"Organization",,0,0,true,true,true,false,0,,0,0,"master",1
"OpenInkpot-archive/iplinux-x11proto-video",244,"Organization",,0,0,true,true,true,false,0,,0,0,"master",1
"OpenInkpot-archive/iplinux-x11proto-xcmisc",236,"Organization",,0,0,true,true,true,false,0,,0,0,"master",1
"OpenInkpot-archive/edjvu",124,"Organization",,0,0,true,true,true,false,0,,0,0,"master",1
"OpenInkpot-archive/epuzzles",1460,"Organization",,0,0,true,true,true,false,0,,0,0,"master",1
"OpenInkpot-archive/madaudio",1536,"Organization",,0,0,true,true,true,false,0,,0,0,"master",1
"OpenInkpot-archive/usbwatcher",440,"Organization",,0,0,true,true,true,false,0,,0,0,"master",1
"OpenInkpot-archive/oi-build-firmware",1068,"Organization",,0,0,true,true,true,false,0,,0,0,"master",1
"mevoroth/eternal-engine-extern",132,"User",,0,0,true,true,true,false,0,,0,0,"master",1
"itgb/test_prj",144,"User",,0,0,true,true,true,false,0,,0,0,"master",1
"sfarzy/DSA",204,"User",,0,0,true,true,true,false,0,,0,0,"master",1
"waribashi624/2015-gion",148,"User",,0,0,true,true,true,false,0,,0,0,"master",1
"phalgunv/ab-initio",148,"User",,0,0,true,true,true,false,0,,0,0,"master",1
