"TylerNakamura/Recursive-Painter-Union-Problem",148,"User",,0,0,true,true,true,false,0,,0,0,"master",1
"smitma09/smitma09lc",132,"User",,0,0,true,true,true,false,0,,0,0,"master",1
"jpf/sat0",348,"User","http://www-cs-faculty.stanford.edu/~uno/programs.html",0,0,true,true,true,false,0,,0,0,"master",1
"mrgastoso/openxhc",11132,"User",,0,0,true,true,true,false,0,,0,0,"master",1
"hydrocat/estrutura_dados_1",884,"User",,0,0,true,true,true,false,0,,0,0,"master",1
"RamiroBifa/ExamenesProgra",128,"User",,0,0,true,true,true,false,0,,0,0,"master",1
"GET-TUDA-CHOPPA/DOOM-AI",18912,"User",,0,0,true,true,true,false,0,,0,0,"master",1
"kalleknast/pyOPF",140,"User",,0,0,true,true,true,false,0,,0,0,"master",1
"saint816/firstTest",144,"User",,0,0,true,true,true,false,0,,0,0,"master",1
"vred/this-source-code-is-stegged",124,"User",,0,0,true,true,true,false,0,,0,0,"master",1
"kassiansun/stm32f4",124,"User",,0,0,true,true,true,false,0,,0,0,"master",1
"alesiciliano/trabalho1prog1",144,"User",,0,0,true,true,true,false,0,,0,0,"master",1
"joshuazweig/HashTable",168,"User",,0,0,true,true,true,false,0,,0,0,"master",1
"smitbose/minshell",148,"User","",0,0,true,true,true,false,0,,0,0,"master",1
"agus0/ctemp",136,"User",,0,0,true,true,true,false,0,,0,0,"master",1
"erikandre/stm32-ov7670",420,"User",,0,0,true,true,true,false,1,,0,1,"master",1
"Rory-Pond/MANGO",2108,"User",,0,0,true,true,true,false,0,,0,0,"master",1
"NicoleRobin/ExerciseCode",11976,"User",,0,0,true,true,true,false,0,,0,0,"master",1
"hallogitty/azuremoonlight",148,"User",,0,0,true,true,true,false,0,,0,0,"master",1
"bit-trade-one/HorizontalControllerEX",812,"Organization",,0,0,true,true,true,false,0,,0,0,"master",1
"monkeyAndWolf/ABCShot",336,"User","",0,0,true,true,true,false,0,,0,0,"master",1
"CompUtahs/Rand_DIMACS_gen",132,"Organization",,0,0,true,true,true,false,0,,0,0,"master",1
"jl777/SuperNET_API",158846,"User",,0,0,true,true,true,false,3,,2,3,"master",1
"TeslaProject-Marshmallow/android_system_extras",3080,"Organization",,0,0,true,true,true,false,0,,0,0,"mm",1
"btyoung/pebble-roku-remote",156,"User",,0,0,true,true,true,false,0,,6,0,"master",1
"eaas-framework/xmount",21232,"Organization","",0,0,true,true,true,false,0,,0,0,"master",1
"caibingcheng/51MCUCWORK",984,"User",,0,0,true,true,true,false,0,,0,0,"master",1
"STM32F3Examples/Cpp_04_SegmentDisplay",3292,"Organization",,0,0,true,true,true,false,0,,0,0,"master",1
"Jfunk1994/LaserTagDev",420,"User",,0,0,true,true,true,false,0,,0,0,"master",1
"lwinmoe/segment",1628,"User",,0,0,true,true,true,false,0,,0,0,"master",1
"ErickHdez/II-Progra-Analisis",7560,"User",,0,0,true,true,true,false,0,,0,0,"master",1
"weiguojiang/code",1460,"User",,0,0,true,true,true,false,0,,0,0,"master",1
"israel03/FUP1B",0,"User",,0,0,true,true,true,false,0,,0,0,"master",1
"dwhitfield6/PIC_Catalyst_RPI_daughter_Speech_Recognition",2372,"User",,0,0,true,true,true,false,0,,0,0,"master",1
"taylorjandrews/CSCI-4273",1052,"User",,0,0,true,true,true,false,0,,0,0,"master",1
"mahiso/JudoShiai",20932,"User",,0,0,true,true,false,false,0,,0,0,"master",1
"ibmc/cancer_proteomodel",9916,"Organization",,0,0,true,true,true,false,0,,0,0,"master",1
"Team02-TeamGuinness/BIOE421_RoboHand",5344,"User",,0,0,true,true,true,false,0,,0,0,"master",1
"LordCreepity/brainfuck",184,"User",,0,0,true,true,true,false,0,,0,0,"master",1
"henyxia/ciscoChecker",172,"User",,0,0,true,true,true,false,0,,0,0,"master",1
"andyn/fbpuukottaja",88,"User",,0,0,false,true,true,false,1,,0,1,"master",1
"omonar/android_kernel_samsung_kyleproxx",132472,"User","",0,0,true,true,true,false,0,,0,0,"master",1
"fntlnz/webfs-c",168,"User",,0,0,true,true,true,false,0,,0,0,"master",1
"oldoak/LinkGods",140,"User","",0,0,true,true,true,false,0,,0,0,"master",1
"ojinxy/ParallelComputingProject2015",176,"User",,0,0,true,true,true,false,0,,0,0,"development",1
"jamtat/comp3341",504,"User",,0,0,true,true,true,false,0,,0,0,"master",1
"justandreyb/C",112,"User",,0,0,true,true,true,false,0,,0,0,"master",1
"arctarus44/fuzzbox",152,"User",,0,0,true,true,true,false,1,,0,1,"master",1
"thuhujin/Bittorrent-with-Congestion-Control",5940,"User",,0,0,true,true,true,false,1,,0,1,"master",1
"Burn2539/CoRo_PW_PSOC",3988,"User",,0,0,true,true,true,false,0,,0,0,"master",1
"GustavoSchroder/ClassesGrauB",22108,"User",,0,0,true,true,true,false,0,,0,0,"master",1
"trabalhador/Trabalho-Prog1",144,"User",,0,0,true,true,true,false,0,,0,0,"master",1
"w3nd1go/android_device_oppo_msm8974-common",1194,"User",,0,0,true,true,true,false,1,,0,1,"m-caf",1
"zpjjtzzq/apue",136,"User",,0,0,true,true,true,false,0,,0,0,"master",1
"fti-4th-year/net-multicast-chat",132,"Organization",,0,0,true,true,true,false,0,,0,0,"master",1
"GoinsWithTheWind/xserver-prime-sync",39068,"User",,0,0,true,true,true,false,0,,0,0,"agoins-prime-v3",1
"David-Guo/myshell",196,"User",,0,0,true,true,true,false,0,,0,0,"master",1
"laurenskz/Game",37400,"User",,0,0,true,true,true,false,0,,0,0,"master",1
"fwhem/device_htc_flounder",31028,"User",,0,0,true,true,true,false,0,,0,0,"mm",1
"K9A2/Demo-7_ReverseBinaryTree",140,"User",,0,0,true,true,true,false,0,,0,0,"master",1
"smlle/PRA2",240,"User","",0,0,true,true,true,false,0,,0,0,"master",1
"alexblackie/st",2036,"User","http://st.suckless.org",0,0,true,true,true,false,0,,0,0,"master",1
"boutboutnico/robot",3584,"User",,0,0,true,true,true,false,0,,0,0,"master",1
"lod531/cs3021",216,"User",,0,0,true,true,true,false,0,,0,0,"master",1
"marcsances/zesh",160,"User","",0,0,true,true,true,false,0,,0,0,"master",1
"nabilbendafi/Teensy",236,"User",,0,0,true,true,true,false,0,,0,0,"master",1
"hominlinx/uboot",14652,"User",,0,0,true,true,true,false,0,,0,0,"master",1
"yulon/libjsonltp",168,"User","",0,0,true,true,true,false,0,,0,0,"master",1
"bj015852/Sundries",148,"User",,0,0,true,true,true,false,0,,0,0,"master",1
"slayerxj/learnC",152,"User",,0,0,true,true,true,false,0,,0,0,"master",1
"knone1/boot",6524,"User",,0,0,true,true,true,false,0,,0,0,"master",1
"Zauberstuhl/aqbanking",3636,"User",,0,0,true,true,true,false,0,,0,0,"master",1
"rbs90/cg1",796,"User",,0,0,true,true,true,false,0,,0,0,"master",1
"geniousisme/OS-4118-HW3",130992,"User",,0,0,true,true,true,false,0,,0,0,"master",1
"dstaffor/my-hc11-key-led",112,"User",,0,0,true,false,false,false,0,,0,0,"master",1
"Artefact2/oscanim",124,"User",,0,0,true,true,true,false,0,,0,0,"master",1
"illume/pygame_svn",8636,"User",,0,0,true,true,true,false,0,,0,0,"master",1
"K9A2/Demo-6_ParkingLot",132,"User",,0,0,true,true,true,false,0,,0,0,"master",1
"OlgaGordi/OCR_Android_App",49700,"User",,0,0,true,true,true,false,0,,0,0,"master",1
"JCisneros77/PAExamenRapidoOct22",144,"User",,0,0,true,true,true,false,0,,0,0,"master",1
"mallro1516daw2/mitja",124,"User",,0,0,true,true,true,false,0,,0,0,"master",1
"tpark6219/CS314",116,"User",,0,0,true,true,true,false,0,,0,0,"master",1
"tpark6219/314",116,"User",,0,0,true,true,true,false,0,,0,0,"master",1
"ninjz/sam4s-console",136,"User",,0,0,true,true,true,false,0,,0,0,"master",1
"MikyGonzalez/Math-calculator",148,"User",,0,0,true,true,true,false,0,,0,0,"master",1
"simark/minicoredumper",584,"User",,0,0,true,true,true,false,0,,0,0,"master",1
"psudheerhh/DNS",112,"User",,0,0,true,true,true,false,0,,0,0,"master",1
"mahlky01/lowerCase",112,"User",,0,0,true,true,true,false,0,,0,0,"master",1
"allnash/RXTX-YOSEMITE",1456,"User",,0,0,true,true,true,false,0,,0,0,"master",1
"millro04/MakeLower",108,"User",,0,0,true,true,true,false,0,,0,0,"master",1
"markjohndoyle/szip-nar",168,"User",,0,0,true,true,true,false,0,,0,0,"master",1
"yuriigouveia/demo-glsl",27128,"User",,0,0,true,false,false,false,0,,0,0,"master",1
"radomirbosak/stolicka",200,"User",,0,0,true,true,true,false,0,,0,0,"master",1
"dlarm/ti-backports",1028,"User",,0,0,true,true,true,false,0,,0,0,"master",1
"Alteous/lib-obj",264,"User",,0,0,true,false,false,false,0,,0,0,"master",1
"Azaark/frdm-tfc",6696,"User",,0,0,true,false,false,false,0,,0,0,"master",1
"devbjelic/ionic-sqlite",10596,"User",,0,0,true,true,true,false,0,,0,0,"master",1
"mit6172/homework7",152,"User",,0,0,true,true,true,false,0,,0,0,"master",1
"humberos/android_kernel_sony_msm8994",811680,"User",,0,0,true,true,true,true,0,,0,0,"28.0.A.6.8",1
"TWRP-Young2/android_kernel_samsung_young23g",132244,"Organization",,0,0,true,true,true,false,0,,0,0,"master",1
