"Stamenov96/Technical-University---Sofia",140,"User",,0,0,true,true,true,false,0,,0,0,"master",1
"ferdv/misc",140,"User",,0,0,true,true,true,false,0,,0,0,"master",1
"Shaficks/ALGAV_Project",2040,"User",,0,0,true,true,true,false,0,,0,0,"master",1
"sophiallen/pset5-speller",176,"User",,0,0,true,true,true,false,0,,0,0,"master",1
"cjo20/cos",344,"User",,0,0,true,true,true,false,0,,0,0,"master",1
"luciamo/TestesComOGit",144,"User",,0,0,true,true,true,false,0,,0,0,"master",1
"Silentlys/android_device_coolpad_cp8675",17888,"User",,0,0,true,true,true,false,2,,1,2,"cm-12.1",1
"miftahulmahfuzh/slidingwindowprotocol",622,"User",,0,0,true,true,true,false,2,,3,2,"master",1
"Infinitive-OS/hardware_libhardware",3064,"Organization",,0,0,true,true,true,false,0,,0,0,"m-6.0",1
"mfikria/Sliding-Window-Protocol",219,"User",,0,0,true,true,true,false,0,,0,0,"master",1
"rdusad813/Miniproject",144,"User","",0,0,true,true,true,false,0,,0,0,"master",1
"JohnPeacock/version",850,"User",,0,0,true,true,true,false,1,,0,1,"master",1
"OS2World/UTIL-DISK-Dskcpy2",148,"Organization",,0,0,true,true,true,false,0,,0,0,"master",1
"skatkr/sCAN-LPC11C24-",816,"User",,0,0,true,true,true,false,0,,0,0,"master",1
"NCKU-CSIE-Hackathon-Network-Team/Project",212,"Organization",,0,0,true,true,true,false,0,,0,0,"master",1
"danieldyo/CS-111--File-System",260,"User",,0,0,true,true,true,false,0,,0,0,"master",1
"binomaiheu/k8061",172,"User","",0,0,true,true,true,false,0,,0,0,"master",1
"phantasea/elinks",12080,"User",,0,0,true,true,true,false,0,,0,0,"master",1
"piza/easyrtmp",11672,"User",,0,0,true,false,false,false,0,,0,0,"master",1
"neeraj3728/mfrclib4arm",2708,"User",,0,0,true,false,false,false,0,,1,0,"master",1
"IamLupo/openssl-examples",136,"User",,0,0,true,false,false,false,0,,0,0,"master",1
"txl0591/RFIDJni",184,"User",,0,0,true,true,true,false,0,,0,0,"master",1
"Infinitive-OS/vendor_qcom_opensource_time-services",116,"Organization",,0,0,true,true,true,false,0,,0,0,"m-6.0",1
"hunterkill1987/StarFighter",38824,"User",,0,0,true,true,true,false,0,,0,0,"master",1
"8l/dcc",252,"User","https://github.com/nemerle/dcc",0,0,true,true,true,false,0,,0,0,"master",1
"gamesrol/diosmios",368,"User",,0,0,true,false,false,false,0,,1,0,"master",1
"jorgejim/FileSystem",1072,"User",,0,0,true,true,true,false,0,,0,0,"master",1
"abdelrahmanabdelnabi/my_OS",508,"User",,0,0,true,true,true,false,0,,0,0,"master",1
"sss22213/STM32-Remote-control-car",2084,"User",,0,0,true,true,true,false,0,,0,0,"master",1
"adeept/Adeept_Ultrasonic_Kit_C_Code_for_RPi",152,"User",,0,0,true,true,true,false,0,,0,0,"master",1
"LegacyXperiaAOSP/android_bootable_recovery",5604,"Organization",,0,0,true,true,true,false,0,,0,0,"lx-6.0",1
"gyc2015/stm32lib",184,"User",,0,0,true,true,true,false,0,,1,0,"master",1
"hantian01/Generalized-restart-Lanczos-for-Schrodinger-equation",1180,"User",,0,0,true,true,true,false,0,,0,0,"master",1
"eastonhou/sqlite-dao",388,"User",,0,0,true,true,true,false,0,,0,0,"master",1
"sorrowed/STM32-F7-Ethernet",3440,"User",,0,0,true,true,true,false,0,,0,0,"master",1
"Sys-Inventor-Research-Group-ICT/Sysmon",244,"User",,0,0,true,true,true,false,0,,0,0,"master",1
"weixingguang/course-check",532,"User",,0,0,true,true,true,false,0,,0,0,"master",1
"Felipe-Visgou/gitproj2",916,"User",,0,0,true,true,true,false,2,,1,2,"master",1
"mfzszgs/cloudcell",152,"User",,0,0,true,true,true,false,1,,0,1,"master",1
"Beyond01/study",148,"User",,0,0,true,true,true,false,0,,0,0,"master",1
"stinkydiver73/tgyi6_chibios",160,"User",,0,0,true,true,true,false,0,,0,0,"master",1
"PAC-ROM/android_hardware_ti_omap4",7308,"Organization",,0,0,true,true,true,false,0,,0,0,"pac-6.0",1
"david-dobor/VirtualMemory",344,"User",,0,0,true,true,true,false,0,,0,0,"master",1
"mmdsharifi/OSLab",488,"User",,0,0,true,true,true,false,0,,0,0,"master",1
"menonrahulr/XOS",3328,"User",,0,0,true,true,true,false,0,,0,0,"master",1
"ExternalReality/ats-practice",196,"User",,0,0,true,true,true,false,0,,0,0,"master",1
"PAC-ROM/android_system_bt",7864,"Organization",,0,0,true,true,true,false,0,,0,0,"pac-6.0",1
"OriRoth/Keti-Programming-Language",380,"User","",0,0,true,true,true,true,0,,0,0,"master",1
"daniellas/gosiac",168,"User",,0,0,true,true,true,false,0,,0,0,"master",1
"nem0301/unix",132,"User",,0,0,true,true,true,false,0,,0,0,"master",1
"ShaBi2015/Shell",88,"User",,0,0,false,true,true,false,0,,0,0,"master",1
"radek13/src_stare",67472,"User",,0,0,true,true,true,false,0,,0,0,"master",1
"SatoshiShimada/address_book",112,"User",,0,0,true,true,true,false,0,,0,0,"master",1
"littlecodeshop/pdp8",17204,"User",,0,0,true,true,true,false,0,,0,0,"master",1
"danielasun/darwin-op",1780,"User",,0,0,true,true,true,false,0,,0,0,"master",1
"do-aki/phpast",136,"User",,0,0,true,true,true,false,0,,0,0,"master",1
"toruyokoyama/ofxMultiTaction",4412,"User",,0,0,true,true,true,false,0,,0,0,"master",1
"pamartn/simpleweb",132,"User",,0,0,true,true,true,false,0,,0,0,"master",1
"wanhuiconcordia/comp6281_asg2",152,"User",,0,0,true,true,true,false,0,,0,0,"master",1
"andersfrank/BracketBox",624,"User",,0,0,true,true,true,false,0,,0,0,"master",1
"cemdukan/EES4100_Bridge",312,"User",,0,0,true,true,true,false,0,,0,0,"master",1
"TinyNiko/shellgame",184,"User",,0,0,true,true,true,false,0,,0,0,"master",1
"mugwch01/mugwch01lc",140,"User",,0,0,true,true,true,false,1,,0,1,"master",1
"lucaslanger/kibbles",16896,"User",,0,0,true,true,true,false,0,,0,0,"master",1
"rig-project/cglib",14468,"Organization",,0,0,true,true,true,false,0,,0,0,"master",1
"bobhyun/remote_repo",164,"User",,0,0,true,true,true,false,0,,0,0,"master",1
"youjin9209/2015_algorithm",112,"User",,0,0,true,true,true,false,0,,0,0,"master",1
"G3N/MyTest",128,"User",,0,0,true,true,true,false,0,,0,0,"master",1
"chaphe/MyTestRepo",152,"User",,0,0,true,true,true,false,0,,0,0,"master",1
"dguts/fibonacci-gmp",152,"User",,0,0,true,true,true,false,0,,0,0,"master",1
"datomnurdin/buildyourownlisp",108,"User",,0,0,true,true,true,false,0,,0,0,"master",1
"fzxs8/chmsee",1036,"User",,0,0,true,false,false,false,0,,4,0,"master",1
"zhouat/Android-Root",132,"User",,0,0,true,true,true,false,0,,0,0,"master",1
"andi34/SlimKat_system_core",12388,"User",,0,0,true,true,true,false,0,,0,0,"kk4.4",1
"eflukx/vbit",488,"User",,0,0,true,false,false,false,0,,3,0,"master",1
"drewpiroli/gwabbitemu",224,"User",,0,0,true,false,false,false,0,,1,0,"master",1
"ziruixiao/Computer-Networking",132,"User",,0,0,true,true,true,false,0,,0,0,"master",1
"jianqiuhuang/SocketProgramming",140,"User",,0,0,true,true,true,false,0,,0,0,"master",1
"imujjwal96/creditcard_validation",148,"User","",0,0,true,true,true,false,0,,0,0,"master",1
"samstagssession/ledstrip-pic12f683",3660,"User",,0,0,true,false,false,false,0,,0,0,"master",1
"wwebb/WordClock",128,"User",,0,0,true,true,true,false,0,,0,0,"master",1
"w3nd1go/android_external_tinyalsa",184,"User",,0,0,true,true,true,false,1,,0,1,"m-caf",1
"casinas/CS50",140,"User",,0,0,true,true,true,false,0,,0,0,"master",1
"nathanshaw/NES_Rom_Hacking",10824,"User",,0,0,true,true,true,false,0,,0,0,"master",1
"Aiethel/StopFeeding",10080,"User",,0,0,true,true,true,false,0,,0,0,"master",1
"w3nd1go/android_frameworks_wilhelm",8773,"User",,0,0,true,true,true,false,1,,0,1,"m-caf",1
"SparksEfrei/Projet-L2",148,"User",,0,0,true,true,true,false,0,,0,0,"master",1
"thantik/tlc5940arduino",2524,"User",,0,0,true,false,false,false,0,,22,0,"master",1
"SpiritedFang/plan9",30356,"User",,0,0,true,true,true,false,0,,0,0,"master",1
"voltagex/rpi-omx-headers-only",204,"User",,0,0,true,true,true,false,0,,0,0,"master",1
"yijia2413/syspro_hw0",164,"User","",0,0,true,true,true,false,0,,0,0,"master",1
"vinay/lysp",120,"User",,0,0,true,true,true,false,0,,0,0,"master",1
"yuichiIwanami/simset",296,"User",,0,0,true,true,true,false,0,,0,0,"master",1
"leoayt/pwauth",264,"User",,0,0,true,false,false,false,0,,4,0,"master",1
"pujarisahil/Personal-Linux-Shell",284,"User","",0,0,true,true,true,false,0,,0,0,"master",1
"dh-linghaibin/ldp6803",224,"User",,0,0,true,true,true,false,0,,0,0,"master",1
"lvwenling/c-language",212,"User",,0,0,true,true,true,false,0,,0,0,"master",1
"HazyTeam/platform_hardware_qcom_audio",1880,"Organization",,0,0,true,true,true,false,0,,0,0,"marshmallow_bacon",1
"HazyTeam/platform_hardware_qcom_camera",3716,"Organization",,0,0,true,true,true,false,0,,0,0,"LA.BF.1.1.1.c5",1
"samstagssession/ir-steckdose-t85",240,"User",,0,0,true,false,false,false,0,,0,0,"master",1
