"zddong/makshdkdak",89,"User",,0,0,false,true,true,false,0,,0,0,"master",1
"VolodymyrVel/KKKlllmmm789",124,"User",,0,0,true,true,true,false,0,,0,0,"master",1
"rgbm21/LCTHW",148,"User",,0,0,true,true,true,false,0,,0,0,"master",1
"afarshad/WBestPlus",152,"User",,0,0,true,true,true,false,0,,0,0,"master",1
"tectronics/open-pl2",164,"User",,0,0,true,false,false,false,0,,2,0,"master",1
"awearchshi/c-",120,"Organization",,0,0,true,true,true,false,0,,0,0,"master",1
"sherry-tan/IntrotoCS_edX",7476,"User",,0,0,true,true,true,false,0,,0,0,"master",1
"WuZhuangbo/SoftwareTraining",1196,"User",,0,0,true,true,true,false,0,,0,0,"master",1
"BogdanCojocaru/Programs-C",191,"User",,0,0,true,true,true,false,1,,0,1,"master",1
"hek23/Zudocu",116,"User",,0,0,true,true,true,false,0,,0,0,"master",1
"yuxinvalo/algoDay3",128,"User",,0,0,true,true,true,false,0,,0,0,"master",1
"nuxeh/hostap",16264,"User",,0,0,true,true,true,false,0,,0,0,"edcragg/continuous-acs",1
"z0mbie42/42",3208,"User",,0,0,true,true,true,false,0,,0,0,"master",1
"Sohamlad7/kernel-msm",809920,"User",,0,0,true,true,true,false,0,,0,0,"LA.AF.1.1_rb1.5",1
"Garik-/crawler",172,"User",,0,0,true,true,true,false,0,,0,0,"master",1
"jepace/ecs151a",336,"User",,0,0,true,true,true,false,0,,0,0,"master",1
"markomitr/Student-2007-C-plus-plus-Project",640,"User",,0,0,true,true,true,false,0,,0,0,"master",1
"gs0622/acm",124,"User",,0,0,true,true,true,false,0,,0,0,"master",1
"owah/random_ledpar_writer",280,"User",,0,0,true,true,true,false,0,,0,0,"master",1
"ujwalp15/3rd_Sem_DS_Lab",156,"User",,0,0,true,true,true,false,0,,0,0,"master",1
"OtherCrashOverride/armsoc-hardkernel",516,"User",,0,0,true,true,true,false,0,,0,0,"danger-g2d",1
"aflat/heirloom-sh",248,"User",,0,0,true,true,true,false,0,,0,0,"master",1
"cxbiao/ZBarProj",7876,"User",,0,0,true,true,true,false,0,,0,0,"master",1
"shennongmin/StudyFreeRTOS",26128,"User",,0,0,true,true,true,false,0,,0,0,"master",1
"sacaggarwal/hello-world",192,"User",,0,0,true,true,true,false,0,,0,0,"master",1
"jmarini/archimedes-nitrides",788,"User",,0,0,true,true,true,false,0,,0,0,"master",1
"jee4404/i2cdevlibcport",152,"User","",0,0,true,true,true,false,0,,0,0,"master",1
"prismskylabs/prismlibx264",2940,"Organization",,0,0,true,true,true,false,0,,0,0,"master",1
"cmorty/watershed",164,"User",,0,0,true,true,true,false,0,,0,0,"master",1
"markjohndoyle/hdf5-nar",2332,"User",,0,0,true,true,true,false,0,,0,0,"master",1
"brettgurman/UM",120,"User",,0,0,true,true,true,false,0,,0,0,"master",1
"ragzer/uso-de-split",118,"User",,0,0,true,true,true,false,1,,0,1,"master",1
"sushrutd/siphon",7644,"User",,0,0,true,false,false,false,0,,143,0,"master",1
"awesomebing1/irecovery",144,"User",,0,0,true,true,true,false,0,,0,0,"master",1
"banas1234/kay",108,"User",,0,0,true,true,true,false,0,,0,0,"master",1
"aflat/heirloom-toolchest",1636,"User",,0,0,true,true,true,false,0,,0,0,"master",1
"telf/error_state_capture_improvement",1139280,"User",,0,0,true,true,true,false,0,,0,0,"20151006_error_state_capture_fixes_delivery2",1
"nyhao/RoboCup2015-ManyCarpetsChallenge",144,"User",,0,0,true,true,true,false,0,,0,0,"master",1
"compufpel/so_2015_2_t2",148,"Organization",,0,0,true,true,true,false,1,,0,1,"master",1
"renanalboy/FSC-Projeto3",108,"User",,0,0,true,true,true,false,0,,0,0,"master",1
"ForceXX/HT16K33-8x8-LED-Matrix",156,"User",,0,0,true,true,true,false,0,,0,0,"master",1
"compl4xx/c",144,"User",,0,0,true,true,true,false,0,,0,0,"master",1
"evaautomation/libunwind",4248,"Organization","http://www.nongnu.org/libunwind/",0,0,true,true,true,false,0,,0,0,"master",1
"ataias/umTeste",376,"User",,0,0,true,true,true,false,0,,0,0,"master",1
"Frank-yujiang/OCC-I2C",112,"User",,0,0,true,true,true,false,0,,0,0,"master",1
"socram8888/intdb",124,"User",,0,0,true,true,true,false,0,,0,0,"master",1
"aflat/heirloom-pkgtools",1404,"User",,0,0,true,true,true,false,0,,0,0,"master",1
"y3046308/os-group-project",2260,"User",,0,0,true,false,false,false,0,,0,0,"master",1
"cmjonze/Tremor",720,"User",,0,0,true,true,true,false,0,,0,0,"master",1
"jd264/IT-3D-Game-Project",12020,"User",,0,0,true,true,true,false,0,,0,0,"master",1
"Josh-C-Montgomery/Bank-Teller",140,"User","",0,0,true,true,true,false,0,,0,0,"master",1
"RainerZA/hierdieGanNieLankHouNie",660,"User",,0,0,true,true,true,false,0,,0,0,"master",1
"fivezeroes/RayTracer2",144,"User",,0,0,true,true,true,false,0,,0,0,"master",1
"jesshack10/Robython",228,"User",,0,0,true,true,true,false,1,,0,1,"master",1
"yihaoye/data-structure-and-algorithm-study-note",140,"User","",0,0,true,true,true,false,0,,0,0,"master",1
"rickhoefer/Scanner",30736,"User",,0,0,true,true,true,false,0,,0,0,"master",1
"shaded-enmity/prt",388,"User","",0,0,true,true,true,false,0,,0,0,"master",1
"yRyuSoGood/RikiLibC",180,"User","",0,0,true,true,true,false,0,,0,0,"master",1
"ahossainNW/Agribrink_ECU",3152,"User",,0,0,true,true,true,false,0,,0,0,"master",1
"Kardif/lab2_networking",220,"User",,0,0,true,true,true,false,0,,0,0,"master",1
"Xophmeister/short-bread-c",144,"User",,0,0,true,true,true,false,0,,0,0,"master",1
"noahsegal/sysc4001_ProducerConsumer",7656,"User",,0,0,true,true,true,false,0,,0,0,"master",1
"Jeemie/Assembly",472,"User",,0,0,true,true,true,false,0,,0,0,"master",1
"edems96/MD3-Model---Animation-Viewer",540,"User",,0,0,true,true,true,false,0,,0,0,"master",1
"BvdP/BalanceBot",140,"User",,0,0,true,true,true,false,0,,0,0,"master",1
"m-cullen/Mean-variance-SD-of-a-sample-c",136,"User",,0,0,true,true,true,false,0,,0,0,"master",1
"qigao/ExtractPDF",472,"User",,0,0,true,true,true,false,0,,0,0,"master",1
"judsonx/base85",256,"User","",0,0,true,true,true,false,0,,0,0,"master",1
"ohirose/cpd",144,"User","",0,0,true,true,true,false,0,,0,0,"master",1
"Voley/c_troubles",148,"User",,0,0,true,true,true,false,0,,0,0,"master",1
"AlliVaughn/collect_it_rails_angular",1612,"User",,0,0,true,true,true,false,0,,0,0,"master",1
"Harsh111/thread_lib",136,"User",,0,0,true,true,true,false,0,,0,0,"master",1
"skliew/http-server-prefork",336,"User",,0,0,true,true,true,false,0,,0,0,"master",1
"35408EF66CCE4377B1E3C2495CA1C18A/stm32f407_oled",6896,"User",,0,0,true,true,true,false,0,,0,0,"master",1
"bjodah/bjodahimg",67536,"User",,0,0,true,true,true,false,0,,0,0,"master",1
"ergunbaris/cagain",188,"User",,0,0,true,true,true,false,0,,0,0,"master",1
"SParadiso18/LearningC",112,"User",,0,0,true,true,true,false,0,,0,0,"master",1
"otavionettozani/ES952-TG2-PhysicsCollider",156,"User",,0,0,true,true,true,false,0,,0,0,"master",1
"PAC-ROM/android_hardware_samsung",1368,"Organization",,0,0,true,true,true,false,0,,0,0,"pac-5.1",1
"YOUYOUHUANG/rshell",156,"User",,0,0,true,true,true,false,0,,0,0,"master",1
"BicicletaDeCreditos/SensoresBikeBlocker",144,"Organization",,0,0,true,true,true,false,0,,0,0,"master",1
"blankyao/nginx-1.9.6",1084,"User",,0,0,true,true,true,false,0,,0,0,"master",1
"Connirwin/csci-2000-personal",280,"User",,0,0,true,true,true,false,0,,0,0,"master",1
"JohnsonShen/ABRobot",276,"User",,0,0,true,true,true,false,0,,0,0,"master",1
"matt-jarvis/programming-practice",280,"User",,0,0,true,true,true,false,0,,0,0,"master",1
"jonatasdasilva/Chat",188,"User",,0,0,true,true,true,false,0,,0,0,"master",1
"bui156/DMX-K-SA-17_23_Custom_Homing_Routine",192,"User",,0,0,true,true,true,false,0,,0,0,"master",1
"RamiroBifa/ProgramacionAvanzada",99160,"User",,0,0,true,true,true,false,0,,0,0,"master",1
"mfasia/mod-csrf",2268,"Organization","http://sourceforge.net/projects/mod-csrf/",0,0,true,true,true,false,0,,0,0,"master",1
"shenjie1993/programming-methods",176,"User",,0,0,true,true,true,false,0,,0,0,"master",1
"shehbazj/DyRe",16220,"User",,0,0,true,true,true,false,0,,0,0,"master",1
"mriscott/ModernTri",268,"User","",0,0,true,true,true,false,0,,0,0,"master",1
"astl100/LearningC",144,"User",,0,0,true,true,true,false,0,,0,0,"master",1
"30Manuel/FUP111B",136,"User",,0,0,true,true,true,false,0,,0,0,"master",1
"FrankQuirarte/primer-repositorio",2916,"User",,0,0,true,true,true,false,0,,0,0,"master",1
"Aden-Hang/my-cprogramming",164,"User",,0,0,true,true,true,false,0,,0,0,"master",1
"ignorabimus/minischeme",180,"User","",0,0,true,true,true,false,0,,0,0,"master",1
"m4n1c22/os_labs",661,"User",,0,0,true,true,true,false,1,,2,1,"master",1
"brianwang9100/RGBDrop",400,"User","",0,0,true,true,true,false,0,,0,0,"master",1
"moksh100/LearningC",176,"User",,0,0,true,true,true,false,0,,0,0,"master",1
