"babassmine/c-web-server",128,"User",,0,0,true,true,true,false,0,,0,0,"master",1
"yusaira-khan/Cpractise",1016,"User",,0,0,true,true,true,false,0,,0,0,"master",1
"MaxiCM/android_device_samsung_u8500-common",3904,"Organization","",0,0,true,true,true,false,0,,0,0,"maxi-5.1",1
"cavaliercoder/si",148,"User",,0,0,true,true,true,false,0,,0,0,"master",1
"PhincPhluphphyUnikorms/APC",196,"Organization",,0,0,true,true,true,false,0,,0,0,"master",1
"ouyongyong/swiftPractice",516,"User",,0,0,true,true,true,false,0,,0,0,"master",1
"r47717/PythonGameWin32",136,"User",,0,0,true,true,true,false,0,,0,0,"master",1
"mariojmdavid/lnec-usecase",148,"User",,0,0,true,true,true,false,0,,0,0,"master",1
"titech-os/hw1",208,"Organization",,0,0,true,true,true,false,0,,0,0,"master",1
"iris-yu/6Lo-ND-contiki",30860,"User",,0,0,true,true,true,false,0,,0,0,"master",1
"supermoe/PDS_TP5",148,"User",,0,0,true,true,true,false,0,,0,0,"master",1
"WuzhengMa/C-OpenCL_FaceSuperResolution",152,"User",,0,0,true,true,true,false,0,,0,0,"master",1
"artermi/sphw2",140,"User",,0,0,true,true,true,false,0,,0,0,"master",1
"42735654/qm",136,"User",,0,0,true,true,true,false,0,,0,0,"master",1
"xpacks/arm-cmsis-core",1272,"Organization","",0,0,true,true,false,false,0,,0,0,"master",1
"vathpela/seabios",3632,"User",,0,0,true,true,true,false,0,,0,0,"master",1
"pengshuai2010/webstats",328,"User",,0,0,true,true,true,false,0,,0,0,"master",1
"pbmoura/scalability_experiments",176,"User",,0,0,true,true,true,false,0,,0,0,"master",1
"mixtile/xskit",6132,"Organization","",0,0,true,true,true,false,0,,0,0,"master",1
"louisxsyla/Snake",288,"User",,0,0,true,true,true,false,0,,0,0,"master",1
"whs-vex-542/motordiag",148,"Organization",,0,0,true,true,true,false,0,,0,0,"master",1
"gregkh/fusb30x",324,"User",,0,0,true,true,true,false,1,,0,1,"master",1
"Fusion-Devices/device_yu_lettuce",4068,"Organization",,0,0,true,true,true,false,0,,0,0,"lp5.1",1
"cfw011566/hello-world",160,"User",,0,0,true,true,true,false,0,,0,0,"master",1
"LeMaker/u-boot-actions",14540,"Organization",,0,0,true,true,true,false,0,,0,0,"s500-master",1
"UCCRobotics/RobotC-Code",148,"Organization",,0,0,true,true,true,false,0,,0,0,"master",1
"dple/GR2",176,"User",,0,0,true,true,true,false,0,,0,0,"master",1
"paulbrowne/helloworld",172,"User",,0,0,true,true,true,false,0,,0,0,"master",1
"ranca/Ppjlab1",110,"User",,0,0,true,true,true,false,1,,0,1,"master",1
"lexxai/test-IR-16F690",296,"User","",0,0,true,true,true,false,0,,0,0,"TSOP",1
"maximilianoUNRC/linuxEmbebidoDiplo",11256,"User",,0,0,true,true,true,false,0,,0,0,"master",1
"miguelangelo78/M16C62P-Collection",212,"User",,0,0,true,true,true,false,0,,0,0,"master",1
"Scraick/ProjetInfoSuperSkweekSpace",29416,"User",,0,0,true,true,true,false,0,,0,0,"master",1
"xwang322/CS537_P3",304,"User",,0,0,true,true,true,false,0,,0,0,"master",1
"peterdelevoryas/lac",168,"User",,0,0,true,true,true,false,0,,0,0,"master",1
"CiroboyBR/velhac",284,"User",,0,0,true,true,true,false,0,,0,0,"master",1
"alexballet/nf16",212,"User",,0,0,true,true,true,false,1,,0,1,"master",1
"epics-modules/vme",5868,"Organization",,0,0,true,true,true,false,0,,0,0,"master",1
"OMAP4-AOSP/android_hardware_ti_omap4",7372,"Organization",,0,0,true,true,true,false,1,,0,1,"aosp-6.0",1
"Dustin21/GaSP-Ensemble",5684,"User",,0,0,true,true,true,false,0,,0,0,"master",1
"bqlabs/amaterasu",489,"Organization",,0,0,true,true,true,false,1,,0,1,"develop",1
"ewaves/laboratori",168,"User",,0,0,true,true,true,false,0,,0,0,"master",1
"dgarske/wolfmqtt",308,"User",,0,0,true,true,true,false,0,,0,0,"master",1
"matir8/SoftUni-C-Programming",236,"User",,0,0,true,true,true,false,0,,0,0,"master",1
"lucacervello/algo-exercise",160,"User",,0,0,true,true,true,false,0,,0,0,"master",1
"kexinrong/trafficmon",127812,"User",,0,0,true,true,true,false,0,,0,0,"master",1
"keepalive555/server",216,"User","",0,0,true,true,true,false,0,,0,0,"master",1
