"F5OEO/rpitx",201,"User",,186,186,true,true,true,false,26,,2,26,"master",1
"Thomaszhouwu/RSADemo",2916,"User",,11,11,true,true,true,false,5,,0,5,"master",1
"jamesmunns/optional_c",152,"User",,7,7,true,true,true,false,0,,1,0,"master",1
"necropotame/teeworlds-infclass",15906,"User",,4,4,true,true,true,false,3,,6,3,"master",1
"pebble-hacks/owm-weather",207,"Organization","",3,3,true,true,true,false,2,,0,2,"master",1
"ASPLes/libaxl",7324,"Organization","http://www.aspl.es/xml",3,3,true,true,true,false,0,,0,0,"master",1
"ASPLes/libvortex-1.1",7548,"Organization","http://www.aspl.es/vortex",3,3,true,true,true,false,0,,0,0,"master",1
"Juniper/open-media-flow-controller",710584,"Organization",,2,2,true,true,true,false,0,,0,0,"master",1
"aufau/jk2sdk-gpl",1313,"User",,2,2,true,true,true,false,1,,0,1,"master",1
"Wannahokaloogy/334rf",101,"User",,2,2,true,true,true,false,3,,1,3,"master",1
"imwithye/Yo",144,"User",,2,2,true,true,true,false,0,,0,0,"master",1
"JEUDominic/C-learning",160,"User",,2,2,true,true,true,false,0,,0,0,"master",1
"mdsrosa/project_euler",220,"User",,2,2,true,true,true,false,1,,1,1,"master",1
"RedInquisitive/3DS-Remote",192,"User",,2,2,true,true,true,false,0,,0,0,"master",1
"gjc13/ucore_mips_lab",172,"User","",2,2,true,true,true,false,0,,0,0,"master",1
"OrdinaryMagician/systemstubd",144,"User",,2,2,true,true,true,false,0,,0,0,"master",1
"erayarslan/Memory-Hacking-with-Mac-OS-X",139,"User",,2,2,true,true,true,false,1,,0,1,"master",1
"tarantool/small",261,"Organization","",2,2,true,true,true,false,1,,1,1,"master",1
"ASPLes/myqtt",2828,"Organization","http://www.aspl.es/myqtt",2,2,true,true,true,false,0,,0,0,"master",1
"RenegadeTech/c_code",140,"User",,1,1,true,true,true,false,0,,0,0,"master",1
"Josue23/algoritmos-lista2",112,"User",,1,1,true,true,true,false,0,,0,0,"master",1
"saurabhjain0007/FileSharingProtocol",296,"User",,1,1,true,true,true,false,0,,0,0,"master",1
"joaoDavidGB/RCOM",1028,"User",,1,1,true,true,true,false,0,,1,0,"master",1
"star-bnl/star-macros",3860,"Organization",,1,1,true,true,true,false,0,,0,0,"master",1
"eyesfrog/TinyRay",3552,"User",,1,1,true,true,true,false,1,,0,1,"master",1
"heffalumpteam/project",312,"User",,1,1,true,true,true,false,0,,13,0,"master",1
"Seeed-Studio/Arduino_IDE_for_RePhone",156368,"Organization",,1,1,true,true,true,false,1,,0,1,"master",1
"Florastamine/Gone-in-November",376,"User","",1,1,true,true,true,false,0,,0,0,"master",1
"igonvilto/ziparchive",204,"User",,1,1,true,false,false,false,0,,35,0,"master",1
"AOSParadox/android_external_boringssl",3840,"Organization",,1,1,true,true,true,false,0,,0,0,"marshmallow_msm8974",1
"xornand/plan9port",26244,"User",,1,1,true,false,false,false,0,,4,0,"master",1
"Vraliens/DC_Car",6362,"User",,1,1,true,true,true,false,1,,0,1,"master",1
"GetGitGo/nfcdrv",224,"User",,1,1,true,true,true,false,0,,2,0,"master",1
"oleksiiBobko/getips",136,"User",,1,1,true,true,true,false,0,,0,0,"master",1
"xieyaxiongfly/Atheros-CSI-Tool-UserSpace-APP",2130,"User","",1,1,true,true,true,false,1,,0,1,"master",1
"ASPLes/turbulence",5548,"Organization","http://www.aspl.es/turbulence",1,1,true,true,true,false,0,,0,0,"master",1
"ASPLes/nopoll",1036,"Organization","http://www.aspl.es/nopoll",1,1,true,true,true,false,0,,0,0,"master",1
"Arondight/sudodev",272,"User",,1,1,true,true,true,false,1,,0,1,"master",1
"franciscoreyes16/FP1A",204,"User",,1,1,true,true,true,false,0,,0,0,"master",1
"Fcmam5/asd-extra-exercices",144,"User",,1,1,true,true,true,false,0,,0,0,"master",1
"txeo/sangra",200,"User",,1,1,true,true,true,false,1,,0,1,"master",1
"andrewrk/SIMD-test",124,"User",,1,1,true,true,true,false,0,,0,0,"master",1
"Engenuics/Razor_Atmel_nRF51422",364,"User",,1,1,true,true,true,false,0,,0,0,"master",1
"mannsgoeggel/mocp",872,"User",,1,1,true,true,true,false,0,,0,0,"master",1
"vincentchoqueuse/M105_devoir",384,"User",,1,1,true,true,true,false,0,,0,0,"master",1
"jgsuddock/SimulatedCPU",528,"User",,1,1,true,true,true,false,0,,0,0,"master",1
"Sensibo/websocket_c",148,"Organization",,1,1,true,true,true,false,1,,0,1,"master",1
"pmix/master",2392,"Organization",,1,1,true,true,true,true,3,,1,3,"master",1
"checkaayush/Cybros",448,"User","",0,0,true,true,true,false,0,,0,0,"master",1
"dnlzz/hw7",248,"User",,0,0,true,true,true,false,0,,0,0,"master",1
"P-Krebs/learning_c",132,"User",,0,0,true,true,true,false,0,,0,0,"master",1
"marksteele/passwderl",124,"User",,0,0,true,true,true,false,0,,0,0,"master",1
"Baltasarq/cscrutil",276,"User","http://baltasarq.github.io/cscrutil",0,0,true,true,true,true,0,,0,0,"master",1
"iConsole/Console-OS_bionic",14948,"User",,0,0,true,true,true,false,0,,0,0,"consoleos-lollipop",1
"ebuswell/noneleatic",132,"User",,0,0,true,true,true,false,0,,0,0,"master",1
"dhurst22/WSEchoClient",11480,"User",,0,0,true,true,true,false,0,,0,0,"master",1
"stevensotelo/firstappphonegapsqlite",6548,"User",,0,0,true,true,true,false,0,,0,0,"master",1
"andbass/High-Frequency-Trading",256,"User",,0,0,true,true,true,false,0,,0,0,"master",1
"aspace-sim/aspace-stdw",188,"Organization",,0,0,true,true,true,false,0,,0,0,"master",1
"Andrea145/FUP-1B-",140,"User",,0,0,true,true,true,false,0,,0,0,"master",1
"CharlieTrip/Advanced-Programing-for-Cryptography-Purpose",136,"User",,0,0,true,true,true,false,0,,0,0,"master",1
"davilopesmtb/geral",144,"User",,0,0,true,true,true,false,0,,0,0,"master",1
"brodybits/cordova-sqlite-with-jquery-ajax-api-demo",7004,"User",,0,0,true,true,false,false,0,,0,0,"master",1
"MDorwig/icmtest",164,"User",,0,0,true,true,true,false,0,,0,0,"master",1
"lzy1845/Sobol_Sequence",276,"User",,0,0,true,true,false,false,0,,0,0,"master",1
"blitz-coin/blitz-coin",5192,"User",,0,0,true,true,true,false,0,,0,0,"master",1
"Veli-Matti/PID_study",140,"User",,0,0,true,true,true,false,0,,0,0,"master",1
"myownhomeoffice/emptyrepo",112,"Organization",,0,0,true,true,true,false,0,,0,0,"master",1
"VasiliyKirstia/OpenGL_laboratory_works",128,"User","",0,0,true,true,true,false,0,,0,0,"master",1
"markrosier/SetUsage",276,"User",,0,0,true,true,true,false,0,,0,0,"master",1
"gabrielscheufler/lapro",144,"User","",0,0,true,true,true,false,0,,0,0,"master",1
"twolife/claws",45428,"User",,0,0,true,true,true,false,0,,0,0,"master",1
"weprikjm/PhysicsJoints1",3016,"User",,0,0,true,true,true,false,0,,0,0,"master",1
"charlierproctor/bloom_filter",128,"User","",0,0,true,true,true,false,0,,0,0,"master",1
"neoyong/helloworld",148,"User",,0,0,true,true,true,false,0,,0,0,"master",1
"comet0/aceracpi",1496,"User",,0,0,true,false,false,false,0,,19,0,"master",1
"bigtreetree/python",124,"User",,0,0,true,true,true,false,0,,0,0,"master",1
"taey16/Face",19716,"User",,0,0,true,true,true,false,0,,0,0,"master",1
"Zziwei/MotionNet",1223,"User",,0,0,true,true,true,false,1,,0,1,"RealTimeGestureRecognition",1
"beckgom/c_test",144,"User",,0,0,true,true,true,false,0,,0,0,"master",1
"TitanTomorrow/bombardier",344,"User",,0,0,true,true,true,false,0,,0,0,"master",1
"LipYoung/learningGitHub",112,"User",,0,0,true,true,true,false,0,,0,0,"master",1
"ossforumjp-app-IoT/mruby-fm3uart",116,"Organization","",0,0,true,true,true,false,0,,0,0,"master",1
"zun-ferrum/MusicGame",24736,"User",,0,0,true,true,true,false,0,,0,0,"master",1
"RyanWork/Python",4176,"User",,0,0,true,true,true,false,0,,0,0,"master",1
"wearingart/classes",308,"User",,0,0,true,true,true,false,0,,0,0,"master",1
"JakubJakobczyk/Learning",108,"User",,0,0,true,true,true,false,0,,0,0,"master",1
"school12/eval",148,"Organization",,0,0,true,true,true,false,0,,0,0,"master",1
"josh-privata/drone-spider",160,"User",,0,0,true,false,false,false,0,,0,0,"master",1
"efgefg0001/jamesm-tutorials",14724,"User",,0,0,true,false,false,false,0,,8,0,"master",1
"honsiorovskyi/nginx_reloader",148,"User",,0,0,true,true,true,false,0,,0,0,"master",1
"SWMaestro2nd/tinyJS",1052,"Organization",,0,0,true,true,true,false,0,,0,0,"master",1
"FrankXiang/ZOJ3809",112,"User",,0,0,true,true,true,false,0,,0,0,"master",1
"OMAP4-AOSP/android_system_extras",2480,"Organization",,0,0,true,true,true,false,0,,0,0,"aosp-6.0",1
"ThiagoSSantos/LP1-Jogo-da-Forca",124,"User","https://github.com/ThiagoSSantos/LP1-Jogo-da-Forca.git",0,0,true,true,true,false,0,,0,0,"master",1
"codeaperature/MineSweeper",112,"User",,0,0,true,true,true,false,0,,0,0,"master",1
"parlakf/openusbfxs",1364,"User",,0,0,true,false,false,false,0,,0,0,"master",1
"codeaperature/computerterminal",112,"User",,0,0,true,true,true,false,0,,0,0,"master",1
"samop/msp430-nrf24l01",676,"User",,0,0,true,true,true,false,0,,0,0,"master",1
"codeaperature/IPPackage",108,"User",,0,0,true,true,true,false,0,,0,0,"master",1
