"thiiks/minnazaosd",18188,"User",,0,0,true,false,false,false,0,,2,0,"master",1
"ACefalu/tzod",11264,"User",,0,0,true,false,false,false,0,,4,0,"master",1
"jakew02/sp3-linux",1149104,"User",,0,0,true,true,true,false,0,,0,0,"4.3",1
"nishantrai18/word2vec",272,"User",,0,0,true,false,false,false,0,,35,0,"master",1
"minidude2012/device_cyanogen_msm8916-common",192,"User",,0,0,true,true,true,false,0,,0,0,"master",1
"ycandau/dict.recurse",228,"User",,0,0,true,true,true,false,0,,0,0,"master",1
"heavyhand/sunswift.tilt-sensor",908,"User",,0,0,true,false,false,false,0,,0,0,"master",1
"heavyhand/sunswift.website",17064,"User",,0,0,true,false,false,false,0,,0,0,"master",1
"heavyhand/sunswift.current-integrator",9880,"User",,0,0,true,false,false,false,0,,0,0,"master",1
"n0wl/gittest",124,"User",,0,0,true,true,true,false,0,,0,0,"master",1
"mhungerford/pebble_hack_font",312,"User",,0,0,true,true,true,false,0,,0,0,"master",1
"edpratomo/pg_redispub",144,"User","",0,0,true,true,true,false,0,,0,0,"master",1
"CaptainThrowback/kernel_android-tegra-flounder-3.10",808096,"User",,0,0,true,true,true,false,0,,0,0,"BeyondStock-M",1
"Kburry/iot-emulation",228,"User",,0,0,true,true,true,false,0,,0,0,"master",1
"andreandyp/ConversionesC",180,"User",,0,0,true,true,true,false,0,,0,0,"master",1
"zyuegege/networkdict",160,"User",,0,0,true,true,true,false,0,,0,0,"master",1
"mohamey/MPI-Research",140,"User",,0,0,true,true,true,false,0,,0,0,"master",1
"wolf9466/xmr-amdocl-test",160,"User",,0,0,true,true,true,false,0,,0,0,"master",1
"andreandyp/salario",116,"User",,0,0,true,true,true,false,0,,0,0,"master",1
"Jimmie00x0000/unix_net_programing_learn",1052,"User",,0,0,true,true,true,false,0,,0,0,"master",1
"alexax66/LP-Kernel-SM-E500H",137440,"User",,0,0,true,true,true,false,0,,0,0,"master",1
"hibive/sjmt6410pm090728",42628,"User",,0,0,true,false,false,false,0,,0,0,"master",1
"xlcupid/word2vec",272,"User",,0,0,true,false,false,false,0,,35,0,"master",1
"esarili/test",140,"User",,0,0,true,true,true,false,0,,0,0,"master",1
"asvkarthick/UnderstandingC",224,"User",,0,0,true,true,true,false,0,,0,0,"master",1
"xiyuxiexxy/MonteCarloTreeSearch",2520,"User",,0,0,true,true,true,false,0,,0,0,"master",1
"mzxsusilo/gitbase",148,"User",,0,0,true,true,true,false,0,,0,0,"master",1
"n0w/ibl",4600,"User",,0,0,true,true,true,false,0,,0,0,"master",1
"exrulx/Practice",124,"User",,0,0,true,true,true,false,0,,0,0,"master",1
"Kurtz1993/pic-robotics",164,"User",,0,0,true,true,true,false,0,,0,0,"master",1
"uamt-brno/wiringpi-python",448,"Organization","",0,0,true,true,true,false,0,,0,0,"master",1
"MikeBiddle/thermoTouch",23340,"User",,0,0,false,true,true,false,0,,0,0,"master",1
"jonathan84clark/WashTimer",432,"User",,0,0,true,true,true,false,0,,0,0,"master",1
"136048599/esc32",476,"User",,0,0,true,false,false,false,0,,2,0,"master",1
"ajaivgeorge/gnix",360,"User",,0,0,true,true,true,false,0,,0,0,"master",1
"uamt-brno/wiringpi",428,"Organization","",0,0,true,true,true,false,0,,0,0,"master",1
"grendizerufo/libapril",9060,"User",,0,0,true,false,false,false,0,,0,0,"master",1
"marcopovitch/mesh",528,"User",,0,0,true,true,true,false,0,,0,0,"master",1
"vinaykumarhs2020/vyoma_quadroter",160,"User",,0,0,true,true,true,false,0,,0,0,"master",1
"pmoons/cTutorials",128,"User",,0,0,true,true,true,false,0,,0,0,"master",1
"nicehash/simplemultialgo",124,"Organization",,0,0,true,true,true,false,0,,0,0,"master",1
"vtdat/graph",108,"User",,0,0,true,true,true,false,0,,0,0,"master",1
"pantelis300/data_structures",108,"User",,0,0,true,true,true,false,0,,0,0,"master",1
"yuikns/cuda_helpers",432,"User",,0,0,true,true,true,false,0,,0,0,"master",1
"fquinteroa/cryopid.stable",1320,"User",,0,0,true,false,false,false,0,,0,0,"master",1
"logicaleak/touchevo",176,"User",,0,0,true,true,true,false,0,,0,0,"master",1
"AOSP-JF-MM/platform_hardware_broadcom_wlan",39028,"Organization",,0,0,true,true,true,false,0,,0,0,"aosp-6.0",1
"coronium-io/luapower-unqlite",1225,"Organization",,0,0,true,true,false,false,1,,0,1,"master",1
"xnorlogic/MBD_4BIT-Counter",288,"User","",0,0,true,true,true,false,0,,0,0,"master",1
"HYEMIBYUN/OS",416,"User",,0,0,true,true,true,false,0,,0,0,"master",1
"kedricz/Fuse_client",188,"User",,0,0,true,true,true,false,0,,0,0,"master",1
"iampkuhz/word2vec",272,"User",,0,0,true,false,false,false,0,,35,0,"master",1
"firoxer/brainpuck",128,"User","",0,0,true,true,true,false,0,,0,0,"master",1
"madhavin-68/TestDir",128,"User",,0,0,true,true,true,false,0,,0,0,"master",1
"abaheti95/TinyC_Compiler",14464,"User",,0,0,true,true,true,false,0,,0,0,"master",1
"g2114007/test",156,"User",,0,0,true,true,true,false,0,,0,0,"master",1
"ycandau/buff.filter",248,"User","",0,0,true,true,true,false,0,,0,0,"master",1
"NancyBeltranSuastegui/Add2015",108,"User",,0,0,true,true,true,false,0,,0,0,"master",1
"iGaryGu/SIMD_computePI-",140,"User",,0,0,true,true,true,false,0,,0,0,"master",1
"MuriloSantana/ProjetoRedesB",248,"User",,0,0,true,true,true,false,0,,0,0,"master",1
"JFleming4/nefarious-adventure",184,"User",,0,0,true,true,true,false,0,,0,0,"master",1
"Grumblesaur/shellhw",212,"User",,0,0,true,true,true,false,0,,0,0,"master",1
"osmc/nv-legacy",9220,"Organization",,0,0,true,true,true,false,0,,0,0,"master",1
"mattewood0604/game",28896,"User",,0,0,true,true,true,false,0,,0,0,"master",1
"BlackRage83/AES128",1490,"User",,0,0,true,true,true,false,0,,0,0,"master",1
"amsl0006/practica1",184,"User",,0,0,true,true,true,false,0,,0,0,"master",1
"hanketgithub/420ToNv12",156,"User",,0,0,true,true,true,false,0,,0,0,"master",1
"deviantfero/newgame",164,"User",,0,0,true,true,true,false,0,,0,0,"master",1
"gundal/nobleltehk",0,"User",,0,0,true,true,true,false,1,,0,1,"master",1
"rainyslr/HelloGithub",172,"User",,0,0,true,true,true,false,0,,1,0,"master",1
"ChosenOne2241/Some_Toy_C_Programs",2332,"User",,0,0,true,true,true,false,0,,0,0,"master",1
"daniel-ortiz/spm-benchmarks",204,"User",,0,0,true,true,true,false,0,,0,0,"master",1
"enemarius/balon",236,"User","",0,0,true,true,true,false,0,,0,0,"master",1
"ULUG-Python-Study/test-git",148,"Organization",,0,0,true,true,true,false,0,,0,0,"master",1
"brooklynresearch/oscColorTester",11484,"Organization",,0,0,true,true,true,false,0,,0,0,"master",1
"LowLevelMahn/build_clfs_tools",6608,"User",,0,0,true,true,true,false,0,,0,0,"master",1
"azmirul/itt440",180,"User",,0,0,true,true,true,false,0,,0,0,"master",1
"neivin/labs",15076,"User",,0,0,true,true,true,false,0,,0,0,"master",1
"rynq/rain",176,"User","",0,0,true,true,true,false,0,,0,0,"master",1
"boulzordev/android_device_qcom_common",1709,"Organization",,0,0,true,true,true,false,1,,0,1,"aosp-6.0",1
"twodogwalker/PebbleFace_Ux",172,"User",,0,0,true,true,true,false,0,,0,0,"master",1
"SteveCharleston/echtzeitsysteme",156,"User",,0,0,true,true,true,false,0,,0,0,"master",1
"filipecosta90/Parallel-Computing-Paradigms",252,"User",,0,0,true,true,true,false,0,,0,0,"master",1
"pii5656/jikken2",344,"User",,0,0,true,true,true,false,0,,0,0,"master",1
"maxeler/gzipCompressor",12792,"Organization",,0,0,true,true,true,false,0,,0,0,"master",1
"mangerer/MA",15916,"User",,0,0,true,true,true,false,0,,0,0,"master",1
"ftc1718/datastruct",132,"User",,0,0,true,true,true,false,0,,0,0,"master",1
"bondeandando/Compiladores",393,"User","",0,0,true,true,true,false,1,,1,1,"master",1
"keremkazan/my-sh",260,"User",,0,0,true,true,true,false,0,,0,0,"master",1
"darkedge/mercury",2032,"User","",0,0,true,true,true,false,0,,0,0,"master",1
"Tyd93/garrulous-octo-giggle",288,"User",,0,0,true,true,true,false,0,,0,0,"master",1
"marcelo-dalmeida/hpc-homework",348,"User",,0,0,true,true,true,false,0,,0,0,"master",1
"fwjensen/C_examplecode_using_SMT32F407",140,"User",,0,0,true,true,true,false,0,,0,0,"master",1
"hfjgfbjhbfbvhju7854tjdfh/all",128,"User",,0,0,true,true,true,false,0,,0,0,"master",1
"holywyvern/picasso-graphic",3908,"User",,0,0,true,false,false,false,0,,1,0,"master",1
"luoxiaojian/rAdjust",9784,"User",,0,0,true,true,true,false,0,,0,0,"master",1
"kedricz/Sludge",144,"User",,0,0,true,true,true,false,0,,0,0,"master",1
"thndrwrks/list",108,"User",,0,0,true,true,true,false,0,,0,0,"master",1
"jovizhu/UBTorrent",1540,"User",,0,0,true,true,true,false,0,,0,0,"master",1
"EgyptCloudTeam/Cloud-Prediction",1088,"Organization",,0,0,true,true,true,false,0,,0,0,"master",1
