"mayuanjason/tutorial",144,"User",,0,0,true,true,true,false,0,,0,0,"master",1
"kriss960/Homeworks",144,"User",,0,0,true,true,true,false,0,,0,0,"master",1
"uchiyou/LinuxCLearn",124,"User",,0,0,true,true,true,false,0,,0,0,"master",1
"jatrfa01/project",144,"User",,0,0,true,true,true,false,0,,0,0,"master",1
"PillosuCrew/MinimalistPinball",26156,"Organization",,0,0,true,true,true,false,0,,1,0,"master",1
"WHUinTAMU/MotionNetProject",1500,"Organization",,0,0,true,true,true,false,0,,0,0,"master",1
"ghj0504520/1-1-Cprogram",2972,"User",,0,0,true,true,true,false,0,,0,0,"master",1
"Sequoya42/obtuse-succotash",292,"User",,0,0,true,true,true,false,0,,0,0,"master",1
"dmcfalls/CLexicon",1196,"User","",0,0,true,true,true,false,0,,0,0,"master",1
"imam-i/db9-gpio-rpi",140,"User",,0,0,true,true,true,false,0,,0,0,"master",1
"humberos/android_device_sony_kitakami-common",2828,"User",,0,0,true,true,true,false,1,,0,1,"android-6.0",1
"CopyPeste/ProofOfConcept",228,"Organization",,0,0,true,true,true,false,0,,0,0,"master",1
"CBHS/Draco",276,"Organization",,0,0,true,true,true,false,0,,0,0,"master",1
"bryanjimenezchacon/Proyecto-2-An-lisis",1300,"User",,0,0,true,true,true,false,0,,0,0,"master",1
"cathay4t/gris_c_gears",164,"User",,0,0,true,true,true,false,0,,0,0,"master",1
"saolsen/sao",176,"User",,0,0,true,true,true,false,0,,0,0,"master",1
"ruoshuisanqian/UninstalledObserver",236,"User",,0,0,true,true,true,false,0,,0,0,"master",1
"hasbro17/CS739-P2-AFS",60643,"User",,0,0,true,true,true,false,0,,0,0,"master",1
"mhorowitzgelb/AprilTags",31560,"User",,0,0,true,true,true,false,0,,0,0,"master",1
"moaisprogramming/moais-practice",143,"User",,0,0,true,true,true,false,5,,0,5,"master",1
"JamisHoo/MIPS32-CPU-Emulator",1161,"User","",0,0,true,true,true,false,0,,0,0,"master",1
"grit96/game-of-life",136,"User","",0,0,true,true,true,false,0,,0,0,"master",1
"qinenergy/ACM_Training_rujia",152,"User",,0,0,true,true,true,false,0,,0,0,"master",1
"saleph/logarus_naturalus",412,"User","",0,0,true,true,true,false,0,,0,0,"master",1
"AndCycle/PebbleFaceTryout",260,"User",,0,0,true,true,true,false,0,,0,0,"master",1
"califlower/Indexer",1015,"User",,0,0,true,true,true,false,0,,0,0,"master",1
"XoplaxOS/android_system_core",15172,"Organization",,0,0,true,true,true,false,0,,0,0,"xos-2.1",1
"cathay4t/irksome-turtle",172,"User",,0,0,true,true,true,false,0,,0,0,"master",1
"slimn/Algorithm",156,"User","",0,0,true,true,true,false,0,,0,0,"master",1
"antoniuskevin/sisop_E01",612,"User",,0,0,true,true,true,false,0,,0,0,"master",1
"tpratama/sisop",176,"User",,0,0,true,true,true,false,0,,0,0,"master",1
"appletreeisyellow/lab1",469,"User",,0,0,true,true,true,false,1,,0,1,"master",1
"bellaarnindya/sisop",1716,"User",,0,0,true,true,true,false,0,,0,0,"master",1
"raharj007/Sisop",144,"User",,0,0,true,true,true,false,0,,0,0,"master",1
"njiipanji/SISOP",5428,"User",,0,0,true,true,true,false,0,,0,0,"master",1
"artfly/OS-II",156,"User",,0,0,true,true,true,false,0,,0,0,"master",1
"forestoden6/ECEC413-Fall-2015",156,"User","",0,0,true,true,true,false,0,,0,0,"master",1
"Sessa93/Algorithms",160,"User",,0,0,true,true,true,false,0,,0,0,"master",1
"Relicts/BigDig",196,"User",,0,0,true,true,true,false,0,,0,0,"master",1
"Jemteddy/gaillacsec",31944,"User",,0,0,true,true,true,false,0,,0,0,"master",1
"eleonardi/padme",540,"User",,0,0,true,true,true,false,0,,0,0,"master",1
"anflorea/academy",203,"User",,0,0,true,true,true,false,0,,0,0,"master",1
"papay0/SailsTM32",212,"User",,0,0,true,true,true,false,0,,1,0,"master",1
"HowardDennis/as",108,"User",,0,0,true,true,true,false,0,,0,0,"master",1
"LuisAlberto1211/AnalizadorLexicoSintactico",244,"User",,0,0,true,true,true,false,0,,0,0,"master",1
"iConsole/Console-OS_hardware_ril",1136,"User",,0,0,true,true,true,false,0,,0,0,"consoleos-lollipop",1
"cygy/pbnsolve",372,"User",,0,0,true,false,false,false,0,,0,0,"master",1
"iConsole/Console-OS_external_ffmpeg",106068,"User",,0,0,true,true,true,false,0,,0,0,"consoleos-lollipop",1
"robisodd/pebble-sdk2-tut-9",120,"User",,0,0,true,true,true,false,0,,0,0,"master",1
"iConsole/Console-OS_external_eject",132,"User",,0,0,true,true,true,false,0,,0,0,"consoleos-lollipop",1
"salimbraksa/c_worksatation",124,"User",,0,0,true,true,true,false,0,,0,0,"master",1
"iConsole/Console-OS_bootable_newinstaller",6316,"User",,0,0,true,true,true,false,0,,0,0,"consoleos-lollipop",1
"iConsole/Console-OS_kernel_common",1033452,"User",,0,0,true,true,true,false,0,,0,0,"kernel-4.0",1
"iConsole/Console-OS_device_generic_common",42324,"User",,0,0,true,true,true,false,0,,0,0,"consoleos-lollipop",1
"iConsole/Console-OS_external_bluetooth_glib",39444,"User",,0,0,true,true,true,false,0,,0,0,"consoleos-lollipop",1
"wayne-chen/AudioPlugins",5668,"User",,0,0,true,true,true,false,0,,0,0,"master",1
"tkabber/tkwinpm",316,"Organization","",0,0,true,false,false,false,0,,0,0,"master",1
"pdkl95/powerset",144,"User",,0,0,true,true,true,false,0,,0,0,"master",1
"kevinmkarol/Experimental_Capture_Skeletal_Audio",44588,"User",,0,0,true,true,true,false,0,,0,0,"master",1
"PiJoules/ayylmao",128,"User",,0,0,true,true,true,false,0,,0,0,"master",1
"jurnho/DisEMBL-1.4-fix",752,"User",,0,0,true,true,true,false,0,,0,0,"master",1
"GoinsWithTheWind/drm-prime-sync",1147300,"User","",0,0,true,true,true,false,0,,0,0,"agoins-prime-v3",1
"aganzai/u-boot_RT5350_DIR503A",1404,"User",,0,0,true,true,true,false,0,,0,0,"master",1
"iConsole/Console-OS_external_exfat",556,"User",,0,0,true,true,true,false,0,,0,0,"consoleos-lollipop",1
"t-k-/OPMES",11428,"User","",0,0,true,true,true,false,0,,0,0,"master",1
"risesecurity/unixasm",228,"Organization",,0,0,false,false,false,false,0,,0,0,"master",1
"kwonyoungjae/ProxyServer",496,"User",,0,0,true,true,true,false,0,,0,0,"master",1
"ossforumjp-app-IoT/rubyiot_device",156,"Organization",,0,0,true,true,true,false,0,,0,0,"master",1
"bryanchoi123/c_web_server",800,"User",,0,0,true,true,true,false,0,,0,0,"master",1
"sunilcodex/bcmon",24992,"User",,0,0,true,false,false,false,0,,103,0,"master",1
"Kreyl/WitcherGlove",1064,"User",,0,0,true,true,true,false,0,,0,0,"master",1
"MrShroom/CS112ProgrammingAssignments",209512,"User",,0,0,true,true,true,false,0,,0,0,"master",1
"HawngSinAe/sample_test",148,"User",,0,0,true,true,true,false,0,,0,0,"master",1
"patrickw276/json_parser",148,"User",,0,0,true,true,true,false,0,,0,0,"master",1
"imanville/test",106,"User",,0,0,true,true,true,false,1,,0,1,"master",1
"hansenboyi/--mini2440--------",2276,"User",,0,0,true,true,true,false,0,,0,0,"master",1
"linuxbox2/libzfswrap",1672,"Organization",,0,0,true,true,true,false,0,,0,0,"nodirect",1
"Stupid-Git/td_nRF_dfu",260,"User",,0,0,true,true,true,false,0,,0,0,"master",1
"ErickReyes/am335x-android-platform-system-core",7220,"User",,0,0,true,true,true,false,0,,0,0,"kitkat-am335x",1
"AnthonyAleman/TrueDemo",121,"User",,0,0,true,true,true,false,1,,0,1,"master",1
"cje3295/dotfiles",3528,"User",,0,0,true,true,true,false,0,,0,0,"master",1
"eelgin/ernburgerOS",2076,"User",,0,0,true,true,true,false,0,,0,0,"master",1
"niranjanpm/LocalLayering",2780,"User",,0,0,true,true,true,false,0,,0,0,"master",1
"abdullaev/snake",156,"User",,0,0,true,true,true,false,0,,0,0,"master",1
"fazzeerr/syko-project",1676,"User",,0,0,true,true,true,false,0,,0,0,"master",1
"leortegar/codingC",156,"User",,0,0,true,true,true,false,0,,0,0,"master",1
"ylixir/yetty",160,"User",,0,0,true,true,true,false,0,,0,0,"master",1
"jwelker110/cs50",152,"User","",0,0,true,true,true,false,0,,0,0,"master",1
"megootang/debug",148,"User",,0,0,true,true,true,false,0,,0,0,"master",1
"jakubzahradnik/Kurs_C",145,"User",,0,0,true,true,true,false,0,,0,0,"master",1
"dsquintana/ajp",124,"User",,0,0,true,true,true,false,0,,0,0,"master",1
"adasworks/libdc1394-cmake",2036,"Organization",,0,0,true,true,true,false,0,,0,0,"master",1
"mirjak/linux-accecn",1344028,"User",,0,0,true,true,true,false,0,,0,0,"master",1
"ncarusso/Trivium",668,"User",,0,0,true,true,true,false,0,,0,0,"master",1
"Jools64/shmup",1912,"User",,0,0,true,true,true,false,0,,0,0,"master",1
"Jerry0523/libFLAC",556,"User","",0,0,true,true,true,false,0,,0,0,"master",1
"windr00/HuffmanTree",192,"User",,0,0,true,true,true,false,0,,0,0,"master",1
"jbplop/libftASM",120,"User",,0,0,true,true,true,false,0,,0,0,"master",1
"cmjonze/opencore-aacdec",604,"User",,0,0,true,true,true,false,0,,0,0,"master",1
"Nomiluks/word2vec",276,"User",,0,0,true,false,false,false,0,,35,0,"master",1
