"sedevlin/Boomerang",148,"User",,0,0,true,true,true,false,0,,0,0,"master",1
"skastr0/bmp-tagram",340,"User",,0,0,true,true,true,false,0,,0,0,"master",1
"qiubinren/my_toys",136,"User",,0,0,true,true,true,false,0,,0,0,"master",1
"AndrewCloete/Base64-C",116,"User",,0,0,true,true,true,false,0,,0,0,"master",1
"jknightihiji/net-tools",400,"User",,0,0,true,true,true,false,0,,0,0,"master",1
"jasonabele/network-manager",10248,"User",,0,0,true,true,true,false,0,,0,0,"chip/stable",1
"JoamLihnson/diosmios",364,"User",,0,0,true,false,false,false,0,,1,0,"master",1
"leishen/bluepillstudy",150576,"User",,0,0,true,false,false,false,0,,0,0,"master",1
"dcorderoch/pointers-reference",160,"User",,0,0,true,true,true,false,0,,0,0,"master",1
"Hanvdm/ossbuild",943588,"User",,0,0,true,false,false,false,0,,57,0,"master",1
"chocolatiers/chocolate-boom",7524,"Organization",,0,0,true,true,true,false,0,,0,0,"master",1
"NinjaAtWork/TestGit",108,"User",,0,0,true,true,true,false,0,,0,0,"master",1
"winxuser/android_kernel_samsung_i9305",119004,"User",,0,0,true,true,true,false,0,,0,0,"master",1
"seppel1992/TabViewSample",43768,"User",,0,0,true,true,true,false,0,,0,0,"master",1
"Lw-Cui/Microcontrollers",512,"User","",0,0,true,true,true,false,0,,0,0,"master",1
"EmeraldGit/media_project_ss15",222996,"User",,0,0,true,true,true,false,0,,0,0,"master",1
"PlainSight/compress",108,"User",,0,0,true,true,true,false,0,,0,0,"master",1
"aleweichandt/tpso2c2007",1516,"User",,0,0,true,false,false,false,0,,1,0,"master",1
"Ying-XD/MyPipeline",140,"User",,0,0,true,true,true,false,0,,0,0,"master",1
"SrdjanMicin/Library-management-system",204,"User",,0,0,true,true,true,false,0,,0,0,"master",1
"ccolle/integration",16436,"User",,0,0,true,true,true,false,0,,0,0,"master",1
"BojanDjukic/Snake",1012,"User",,0,0,true,true,true,false,0,,0,0,"master",1
"iLogical/GLFW",19908,"User",,0,0,true,true,true,false,0,,0,0,"master",1
"8a7a539/extending-python2-with-c",108,"Organization","",0,0,true,true,true,false,0,,0,0,"master",1
"meetsushantpatil/Unix-File-Operations",148,"User",,0,0,true,true,true,false,0,,0,0,"master",1
"Dwayne36/homework",124,"User",,0,0,true,true,true,false,0,,0,0,"master",1
"sumedhghaisas/gyp-libpng",1584,"User",,0,0,true,true,true,false,0,,0,0,"master",1
"BenWiederhake/insane-triangle-banana",140,"User",,0,0,true,true,true,false,0,,0,0,"master",1
"manabukk/recognition",56311,"User",,0,0,true,true,true,false,1,,0,1,"master",1
"emukidid/neogeo-cd-redux",640,"User",,0,0,true,false,false,false,0,,0,0,"master",1
"cforfang/freetypegl-example",3004,"User",,0,0,true,true,true,false,0,,0,0,"master",1
"p677118k/database",396,"User",,0,0,true,true,true,false,0,,0,0,"master",1
"RuanJG/stm32_workspace",504,"User",,0,0,true,true,true,false,0,,0,0,"master",1
"wiptest/learnGIT",124,"User",,0,0,true,true,true,false,0,,0,0,"master",1
"alepar/nerf",61968,"User",,0,0,true,true,true,false,0,,0,0,"master",1
"kerekessandor/recap",108,"User",,0,0,true,true,true,false,0,,0,0,"master",1
"android-ia/hardware_intel_wlan_hostap_wcs",5680,"Organization",,0,0,true,true,true,false,0,,0,0,"master",1
"bonnieblue/android-serialport-api",276,"User",,0,0,true,false,false,false,0,,27,0,"master",1
"mishra14/Tutorial1_ESE519",368,"User",,0,0,true,true,true,false,0,,0,0,"master",1
"bleonar5/project_3",108,"User",,0,0,true,true,true,false,0,,0,0,"master",1
"BorealHobbit/learn-c-the-hard-way",1732,"User",,0,0,true,true,true,false,0,,0,0,"master",1
"AlexanderSkafte/EDAA25",139,"User",,0,0,true,true,true,false,0,,0,0,"master",1
"xyzz/vita-shaders",132,"User","",0,0,true,true,true,false,0,,0,0,"master",1
"icha024/geoindex",120,"User","",0,0,true,true,true,false,0,,0,0,"master",1
"tedAir/mongoose",840,"User",,0,0,true,false,false,false,0,,32,0,"master",1
"arya2/school",5072,"User",,0,0,true,true,true,false,0,,0,0,"master",1
"sinise/zigbeeRpi",144,"User",,0,0,true,true,true,false,0,,0,0,"master",1
"TareasSO2015/Tarea1SO",236,"Organization",,0,0,true,true,true,false,0,,0,0,"master",1
"orcmteam/libohpc_scon",90904,"Organization",,0,0,true,true,true,false,0,,0,0,"master",1
"JS-Wang/proceeding-onlp",220,"User",,0,0,true,true,true,false,0,,0,0,"master",1
"zhtmike/CS50",4056,"User",,0,0,true,true,true,false,0,,0,0,"master",1
"desaiuditd/turbulent-insertion",168,"User",,0,0,true,true,true,false,0,,0,0,"master",1
"aopp/android_device_asus_deb",488,"Organization",,0,0,true,true,true,false,0,,0,0,"px-0.1",1
"fast90/Keysafe",176,"User",,0,0,true,true,true,false,1,,0,1,"master",1
"robotronik/olinpiades",335,"Organization",,0,0,true,true,true,false,0,,0,0,"master",1
"accassid/pintos1",548,"User",,0,0,true,true,true,false,0,,0,0,"master",1
"Snikanes/tdt4258",640,"User",,0,0,true,true,true,false,0,,0,0,"master",1
"dcroberts/tufts",29680,"User",,0,0,false,true,false,false,0,,0,0,"master",1
"GuillelmoGomezCeballos/MitAnalysisRunII",264,"User",,0,0,true,true,true,false,0,,0,0,"master",1
"bokunimowakaru/xbeeCoord",1644,"User","http://www.geocities.jp/bokunimowakaru/diy/xbee/",0,0,true,true,true,false,0,,0,0,"master",1
"slehan/355work",32606,"User",,0,0,true,true,true,false,1,,0,1,"master",1
"renesas-rcar/gst-plugins-bad",35980,"Organization",,0,0,true,true,true,false,0,,0,0,"RCAR-GEN3/1.4.5",1
"neutronsharc/tools",148,"User",,0,0,true,true,true,false,0,,0,0,"master",1
"OoNEKERAFAoO/Algoritmos",224,"User",,0,0,true,true,true,false,0,,0,0,"master",1
