"fzxs8/chmsee",1036,"User",,0,0,true,false,false,false,0,,4,0,"master",1
"Neon-OS/platform_hardware_libhardware",2484,"Organization",,0,0,true,true,true,false,0,,0,0,"cm-11.0",1
"mwidya/MutationClient-2015",13224,"User",,0,0,true,true,true,false,0,,0,0,"master",1
"SparksEfrei/Projet-L2",148,"User",,0,0,true,true,true,false,0,,0,0,"master",1
"SpiritedFang/plan9",30356,"User",,0,0,true,true,true,false,0,,0,0,"master",1
"thantik/tlc5940arduino",2524,"User",,0,0,true,false,false,false,0,,22,0,"master",1
"do-aki/phpast",136,"User",,0,0,true,true,true,false,0,,0,0,"master",1
"toruyokoyama/ofxMultiTaction",4412,"User",,0,0,true,true,true,false,0,,0,0,"master",1
"naminomare/lua_test",11520,"User",,0,0,true,true,true,false,0,,0,0,"master",1
"Meninblack007/android_kernel_cyanogen_msm8916",809177,"User",,0,0,true,true,true,false,1,,0,1,"cm-13.0",1
"pavlov-dmitry/big-mode-key",212,"User",,0,0,true,true,true,false,0,,0,0,"master",1
"jlugao/Project4-Interrupt",132,"User",,0,0,true,true,true,false,0,,0,0,"master",1
"MagnetoHydroDynamics/Arkenstone",240,"User",,0,0,true,true,true,false,0,,0,0,"master",1
"TommyRadan/HelloWorld",1672,"User",,0,0,true,true,true,false,0,,0,0,"master",1
"sophiallen/CS50-breakout",244,"User",,0,0,true,true,true,false,0,,0,0,"master",1
"Sergey-Gerasimov/lab5-Hello-world-n-times",140,"User",,0,0,true,true,true,false,0,,0,0,"master",1
"sceptre12/CProgrammingBtrees",152,"User",,0,0,true,true,true,false,0,,0,0,"master",1
"sauravwcm/Mycode_Tinyos",4632,"User",,0,0,true,true,true,false,0,,0,0,"master",1
"rig-project/cglib",14468,"Organization",,0,0,true,true,true,false,0,,0,0,"master",1
"nkuclassical/CS631AdvanceUnixProgramming",296,"User",,0,0,true,true,true,false,0,,0,0,"master",1
"nikoszoumpalidis/O-S_Security_1",604,"User","",0,0,true,true,true,false,0,,0,0,"master",1
"mugwch01/mugwch01lc",140,"User",,0,0,true,true,true,false,1,,0,1,"master",1
"TinyNiko/shellgame",184,"User",,0,0,true,true,true,false,0,,0,0,"master",1
"lucaslanger/kibbles",16896,"User",,0,0,true,true,true,false,0,,0,0,"master",1
"danielasun/darwin-op",1780,"User",,0,0,true,true,true,false,0,,0,0,"master",1
"pamartn/simpleweb",132,"User",,0,0,true,true,true,false,0,,0,0,"master",1
"wanhuiconcordia/comp6281_asg2",152,"User",,0,0,true,true,true,false,0,,0,0,"master",1
"richox/tieba_competition",108,"User",,0,0,true,true,true,false,0,,0,0,"master",1
"cemdukan/EES4100_Bridge",312,"User",,0,0,true,true,true,false,0,,0,0,"master",1
"andersfrank/BracketBox",624,"User",,0,0,true,true,true,false,0,,0,0,"master",1
"Ken-Hu/Data-Structures-Implementation-in-C",128,"User",,0,0,true,true,true,false,0,,0,0,"master",1
"linnylin92/compress_sensing",496,"User",,0,0,true,true,true,false,0,,0,0,"master",1
"jfcarvalho/Compiladores",432,"User",,0,0,true,true,true,false,0,,1,0,"master",1
"matmar10/pebble-adhan-watchface",152,"User",,0,0,true,true,true,false,0,,0,0,"master",1
"phelpsw/speedo",144,"User",,0,0,true,true,true,false,0,,0,0,"master",1
"jonyB0B/C-Programing",176,"User",,0,0,true,true,true,false,1,,0,1,"master",1
"DoriumMaldovar/201",168,"User",,0,0,true,true,true,false,0,,0,0,"master",1
"quangthanh010290/RaspberryPi2",112,"User",,0,0,true,true,true,false,0,,0,0,"master",1
"vibhu0009/Kernel",922252,"User",,0,0,true,true,true,false,0,,0,0,"master",1
"XianB/u-boot-yaffs2old",13948,"User",,0,0,true,true,true,false,0,,0,0,"master",1
"daniel-32/json-parser",180,"User",,0,0,true,true,true,false,0,,0,0,"master",1
"PAC-ROM/android_hardware_qcom_audio",3212,"Organization",,0,0,true,true,true,false,0,,0,0,"pac-6.0",1
"PAC-ROM/android_hardware_samsung_slsi_exynos5",3036,"Organization",,0,0,true,true,true,false,0,,0,0,"pac-6.0",1
"PAC-ROM/android_system_extras",2436,"Organization",,0,0,true,true,true,false,0,,0,0,"pac-6.0",1
"mumu3w/C_Programming",244,"User",,0,0,true,true,true,false,0,,0,0,"master",1
"vtykhoniuk/ADS",156,"User",,0,0,true,true,true,false,0,,0,0,"master",1
"Teklarit/Vappium",6956,"User",,0,0,true,true,true,false,0,,0,0,"master",1
"HazyTeam/platform_external_wpa_supplicant_8",5608,"Organization",,0,0,true,true,true,false,0,,0,0,"hazy-mallow",1
"Darvame/teateatea",196,"User","",0,0,true,true,true,false,0,,0,0,"master",1
"Hybridmax/Hybridmax_Kernel_S4",129560,"User",,0,0,true,true,true,false,0,,0,0,"master",1
"searzocom/MSP430F5529LP-Utilities",248,"User",,0,0,true,true,true,false,0,,0,0,"master",1
"ahom/dotfiles",224,"User","",0,0,true,true,true,false,0,,0,0,"master",1
"VisualPi/ESGI_COURS_VISUALPI",35684,"User",,0,0,true,true,true,false,0,,0,0,"master",1
"Dude100/android_device_xiaomi_hermes",6689,"User",,0,0,false,true,true,false,0,,0,0,"master",1
"Hybridmax/Hybridmax_Kernel_Note5",154240,"User",,0,0,true,true,true,false,0,,0,0,"master",1
"eliastor/cryptofamily",204,"User",,0,0,true,true,true,false,1,,1,1,"master",1
"wwalexander/hostsblock",160,"User",,0,0,true,true,true,false,0,,0,0,"master",1
"hoshitocat/syspro-lectures",196,"User",,0,0,true,true,true,false,0,,0,0,"master",1
"bacarpenter1/projects",196,"User",,0,0,true,true,true,false,0,,0,0,"master",1
"xanthium-enterprises/MSP430-ADC10-Tutorial",144,"User","http://xanthium.in/msp430-launchpad-adc10-configuration-tutorial",0,0,true,true,true,false,0,,0,0,"master",1
"dohertki/Assignment3_linklist",112,"User",,0,0,true,true,true,false,0,,0,0,"master",1
"priyankjain/c-dragon-temperature",416,"User",,0,0,true,true,true,false,0,,0,0,"master",1
"uebayasi/bf2",144,"User",,0,0,true,true,true,false,0,,0,0,"master",1
"winterweird/snake-the-console-game",152,"User",,0,0,true,true,true,false,0,,0,0,"master",1
"buhman/buh",132,"User",,0,0,true,true,true,false,0,,0,0,"master",1
"KennyDalglish/open-samp",34296,"User",,0,0,true,false,false,false,0,,0,0,"master",1
"BrokenROM/device_qcom_common",264,"Organization",,0,0,true,true,true,false,0,,0,0,"m6.0",1
"NachtZ/trie_bloom",136,"User",,0,0,true,true,true,false,0,,0,0,"master",1
"hexxellor/procfw",3712,"User",,0,0,true,false,false,false,0,,177,0,"master",1
"D400150008/tugas03",144,"User",,0,0,true,true,true,false,0,,0,0,"master",1
"chaosink/output-source-code",156,"User",,0,0,true,true,true,false,0,,0,0,"master",1
"OS2World/UTIL-FILE-File_Attributes",140,"Organization",,0,0,true,true,true,false,0,,0,0,"master",1
"orezpraw/pop",168,"User",,0,0,true,true,true,false,0,,0,0,"master",1
"UBERMALLOW/external_flac",608,"Organization",,0,0,true,true,true,false,1,,0,1,"master",1
"kulve/pwgallery",300,"User",,0,0,true,true,true,false,0,,0,0,"master",1
"buhman/bdb",124,"User",,0,0,true,true,true,false,0,,0,0,"master",1
"Zobov-inc/Manipulator-board-F205",592,"Organization","",0,0,true,true,true,false,0,,0,0,"master",1
"brok85/apv",64740,"User",,0,0,true,false,false,false,0,,116,0,"master",1
"jelly/sunxi-rda5990",220,"User",,0,0,true,true,true,false,0,,0,0,"master",1
"snowdenator/ESP8266_Stuff",148,"User",,0,0,true,true,true,false,0,,0,0,"master",1
"fengidri/BearCache",316,"User",,0,0,true,true,true,false,0,,0,0,"master",1
"CryptoLunar/lunar",3732,"User",,0,0,true,true,true,false,0,,0,0,"master",1
"donavdey/sysfs",128,"User",,0,0,true,true,true,false,0,,0,0,"master",1
"jseric/millionaire",120,"User",,0,0,true,true,true,false,0,,0,0,"master",1
"UBERMALLOW/external_sqlite",14088,"Organization",,0,0,true,true,true,false,1,,0,1,"master",1
"Vitancourt/AVLtree",108,"User",,0,0,true,true,true,false,0,,0,0,"master",1
"Microwave89/openprocbyname",12280,"User",,0,0,true,true,true,false,0,,0,0,"master",1
"couchjd/cs433",5032,"User",,0,0,true,true,true,false,0,,0,0,"master",1
"alokpathy/light_irc",228,"User",,0,0,true,true,true,false,0,,0,0,"master",1
"leaffyleif/tripi",148,"User",,0,0,true,true,true,false,0,,0,0,"master",1
"sakibj/cs314",144,"User",,0,0,true,true,true,false,0,,0,0,"master",1
"PAC-ROM/android_hardware_ti_wlan",13928,"Organization",,0,0,true,true,true,false,0,,0,0,"pac-6.0",1
"rick1474/droidsheep",3316,"User",,0,0,true,false,false,false,0,,11,0,"master",1
"JeanLouisMassei/Tables",172,"User","",0,0,true,true,true,false,0,,0,0,"master",1
"xc-racer99/android_external_yaffs2",280,"User",,0,0,true,true,true,false,0,,0,0,"android-5.1",1
"PAC-ROM/android_system_qcom",288,"Organization",,0,0,true,true,true,false,0,,0,0,"pac-6.0",1
"HazyTeam/platform_kernel_oneplus_msm8974",620668,"Organization",,0,0,true,true,true,false,0,,0,0,"hazymallow",1
"kictomasz/pdsh",2512,"User",,0,0,true,false,false,false,0,,26,0,"master",1
"bearlin/study_c_cliffords_device",148,"User",,0,0,true,true,true,false,0,,0,0,"master",1
"weprikjm/2DEngineCITM",3340,"User",,0,0,true,true,true,false,0,,0,0,"master",1
