"tilden/pebble-solitaire",124,"User",,0,0,true,false,false,false,0,,1,0,"master",1
"supernova15/modwsgi",1316,"User",,0,0,true,false,false,false,0,,15,0,"master",1
"lcxaiw/word2vec",272,"User",,0,0,true,false,false,false,0,,35,0,"master",1
"nickandrew/avr-onewire",156,"User",,0,0,true,true,true,false,0,,0,0,"master",1
"crice88/C_projects",112,"User",,0,0,true,true,true,false,0,,0,0,"master",1
"neesenk/nbds",376,"User",,0,0,true,false,false,false,0,,3,0,"master",1
"asriadi/uhttpd2",264,"User",,0,0,true,true,true,false,0,,0,0,"master",1
"asriadi/ustream-ssl",144,"User",,0,0,true,true,true,false,0,,0,0,"master",1
"electromatter/mcp_base",220,"User",,0,0,true,true,false,false,1,,0,1,"master",1
"longcongduoi/jn5168_WSN",61960,"User","",0,0,false,true,true,false,0,,0,0,"master",1
"Genomius/LINUX_C_THREADS_1",168,"User",,0,0,true,true,true,false,0,,0,0,"master",1
"IC7K/dump740",1032,"User",,0,0,true,true,true,false,0,,0,0,"master",1
"lorks/LCTHW",756,"User",,0,0,true,true,true,false,0,,0,0,"master",1
"upenn-cis240/lcc-lc4",1440,"Organization",,0,0,true,true,true,false,0,,0,0,"master",1
"VanirAOSP/device_oneplus_oneplus2",8744,"Organization",,0,0,true,true,true,false,0,,0,0,"L51",1
"dargaCode/recursiveSum",152,"User",,0,0,true,true,true,false,0,,0,0,"master",1
"pratikshasachinsheth/student",180,"User",,0,0,true,true,true,false,0,,0,0,"master",1
"Dankoozie/sht75",127,"User","",0,0,true,true,true,false,1,,0,1,"master",1
"AlexPestka/PersonalStuff",160,"User",,0,0,true,true,true,false,0,,0,0,"master",1
"krzychb/esp-just-slip",0,"User","",0,0,true,true,false,false,0,,0,0,"master",1
"nmc16/SYSC4001",184,"User",,0,0,true,true,true,false,0,,0,0,"master",1
"jamesodhunt/procenv",4665,"User",,0,0,true,true,true,false,0,,0,0,"master",1
"yzxsunshine/WPICS502",776,"User",,0,0,true,true,true,false,0,,0,0,"master",1
"Split-Screen/android_kernel_motorola_otus",633040,"Organization",,0,0,true,true,true,false,0,,0,0,"pac-5.1",1
"msnyde8/COSC647",92808,"User",,0,0,true,true,true,false,0,,0,0,"master",1
"junk0xc0d3/sfshare",144,"User","",0,0,true,true,true,false,0,,0,0,"master",1
"Gratski/SD_Projecto_2",552,"User",,0,0,true,true,true,false,0,,0,0,"master",1
"dot-cross/simple-parser",188,"User",,0,0,true,true,true,false,0,,0,0,"master",1
"hexinatgithub/ModernOperatingSystems",128,"User",,0,0,true,true,true,false,0,,0,0,"master",1
"tectronics/wrekagrid",388,"User",,0,0,true,false,false,false,0,,0,0,"master",1
"Yukibashiri/Casa-do-Mocoto",252,"User","",0,0,true,true,true,false,0,,0,0,"master",1
"bjchaudhari29/PROJECT",176,"User",,0,0,true,true,true,false,0,,0,0,"master",1
"Ayowel/ANNIE",1000,"User",,0,0,true,true,true,false,0,,0,0,"master",1
"omshaar/vudroid",31420,"User",,0,0,true,false,false,false,0,,107,0,"master",1
"bamuhrez/C-Language",140,"User",,0,0,true,true,true,false,0,,0,0,"master",1
"Nastradamus/pgpatch",156,"User",,0,0,true,true,true,false,0,,0,0,"master",1
"xoware/af_ag",120,"Organization",,0,0,true,true,true,false,0,,0,0,"master",1
"JCube001/libgps",148,"User",,0,0,true,true,true,false,0,,0,0,"master",1
"SancharovK/_local_engine",122356,"User",,0,0,true,true,true,false,0,,0,0,"master",1
"Sarat-Chandra/Simple-Text-Editor-in-C",176,"User",,0,0,true,true,true,false,0,,0,0,"master",1
"psengelke/normalization-execrise",2056,"User",,0,0,true,true,true,false,0,,0,0,"master",1
"Rodriguez012/fbzx-wii",17172,"User",,0,0,true,false,false,false,0,,13,0,"master",1
"hayview/USB-CDC-and-HD44780-and-DS18B20",120,"User",,0,0,true,true,true,false,0,,0,0,"master",1
"bapt/xcbautolock",108,"User",,0,0,true,true,true,false,0,,0,0,"master",1
"asriadi/rpcd",220,"User",,0,0,true,true,true,false,0,,0,0,"master",1
"pd-l2ork/cwiid",284,"User",,0,0,true,true,true,false,0,,0,0,"master",1
"youmenputao/Algorithm",144,"User",,0,0,true,true,true,false,0,,0,0,"master",1
"fengcanyue/ZigBee_Program",27488,"User",,0,0,true,true,true,false,0,,0,0,"master",1
"robm123/xxx",444,"User",,0,0,true,true,true,false,0,,0,0,"master",1
"lngost/arpspoofmod",124,"User",,0,0,true,true,true,false,0,,0,0,"master",1
"kysioo/geralt-z-Rivi",136,"User",,0,0,true,true,true,false,0,,0,0,"master",1
"rajul/SPOJ",140,"User",,0,0,true,true,true,false,0,,0,0,"master",1
"mxinshangshang/aliyun_server",124,"User",,0,0,true,true,true,false,0,,0,0,"master",1
"HiKat/C-Tips",140,"User",,0,0,true,true,true,false,0,,0,0,"master",1
"kamilp2p/BDF-Kernel",616448,"User",,0,0,true,true,true,false,0,,0,0,"cm-11.0",1
"my-scut-code/qt_for_camera",2508,"Organization",,0,0,true,true,true,false,0,,0,0,"master",1
"QubesOS/qubes-app-linux-input-proxy",101,"Organization",,0,0,true,true,true,false,1,,0,1,"master",1
"ornse01/axTLS-BTRON",3804,"User","",0,0,true,true,true,false,0,,0,0,"master",1
"btrd/ASE_TP3",160,"User",,0,0,true,true,true,false,0,,0,0,"master",1
"ajaivgeorge/gensys",308,"User",,0,0,true,true,true,false,0,,0,0,"master",1
"Altunkaynak/remail-iphone",2248,"User",,0,0,true,false,false,false,0,,27,0,"master",1
"sheng09/AutoRF-toolkit",120,"User","",0,0,true,true,true,false,0,,0,0,"master",1
"rdparker/SDL",218804,"User","https://www.libsdl.org/",0,0,true,true,true,false,0,,0,0,"master",1
"NiklasJonsson/edaa25",112,"User",,0,0,true,true,true,false,0,,0,0,"master",1
"ahdmuhajir/c",156,"User",,0,0,true,true,true,false,0,,0,0,"master",1
"kachkov98/text-sort",372,"User",,0,0,true,true,true,false,0,,0,0,"master",1
"galo2099/curlftpfs",212,"User",,0,0,true,false,false,false,0,,9,0,"master",1
"kozlovic/cnats",272,"User",,0,0,true,true,true,false,0,,0,0,"master",1
"legolego/ArduinoBits",140,"User",,0,0,true,true,true,false,0,,0,0,"master",1
"rainyyang5/databaseApplications",7544,"User",,0,0,true,true,true,false,0,,0,0,"master",1
"KrupaPrag/hw3",116,"User",,0,0,true,true,true,false,0,,0,0,"master",1
"ChaoKong/Mytest",124,"User",,0,0,true,true,true,false,0,,0,0,"master",1
"npe9/old-sprite",13120,"User",,0,0,true,true,true,false,0,,0,0,"master",1
"ccosm/py_videostream",116,"User",,0,0,true,true,true,false,0,,0,0,"master",1
"tymicruz/455proj1",180,"User",,0,0,true,true,true,false,0,,0,0,"master",1
"spencer1573/-__C__learning",112,"User",,0,0,true,true,true,false,0,,0,0,"master",1
"julnisch/android-serialport-api",276,"User",,0,0,true,false,false,false,0,,27,0,"master",1
"zujko/0xf.at",144,"User",,0,0,true,true,true,false,0,,0,0,"master",1
"steliosrousoglou/m15",152,"User",,0,0,true,true,true,false,0,,0,0,"master",1
"BADSA/HTTPSERVER",162,"Organization",,0,0,true,true,true,false,1,,0,1,"master",1
"wotmd5731/MultiBoot",420,"User",,0,0,true,true,true,false,0,,0,0,"master",1
"danielcabralsilveira/Linux-Device-Driver",108,"User",,0,0,true,true,true,false,0,,0,0,"master",1
"talexop/talexop_kernel_Note4_910C_5.1.1",128316,"User",,0,0,true,true,true,false,0,,0,0,"master",1
"tmuntan1/AVR-Blink",132,"User",,0,0,true,true,true,false,0,,0,0,"master",1
"GrandK/megapirateng",4984,"User",,0,0,true,false,false,false,0,,40,0,"master",1
"jaengineer/KitJoin",5956,"User",,0,0,true,true,true,false,0,,0,0,"master",1
"mfikria/Flow-Control-UDP",148,"User",,0,0,true,true,true,false,0,,0,0,"master",1
"jfishman/ioqueue",248,"User","",0,0,true,true,true,false,0,,0,0,"master",1
"pombredanne/wine-dump",179028,"User","",0,0,true,true,true,false,0,,0,0,"master",1
"Felipe-Visgou/Sistemas-de-Computacao",144,"User",,0,0,true,true,true,false,0,,0,0,"master",1
"ryoon/toppers-fmp-for-qemu-vexpress-a9",1360,"User","",0,0,true,true,true,false,0,,0,0,"master",1
"liuyikcheng/ShellSort",872,"User",,0,0,true,true,true,false,0,,0,0,"master",1
"shashquatch/test_repo",356,"User",,0,0,true,true,true,false,0,,0,0,"master",1
"edgar-mtz-e/C_programs",188,"User","",0,0,true,true,true,false,0,,0,0,"master",1
"dineshkandan1990/siphon",7644,"User",,0,0,true,false,false,false,0,,159,0,"master",1
"nylon7/AES-algo",144,"User",,0,0,true,true,true,false,0,,0,0,"master",1
"zndxwll/DataStructural",324,"User",,0,0,true,true,true,false,0,,0,0,"master",1
"NathanJ60/Test1",124,"User",,0,0,true,true,true,false,0,,0,0,"master",1
"boulzordev/android_hardware_qcom_audio",2108,"Organization",,0,0,true,true,true,false,0,,0,0,"m-msm8916",1
"JohnnyPP/AVR-ATtiny85-LED-Switch",124,"User",,0,0,true,true,true,false,0,,0,0,"master",1
