"OpenInkpot-archive/eshutdown",536,"Organization",,0,0,true,true,true,false,0,,0,0,"master",1
"pgerlich/BasicShell",160,"User",,0,0,true,true,true,false,0,,0,0,"master",1
"PedroSliuzas/T1MC404",140,"User","",0,0,true,true,true,false,0,,0,0,"master",1
"veronicastocco/MAC122",388,"User",,0,0,true,true,true,false,0,,0,0,"master",1
"varks/security",532,"User",,0,0,true,true,true,false,0,,0,0,"master",1
"which0326/Hello_World",144,"User",,0,0,true,true,true,false,0,,1,0,"master",1
"mjsmar/arm-arm64-fpsimd-test",108,"User",,0,0,true,true,true,false,0,,0,0,"master",1
"cbiancucci/itba-imperative_programming",148,"User",,0,0,true,true,true,false,0,,0,0,"master",1
"hokim72/FreeRTOS",2368,"User",,0,0,true,true,true,false,0,,0,0,"master",1
"fintano/PintOS",2372,"User",,0,0,true,true,true,false,0,,0,0,"master",1
"ryn-inaba/iphone-dataprotection",7420,"User",,0,0,true,false,false,false,0,,63,0,"master",1
"adream307/lockfree",156,"User",,0,0,true,true,true,false,0,,0,0,"master",1
"kpraveen85/vsnfs",556,"User",,0,0,true,false,false,false,0,,0,0,"master",1
"tulisiddhant/Parallel-Sparse-Matrix-Vector-Multiplication",292,"User",,0,0,true,true,true,false,0,,0,0,"master",1
"ph4f/git.test",124,"User",,0,0,true,true,true,false,0,,0,0,"master",1
"hellhoundmipt/sem_3-not-used-",124,"User",,0,0,true,true,true,false,0,,0,0,"master",1
"leolounz/NZVEH",140,"User",,0,0,true,true,true,false,0,,0,0,"master",1
"shellychitkara/cloudrepository",152,"User",,0,0,true,true,true,false,0,,0,0,"master",1
"heavyhand/sunswift",23204,"User",,0,0,true,false,false,false,0,,0,0,"master",1
"heavyhand/sunswift.switch-card",120,"User",,0,0,true,false,false,false,0,,0,0,"master",1
"heavyhand/sunswift.battery",3020,"User",,0,0,true,false,false,false,0,,0,0,"master",1
"iryont/AVR-OS",136,"User",,0,0,true,true,true,false,0,,0,0,"master",1
"dwhipple99/networking",116,"User",,0,0,true,true,true,false,0,,0,0,"master",1
"jrzidow/Abstract_Data_Types",216,"User",,0,0,true,true,true,false,0,,0,0,"master",1
"porlan1/sde-fit",352,"User",,0,0,true,true,true,false,0,,0,0,"master",1
"clhain/clhain-raspberrypi",101752,"User",,0,0,true,false,false,false,0,,0,0,"master",1
"Riposati/Arvore_AVL",136,"User",,0,0,true,true,true,false,0,,0,0,"master",1
"SlothMellow/android_kernel_moto_shamu",136944,"Organization",,0,0,true,true,true,false,0,,0,0,"sm6",1
"DonaldNgai/Quaduino",164,"User",,0,0,true,true,true,false,0,,0,0,"master",1
"LarsEngeln/orbZ",2788,"User",,0,0,true,true,true,false,0,,0,0,"master",1
"jjmm0019/PPT_P1_Grupo02",176,"User",,0,0,true,true,true,false,0,,0,0,"master",1
"kinogen/c",196,"User",,0,0,true,true,true,false,0,,0,0,"master",1
"nxiromeritis/ce326-hw1",196,"User",,0,0,true,true,true,false,0,,1,0,"master",1
"lucien1011/L1Ntuples",608,"User",,0,0,true,true,true,false,0,,0,0,"master",1
"mpersing/Program_5",984,"User",,0,0,true,true,true,false,0,,0,0,"master",1
"narv1/school",156,"User",,0,0,true,true,true,false,0,,0,0,"master",1
"alvin-jiang/rxd-os",300,"User","",0,0,true,true,true,false,0,,0,0,"master",1
"DarkOwracle/OpenGL_3DEngine",276,"User",,0,0,true,true,false,false,0,,3,0,"master",1
"JoystX/Dictionnaire",1524,"User",,0,0,true,true,true,false,0,,0,0,"master",1
"BrunoBob/Dictionnaire",176,"User",,0,0,true,true,true,false,0,,0,0,"master",1
"mranisz/samsami",208,"User",,0,0,true,true,true,false,0,,0,0,"master",1
"ryanmgeek/CST135_MainGame_RyanBell",15708,"User",,0,0,true,true,true,false,0,,0,0,"master",1
"glop102/Raspberry-Pi-Camera-Ring",68684,"User",,0,0,true,true,true,false,0,,1,0,"master",1
"kangareuben/engines",63278,"User",,0,0,true,true,true,false,1,,0,1,"master",1
"wongwingho/what-is-this",313,"User",,0,0,true,true,true,false,1,,1,1,"master",1
"mbait/mnqtt",152,"User","",0,0,true,true,true,false,0,,0,0,"master",1
"aceisnotmycard/oslabs",160,"User",,0,0,true,true,true,false,0,,0,0,"master",1
"TommasoAmici/Harvard-CS50",244,"User",,0,0,true,true,true,false,0,,0,0,"master",1
"TenderTicante/edd2015",228,"User","",0,0,true,true,true,false,0,,0,0,"master",1
"aluhvihn/cs143",768,"User",,0,0,true,true,true,false,0,,0,0,"master",1
"seanwars/430Projects",204,"User",,0,0,true,true,true,false,0,,0,0,"master",1
"yuhangli/UCOS2",17420,"User",,0,0,true,true,true,false,0,,0,0,"master",1
"hrant1000/graph-algorithms",196,"User",,0,0,true,true,true,false,0,,0,0,"master",1
"hrabcak/draw_call_perf",4260,"User",,0,0,true,true,true,false,0,,0,0,"master",1
"ivanmoreno/Procesamiento-de-Textos",124,"User",,0,0,true,true,true,false,0,,0,0,"master",1
"renyuneyun/mountgraph",144,"User",,0,0,true,true,true,false,0,,0,0,"master",1
"ifbwc415a/prg",196,"Organization",,0,0,true,true,true,false,0,,0,0,"master",1
"AngelDE98/FNADroid",136,"User",,0,0,true,true,true,false,0,,4,0,"master",1
"Sungsonic/platform_bionic",23892,"Organization",,0,0,true,true,true,false,0,,0,0,"sshd-mm6.0",1
"ExiaHan/exiahanLib",136,"User",,0,0,true,true,true,false,0,,0,0,"master",1
"huangbop/memoleft",0,"User",,0,0,true,true,true,false,0,,0,0,"master",1
"hanketgithub/HvcGtk",156,"User",,0,0,true,true,true,false,0,,0,0,"master",1
"ricardoferro390/ADRC",1476,"User",,0,0,true,true,true,false,0,,0,0,"master",1
"g2minhle/ECE568_Lab2",704,"User",,0,0,true,true,true,false,0,,0,0,"master",1
"blastin/CTree",280,"User",,0,0,true,true,true,false,0,,0,0,"master",1
"jeanbaptistedalle/heat",192,"User",,0,0,true,true,true,false,0,,0,0,"master",1
"Bioconductor-mirror/gcatest",5536,"Organization","",0,0,false,false,false,false,0,,0,0,"master",1
"Uyouii/tetris",136,"User",,0,0,true,true,true,false,0,,0,0,"master",1
"Dominator007/bionic",925208,"User",,0,0,true,true,true,false,0,,0,0,"dominator",1
"atmarksharp/gtk-reversi",388,"User",,0,0,true,true,true,false,0,,0,0,"master",1
"voroojax/decaf-platform",21436,"User",,0,0,true,false,false,false,0,,6,0,"master",1
"HectorGarciaMiguel/Mini-Kernel-Unix---Gestion-de-Memoria-Memon",604,"User",,0,0,true,true,true,false,0,,0,0,"master",1
"voroojax/flayer",4684,"User",,0,0,true,false,false,false,0,,1,0,"master",1
"voroojax/wireplay",568,"User",,0,0,true,false,false,false,0,,7,0,"master",1
"VWag/Engine-test-mode",108,"User",,0,0,true,true,true,false,0,,0,0,"master",1
"smithaharish/webrtc2sip",6636,"User",,0,0,true,false,false,false,0,,77,0,"master",1
"criptych/aegis",588,"User",,0,0,true,true,true,false,0,,0,0,"develop",1
"jpereiramp/INF1010",144,"User",,0,0,true,true,true,false,0,,0,0,"master",1
"cgundogan/RIOT-Demos",108,"User",,0,0,true,true,true,false,0,,0,0,"master",1
"ttskym/Data-Structures-and-Algrithm",124,"User",,0,0,true,true,true,false,0,,0,0,"master",1
"nfxosp/platform_device_samsung_espresso-common",684,"Organization",,0,0,true,true,true,false,0,,0,0,"aosp-5.1.1",1
"MakeNowJust/plucid",268,"User",,0,0,true,false,false,false,0,,1,0,"master",1
"alu0100536652/LPP_09",124,"User",,0,0,true,true,true,false,0,,0,0,"master",1
"zonque/nftables",1024,"User",,0,0,true,true,true,false,0,,0,0,"master",1
"sigma-embedded/elito-rescue-utils",124,"Organization",,0,0,true,true,true,false,0,,0,0,"master",1
"N6DIQ/Life",144,"User",,0,0,true,true,true,false,0,,0,0,"master",1
"Depictograph/KVstore",212,"User",,0,0,true,true,true,false,0,,0,0,"master",1
"ThePhD/libjpeg",2168,"User",,0,0,true,true,true,false,0,,0,0,"master",1
"LilTsubaki/Modelisation-TP1",224,"User",,0,0,true,true,true,false,0,,0,0,"master",1
"madhavin-68/repoWithReadMe",140,"User",,0,0,true,true,true,false,0,,0,0,"master",1
"mdrwt/crypto",108,"User",,0,0,true,true,true,false,0,,0,0,"master",1
"hamanx94/qt_tool",1416,"User",,0,0,true,true,true,false,0,,0,0,"master",1
"codelifeliwan/simulated-human-brain",152,"User",,0,0,true,true,true,false,0,,0,0,"master",1
"areum-kim/kimareum",144,"User",,0,0,true,true,true,false,0,,0,0,"master",1
"bsmr/nginx-sflow-module",192,"User",,0,0,true,false,false,false,0,,0,0,"master",1
"kliga/one-file-linux",2104,"User",,0,0,true,true,true,false,0,,0,0,"master",1
"Luigi-pl/Simple-Clock",124,"User",,0,0,true,true,true,false,0,,0,0,"master",1
"nsaspook/cpanel",37240,"User",,0,0,true,true,true,false,0,,0,0,"master",1
"thanhphat11/Android_kernel_xiaomi_ALL",789500,"User",,0,0,true,true,true,false,0,,0,0,"master",1
"ajohnson23/git-lfs-test-repo",6608,"User",,0,0,true,true,true,false,0,,0,0,"master",1
