"tzw0745/dataStructure",192,"User",,0,0,true,true,true,false,0,,0,0,"master",1
"mariliaribeiro/C",356,"User",,0,0,true,true,true,false,0,,0,0,"master",1
"ausnimbus/openshift-cartridge-php",188496,"Organization","https://www.ausnimbus.com.au/",0,0,true,true,true,false,0,,0,0,"master",1
"GyazSquare/LibreSSL-Framework",3952,"Organization","",0,0,true,true,true,false,0,,2,0,"master",1
"chrhsmt/aiit_secure_programming",168,"User",,0,0,true,true,true,false,0,,0,0,"master",1
"brunoisy/projet_1",616,"User",,0,0,true,true,true,false,0,,0,0,"master",1
"tectronics/visitors",236,"User",,0,0,true,false,false,false,0,,0,0,"master",1
"lucas95123/C_Workspace",15464,"User",,0,0,true,true,true,false,0,,0,0,"master",1
"menkaraghunathbhapkar/library",144,"User",,0,0,true,true,true,false,0,,0,0,"master",1
"JohnGerardHallissey/mct609",204,"User",,0,0,true,true,true,false,0,,0,0,"master",1
"zhc921106/museTools",23620,"User",,0,0,true,true,true,false,0,,0,0,"master",1
"asriadi/procd",716,"User",,0,0,true,true,true,false,0,,0,0,"master",1
"ZitingShen/Assembly-Practices",136,"User","",0,0,true,true,true,false,0,,0,0,"master",1
"rodrigoRock/P2P",1142,"User",,0,0,true,true,true,false,0,,0,0,"master",1
"royceda/Sudoku-Solver",424,"User",,0,0,true,true,true,false,0,,0,0,"master",1
"je00/u-boot-2014.04-Smart210",7848,"User",,0,0,true,true,true,false,0,,0,0,"master",1
"rickchung1082/armv6-m-context-switch",108,"User",,0,0,true,true,true,false,1,,0,1,"master",1
"jshaw/social-artifacts",2832,"User",,0,0,true,true,true,false,0,,0,0,"master",1
"gabrielalmeidaa/ED",108,"User",,0,0,true,true,true,false,0,,0,0,"master",1
"Mike1Q84/MPI.Fleet",140,"User",,0,0,true,true,true,false,0,,0,0,"master",1
"samdmarshall/libedit",816,"User",,0,0,true,true,true,false,0,,0,0,"develop",1
"zygimantus/c-simple",108,"User",,0,0,true,true,true,false,0,,0,0,"master",1
"FreCap/YS-Chat-Vocal",1304,"User",,0,0,true,true,true,false,0,,0,0,"master",1
"shreyanshd/SDSHELL",140,"User",,0,0,true,true,true,false,0,,0,0,"master",1
"ScatterBox/quake1-iphone",632,"User",,0,0,true,false,false,false,0,,2,0,"master",1
"DarkxKen/Ai-watchface",180,"User",,0,0,true,true,true,false,0,,0,0,"master",1
"temochka/st",2008,"User",,0,0,true,true,true,false,0,,0,0,"custom",1
"dhdnzk/vimrc",844,"User",,0,0,true,true,true,false,0,,0,0,"master",1
"omshaar/apv",64740,"User",,0,0,true,false,false,false,0,,116,0,"master",1
"yashi/gstdropper",144,"User",,0,0,true,true,true,false,0,,0,0,"master",1
"Wifinitygithub/wifinityRepo",9920,"User",,0,0,true,true,true,false,0,,0,0,"master",1
"neesenk/ttree",216,"User",,0,0,true,false,false,false,0,,0,0,"master",1
"palash89/siphon",7640,"User",,0,0,true,false,false,false,0,,159,0,"master",1
"appjacker/pyo",7140,"User",,0,0,true,false,false,false,0,,10,0,"master",1
"niebieskitrociny/luaHandler",108,"User",,0,0,true,true,true,false,0,,0,0,"master",1
"douglas-vieira/TP_ED",364,"User",,0,0,true,true,true,false,0,,0,0,"master",1
"mrgss/mruby-gwi",228,"Organization",,0,0,true,true,true,false,0,,0,0,"master",1
"Denis-Herdt/Raspi-Car",26588,"User",,0,0,true,true,true,false,0,,0,0,"master",1
"Palmyr3/MedianFilter",136,"User",,0,0,true,true,true,false,0,,0,0,"master",1
"rindi/tos",4452,"User",,0,0,true,true,true,false,0,,0,0,"master",1
"yy103style/CMA_C_02",21316,"User",,0,0,true,true,true,false,0,,0,0,"master",1
"GrandK/arducam-osd",9172,"User",,0,0,true,false,false,false,0,,39,0,"master",1
"ggila/libftASM",148,"User",,0,0,true,true,true,false,0,,0,0,"master",1
"maitesin/dwm",172,"User",,0,0,true,true,true,false,0,,0,0,"master",1
"solesurvivor/des",140,"User",,0,0,true,true,true,false,0,,0,0,"master",1
"finalclass/.atom",3776,"User",,0,0,true,true,true,false,0,,0,0,"master",1
"blakemcbride/Drill",128,"User",,0,0,true,true,true,false,0,,0,0,"master",1
"RyanPSullivan/c-8080",128,"User",,0,0,true,true,true,false,0,,0,0,"master",1
"Dharn/readnfccc",1840,"User",,0,0,true,false,false,false,0,,10,0,"master",1
"Gioragg1/U-boot",13892,"User",,0,0,true,true,true,false,0,,0,0,"master",1
"pjuftring/fractranC",168,"User","",0,0,true,true,false,false,0,,0,0,"master",1
"freanux/francis",256,"User",,0,0,true,true,true,false,0,,0,0,"master",1
"QuantumRSN/AtomEngine",14168,"User",,0,0,true,true,true,false,0,,0,0,"master",1
"sasamih/Lotto",968,"User",,0,0,true,true,true,false,0,,0,0,"master",1
"c0c0n3/archlinux",357788,"User",,0,0,true,true,true,false,0,,0,0,"master",1
"kj0604/basic_code",140,"User",,0,0,true,true,true,false,0,,0,0,"master",1
"r930709/Rpi_compute_pi",172,"User",,0,0,true,true,true,false,0,,0,0,"master",1
"tuyuwei/chat",156,"User",,0,0,true,true,true,false,0,,0,0,"master",1
"kametang/arg_parse",108,"User",,0,0,true,true,true,false,0,,0,0,"master",1
"oliverx0/PalletteRF",7528,"User",,0,0,true,true,true,false,0,,0,0,"master",1
"alexcameron2/comp4003",148,"User",,0,0,true,true,true,false,0,,0,0,"master",1
"sveljko/lift-c",564,"User",,0,0,true,true,true,false,0,,0,0,"master",1
"bbergen/Data-Structures-In-C",136,"User",,0,0,true,true,true,false,0,,0,0,"master",1
"0706773x/hw3",124,"User","",0,0,true,true,true,false,0,,0,0,"master",1
"AyaniAlizita/database",132,"User",,0,0,true,true,true,false,0,,0,0,"master",1
"arunkumar-mourougappane/Gyro-mag-FRDM",19928,"User",,0,0,true,true,true,true,0,,0,0,"master",1
"Rafael-Cirilo/ICC",128,"User",,0,0,true,true,true,false,0,,0,0,"master",1
"ryood/AVR_Analog_Comparator_Test",128,"User",,0,0,true,true,true,false,0,,0,0,"master",1
"StephanieHan/Unix_cmd_ls",112,"User",,0,0,true,true,true,false,0,,0,0,"master",1
"Jsvcycling/pebble_sidescroller",152,"User",,0,0,true,true,true,false,0,,0,0,"master",1
"ZipingL/Lab10_EE319K",9288,"User",,0,0,true,true,true,false,0,,0,0,"master",1
"BH2015/Social-Changi",6652,"Organization",,0,0,true,true,true,false,0,,0,0,"master",1
"rodrigoRock/Hash",1124,"User",,0,0,true,true,true,false,0,,0,0,"master",1
"wtswzyw/maze",204,"User",,0,0,true,true,true,false,0,,0,0,"bool_dfs",1
"lngost/algorithm-practice",120,"User",,0,0,true,true,true,false,0,,0,0,"master",1
"saylitalathi12/employee",172,"User",,0,0,true,true,true,false,0,,0,0,"master",1
"krzysztofgajda/noty",148,"User",,0,0,true,true,true,false,0,,0,0,"master",1
"sweman/PracticeProblems",27928,"User",,0,0,true,true,true,false,0,,0,0,"master",1
"vivsiv/vm-shared",480,"User","",0,0,true,true,true,false,0,,0,0,"master",1
"asny/Spider",372,"User",,0,0,true,true,true,false,0,,0,0,"master",1
"Split-Screen/android_device_motorola_otus",7824,"Organization",,0,0,true,true,true,false,0,,0,0,"pac-5.1",1
"mklimko/jprog",164,"User",,0,0,true,true,true,false,0,,0,0,"master",1
