"XQuartz/xorg-server",51852,"Organization",,5,5,false,true,false,false,0,,0,0,"master",1
"furrtek/GBCamcorder",1404,"User",,5,5,true,true,true,false,1,,0,1,"master",1
"kivikakk/whynot",676,"User","",4,4,true,true,true,false,0,,0,0,"master",1
"Cpasjuste/CtrBootManager",332,"User",,4,4,true,true,true,false,1,,0,1,"master",1
"paulfariello/kickpass",368,"User",,3,3,true,true,true,false,0,,0,0,"develop",1
"GitHubMedusa/H3C",188,"User",,3,3,true,true,true,false,0,,0,0,"master",1
"RGBD/pc-arch-lab-2",116,"User",,3,3,true,true,true,false,0,,0,0,"master",1
"pchickey/md380-re",78896,"User",,2,2,true,true,true,false,0,,0,0,"master",1
"Masshat/DihOs_MasshatLinux",4948,"User",,2,2,true,true,true,false,0,,0,0,"master",1
"yuanhack/sarudp",232,"User",,2,2,true,true,true,false,1,,0,1,"master",1
"freakified/PebbleChecklist",204,"Organization",,2,2,true,true,true,true,0,,0,0,"master",1
"ericfrance/hello_Eric",152,"User",,2,2,true,true,true,false,1,,0,1,"master",1
"xobs/it6251-dump-dptx",140,"User",,2,2,true,true,true,false,0,,0,0,"master",1
"h31nr1ch/Sexy-Bitch",4844,"User",,2,2,true,true,true,false,0,,0,0,"master",1
"peirick/leptonica",13828,"User",,2,2,true,true,true,false,0,,0,0,"master",1
"arkadeepsen/SDAP",169284,"User",,2,2,true,true,true,false,0,,0,0,"master",1
"zzlatev/zRSplitByFixedSizeBars.c",132,"User",,1,1,true,true,true,false,0,,0,0,"master",1
"xerpi/3DS-Linux-Loader",444,"User",,1,1,true,true,true,false,0,,0,0,"master",1
"wakusei-meron-/himitsu-keijiban",336,"User",,1,1,true,true,true,false,0,,0,0,"master",1
"ProgramacionDefensivaITBA/TPE-2048---Grupo5",603,"Organization",,1,1,true,true,false,false,1,,0,1,"master",1
"seewindcn/Sqlite3InGame",6408,"User",,1,1,true,true,true,false,0,,0,0,"master",1
"mwalczyk/Save-To-Large-PNG",6112,"User",,1,1,true,true,true,false,0,,0,0,"master",1
"farseerfc/pacman-fc",15892,"User",,1,1,true,true,true,false,0,,0,0,"master",1
"xaionaro/pam_ns",184,"User",,1,1,true,true,true,false,0,,0,0,"master",1
"pure-data/xeq",276,"Organization",,1,1,true,true,true,false,0,,0,0,"master",1
"mjesun/js-pebble",976,"User",,1,1,true,true,true,false,1,,0,1,"master",1
"PETER-UWP/PETER",0,"Organization",,1,1,true,true,false,false,4,,0,4,"master",1
"vasinwr/arm11_towerstacker",144,"User",,1,1,true,true,true,false,0,,0,0,"master",1
"knorko/snack",1480,"User",,1,1,true,true,true,false,0,,0,0,"master",1
"ahs3/fwts-sbbr",9168,"User",,1,1,true,true,true,false,0,,0,0,"ahs3",1
"skewerr/dtstruct",144,"User",,1,1,true,true,true,false,0,,0,0,"master",1
"watanabejunya/LDPC",184,"User",,1,1,true,true,true,false,0,,0,0,"master",1
"zhoucl/memagent",188,"User",,1,1,true,false,false,false,0,,9,0,"master",1
"xly0713/nginxsrp",932,"User",,1,1,true,false,false,false,0,,0,0,"master",1
"dklambauer/battle",124,"User",,1,1,true,true,true,false,0,,0,0,"master",1
"k0gaMSX/scc",1328,"User","",1,1,true,true,true,false,0,,0,0,"master",1
"eraserewind/journalx",144,"User","",1,1,true,true,true,false,0,,0,0,"master",1
"KevinRhyne/whiffy",520,"User",,1,1,true,true,true,false,0,,0,0,"master",1
"rajgopalv/snake",456,"User",,1,1,true,true,true,true,0,,0,0,"master",1
"DianeRay/divert-loop",2952,"User",,1,1,true,true,true,false,0,,0,0,"master",1
"DianeRay/computer_graphic_experiment",120,"User",,1,1,true,true,true,false,0,,0,0,"master",1
"agx/libplanfahr",296,"User",,1,1,true,true,true,false,0,,0,0,"master",1
"MersenneInteger/Mersenne_Primes",148,"User","",1,1,true,true,true,false,0,,0,0,"master",1
"jonwillone/reaver-wps",1008,"User",,0,0,true,false,false,false,0,,582,0,"master",1
"lnreddy768/keystone-workshop",270060,"User",,0,0,true,false,false,false,0,,0,0,"master",1
"superhq/AccessCheck",128,"User",,0,0,true,true,true,false,0,,0,0,"master",1
"DeviaVir/pebble-watchface-base",144,"User",,0,0,true,true,true,false,0,,0,0,"master",1
"zou-can/zou-liu-feng-ji",1700,"User",,0,0,true,true,true,false,0,,0,0,"master",1
"Cheftryade/Projet-Ruzzle",117,"User","",0,0,true,true,true,false,1,,0,1,"master",1
"noahmurad/cs3388",252,"User",,0,0,true,true,true,false,0,,0,0,"master",1
"hamburger20140810/utils",488,"Organization",,0,0,true,true,true,false,0,,0,0,"master",1
"kaushikankur/LinkedList",152,"User",,0,0,true,true,true,false,0,,0,0,"master",1
"yxw027/simulator-for-quadcopter",23432,"User",,0,0,true,false,false,false,0,,1,0,"master",1
"DronVelikii/mintty",4816,"User",,0,0,true,false,false,false,0,,118,0,"master",1
"jihyun00/OS_2",128,"User",,0,0,true,true,true,false,0,,0,0,"master",1
"aibolscorpion/droidreader",2092,"User",,0,0,true,false,false,false,0,,0,0,"master",1
"anluku/uvccapture",164,"User",,0,0,true,true,true,false,0,,0,0,"master",1
"anluku/uvccapture2",168,"User",,0,0,true,true,true,false,0,,0,0,"master",1
"gennari/Test",140,"User",,0,0,true,true,true,false,0,,0,0,"master",1
"retrobotic/corewar2011",260,"User",,0,0,true,false,false,false,0,,1,0,"master",1
"Zandertaiko/payment_calc",124,"User",,0,0,true,true,true,false,0,,0,0,"master",1
"liteglue/Android-sqlite-native-driver-ICU",5092,"Organization",,0,0,true,true,true,false,0,,0,0,"master",1
"naiwun/word2vec",276,"User",,0,0,true,false,false,false,0,,35,0,"master",1
"Zandertaiko/capitalize",120,"User","",0,0,true,true,true,false,0,,0,0,"master",1
"nsauzede/mygif",248,"User",,0,0,true,true,true,false,0,,0,0,"master",1
"humberos/android_external_lz4",956,"User",,0,0,true,true,true,false,0,,0,0,"android-6.0",1
"scp-fs2open/PCS2",1929,"Organization",,0,0,true,true,true,false,2,,1,2,"master",1
"AdrianFeng/MiniLab2",140,"User",,0,0,true,true,true,false,0,,0,0,"master",1
"AdrianFeng/datalab",484,"User",,0,0,true,true,true,false,0,,0,0,"master",1
"Tripsyart/droidsheep",3312,"User",,0,0,true,false,false,false,0,,11,0,"master",1
"xwang322/CS537_P2",972,"User",,0,0,true,true,true,false,0,,0,0,"master",1
"henryliu1988/siphon",7644,"User",,0,0,true,false,false,false,0,,159,0,"master",1
"dorigom/libhhmsg",1952,"User",,0,0,true,true,true,false,0,,0,0,"master",1
"qshhz/RSC",132,"User",,0,0,true,true,true,false,0,,0,0,"master",1
"bryngzlz/the-c-programming-language-exercises",108,"User",,0,0,true,true,true,false,0,,0,0,"master",1
"danhamilt1/fm_demodulator",112,"User",,0,0,true,true,true,false,0,,0,0,"master",1
"Kyeongan/Projects",140,"User",,0,0,true,true,true,false,0,,0,0,"master",1
"embeddedarm/linux-vanilla-imx6",1122048,"Organization",,0,0,true,true,true,false,0,,0,0,"ts-4.2.3",1
"Digas29/SOPE-COUNTERS",160,"User",,0,0,true,true,true,false,0,,0,0,"master",1
"saintmob/reaver-wps",1008,"User",,0,0,true,false,false,false,0,,582,0,"master",1
"zaglamir/hardQCDTemplates",128,"User",,0,0,true,true,true,false,0,,0,0,"master",1
"Sout/sigrok-dumps",14124,"User",,0,0,true,true,true,false,0,,0,0,"qi",1
"dparkermit/A36926_000",120,"User",,0,0,true,true,true,false,0,,0,0,"master",1
"WalkingMachine/WM-BMS",8976,"Organization",,0,0,true,true,true,false,0,,0,0,"develop",1
"cathyatseneca/dsagitpractice",148,"User",,0,0,true,true,true,false,0,,0,0,"master",1
"Benjix12/Labyrinth_C",496,"User",,0,0,true,true,true,false,0,,0,0,"master",1
"HighQuality/OGLRenderer",5856,"User",,0,0,true,true,true,false,0,,0,0,"master",1
"VRToxin/android_external_jemalloc",3344,"Organization",,0,0,true,true,true,false,0,,0,0,"mm6.0",1
"Split-Screen/android_device_cyanogen_msm8939-common",4156,"Organization",,0,0,true,true,true,false,0,,0,0,"pac-5.1",1
"Trankalinos/C8506-Final-Project---HoneyNet",86296,"User",,0,0,true,true,true,false,0,,0,0,"master",1
"GoldbergAlexander/Euclidian-",108,"User",,0,0,true,true,true,false,0,,0,0,"master",1
"corradomulas/rEq-v1",152,"User",,0,0,true,true,true,false,0,,0,0,"master",1
"Trankalinos/C8005-Assignment-2-Epoll-Select-MThread",3172,"User",,0,0,true,true,true,false,0,,0,0,"master",1
"michael-j-shea/test",108,"User",,0,0,true,true,true,false,0,,0,0,"master",1
"acomputerguru/gconf-cleaner",204,"User",,0,0,true,false,false,false,0,,14,0,"master",1
"nodesign/openwrt",10840,"Organization",,0,0,true,true,true,false,0,,0,0,"master",1
"GitHubVS2013PH/Test_Project2",124,"User",,0,0,true,true,true,false,0,,0,0,"master",1
"charlesHetterich/Rainbow-Mountain",217972,"User",,0,0,true,true,true,false,0,,0,0,"master",1
"charlesHetterich/Lone-Assassin",19660,"User",,0,0,true,true,true,false,0,,0,0,"master",1
"charlesHetterich/Bubbles",65304,"User",,0,0,true,true,true,false,0,,0,0,"master",1
