"hfjgfbjhbfbvhju7854tjdfh/kur",568,"User",,0,0,true,true,true,false,0,,0,0,"master",1
"m-thu/esp8266",32588,"User",,0,0,true,true,false,false,0,,0,0,"master",1
"shashankgandham/timetable",180,"User",,0,0,true,true,true,false,0,,0,0,"master",1
"BcArm/RoboticArm",368,"Organization",,0,0,true,true,true,false,0,,0,0,"master",1
"0xcaca0/matasano",176,"User",,0,0,true,true,true,false,0,,0,0,"master",1
"SXblut/dwmstatus",144,"User",,0,0,true,true,true,false,0,,0,0,"blut",1
"YU-mrom/kexec-tools",576,"Organization",,0,0,true,true,true,false,0,,0,0,"master",1
"thorvald/mdvc",260,"User",,0,0,true,true,true,false,0,,0,0,"master",1
"untra/lighting",180,"User",,0,0,true,true,true,false,0,,0,0,"master",1
"nerilex/nRF51-aes",208,"User",,0,0,true,true,true,false,0,,0,0,"master",1
"pallabig/word2vec",272,"User",,0,0,true,false,false,false,0,,35,0,"master",1
"Sibergh/System-programming-C",156,"User",,0,0,true,true,true,false,0,,0,0,"master",1
"aiwl/obj",156,"User",,0,0,true,true,true,false,0,,0,0,"master",1
"mullerpoint/Thread-Communication",140,"User",,0,0,true,true,true,false,0,,0,0,"master",1
"wilsonr990/Ditto-clipboard-manager",25204,"User",,0,0,true,true,true,false,0,,0,0,"master",1
"DX94/offline-avs",2600,"User",,0,0,true,false,false,false,0,,2,0,"master",1
"js4768/4187P1",212,"User",,0,0,true,true,true,false,0,,0,0,"master",1
"anuzk13/learningatwork",32544,"User",,0,0,true,false,false,false,0,,0,0,"master",1
"za4em/uni",178,"User","",0,0,true,true,true,false,1,,1,1,"patch-2",1
"NickyLarin/QuickSort",172,"User",,0,0,true,true,true,false,0,,0,0,"master",1
"tectronics/d2x-cios-installer",1140,"User",,0,0,true,false,false,false,0,,5,0,"master",1
"KirillAlekseeenko/Operations-with-graph",116,"User",,0,0,true,true,true,false,0,,0,0,"master",1
"bepemofo/clab",148,"User",,0,0,true,true,true,false,0,,0,0,"master",1
"gogori/hw",732,"User",,0,0,true,true,true,false,0,,0,0,"master",1
"BrokenROM/kernel_lge_hammerhead",581508,"Organization",,0,0,true,true,true,false,0,,0,0,"m6.0",1
"NolanFoster/dcas",236,"User",,0,0,true,true,true,false,0,,0,0,"master",1
"animetosho/ParPar",1400,"User",,0,0,true,true,false,false,0,,0,0,"master",1
"acroreiser/kernel_samsung_msm",121360,"User",,0,0,true,true,true,false,0,,0,0,"master",1
"mirkoggl/STM32_HCSR04",600,"User",,0,0,true,true,true,false,0,,0,0,"master",1
"temochka/dmenu",1108,"User",,0,0,true,true,true,false,0,,0,0,"custom",1
"gusega/insertionSortChar",112,"User",,0,0,true,true,true,false,0,,0,0,"master",1
"busterbrown123/FOO",148,"User",,0,0,true,true,true,false,0,,0,0,"master",1
"linas/anant",444,"User",,0,0,true,true,true,false,0,,0,0,"master",1
"catterer/wget",9588,"User",,0,0,true,true,true,false,0,,0,0,"master",1
"Egor-FPV3DCAM/minimosd-extra",12528,"User",,0,0,true,false,false,false,0,,37,0,"master",1
"Tshimangadzo/hw3",128,"User","",0,0,true,true,true,false,0,,0,0,"master",1
"scottg/tcltcc",2328,"User",,0,0,true,false,false,false,0,,7,0,"master",1
"Biomecatronica/Exo-C",120,"Organization",,0,0,true,true,true,false,0,,0,0,"master",1
"hinagesi-708/OnlySonar_cm",156,"User","",0,0,true,true,true,false,0,,0,0,"master",1
"deerishi/CS_842_Projects",288,"User",,0,0,true,true,true,false,0,,0,0,"master",1
"yck1406/SM-G850",117144,"User",,0,0,true,true,true,false,0,,0,0,"master",1
"mat1989/GY-80_9DOF_Sensor_Modul",140,"User",,0,0,true,true,true,false,0,,0,0,"master",1
"netromdk/math",572,"User","",0,0,true,true,true,false,0,,0,0,"master",1
"S3MB0L/stm32modbus",884,"User",,0,0,true,false,false,false,0,,0,0,"master",1
"unix-socket-lwjian/my-understanding-of-lighttpd",560,"User",,0,0,true,true,true,false,0,,0,0,"master",1
"NatixLights/Backpack",260,"Organization",,0,0,true,true,true,false,0,,0,0,"master",1
"andrefreitas/feup-rcom-ftpclient",20824,"User",,0,0,true,true,true,false,0,,0,0,"master",1
"milutin94/algo",87,"User",,0,0,false,true,true,false,0,,0,0,"master",1
"ndhuan/GPSRTK",264,"User",,0,0,true,true,true,false,0,,0,0,"origin",1
"TV-LP51-Devices/device_yu_tomato",5192,"Organization",,0,0,true,true,true,false,0,,0,0,"lp5.1",1
"FreakBeak7/hw3",148,"User",,0,0,true,true,true,false,0,,0,0,"master",1
"crDroidZ00/android_external_tinyalsa",260,"Organization",,0,0,true,true,true,false,0,,0,0,"cm-12.1",1
"NiKuIF/PiRadio",136,"User",,0,0,true,true,true,false,0,,0,0,"master",1
"rmayur/CS558L_lab7",144,"User",,0,0,true,true,true,false,0,,0,0,"master",1
"EpsilonAquilae/hw3",128,"User",,0,0,true,true,true,false,0,,0,0,"master",1
"daniel3735928559/potato",116,"User","",0,0,true,true,true,false,0,,0,0,"master",1
"uframer/minimosd-extra",12520,"User",,0,0,true,false,false,false,0,,37,0,"master",1
"TheSardonicOne/game-of-life",144,"User",,0,0,true,true,true,false,0,,0,0,"master",1
"pythonsweb/droidsheep",3312,"User",,0,0,true,false,false,false,0,,11,0,"master",1
"torrez/9pm",144,"User",,0,0,true,true,true,false,0,,0,0,"master",1
"xale/CNF-Router",212,"User",,0,0,true,true,true,false,0,,0,0,"master",1
"Lamonkey/Mytest",108,"User",,0,0,true,true,true,false,0,,0,0,"master",1
"hshidara/fibonacci",116,"User",,0,0,true,true,true,false,0,,0,0,"master",1
"hshidara/C-programming-Homework-",128,"User",,0,0,true,true,true,false,0,,0,0,"master",1
"hshidara/C-Programming-Practice",116,"User",,0,0,true,true,true,false,0,,0,0,"master",1
"andrefreitas/feup-sope-executor",160,"User",,0,0,true,true,true,false,0,,0,0,"master",1
"hydai/git-test",140,"User",,0,0,true,true,true,false,0,,0,0,"master",1
"decvalts/SystemtoolsC",144,"User",,0,0,true,true,true,false,0,,0,0,"master",1
"m1h4/Kurve",148,"User",,0,0,true,true,true,false,0,,0,0,"master",1
"Bulliby/binTree",128,"User",,0,0,true,true,true,false,0,,0,0,"master",1
"m1h4/Binum",148,"User",,0,0,true,true,true,false,0,,0,0,"master",1
"jendas1/jupyter-notebook-quick-look",148,"User","",0,0,true,true,true,false,0,,0,0,"master",1
"orpiske/pwatch",184,"User",,0,0,true,true,true,false,0,,0,0,"master",1
"SwatPup/xv6-on-arm",216,"User",,0,0,true,false,false,false,0,,0,0,"master",1
"titiandco/reaver-wps",1008,"User",,0,0,true,false,false,false,0,,19,0,"master",1
"ivadasz/libkbdev",144,"User",,0,0,true,true,true,false,0,,0,0,"master",1
"saitejvejju/demo-glsl",27128,"User",,0,0,true,false,false,false,0,,0,0,"master",1
"SergeyZyazulkin/Pvms3",140,"User",,0,0,true,true,true,false,0,,0,0,"master",1
"Myrcellion/flight_weather_reader",148,"User",,0,0,true,true,true,false,0,,0,0,"master",1
"raemarks/ParallelNetworkPerformance",124,"User",,0,0,true,true,true,false,0,,0,0,"master",1
"John2143658709/Test-Game",756,"User","",0,0,true,true,true,false,0,,0,0,"master",1
"venkadaramanujam/flea",116,"User",,0,0,true,true,true,false,0,,0,0,"master",1
"balldir/easy-semihosting",152,"User",,0,0,true,true,true,false,0,,0,0,"master",1
"sbaldovi/fuse-emulator-svn-v2",9352,"User",,0,0,true,true,true,false,0,,0,0,"master",1
"zhangshaohu/systemShell",520,"User",,0,0,true,true,true,false,1,,0,1,"master",1
"HW-Lee/2015-Parallel-Programming",10432,"User",,0,0,true,true,true,false,0,,0,0,"dev",1
"EpiphX/COP3502",132,"User",,0,0,true,true,true,false,0,,0,0,"master",1
"Phantomn/C_language",2652,"User",,0,0,true,true,true,false,0,,0,0,"master",1
"Alex-Tsvetanov/Triangulation",3548,"User",,0,0,true,true,true,false,0,,0,0,"master",1
"jaistudy1996/C-Projects",144,"User",,0,0,true,true,true,false,0,,0,0,"master",1
"dargaCode/listFibonacciNumbers",152,"User","",0,0,true,true,true,false,0,,0,0,"master",1
"cshnick/sm_servcie_model",4312,"User",,0,0,true,true,true,false,0,,0,0,"master",1
"Belxjander/DeviceDrivers",5296,"User",,0,0,true,true,true,false,0,,0,0,"master",1
"sealrealize/logchaesar",2904,"User",,0,0,true,true,true,false,0,,0,0,"master",1
"dwj300/serializers",177,"User",,0,0,true,true,true,false,0,,0,0,"master",1
"SXblut/dwm",5780,"User",,0,0,true,true,true,false,0,,0,0,"blut",1
"vacaboja/tg",196,"User",,0,0,true,true,true,false,0,,0,0,"master",1
"manodeep/pairwise",2920,"User","https://manodeep.github.io/pairwise",0,0,true,true,true,true,0,,0,0,"master",1
"jonathanrpace/BentoCPP",2496,"User",,0,0,true,true,true,false,0,,0,0,"master",1
"jrubill/2100",1440,"User",,0,0,true,true,true,false,0,,0,0,"master",1
