"Tyler-D/learngit",108,"User",,0,0,true,true,true,false,0,,0,0,"master",1
"ilyaseeyousoon/stm32f429_spi_slave_hal",4012,"User",,0,0,true,true,true,false,0,,0,0,"master",1
"silams/socketServer",124,"User",,0,0,true,true,true,false,0,,0,0,"master",1
"AnClark/MyFirstCode",124,"User",,0,0,true,true,true,false,0,,0,0,"master",1
"janalbers/Discovery",1300,"User",,0,0,true,true,true,false,0,,0,0,"master",1
"bestofsong/libfixmath",704,"User",,0,0,true,false,false,false,0,,12,0,"master",1
"wizzard94/Lista",148,"User",,0,0,true,true,true,false,0,,0,0,"master",1
"olesku/reverselookup",128,"User",,0,0,true,true,true,false,0,,0,0,"master",1
"Jujuxw/Level3",108,"User",,0,0,true,true,true,false,0,,0,0,"master",1
"shenleilei/socket",164,"User",,0,0,true,true,true,false,0,,0,0,"master",1
"eriser/picasso-graphic",3900,"User",,0,0,true,false,false,false,0,,1,0,"master",1
"bikashdash/Kernel-exploit_2.4.22-version",128,"User",,0,0,true,true,true,false,0,,0,0,"master",1
"exp0nge/os-project-1",108,"User",,0,0,true,true,true,false,0,,0,0,"master",1
"ICTeam34/arm-assembler",148,"User",,0,0,true,true,true,false,0,,0,0,"master",1
"virmerson/cursobasico_c",780,"User",,0,0,true,true,true,false,0,,0,0,"aula01",1
"fscz/melvincalvin",408,"User",,0,0,true,false,false,false,0,,0,0,"master",1
"GilleysRandomBitsandBites/GilleyEngine",144,"User",,0,0,true,true,true,false,0,,0,0,"master",1
"jabouzi/ssh",116,"User",,0,0,true,true,true,false,0,,0,0,"master",1
"chessgit/uc",172,"User",,0,0,true,true,true,false,0,,0,0,"master",1
"ObliviaSimplex/Bitstuffer",204,"User",,0,0,true,true,true,false,0,,0,0,"master",1
"watermelon1995/CShell",148,"User",,0,0,true,true,true,false,0,,0,0,"master",1
"Sooun/fil_pilote",13980,"User",,0,0,true,true,true,false,0,,0,0,"master",1
"schets/conc_hash",168,"User",,0,0,true,true,true,false,0,,0,0,"master",1
"w3nd1go/android_hardware_qcom_gps",497,"User",,0,0,true,true,true,false,1,,0,1,"m-caf",1
"yazun/postgres-xl",160100,"User","",0,0,true,true,true,false,0,,0,0,"master",1
"tremaineeto/server",732,"User",,0,0,true,true,true,false,0,,0,0,"master",1
"jakub1223/zealous-octo-duck",184,"User",,0,0,true,true,true,false,0,,0,0,"master",1
"sumikchakka/beaglelbone-black",132,"User",,0,0,true,true,true,false,0,,0,0,"master",1
"MathieuCorti/my_lib_c",144,"User",,0,0,true,true,true,false,0,,0,0,"master",1
"nachi-linuxcrazy/deeplearn",4212,"User",,0,0,true,true,true,false,0,,0,0,"master",1
"godstale/MessageLogPrinter",164,"User",,0,0,true,true,true,false,0,,0,0,"master",1
"rjshenk/geekos",1504,"User",,0,0,true,true,true,false,0,,0,0,"master",1
"konker/led-o-matic",144,"User",,0,0,true,true,true,false,0,,6,0,"master",1
"brettcomardelle/JengaGL",7136,"User",,0,0,true,true,true,false,1,,0,1,"master",1
"yuwen41200/parallel-programming",164,"User",,0,0,false,true,false,false,0,,0,0,"master",1
"mirakus-0f-tyr/stvoyager-eliteforce-holomatch",18572,"User","",0,0,true,true,true,false,0,,0,0,"STVEF2231",1
"HyperactiveInc/WebViewSandbox",1588,"Organization",,0,0,true,true,true,false,0,,0,0,"master",1
"AndrewCRMartin/simq",164,"User",,0,0,true,true,true,false,0,,0,0,"master",1
"kubov/protectos",128,"User",,0,0,true,true,true,false,0,,0,0,"master",1
"Yoshimaster96/BMS_DEC",176,"User","",0,0,true,true,true,false,0,,0,0,"master",1
"sajjadrahnama7/OS-Homworks",700,"User",,0,0,true,true,true,false,0,,0,0,"master",1
"ShiChuanTaylors/OperatingSystem",672,"User",,0,0,true,true,true,false,0,,0,0,"master",1
"VeronikaMartinova/C-programming-course",404,"User",,0,0,true,true,true,false,0,,0,0,"master",1
"IversonLang/KuPing",448,"User",,0,0,true,true,true,false,0,,0,0,"master",1
"siplabs/kazoo-freeswitch",36536,"User",,0,0,true,true,true,false,0,,0,0,"1.4",1
"Er-Z/hERO",232,"User",,0,0,true,true,true,false,0,,0,0,"master",1
"kaoudis/tor-dock",216,"User",,0,0,true,true,true,false,0,,0,0,"master",1
"nchenard/etsydemo",7440,"User",,0,0,true,true,true,false,0,,0,0,"master",1
"haomingL/justForTest",204,"User",,0,0,true,true,true,false,0,,0,0,"master",1
"batebates/Decrand_Gerbault",1155,"User",,0,0,true,true,true,false,1,,0,1,"master",1
"wojsamjan/DomTest",156,"User",,0,0,true,true,true,false,0,,0,0,"master",1
"OMAP4-AOSP/android_device_samsung_tuna",1399566,"Organization",,0,0,true,true,true,false,1,,1,1,"aosp-6.0",1
"epics-modules/love",3860,"Organization",,0,0,true,true,true,false,0,,0,0,"master",1
"stevegolton/Teensy3.1_Quadcopter",1324,"User",,0,0,true,true,true,false,0,,0,0,"master",1
"starg09/7541-rw-abb",220,"User",,0,0,true,true,true,false,0,,0,0,"master",1
"yoanlcq/ideas",224,"User",,0,0,true,true,true,false,0,,0,0,"master",1
"GrosQuildu/agh_compress",176,"User",,0,0,true,true,true,false,0,,0,0,"master",1
"CiroboyBR/quebrac",204,"User",,0,0,true,true,true,false,0,,0,0,"master",1
"Jason-Gxl/cdemo",256,"User",,0,0,true,true,true,false,0,,0,0,"master",1
"sshbio/dmenu",1120,"User","",0,0,true,true,true,false,0,,0,0,"master",1
"chuym/clrs_algorithms",128,"User",,0,0,true,true,true,false,0,,0,0,"master",1
"Industry-Explorers-Graphics/graphicsLib",392,"Organization",,0,0,true,true,true,false,0,,0,0,"master",1
"yuwenhua/leetcode",224,"User",,0,0,true,true,true,false,0,,0,0,"master",1
"Drakirus/Ruzzle",1316,"User","",0,0,true,true,true,false,0,,0,0,"master",1
"andrewmilson/learning-chris",128,"User",,0,0,true,true,true,false,0,,0,0,"master",1
"woody0260/HPC1.1",148,"User",,0,0,true,true,true,false,0,,0,0,"master",1
"jmlien/cshape2d",7408,"User",,0,0,true,true,true,false,0,,0,0,"master",1
"shadowsnap/doubango",347484,"User",,0,0,true,false,false,false,0,,216,0,"master",1
"5nizza/aisy",2348,"User",,0,0,true,true,true,false,0,,0,0,"master",1
"miyako/4d-plugin-mac-color-picker",820,"User",,0,0,true,true,true,false,0,,0,0,"master",1
"miyako/4d-plugin-convert-color-space",496,"User",,0,0,true,true,true,false,0,,0,0,"master",1
"tarunksh/hello_git_repo",108,"User",,0,0,true,true,true,false,0,,0,0,"master",1
"w3nd1go/android_hardware_qcom_audio",1468,"User",,0,0,true,true,true,false,2,,0,2,"m-caf-8974",1
"dimitrijejankov/nansi",41264,"User",,0,0,true,true,true,false,0,,0,0,"master",1
"gfloros/pehuen",108,"User",,0,0,true,true,true,false,0,,0,0,"master",1
"kamalmarhubi/2-hour-malloc",112,"User",,0,0,true,true,true,false,0,,0,0,"master",1
"MinchukSergei/pvs_lab5",140,"User",,0,0,true,true,true,false,0,,0,0,"master",1
"saldar05/Huffman",160,"User",,0,0,true,true,true,false,0,,0,0,"master",1
"corradomulas/molt-v1",120,"User",,0,0,true,true,true,false,0,,0,0,"master",1
"sjavier23/Engg3190",452,"User",,0,0,true,true,true,false,0,,1,0,"Lab2",1
"Fevax/kernel_samsung_exynos5422",123328,"User",,0,0,true,true,true,false,0,,0,0,"master",1
"dklambauer/shell",124,"User",,0,0,true,true,true,false,0,,0,0,"master",1
"TaikiKine/SonicSensor",5380,"User",,0,0,true,true,true,false,0,,0,0,"master",1
"gaigepr/c-algoithms",140,"User",,0,0,true,true,true,false,0,,0,0,"master",1
"KulshanTechnology/PSoCProjects",3684,"Organization",,0,0,true,true,true,false,0,,0,0,"master",1
"projectixxlii/research",140,"User",,0,0,true,true,true,false,0,,0,0,"master",1
"electric-cloud/tcl86",5584,"Organization",,0,0,true,true,true,false,0,,0,0,"master",1
"GitHubVS2013PH/Test_Project3",128,"User",,0,0,true,true,true,false,0,,0,0,"master",1
"JeffersonLab/d2n_analyzer",1156,"Organization",,0,0,true,true,true,false,0,,0,0,"master",1
"charlesHetterich/Piet",22700,"User",,0,0,true,true,true,false,0,,0,0,"master",1
"astroandes/LG_CODECS",57184,"Organization",,0,0,true,true,true,false,0,,0,0,"master",1
"Dumdumdom/sh1",120,"User",,0,0,true,true,true,false,0,,0,0,"master",1
"dimamo5/LCOM-Battleship",7288,"User","",0,0,true,true,true,false,0,,0,0,"master",1
"Fusion-Devices/kernel_cyanogen_msm8916",921536,"Organization",,0,0,true,true,true,false,0,,0,0,"lp5.1",1
"CepGamer/CyanogenMod-ZTE-V985",26220,"User",,0,0,true,true,true,false,0,,0,0,"master",1
"emars/reaver-wps",1008,"User",,0,0,true,false,false,false,0,,582,0,"master",1
"Derecho/hamlib",7740,"User",,0,0,true,true,true,false,0,,0,0,"master",1
"hankbao/paho.mqtt.c",717,"User","https://www.eclipse.org/paho/clients/c/",0,0,true,true,true,false,1,,0,1,"master",1
"samnazarko/eventlircd",195,"User",,0,0,true,false,false,false,1,,6,1,"master",1
"Zseselja/CSC361",140,"User",,0,0,true,true,true,false,0,,0,0,"master",1
