"brunnoabreu/TZSearch",9604,"User",,0,0,true,true,true,false,0,,0,0,"master",1
"mlmhl/cWeb",176,"User",,0,0,true,true,true,false,0,,0,0,"master",1
"pkethe/MNLR",188,"User",,0,0,true,true,true,false,0,,0,0,"master",1
"cpavlina/afw",560,"User",,0,0,true,true,true,true,0,,0,0,"master",1
"caiohsramos/calculadora",152,"User",,0,0,true,true,true,false,0,,0,0,"master",1
"rlatpwhd6447/comp2-project",124,"User",,0,0,true,true,true,false,0,,0,0,"master",1
"tianrui/CSC467",188,"User",,0,0,true,true,true,false,1,,0,1,"master",1
"califlower/Revised-Malloc",541,"User",,0,0,true,true,true,false,0,,0,0,"master",1
"jabezlim/inc",152,"User",,0,0,true,true,true,false,0,,0,0,"master",1
"Aidonis/octo-capsicum",70929,"User",,0,0,true,true,true,false,1,,1,1,"master",1
"PhoenixLord1010/Flight64",22188,"User",,0,0,true,true,true,false,0,,0,0,"master",1
"ionutrosu/hmi_testing",316,"User",,0,0,true,true,true,false,0,,0,0,"master",1
"openbmc/ipmi-fru-parser",213,"Organization",,0,0,true,true,true,false,3,,3,3,"master",1
"shantanuusharma/Project",152,"User",,0,0,true,true,true,false,0,,0,0,"master",1
"toxxin/uboot_am335xice",88240,"User",,0,0,true,true,true,false,0,,0,0,"master",1
"jadmr/CS442_ShadedTrack",1392,"User",,0,0,true,true,true,false,0,,0,0,"master",1
"Karina1997/ilab",144,"User",,0,0,true,true,true,false,0,,0,0,"master",1
"tylerjohnhughes/PriorityQueue",135,"User",,0,0,true,true,true,false,1,,0,1,"master",1
"leetking/note",197,"User",,0,0,true,true,true,false,0,,0,0,"master",1
"redpois0n/po2014",144,"User",,0,0,true,true,true,false,0,,0,0,"master",1
"amandawulf/threading_practice",120,"User",,0,0,true,true,true,false,0,,0,0,"master",1
"JohanGS/Mytest",104,"User",,0,0,true,true,true,false,0,,0,0,"master",1
"JCisneros77/PAExamenRapidoOct8",136,"User",,0,0,true,true,true,false,0,,0,0,"master",1
"lionker/kgui",22900,"User",,0,0,true,false,false,false,0,,0,0,"master",1
"fishbaoz/CarrizoPI",44884,"User",,0,0,true,true,true,false,0,,0,0,"master",1
"WuGaohang/DataStructure",108,"User",,0,0,true,true,true,false,0,,0,0,"master",1
"cllebrun/PHOTOCONT",4017,"User",,0,0,true,true,true,false,1,,0,1,"master",1
"kmchen/palresearch",7800,"User",,0,0,true,false,false,false,0,,0,0,"master",1
"magicwifi/SmartDPI",188,"User",,0,0,true,true,true,false,1,,0,1,"master",1
"lilinj2000/xe",176,"User",,0,0,true,true,true,false,0,,0,0,"master",1
"lab15/cpp-test",106,"User",,0,0,true,true,true,false,1,,1,1,"master",1
"davealbert/pebble_hello-world",148,"User",,0,0,true,true,true,false,0,,0,0,"master",1
"kimseongbum/comp2project",124,"User",,0,0,true,true,true,false,0,,0,0,"master",1
"watab0shi/ofxAudioInput",4396,"User",,0,0,true,true,true,false,0,,0,0,"master",1
"HXNHXS/-Demo",164,"User",,0,0,true,true,true,false,0,,0,0,"master",1
"ufoderek/casl_hypervisor",1724,"User",,0,0,true,true,true,false,0,,0,0,"master",1
"lionker/freetuxtv",6120,"User",,0,0,true,false,false,false,0,,75,0,"master",1
"liviuflore/mman-win32",144,"User",,0,0,true,false,false,false,0,,2,0,"master",1
"983/ParallelRadixSort",140,"User",,0,0,true,true,true,false,0,,0,0,"master",1
"marec2000/dsd2pcm",120,"User",,0,0,true,false,false,false,0,,1,0,"master",1
"marec2000/dsf2flac",1032,"User",,0,0,true,false,false,false,0,,2,0,"master",1
"Xinxin19871118/lib-freertos",1440,"User",,0,0,true,true,true,false,0,,0,0,"master",1
"tnilanon/csci-686-lda",217,"User",,0,0,true,true,true,false,0,,0,0,"master",1
"ccbuluo/tinypy",448,"User",,0,0,true,false,false,false,0,,27,0,"master",1
"tpatil2/Operating-Systems",64300,"User",,0,0,true,true,true,false,0,,0,0,"master",1
"ilyaseeyousoon/stm32f429_display",5500,"User",,0,0,true,true,true,false,0,,0,0,"master",1
"chllcy/RT_EXE",91228,"User",,0,0,true,true,true,false,0,,0,0,"master",1
"coright/vsprog",25480,"User",,0,0,true,false,false,false,0,,9,0,"master",1
"micovo/smallprintf",576,"User","",0,0,true,true,true,false,0,,0,0,"master",1
"buidanhquy/ics_stream",124,"User",,0,0,true,true,true,false,0,,0,0,"master",1
"strin/pyOptSpace",688,"User",,0,0,true,true,true,false,0,,0,0,"master",1
"z101/zspace",2388,"User",,0,0,true,true,true,false,0,,0,0,"master",1
"jazzybcoding/learngit",136,"User",,0,0,true,true,true,false,0,,0,0,"master",1
"ayush5/hello",136,"User",,0,0,true,true,true,false,0,,0,0,"master",1
"dkonha01/Bubble_Up",5468,"User","",0,0,true,true,true,false,0,,0,0,"master",1
"ericvalens/SpinCoater",120,"User",,0,0,true,true,true,false,0,,0,0,"master",1
"luistelmocosta/RCOM-feup15",148,"User",,0,0,true,true,true,false,0,,0,0,"master",1
"bpapaspyros/OperatingSystems",176,"User","",0,0,true,true,true,false,0,,0,0,"master",1
"jaibot/conwaylife",120,"User",,0,0,true,true,true,false,0,,0,0,"master",1
"NikashKumar/Multi-Threaded-Producer-Consumer-Work-Queue-Handling",268,"User",,0,0,true,true,true,false,0,,0,0,"master",1
"alafaye/heiglabo05",108,"User",,0,0,true,true,true,false,0,,0,0,"master",1
"dhruvhacks/workshop3",136,"User",,0,0,true,true,true,false,0,,0,0,"master",1
"AkashSharma/test2",136,"User",,0,0,true,true,true,false,0,,0,0,"master",1
"simonswine/docker-ptpcam",132,"User",,0,0,true,true,true,false,0,,0,0,"master",1
"martinnnnnn/S5-Etude_de_cas",1976,"User",,0,0,true,true,true,false,0,,0,0,"master",1
"Audrey1980/reaver-wps",1008,"User",,0,0,true,false,false,false,0,,9,0,"master",1
"tpayet/lem_in",156,"User",,0,0,true,true,true,false,0,,0,0,"master",1
"TheProjecter/remail-iphone",2244,"User",,0,0,true,false,false,false,0,,27,0,"master",1
"TheProjecter/ratnet",172,"User",,0,0,true,false,false,false,0,,0,0,"master",1
"dgalus/hd44780",104,"User",,0,0,true,true,true,false,0,,0,0,"master",1
"TheProjecter/parce",248,"User",,0,0,true,false,false,false,0,,2,0,"master",1
"TheProjecter/javieros",756,"User",,0,0,true,false,false,false,0,,0,0,"master",1
"TheProjecter/vsnfs",548,"User",,0,0,true,false,false,false,0,,0,0,"master",1
"qiuyuntao/arithmetic",104,"User",,0,0,true,true,true,false,0,,0,0,"master",1
"Sprk-nl/Pebble.C_GoodWe",145,"User",,0,0,true,true,true,false,1,,1,1,"master",1
"renpas/digrafos",120,"User",,0,0,true,true,true,false,0,,0,0,"master",1
"SlimRoms/kernel_motorola_msm8992",730588,"Organization",,0,0,true,true,true,false,0,,0,0,"lp5.1",1
"webb04/optimised-C",124,"User",,0,0,true,true,true,true,0,,0,0,"master",1
"jradxl/johntest1",140,"User",,0,0,true,true,true,false,0,,0,0,"master",1
"cinjoseph/ssl_demo",116,"User",,0,0,true,true,true,false,0,,0,0,"master",1
"uw-loci/ome-server",25916,"Organization","http://openmicroscopy.org/site/support/previous/ome-server",0,0,true,true,true,false,0,,0,0,"master",1
"Radium-Devices/android_kernel_motorola_msm8916",852572,"Organization",,0,0,true,true,true,false,0,,0,0,"5.1",1
"cmbug/Mftp",212,"User",,0,0,true,true,true,false,0,,0,0,"master",1
"shivam07/workshop",136,"User",,0,0,true,true,true,false,0,,0,0,"master",1
"neeraj12121/Test-Github",140,"User",,0,0,true,true,true,false,0,,0,0,"master",1
"KKoukiou/compsyslab2014",124,"User",,0,0,true,true,true,false,0,,0,0,"master",1
"boybeak/v4l4j",10636,"User",,0,0,true,false,false,false,0,,2,0,"master",1
"DylanGuedes/experimento3",124,"User",,0,0,true,true,true,false,0,,0,0,"master",1
"wqshare/interview",120,"User",,0,0,true,true,true,false,0,,0,0,"master",1
"tanakalab/Ikemoto_method",387,"Organization",,0,0,true,true,true,false,1,,0,1,"master",1
"vanjikumaran/FocusApp",124,"User",,0,0,true,true,true,false,0,,0,0,"master",1
"Mancer74/Ubuntu",180,"User",,0,0,true,true,true,false,0,,0,0,"master",1
"mmeier2/Compiler",180,"User",,0,0,true,true,true,false,0,,0,0,"master",1
"mcassiano/data-structures",136,"User",,0,0,true,true,true,false,0,,0,0,"master",1
"protonwrangler/controlsystems",124,"User",,0,0,true,true,true,false,0,,0,0,"master",1
"bocaph/test",104,"User",,0,0,true,true,true,false,0,,0,0,"newbranch",1
"samuel-72/Information-Security",148,"User",,0,0,true,true,true,false,0,,0,0,"master",1
"SMR39/pthreads",120,"User",,0,0,true,true,true,false,0,,0,0,"master",1
"SMR39/Open-MP",120,"User",,0,0,true,true,true,false,0,,0,0,"master",1
"DylanGuedes/ledszera",108,"User",,0,0,true,true,true,false,0,,0,0,"primeiro",1
