{
  "total_count": 404,
  "incomplete_results": false,
  "items": [
    {
      "id": 45309124,
      "name": "mini-snmpd",
      "full_name": "troglobit/mini-snmpd",
      "owner": {
        "login": "troglobit",
        "id": 183517,
        "avatar_url": "https://avatars.githubusercontent.com/u/183517?v=3",
        "gravatar_id": "",
        "url": "https://api.github.com/users/troglobit",
        "html_url": "https://github.com/troglobit",
        "followers_url": "https://api.github.com/users/troglobit/followers",
        "following_url": "https://api.github.com/users/troglobit/following{/other_user}",
        "gists_url": "https://api.github.com/users/troglobit/gists{/gist_id}",
        "starred_url": "https://api.github.com/users/troglobit/starred{/owner}{/repo}",
        "subscriptions_url": "https://api.github.com/users/troglobit/subscriptions",
        "organizations_url": "https://api.github.com/users/troglobit/orgs",
        "repos_url": "https://api.github.com/users/troglobit/repos",
        "events_url": "https://api.github.com/users/troglobit/events{/privacy}",
        "received_events_url": "https://api.github.com/users/troglobit/received_events",
        "type": "User",
        "site_admin": false
      },
      "private": false,
      "html_url": "https://github.com/troglobit/mini-snmpd",
      "description": "Mini SNMP is a minimal implementation of an SNMP daemon targeted at small or embedded UNIX systems with limited disk and memory resources.",
      "fork": false,
      "url": "https://api.github.com/repos/troglobit/mini-snmpd",
      "forks_url": "https://api.github.com/repos/troglobit/mini-snmpd/forks",
      "keys_url": "https://api.github.com/repos/troglobit/mini-snmpd/keys{/key_id}",
      "collaborators_url": "https://api.github.com/repos/troglobit/mini-snmpd/collaborators{/collaborator}",
      "teams_url": "https://api.github.com/repos/troglobit/mini-snmpd/teams",
      "hooks_url": "https://api.github.com/repos/troglobit/mini-snmpd/hooks",
      "issue_events_url": "https://api.github.com/repos/troglobit/mini-snmpd/issues/events{/number}",
      "events_url": "https://api.github.com/repos/troglobit/mini-snmpd/events",
      "assignees_url": "https://api.github.com/repos/troglobit/mini-snmpd/assignees{/user}",
      "branches_url": "https://api.github.com/repos/troglobit/mini-snmpd/branches{/branch}",
      "tags_url": "https://api.github.com/repos/troglobit/mini-snmpd/tags",
      "blobs_url": "https://api.github.com/repos/troglobit/mini-snmpd/git/blobs{/sha}",
      "git_tags_url": "https://api.github.com/repos/troglobit/mini-snmpd/git/tags{/sha}",
      "git_refs_url": "https://api.github.com/repos/troglobit/mini-snmpd/git/refs{/sha}",
      "trees_url": "https://api.github.com/repos/troglobit/mini-snmpd/git/trees{/sha}",
      "statuses_url": "https://api.github.com/repos/troglobit/mini-snmpd/statuses/{sha}",
      "languages_url": "https://api.github.com/repos/troglobit/mini-snmpd/languages",
      "stargazers_url": "https://api.github.com/repos/troglobit/mini-snmpd/stargazers",
      "contributors_url": "https://api.github.com/repos/troglobit/mini-snmpd/contributors",
      "subscribers_url": "https://api.github.com/repos/troglobit/mini-snmpd/subscribers",
      "subscription_url": "https://api.github.com/repos/troglobit/mini-snmpd/subscription",
      "commits_url": "https://api.github.com/repos/troglobit/mini-snmpd/commits{/sha}",
      "git_commits_url": "https://api.github.com/repos/troglobit/mini-snmpd/git/commits{/sha}",
      "comments_url": "https://api.github.com/repos/troglobit/mini-snmpd/comments{/number}",
      "issue_comment_url": "https://api.github.com/repos/troglobit/mini-snmpd/issues/comments{/number}",
      "contents_url": "https://api.github.com/repos/troglobit/mini-snmpd/contents/{+path}",
      "compare_url": "https://api.github.com/repos/troglobit/mini-snmpd/compare/{base}...{head}",
      "merges_url": "https://api.github.com/repos/troglobit/mini-snmpd/merges",
      "archive_url": "https://api.github.com/repos/troglobit/mini-snmpd/{archive_format}{/ref}",
      "downloads_url": "https://api.github.com/repos/troglobit/mini-snmpd/downloads",
      "issues_url": "https://api.github.com/repos/troglobit/mini-snmpd/issues{/number}",
      "pulls_url": "https://api.github.com/repos/troglobit/mini-snmpd/pulls{/number}",
      "milestones_url": "https://api.github.com/repos/troglobit/mini-snmpd/milestones{/number}",
      "notifications_url": "https://api.github.com/repos/troglobit/mini-snmpd/notifications{?since,all,participating}",
      "labels_url": "https://api.github.com/repos/troglobit/mini-snmpd/labels{/name}",
      "releases_url": "https://api.github.com/repos/troglobit/mini-snmpd/releases{/id}",
      "created_at": "2015-10-31T16:26:47Z",
      "updated_at": "2015-11-08T01:25:31Z",
      "pushed_at": "2015-11-13T08:25:41Z",
      "git_url": "git://github.com/troglobit/mini-snmpd.git",
      "ssh_url": "git@github.com:troglobit/mini-snmpd.git",
      "clone_url": "https://github.com/troglobit/mini-snmpd.git",
      "svn_url": "https://github.com/troglobit/mini-snmpd",
      "homepage": "http://troglobit.com/mini-snmpd.html",
      "size": 200,
      "stargazers_count": 0,
      "watchers_count": 0,
      "language": "C",
      "has_issues": true,
      "has_downloads": true,
      "has_wiki": true,
      "has_pages": false,
      "forks_count": 0,
      "mirror_url": null,
      "open_issues_count": 0,
      "forks": 0,
      "open_issues": 0,
      "watchers": 0,
      "default_branch": "master",
      "score": 1.0
    },
    {
      "id": 45298642,
      "name": "rib",
      "full_name": "ronen25/rib",
      "owner": {
        "login": "ronen25",
        "id": 11091932,
        "avatar_url": "https://avatars.githubusercontent.com/u/11091932?v=3",
        "gravatar_id": "",
        "url": "https://api.github.com/users/ronen25",
        "html_url": "https://github.com/ronen25",
        "followers_url": "https://api.github.com/users/ronen25/followers",
        "following_url": "https://api.github.com/users/ronen25/following{/other_user}",
        "gists_url": "https://api.github.com/users/ronen25/gists{/gist_id}",
        "starred_url": "https://api.github.com/users/ronen25/starred{/owner}{/repo}",
        "subscriptions_url": "https://api.github.com/users/ronen25/subscriptions",
        "organizations_url": "https://api.github.com/users/ronen25/orgs",
        "repos_url": "https://api.github.com/users/ronen25/repos",
        "events_url": "https://api.github.com/users/ronen25/events{/privacy}",
        "received_events_url": "https://api.github.com/users/ronen25/received_events",
        "type": "User",
        "site_admin": false
      },
      "private": false,
      "html_url": "https://github.com/ronen25/rib",
      "description": "Ronen's Interactive BrainF**k Interpreter",
      "fork": false,
      "url": "https://api.github.com/repos/ronen25/rib",
      "forks_url": "https://api.github.com/repos/ronen25/rib/forks",
      "keys_url": "https://api.github.com/repos/ronen25/rib/keys{/key_id}",
      "collaborators_url": "https://api.github.com/repos/ronen25/rib/collaborators{/collaborator}",
      "teams_url": "https://api.github.com/repos/ronen25/rib/teams",
      "hooks_url": "https://api.github.com/repos/ronen25/rib/hooks",
      "issue_events_url": "https://api.github.com/repos/ronen25/rib/issues/events{/number}",
      "events_url": "https://api.github.com/repos/ronen25/rib/events",
      "assignees_url": "https://api.github.com/repos/ronen25/rib/assignees{/user}",
      "branches_url": "https://api.github.com/repos/ronen25/rib/branches{/branch}",
      "tags_url": "https://api.github.com/repos/ronen25/rib/tags",
      "blobs_url": "https://api.github.com/repos/ronen25/rib/git/blobs{/sha}",
      "git_tags_url": "https://api.github.com/repos/ronen25/rib/git/tags{/sha}",
      "git_refs_url": "https://api.github.com/repos/ronen25/rib/git/refs{/sha}",
      "trees_url": "https://api.github.com/repos/ronen25/rib/git/trees{/sha}",
      "statuses_url": "https://api.github.com/repos/ronen25/rib/statuses/{sha}",
      "languages_url": "https://api.github.com/repos/ronen25/rib/languages",
      "stargazers_url": "https://api.github.com/repos/ronen25/rib/stargazers",
      "contributors_url": "https://api.github.com/repos/ronen25/rib/contributors",
      "subscribers_url": "https://api.github.com/repos/ronen25/rib/subscribers",
      "subscription_url": "https://api.github.com/repos/ronen25/rib/subscription",
      "commits_url": "https://api.github.com/repos/ronen25/rib/commits{/sha}",
      "git_commits_url": "https://api.github.com/repos/ronen25/rib/git/commits{/sha}",
      "comments_url": "https://api.github.com/repos/ronen25/rib/comments{/number}",
      "issue_comment_url": "https://api.github.com/repos/ronen25/rib/issues/comments{/number}",
      "contents_url": "https://api.github.com/repos/ronen25/rib/contents/{+path}",
      "compare_url": "https://api.github.com/repos/ronen25/rib/compare/{base}...{head}",
      "merges_url": "https://api.github.com/repos/ronen25/rib/merges",
      "archive_url": "https://api.github.com/repos/ronen25/rib/{archive_format}{/ref}",
      "downloads_url": "https://api.github.com/repos/ronen25/rib/downloads",
      "issues_url": "https://api.github.com/repos/ronen25/rib/issues{/number}",
      "pulls_url": "https://api.github.com/repos/ronen25/rib/pulls{/number}",
      "milestones_url": "https://api.github.com/repos/ronen25/rib/milestones{/number}",
      "notifications_url": "https://api.github.com/repos/ronen25/rib/notifications{?since,all,participating}",
      "labels_url": "https://api.github.com/repos/ronen25/rib/labels{/name}",
      "releases_url": "https://api.github.com/repos/ronen25/rib/releases{/id}",
      "created_at": "2015-10-31T11:09:12Z",
      "updated_at": "2015-10-31T19:36:30Z",
      "pushed_at": "2015-11-13T12:39:28Z",
      "git_url": "git://github.com/ronen25/rib.git",
      "ssh_url": "git@github.com:ronen25/rib.git",
      "clone_url": "https://github.com/ronen25/rib.git",
      "svn_url": "https://github.com/ronen25/rib",
      "homepage": null,
      "size": 252,
      "stargazers_count": 0,
      "watchers_count": 0,
      "language": "C",
      "has_issues": true,
      "has_downloads": true,
      "has_wiki": true,
      "has_pages": false,
      "forks_count": 0,
      "mirror_url": null,
      "open_issues_count": 5,
      "forks": 0,
      "open_issues": 5,
      "watchers": 0,
      "default_branch": "master",
      "score": 1.0
    },
    {
      "id": 45297683,
      "name": "RTVideo",
      "full_name": "Gyro91/RTVideo",
      "owner": {
        "login": "Gyro91",
        "id": 11994434,
        "avatar_url": "https://avatars.githubusercontent.com/u/11994434?v=3",
        "gravatar_id": "",
        "url": "https://api.github.com/users/Gyro91",
        "html_url": "https://github.com/Gyro91",
        "followers_url": "https://api.github.com/users/Gyro91/followers",
        "following_url": "https://api.github.com/users/Gyro91/following{/other_user}",
        "gists_url": "https://api.github.com/users/Gyro91/gists{/gist_id}",
        "starred_url": "https://api.github.com/users/Gyro91/starred{/owner}{/repo}",
        "subscriptions_url": "https://api.github.com/users/Gyro91/subscriptions",
        "organizations_url": "https://api.github.com/users/Gyro91/orgs",
        "repos_url": "https://api.github.com/users/Gyro91/repos",
        "events_url": "https://api.github.com/users/Gyro91/events{/privacy}",
        "received_events_url": "https://api.github.com/users/Gyro91/received_events",
        "type": "User",
        "site_admin": false
      },
      "private": false,
      "html_url": "https://github.com/Gyro91/RTVideo",
      "description": "",
      "fork": false,
      "url": "https://api.github.com/repos/Gyro91/RTVideo",
      "forks_url": "https://api.github.com/repos/Gyro91/RTVideo/forks",
      "keys_url": "https://api.github.com/repos/Gyro91/RTVideo/keys{/key_id}",
      "collaborators_url": "https://api.github.com/repos/Gyro91/RTVideo/collaborators{/collaborator}",
      "teams_url": "https://api.github.com/repos/Gyro91/RTVideo/teams",
      "hooks_url": "https://api.github.com/repos/Gyro91/RTVideo/hooks",
      "issue_events_url": "https://api.github.com/repos/Gyro91/RTVideo/issues/events{/number}",
      "events_url": "https://api.github.com/repos/Gyro91/RTVideo/events",
      "assignees_url": "https://api.github.com/repos/Gyro91/RTVideo/assignees{/user}",
      "branches_url": "https://api.github.com/repos/Gyro91/RTVideo/branches{/branch}",
      "tags_url": "https://api.github.com/repos/Gyro91/RTVideo/tags",
      "blobs_url": "https://api.github.com/repos/Gyro91/RTVideo/git/blobs{/sha}",
      "git_tags_url": "https://api.github.com/repos/Gyro91/RTVideo/git/tags{/sha}",
      "git_refs_url": "https://api.github.com/repos/Gyro91/RTVideo/git/refs{/sha}",
      "trees_url": "https://api.github.com/repos/Gyro91/RTVideo/git/trees{/sha}",
      "statuses_url": "https://api.github.com/repos/Gyro91/RTVideo/statuses/{sha}",
      "languages_url": "https://api.github.com/repos/Gyro91/RTVideo/languages",
      "stargazers_url": "https://api.github.com/repos/Gyro91/RTVideo/stargazers",
      "contributors_url": "https://api.github.com/repos/Gyro91/RTVideo/contributors",
      "subscribers_url": "https://api.github.com/repos/Gyro91/RTVideo/subscribers",
      "subscription_url": "https://api.github.com/repos/Gyro91/RTVideo/subscription",
      "commits_url": "https://api.github.com/repos/Gyro91/RTVideo/commits{/sha}",
      "git_commits_url": "https://api.github.com/repos/Gyro91/RTVideo/git/commits{/sha}",
      "comments_url": "https://api.github.com/repos/Gyro91/RTVideo/comments{/number}",
      "issue_comment_url": "https://api.github.com/repos/Gyro91/RTVideo/issues/comments{/number}",
      "contents_url": "https://api.github.com/repos/Gyro91/RTVideo/contents/{+path}",
      "compare_url": "https://api.github.com/repos/Gyro91/RTVideo/compare/{base}...{head}",
      "merges_url": "https://api.github.com/repos/Gyro91/RTVideo/merges",
      "archive_url": "https://api.github.com/repos/Gyro91/RTVideo/{archive_format}{/ref}",
      "downloads_url": "https://api.github.com/repos/Gyro91/RTVideo/downloads",
      "issues_url": "https://api.github.com/repos/Gyro91/RTVideo/issues{/number}",
      "pulls_url": "https://api.github.com/repos/Gyro91/RTVideo/pulls{/number}",
      "milestones_url": "https://api.github.com/repos/Gyro91/RTVideo/milestones{/number}",
      "notifications_url": "https://api.github.com/repos/Gyro91/RTVideo/notifications{?since,all,participating}",
      "labels_url": "https://api.github.com/repos/Gyro91/RTVideo/labels{/name}",
      "releases_url": "https://api.github.com/repos/Gyro91/RTVideo/releases{/id}",
      "created_at": "2015-10-31T10:31:47Z",
      "updated_at": "2015-10-31T17:06:56Z",
      "pushed_at": "2015-11-14T09:59:56Z",
      "git_url": "git://github.com/Gyro91/RTVideo.git",
      "ssh_url": "git@github.com:Gyro91/RTVideo.git",
      "clone_url": "https://github.com/Gyro91/RTVideo.git",
      "svn_url": "https://github.com/Gyro91/RTVideo",
      "homepage": null,
      "size": 132084,
      "stargazers_count": 0,
      "watchers_count": 0,
      "language": "C",
      "has_issues": true,
      "has_downloads": true,
      "has_wiki": true,
      "has_pages": false,
      "forks_count": 0,
      "mirror_url": null,
      "open_issues_count": 0,
      "forks": 0,
      "open_issues": 0,
      "watchers": 0,
      "default_branch": "master",
      "score": 1.0
    },
    {
      "id": 45296648,
      "name": "luoji4412",
      "full_name": "cyj1988jyc/luoji4412",
      "owner": {
        "login": "cyj1988jyc",
        "id": 7435738,
        "avatar_url": "https://avatars.githubusercontent.com/u/7435738?v=3",
        "gravatar_id": "",
        "url": "https://api.github.com/users/cyj1988jyc",
        "html_url": "https://github.com/cyj1988jyc",
        "followers_url": "https://api.github.com/users/cyj1988jyc/followers",
        "following_url": "https://api.github.com/users/cyj1988jyc/following{/other_user}",
        "gists_url": "https://api.github.com/users/cyj1988jyc/gists{/gist_id}",
        "starred_url": "https://api.github.com/users/cyj1988jyc/starred{/owner}{/repo}",
        "subscriptions_url": "https://api.github.com/users/cyj1988jyc/subscriptions",
        "organizations_url": "https://api.github.com/users/cyj1988jyc/orgs",
        "repos_url": "https://api.github.com/users/cyj1988jyc/repos",
        "events_url": "https://api.github.com/users/cyj1988jyc/events{/privacy}",
        "received_events_url": "https://api.github.com/users/cyj1988jyc/received_events",
        "type": "User",
        "site_admin": false
      },
      "private": false,
      "html_url": "https://github.com/cyj1988jyc/luoji4412",
      "description": "tiny4412裸机程序",
      "fork": false,
      "url": "https://api.github.com/repos/cyj1988jyc/luoji4412",
      "forks_url": "https://api.github.com/repos/cyj1988jyc/luoji4412/forks",
      "keys_url": "https://api.github.com/repos/cyj1988jyc/luoji4412/keys{/key_id}",
      "collaborators_url": "https://api.github.com/repos/cyj1988jyc/luoji4412/collaborators{/collaborator}",
      "teams_url": "https://api.github.com/repos/cyj1988jyc/luoji4412/teams",
      "hooks_url": "https://api.github.com/repos/cyj1988jyc/luoji4412/hooks",
      "issue_events_url": "https://api.github.com/repos/cyj1988jyc/luoji4412/issues/events{/number}",
      "events_url": "https://api.github.com/repos/cyj1988jyc/luoji4412/events",
      "assignees_url": "https://api.github.com/repos/cyj1988jyc/luoji4412/assignees{/user}",
      "branches_url": "https://api.github.com/repos/cyj1988jyc/luoji4412/branches{/branch}",
      "tags_url": "https://api.github.com/repos/cyj1988jyc/luoji4412/tags",
      "blobs_url": "https://api.github.com/repos/cyj1988jyc/luoji4412/git/blobs{/sha}",
      "git_tags_url": "https://api.github.com/repos/cyj1988jyc/luoji4412/git/tags{/sha}",
      "git_refs_url": "https://api.github.com/repos/cyj1988jyc/luoji4412/git/refs{/sha}",
      "trees_url": "https://api.github.com/repos/cyj1988jyc/luoji4412/git/trees{/sha}",
      "statuses_url": "https://api.github.com/repos/cyj1988jyc/luoji4412/statuses/{sha}",
      "languages_url": "https://api.github.com/repos/cyj1988jyc/luoji4412/languages",
      "stargazers_url": "https://api.github.com/repos/cyj1988jyc/luoji4412/stargazers",
      "contributors_url": "https://api.github.com/repos/cyj1988jyc/luoji4412/contributors",
      "subscribers_url": "https://api.github.com/repos/cyj1988jyc/luoji4412/subscribers",
      "subscription_url": "https://api.github.com/repos/cyj1988jyc/luoji4412/subscription",
      "commits_url": "https://api.github.com/repos/cyj1988jyc/luoji4412/commits{/sha}",
      "git_commits_url": "https://api.github.com/repos/cyj1988jyc/luoji4412/git/commits{/sha}",
      "comments_url": "https://api.github.com/repos/cyj1988jyc/luoji4412/comments{/number}",
      "issue_comment_url": "https://api.github.com/repos/cyj1988jyc/luoji4412/issues/comments{/number}",
      "contents_url": "https://api.github.com/repos/cyj1988jyc/luoji4412/contents/{+path}",
      "compare_url": "https://api.github.com/repos/cyj1988jyc/luoji4412/compare/{base}...{head}",
      "merges_url": "https://api.github.com/repos/cyj1988jyc/luoji4412/merges",
      "archive_url": "https://api.github.com/repos/cyj1988jyc/luoji4412/{archive_format}{/ref}",
      "downloads_url": "https://api.github.com/repos/cyj1988jyc/luoji4412/downloads",
      "issues_url": "https://api.github.com/repos/cyj1988jyc/luoji4412/issues{/number}",
      "pulls_url": "https://api.github.com/repos/cyj1988jyc/luoji4412/pulls{/number}",
      "milestones_url": "https://api.github.com/repos/cyj1988jyc/luoji4412/milestones{/number}",
      "notifications_url": "https://api.github.com/repos/cyj1988jyc/luoji4412/notifications{?since,all,participating}",
      "labels_url": "https://api.github.com/repos/cyj1988jyc/luoji4412/labels{/name}",
      "releases_url": "https://api.github.com/repos/cyj1988jyc/luoji4412/releases{/id}",
      "created_at": "2015-10-31T09:51:46Z",
      "updated_at": "2015-10-31T09:59:36Z",
      "pushed_at": "2015-11-14T07:20:40Z",
      "git_url": "git://github.com/cyj1988jyc/luoji4412.git",
      "ssh_url": "git@github.com:cyj1988jyc/luoji4412.git",
      "clone_url": "https://github.com/cyj1988jyc/luoji4412.git",
      "svn_url": "https://github.com/cyj1988jyc/luoji4412",
      "homepage": null,
      "size": 312,
      "stargazers_count": 0,
      "watchers_count": 0,
      "language": "C",
      "has_issues": true,
      "has_downloads": true,
      "has_wiki": true,
      "has_pages": false,
      "forks_count": 0,
      "mirror_url": null,
      "open_issues_count": 0,
      "forks": 0,
      "open_issues": 0,
      "watchers": 0,
      "default_branch": "master",
      "score": 1.0
    }
  ]
}
