{
  "total_count": 616,
  "incomplete_results": false,
  "items": [
    {
      "id": 44620714,
      "name": "ComputerGraphicsProject",
      "full_name": "Ashish424/ComputerGraphicsProject",
      "owner": {
        "login": "Ashish424",
        "id": 6473382,
        "avatar_url": "https://avatars.githubusercontent.com/u/6473382?v=3",
        "gravatar_id": "",
        "url": "https://api.github.com/users/Ashish424",
        "html_url": "https://github.com/Ashish424",
        "followers_url": "https://api.github.com/users/Ashish424/followers",
        "following_url": "https://api.github.com/users/Ashish424/following{/other_user}",
        "gists_url": "https://api.github.com/users/Ashish424/gists{/gist_id}",
        "starred_url": "https://api.github.com/users/Ashish424/starred{/owner}{/repo}",
        "subscriptions_url": "https://api.github.com/users/Ashish424/subscriptions",
        "organizations_url": "https://api.github.com/users/Ashish424/orgs",
        "repos_url": "https://api.github.com/users/Ashish424/repos",
        "events_url": "https://api.github.com/users/Ashish424/events{/privacy}",
        "received_events_url": "https://api.github.com/users/Ashish424/received_events",
        "type": "User",
        "site_admin": false
      },
      "private": false,
      "html_url": "https://github.com/Ashish424/ComputerGraphicsProject",
      "description": "",
      "fork": false,
      "url": "https://api.github.com/repos/Ashish424/ComputerGraphicsProject",
      "forks_url": "https://api.github.com/repos/Ashish424/ComputerGraphicsProject/forks",
      "keys_url": "https://api.github.com/repos/Ashish424/ComputerGraphicsProject/keys{/key_id}",
      "collaborators_url": "https://api.github.com/repos/Ashish424/ComputerGraphicsProject/collaborators{/collaborator}",
      "teams_url": "https://api.github.com/repos/Ashish424/ComputerGraphicsProject/teams",
      "hooks_url": "https://api.github.com/repos/Ashish424/ComputerGraphicsProject/hooks",
      "issue_events_url": "https://api.github.com/repos/Ashish424/ComputerGraphicsProject/issues/events{/number}",
      "events_url": "https://api.github.com/repos/Ashish424/ComputerGraphicsProject/events",
      "assignees_url": "https://api.github.com/repos/Ashish424/ComputerGraphicsProject/assignees{/user}",
      "branches_url": "https://api.github.com/repos/Ashish424/ComputerGraphicsProject/branches{/branch}",
      "tags_url": "https://api.github.com/repos/Ashish424/ComputerGraphicsProject/tags",
      "blobs_url": "https://api.github.com/repos/Ashish424/ComputerGraphicsProject/git/blobs{/sha}",
      "git_tags_url": "https://api.github.com/repos/Ashish424/ComputerGraphicsProject/git/tags{/sha}",
      "git_refs_url": "https://api.github.com/repos/Ashish424/ComputerGraphicsProject/git/refs{/sha}",
      "trees_url": "https://api.github.com/repos/Ashish424/ComputerGraphicsProject/git/trees{/sha}",
      "statuses_url": "https://api.github.com/repos/Ashish424/ComputerGraphicsProject/statuses/{sha}",
      "languages_url": "https://api.github.com/repos/Ashish424/ComputerGraphicsProject/languages",
      "stargazers_url": "https://api.github.com/repos/Ashish424/ComputerGraphicsProject/stargazers",
      "contributors_url": "https://api.github.com/repos/Ashish424/ComputerGraphicsProject/contributors",
      "subscribers_url": "https://api.github.com/repos/Ashish424/ComputerGraphicsProject/subscribers",
      "subscription_url": "https://api.github.com/repos/Ashish424/ComputerGraphicsProject/subscription",
      "commits_url": "https://api.github.com/repos/Ashish424/ComputerGraphicsProject/commits{/sha}",
      "git_commits_url": "https://api.github.com/repos/Ashish424/ComputerGraphicsProject/git/commits{/sha}",
      "comments_url": "https://api.github.com/repos/Ashish424/ComputerGraphicsProject/comments{/number}",
      "issue_comment_url": "https://api.github.com/repos/Ashish424/ComputerGraphicsProject/issues/comments{/number}",
      "contents_url": "https://api.github.com/repos/Ashish424/ComputerGraphicsProject/contents/{+path}",
      "compare_url": "https://api.github.com/repos/Ashish424/ComputerGraphicsProject/compare/{base}...{head}",
      "merges_url": "https://api.github.com/repos/Ashish424/ComputerGraphicsProject/merges",
      "archive_url": "https://api.github.com/repos/Ashish424/ComputerGraphicsProject/{archive_format}{/ref}",
      "downloads_url": "https://api.github.com/repos/Ashish424/ComputerGraphicsProject/downloads",
      "issues_url": "https://api.github.com/repos/Ashish424/ComputerGraphicsProject/issues{/number}",
      "pulls_url": "https://api.github.com/repos/Ashish424/ComputerGraphicsProject/pulls{/number}",
      "milestones_url": "https://api.github.com/repos/Ashish424/ComputerGraphicsProject/milestones{/number}",
      "notifications_url": "https://api.github.com/repos/Ashish424/ComputerGraphicsProject/notifications{?since,all,participating}",
      "labels_url": "https://api.github.com/repos/Ashish424/ComputerGraphicsProject/labels{/name}",
      "releases_url": "https://api.github.com/repos/Ashish424/ComputerGraphicsProject/releases{/id}",
      "created_at": "2015-10-20T16:47:11Z",
      "updated_at": "2015-10-20T16:48:34Z",
      "pushed_at": "2015-11-09T08:42:55Z",
      "git_url": "git://github.com/Ashish424/ComputerGraphicsProject.git",
      "ssh_url": "git@github.com:Ashish424/ComputerGraphicsProject.git",
      "clone_url": "https://github.com/Ashish424/ComputerGraphicsProject.git",
      "svn_url": "https://github.com/Ashish424/ComputerGraphicsProject",
      "homepage": null,
      "size": 4560,
      "stargazers_count": 0,
      "watchers_count": 0,
      "language": "C",
      "has_issues": true,
      "has_downloads": true,
      "has_wiki": true,
      "has_pages": false,
      "forks_count": 0,
      "mirror_url": null,
      "open_issues_count": 0,
      "forks": 0,
      "open_issues": 0,
      "watchers": 0,
      "default_branch": "master",
      "score": 1.0
    },
    {
      "id": 44608981,
      "name": "FUP1B",
      "full_name": "Guadalupe1B/FUP1B",
      "owner": {
        "login": "Guadalupe1B",
        "id": 15199529,
        "avatar_url": "https://avatars.githubusercontent.com/u/15199529?v=3",
        "gravatar_id": "",
        "url": "https://api.github.com/users/Guadalupe1B",
        "html_url": "https://github.com/Guadalupe1B",
        "followers_url": "https://api.github.com/users/Guadalupe1B/followers",
        "following_url": "https://api.github.com/users/Guadalupe1B/following{/other_user}",
        "gists_url": "https://api.github.com/users/Guadalupe1B/gists{/gist_id}",
        "starred_url": "https://api.github.com/users/Guadalupe1B/starred{/owner}{/repo}",
        "subscriptions_url": "https://api.github.com/users/Guadalupe1B/subscriptions",
        "organizations_url": "https://api.github.com/users/Guadalupe1B/orgs",
        "repos_url": "https://api.github.com/users/Guadalupe1B/repos",
        "events_url": "https://api.github.com/users/Guadalupe1B/events{/privacy}",
        "received_events_url": "https://api.github.com/users/Guadalupe1B/received_events",
        "type": "User",
        "site_admin": false
      },
      "private": false,
      "html_url": "https://github.com/Guadalupe1B/FUP1B",
      "description": "",
      "fork": false,
      "url": "https://api.github.com/repos/Guadalupe1B/FUP1B",
      "forks_url": "https://api.github.com/repos/Guadalupe1B/FUP1B/forks",
      "keys_url": "https://api.github.com/repos/Guadalupe1B/FUP1B/keys{/key_id}",
      "collaborators_url": "https://api.github.com/repos/Guadalupe1B/FUP1B/collaborators{/collaborator}",
      "teams_url": "https://api.github.com/repos/Guadalupe1B/FUP1B/teams",
      "hooks_url": "https://api.github.com/repos/Guadalupe1B/FUP1B/hooks",
      "issue_events_url": "https://api.github.com/repos/Guadalupe1B/FUP1B/issues/events{/number}",
      "events_url": "https://api.github.com/repos/Guadalupe1B/FUP1B/events",
      "assignees_url": "https://api.github.com/repos/Guadalupe1B/FUP1B/assignees{/user}",
      "branches_url": "https://api.github.com/repos/Guadalupe1B/FUP1B/branches{/branch}",
      "tags_url": "https://api.github.com/repos/Guadalupe1B/FUP1B/tags",
      "blobs_url": "https://api.github.com/repos/Guadalupe1B/FUP1B/git/blobs{/sha}",
      "git_tags_url": "https://api.github.com/repos/Guadalupe1B/FUP1B/git/tags{/sha}",
      "git_refs_url": "https://api.github.com/repos/Guadalupe1B/FUP1B/git/refs{/sha}",
      "trees_url": "https://api.github.com/repos/Guadalupe1B/FUP1B/git/trees{/sha}",
      "statuses_url": "https://api.github.com/repos/Guadalupe1B/FUP1B/statuses/{sha}",
      "languages_url": "https://api.github.com/repos/Guadalupe1B/FUP1B/languages",
      "stargazers_url": "https://api.github.com/repos/Guadalupe1B/FUP1B/stargazers",
      "contributors_url": "https://api.github.com/repos/Guadalupe1B/FUP1B/contributors",
      "subscribers_url": "https://api.github.com/repos/Guadalupe1B/FUP1B/subscribers",
      "subscription_url": "https://api.github.com/repos/Guadalupe1B/FUP1B/subscription",
      "commits_url": "https://api.github.com/repos/Guadalupe1B/FUP1B/commits{/sha}",
      "git_commits_url": "https://api.github.com/repos/Guadalupe1B/FUP1B/git/commits{/sha}",
      "comments_url": "https://api.github.com/repos/Guadalupe1B/FUP1B/comments{/number}",
      "issue_comment_url": "https://api.github.com/repos/Guadalupe1B/FUP1B/issues/comments{/number}",
      "contents_url": "https://api.github.com/repos/Guadalupe1B/FUP1B/contents/{+path}",
      "compare_url": "https://api.github.com/repos/Guadalupe1B/FUP1B/compare/{base}...{head}",
      "merges_url": "https://api.github.com/repos/Guadalupe1B/FUP1B/merges",
      "archive_url": "https://api.github.com/repos/Guadalupe1B/FUP1B/{archive_format}{/ref}",
      "downloads_url": "https://api.github.com/repos/Guadalupe1B/FUP1B/downloads",
      "issues_url": "https://api.github.com/repos/Guadalupe1B/FUP1B/issues{/number}",
      "pulls_url": "https://api.github.com/repos/Guadalupe1B/FUP1B/pulls{/number}",
      "milestones_url": "https://api.github.com/repos/Guadalupe1B/FUP1B/milestones{/number}",
      "notifications_url": "https://api.github.com/repos/Guadalupe1B/FUP1B/notifications{?since,all,participating}",
      "labels_url": "https://api.github.com/repos/Guadalupe1B/FUP1B/labels{/name}",
      "releases_url": "https://api.github.com/repos/Guadalupe1B/FUP1B/releases{/id}",
      "created_at": "2015-10-20T13:42:00Z",
      "updated_at": "2015-10-20T14:02:52Z",
      "pushed_at": "2015-11-12T02:45:19Z",
      "git_url": "git://github.com/Guadalupe1B/FUP1B.git",
      "ssh_url": "git@github.com:Guadalupe1B/FUP1B.git",
      "clone_url": "https://github.com/Guadalupe1B/FUP1B.git",
      "svn_url": "https://github.com/Guadalupe1B/FUP1B",
      "homepage": null,
      "size": 352,
      "stargazers_count": 0,
      "watchers_count": 0,
      "language": "C",
      "has_issues": true,
      "has_downloads": true,
      "has_wiki": true,
      "has_pages": false,
      "forks_count": 0,
      "mirror_url": null,
      "open_issues_count": 0,
      "forks": 0,
      "open_issues": 0,
      "watchers": 0,
      "default_branch": "master",
      "score": 1.0
    },
    {
      "id": 44608945,
      "name": "FUP1B",
      "full_name": "cristianperez979/FUP1B",
      "owner": {
        "login": "cristianperez979",
        "id": 15206745,
        "avatar_url": "https://avatars.githubusercontent.com/u/15206745?v=3",
        "gravatar_id": "",
        "url": "https://api.github.com/users/cristianperez979",
        "html_url": "https://github.com/cristianperez979",
        "followers_url": "https://api.github.com/users/cristianperez979/followers",
        "following_url": "https://api.github.com/users/cristianperez979/following{/other_user}",
        "gists_url": "https://api.github.com/users/cristianperez979/gists{/gist_id}",
        "starred_url": "https://api.github.com/users/cristianperez979/starred{/owner}{/repo}",
        "subscriptions_url": "https://api.github.com/users/cristianperez979/subscriptions",
        "organizations_url": "https://api.github.com/users/cristianperez979/orgs",
        "repos_url": "https://api.github.com/users/cristianperez979/repos",
        "events_url": "https://api.github.com/users/cristianperez979/events{/privacy}",
        "received_events_url": "https://api.github.com/users/cristianperez979/received_events",
        "type": "User",
        "site_admin": false
      },
      "private": false,
      "html_url": "https://github.com/cristianperez979/FUP1B",
      "description": "",
      "fork": false,
      "url": "https://api.github.com/repos/cristianperez979/FUP1B",
      "forks_url": "https://api.github.com/repos/cristianperez979/FUP1B/forks",
      "keys_url": "https://api.github.com/repos/cristianperez979/FUP1B/keys{/key_id}",
      "collaborators_url": "https://api.github.com/repos/cristianperez979/FUP1B/collaborators{/collaborator}",
      "teams_url": "https://api.github.com/repos/cristianperez979/FUP1B/teams",
      "hooks_url": "https://api.github.com/repos/cristianperez979/FUP1B/hooks",
      "issue_events_url": "https://api.github.com/repos/cristianperez979/FUP1B/issues/events{/number}",
      "events_url": "https://api.github.com/repos/cristianperez979/FUP1B/events",
      "assignees_url": "https://api.github.com/repos/cristianperez979/FUP1B/assignees{/user}",
      "branches_url": "https://api.github.com/repos/cristianperez979/FUP1B/branches{/branch}",
      "tags_url": "https://api.github.com/repos/cristianperez979/FUP1B/tags",
      "blobs_url": "https://api.github.com/repos/cristianperez979/FUP1B/git/blobs{/sha}",
      "git_tags_url": "https://api.github.com/repos/cristianperez979/FUP1B/git/tags{/sha}",
      "git_refs_url": "https://api.github.com/repos/cristianperez979/FUP1B/git/refs{/sha}",
      "trees_url": "https://api.github.com/repos/cristianperez979/FUP1B/git/trees{/sha}",
      "statuses_url": "https://api.github.com/repos/cristianperez979/FUP1B/statuses/{sha}",
      "languages_url": "https://api.github.com/repos/cristianperez979/FUP1B/languages",
      "stargazers_url": "https://api.github.com/repos/cristianperez979/FUP1B/stargazers",
      "contributors_url": "https://api.github.com/repos/cristianperez979/FUP1B/contributors",
      "subscribers_url": "https://api.github.com/repos/cristianperez979/FUP1B/subscribers",
      "subscription_url": "https://api.github.com/repos/cristianperez979/FUP1B/subscription",
      "commits_url": "https://api.github.com/repos/cristianperez979/FUP1B/commits{/sha}",
      "git_commits_url": "https://api.github.com/repos/cristianperez979/FUP1B/git/commits{/sha}",
      "comments_url": "https://api.github.com/repos/cristianperez979/FUP1B/comments{/number}",
      "issue_comment_url": "https://api.github.com/repos/cristianperez979/FUP1B/issues/comments{/number}",
      "contents_url": "https://api.github.com/repos/cristianperez979/FUP1B/contents/{+path}",
      "compare_url": "https://api.github.com/repos/cristianperez979/FUP1B/compare/{base}...{head}",
      "merges_url": "https://api.github.com/repos/cristianperez979/FUP1B/merges",
      "archive_url": "https://api.github.com/repos/cristianperez979/FUP1B/{archive_format}{/ref}",
      "downloads_url": "https://api.github.com/repos/cristianperez979/FUP1B/downloads",
      "issues_url": "https://api.github.com/repos/cristianperez979/FUP1B/issues{/number}",
      "pulls_url": "https://api.github.com/repos/cristianperez979/FUP1B/pulls{/number}",
      "milestones_url": "https://api.github.com/repos/cristianperez979/FUP1B/milestones{/number}",
      "notifications_url": "https://api.github.com/repos/cristianperez979/FUP1B/notifications{?since,all,participating}",
      "labels_url": "https://api.github.com/repos/cristianperez979/FUP1B/labels{/name}",
      "releases_url": "https://api.github.com/repos/cristianperez979/FUP1B/releases{/id}",
      "created_at": "2015-10-20T13:41:27Z",
      "updated_at": "2015-10-23T03:45:21Z",
      "pushed_at": "2015-11-10T14:13:54Z",
      "git_url": "git://github.com/cristianperez979/FUP1B.git",
      "ssh_url": "git@github.com:cristianperez979/FUP1B.git",
      "clone_url": "https://github.com/cristianperez979/FUP1B.git",
      "svn_url": "https://github.com/cristianperez979/FUP1B",
      "homepage": null,
      "size": 156,
      "stargazers_count": 0,
      "watchers_count": 0,
      "language": "C",
      "has_issues": true,
      "has_downloads": true,
      "has_wiki": true,
      "has_pages": false,
      "forks_count": 0,
      "mirror_url": null,
      "open_issues_count": 0,
      "forks": 0,
      "open_issues": 0,
      "watchers": 0,
      "default_branch": "master",
      "score": 1.0
    },
    {
      "id": 44613068,
      "name": "Rasbery_pie_os",
      "full_name": "robinroyer/Rasbery_pie_os",
      "owner": {
        "login": "robinroyer",
        "id": 9573183,
        "avatar_url": "https://avatars.githubusercontent.com/u/9573183?v=3",
        "gravatar_id": "",
        "url": "https://api.github.com/users/robinroyer",
        "html_url": "https://github.com/robinroyer",
        "followers_url": "https://api.github.com/users/robinroyer/followers",
        "following_url": "https://api.github.com/users/robinroyer/following{/other_user}",
        "gists_url": "https://api.github.com/users/robinroyer/gists{/gist_id}",
        "starred_url": "https://api.github.com/users/robinroyer/starred{/owner}{/repo}",
        "subscriptions_url": "https://api.github.com/users/robinroyer/subscriptions",
        "organizations_url": "https://api.github.com/users/robinroyer/orgs",
        "repos_url": "https://api.github.com/users/robinroyer/repos",
        "events_url": "https://api.github.com/users/robinroyer/events{/privacy}",
        "received_events_url": "https://api.github.com/users/robinroyer/received_events",
        "type": "User",
        "site_admin": false
      },
      "private": false,
      "html_url": "https://github.com/robinroyer/Rasbery_pie_os",
      "description": "",
      "fork": false,
      "url": "https://api.github.com/repos/robinroyer/Rasbery_pie_os",
      "forks_url": "https://api.github.com/repos/robinroyer/Rasbery_pie_os/forks",
      "keys_url": "https://api.github.com/repos/robinroyer/Rasbery_pie_os/keys{/key_id}",
      "collaborators_url": "https://api.github.com/repos/robinroyer/Rasbery_pie_os/collaborators{/collaborator}",
      "teams_url": "https://api.github.com/repos/robinroyer/Rasbery_pie_os/teams",
      "hooks_url": "https://api.github.com/repos/robinroyer/Rasbery_pie_os/hooks",
      "issue_events_url": "https://api.github.com/repos/robinroyer/Rasbery_pie_os/issues/events{/number}",
      "events_url": "https://api.github.com/repos/robinroyer/Rasbery_pie_os/events",
      "assignees_url": "https://api.github.com/repos/robinroyer/Rasbery_pie_os/assignees{/user}",
      "branches_url": "https://api.github.com/repos/robinroyer/Rasbery_pie_os/branches{/branch}",
      "tags_url": "https://api.github.com/repos/robinroyer/Rasbery_pie_os/tags",
      "blobs_url": "https://api.github.com/repos/robinroyer/Rasbery_pie_os/git/blobs{/sha}",
      "git_tags_url": "https://api.github.com/repos/robinroyer/Rasbery_pie_os/git/tags{/sha}",
      "git_refs_url": "https://api.github.com/repos/robinroyer/Rasbery_pie_os/git/refs{/sha}",
      "trees_url": "https://api.github.com/repos/robinroyer/Rasbery_pie_os/git/trees{/sha}",
      "statuses_url": "https://api.github.com/repos/robinroyer/Rasbery_pie_os/statuses/{sha}",
      "languages_url": "https://api.github.com/repos/robinroyer/Rasbery_pie_os/languages",
      "stargazers_url": "https://api.github.com/repos/robinroyer/Rasbery_pie_os/stargazers",
      "contributors_url": "https://api.github.com/repos/robinroyer/Rasbery_pie_os/contributors",
      "subscribers_url": "https://api.github.com/repos/robinroyer/Rasbery_pie_os/subscribers",
      "subscription_url": "https://api.github.com/repos/robinroyer/Rasbery_pie_os/subscription",
      "commits_url": "https://api.github.com/repos/robinroyer/Rasbery_pie_os/commits{/sha}",
      "git_commits_url": "https://api.github.com/repos/robinroyer/Rasbery_pie_os/git/commits{/sha}",
      "comments_url": "https://api.github.com/repos/robinroyer/Rasbery_pie_os/comments{/number}",
      "issue_comment_url": "https://api.github.com/repos/robinroyer/Rasbery_pie_os/issues/comments{/number}",
      "contents_url": "https://api.github.com/repos/robinroyer/Rasbery_pie_os/contents/{+path}",
      "compare_url": "https://api.github.com/repos/robinroyer/Rasbery_pie_os/compare/{base}...{head}",
      "merges_url": "https://api.github.com/repos/robinroyer/Rasbery_pie_os/merges",
      "archive_url": "https://api.github.com/repos/robinroyer/Rasbery_pie_os/{archive_format}{/ref}",
      "downloads_url": "https://api.github.com/repos/robinroyer/Rasbery_pie_os/downloads",
      "issues_url": "https://api.github.com/repos/robinroyer/Rasbery_pie_os/issues{/number}",
      "pulls_url": "https://api.github.com/repos/robinroyer/Rasbery_pie_os/pulls{/number}",
      "milestones_url": "https://api.github.com/repos/robinroyer/Rasbery_pie_os/milestones{/number}",
      "notifications_url": "https://api.github.com/repos/robinroyer/Rasbery_pie_os/notifications{?since,all,participating}",
      "labels_url": "https://api.github.com/repos/robinroyer/Rasbery_pie_os/labels{/name}",
      "releases_url": "https://api.github.com/repos/robinroyer/Rasbery_pie_os/releases{/id}",
      "created_at": "2015-10-20T14:45:35Z",
      "updated_at": "2015-10-20T14:46:13Z",
      "pushed_at": "2015-11-10T17:04:45Z",
      "git_url": "git://github.com/robinroyer/Rasbery_pie_os.git",
      "ssh_url": "git@github.com:robinroyer/Rasbery_pie_os.git",
      "clone_url": "https://github.com/robinroyer/Rasbery_pie_os.git",
      "svn_url": "https://github.com/robinroyer/Rasbery_pie_os",
      "homepage": null,
      "size": 11028,
      "stargazers_count": 0,
      "watchers_count": 0,
      "language": "C",
      "has_issues": true,
      "has_downloads": true,
      "has_wiki": true,
      "has_pages": false,
      "forks_count": 0,
      "mirror_url": null,
      "open_issues_count": 0,
      "forks": 0,
      "open_issues": 0,
      "watchers": 0,
      "default_branch": "master",
      "score": 1.0
    },
    {
      "id": 44597043,
      "name": "Neutrino",
      "full_name": "gdeleoniii/Neutrino",
      "owner": {
        "login": "gdeleoniii",
        "id": 11266467,
        "avatar_url": "https://avatars.githubusercontent.com/u/11266467?v=3",
        "gravatar_id": "",
        "url": "https://api.github.com/users/gdeleoniii",
        "html_url": "https://github.com/gdeleoniii",
        "followers_url": "https://api.github.com/users/gdeleoniii/followers",
        "following_url": "https://api.github.com/users/gdeleoniii/following{/other_user}",
        "gists_url": "https://api.github.com/users/gdeleoniii/gists{/gist_id}",
        "starred_url": "https://api.github.com/users/gdeleoniii/starred{/owner}{/repo}",
        "subscriptions_url": "https://api.github.com/users/gdeleoniii/subscriptions",
        "organizations_url": "https://api.github.com/users/gdeleoniii/orgs",
        "repos_url": "https://api.github.com/users/gdeleoniii/repos",
        "events_url": "https://api.github.com/users/gdeleoniii/events{/privacy}",
        "received_events_url": "https://api.github.com/users/gdeleoniii/received_events",
        "type": "User",
        "site_admin": false
      },
      "private": false,
      "html_url": "https://github.com/gdeleoniii/Neutrino",
      "description": "",
      "fork": false,
      "url": "https://api.github.com/repos/gdeleoniii/Neutrino",
      "forks_url": "https://api.github.com/repos/gdeleoniii/Neutrino/forks",
      "keys_url": "https://api.github.com/repos/gdeleoniii/Neutrino/keys{/key_id}",
      "collaborators_url": "https://api.github.com/repos/gdeleoniii/Neutrino/collaborators{/collaborator}",
      "teams_url": "https://api.github.com/repos/gdeleoniii/Neutrino/teams",
      "hooks_url": "https://api.github.com/repos/gdeleoniii/Neutrino/hooks",
      "issue_events_url": "https://api.github.com/repos/gdeleoniii/Neutrino/issues/events{/number}",
      "events_url": "https://api.github.com/repos/gdeleoniii/Neutrino/events",
      "assignees_url": "https://api.github.com/repos/gdeleoniii/Neutrino/assignees{/user}",
      "branches_url": "https://api.github.com/repos/gdeleoniii/Neutrino/branches{/branch}",
      "tags_url": "https://api.github.com/repos/gdeleoniii/Neutrino/tags",
      "blobs_url": "https://api.github.com/repos/gdeleoniii/Neutrino/git/blobs{/sha}",
      "git_tags_url": "https://api.github.com/repos/gdeleoniii/Neutrino/git/tags{/sha}",
      "git_refs_url": "https://api.github.com/repos/gdeleoniii/Neutrino/git/refs{/sha}",
      "trees_url": "https://api.github.com/repos/gdeleoniii/Neutrino/git/trees{/sha}",
      "statuses_url": "https://api.github.com/repos/gdeleoniii/Neutrino/statuses/{sha}",
      "languages_url": "https://api.github.com/repos/gdeleoniii/Neutrino/languages",
      "stargazers_url": "https://api.github.com/repos/gdeleoniii/Neutrino/stargazers",
      "contributors_url": "https://api.github.com/repos/gdeleoniii/Neutrino/contributors",
      "subscribers_url": "https://api.github.com/repos/gdeleoniii/Neutrino/subscribers",
      "subscription_url": "https://api.github.com/repos/gdeleoniii/Neutrino/subscription",
      "commits_url": "https://api.github.com/repos/gdeleoniii/Neutrino/commits{/sha}",
      "git_commits_url": "https://api.github.com/repos/gdeleoniii/Neutrino/git/commits{/sha}",
      "comments_url": "https://api.github.com/repos/gdeleoniii/Neutrino/comments{/number}",
      "issue_comment_url": "https://api.github.com/repos/gdeleoniii/Neutrino/issues/comments{/number}",
      "contents_url": "https://api.github.com/repos/gdeleoniii/Neutrino/contents/{+path}",
      "compare_url": "https://api.github.com/repos/gdeleoniii/Neutrino/compare/{base}...{head}",
      "merges_url": "https://api.github.com/repos/gdeleoniii/Neutrino/merges",
      "archive_url": "https://api.github.com/repos/gdeleoniii/Neutrino/{archive_format}{/ref}",
      "downloads_url": "https://api.github.com/repos/gdeleoniii/Neutrino/downloads",
      "issues_url": "https://api.github.com/repos/gdeleoniii/Neutrino/issues{/number}",
      "pulls_url": "https://api.github.com/repos/gdeleoniii/Neutrino/pulls{/number}",
      "milestones_url": "https://api.github.com/repos/gdeleoniii/Neutrino/milestones{/number}",
      "notifications_url": "https://api.github.com/repos/gdeleoniii/Neutrino/notifications{?since,all,participating}",
      "labels_url": "https://api.github.com/repos/gdeleoniii/Neutrino/labels{/name}",
      "releases_url": "https://api.github.com/repos/gdeleoniii/Neutrino/releases{/id}",
      "created_at": "2015-10-20T09:50:13Z",
      "updated_at": "2015-10-20T09:53:12Z",
      "pushed_at": "2015-11-09T12:32:43Z",
      "git_url": "git://github.com/gdeleoniii/Neutrino.git",
      "ssh_url": "git@github.com:gdeleoniii/Neutrino.git",
      "clone_url": "https://github.com/gdeleoniii/Neutrino.git",
      "svn_url": "https://github.com/gdeleoniii/Neutrino",
      "homepage": null,
      "size": 148,
      "stargazers_count": 0,
      "watchers_count": 0,
      "language": "C",
      "has_issues": true,
      "has_downloads": true,
      "has_wiki": true,
      "has_pages": false,
      "forks_count": 0,
      "mirror_url": null,
      "open_issues_count": 0,
      "forks": 0,
      "open_issues": 0,
      "watchers": 0,
      "default_branch": "master",
      "score": 1.0
    },
    {
      "id": 44616182,
      "name": "Traballho-1-prog",
      "full_name": "M4theusz/Traballho-1-prog",
      "owner": {
        "login": "M4theusz",
        "id": 14987885,
        "avatar_url": "https://avatars.githubusercontent.com/u/14987885?v=3",
        "gravatar_id": "",
        "url": "https://api.github.com/users/M4theusz",
        "html_url": "https://github.com/M4theusz",
        "followers_url": "https://api.github.com/users/M4theusz/followers",
        "following_url": "https://api.github.com/users/M4theusz/following{/other_user}",
        "gists_url": "https://api.github.com/users/M4theusz/gists{/gist_id}",
        "starred_url": "https://api.github.com/users/M4theusz/starred{/owner}{/repo}",
        "subscriptions_url": "https://api.github.com/users/M4theusz/subscriptions",
        "organizations_url": "https://api.github.com/users/M4theusz/orgs",
        "repos_url": "https://api.github.com/users/M4theusz/repos",
        "events_url": "https://api.github.com/users/M4theusz/events{/privacy}",
        "received_events_url": "https://api.github.com/users/M4theusz/received_events",
        "type": "User",
        "site_admin": false
      },
      "private": false,
      "html_url": "https://github.com/M4theusz/Traballho-1-prog",
      "description": "Trabalho prog1",
      "fork": false,
      "url": "https://api.github.com/repos/M4theusz/Traballho-1-prog",
      "forks_url": "https://api.github.com/repos/M4theusz/Traballho-1-prog/forks",
      "keys_url": "https://api.github.com/repos/M4theusz/Traballho-1-prog/keys{/key_id}",
      "collaborators_url": "https://api.github.com/repos/M4theusz/Traballho-1-prog/collaborators{/collaborator}",
      "teams_url": "https://api.github.com/repos/M4theusz/Traballho-1-prog/teams",
      "hooks_url": "https://api.github.com/repos/M4theusz/Traballho-1-prog/hooks",
      "issue_events_url": "https://api.github.com/repos/M4theusz/Traballho-1-prog/issues/events{/number}",
      "events_url": "https://api.github.com/repos/M4theusz/Traballho-1-prog/events",
      "assignees_url": "https://api.github.com/repos/M4theusz/Traballho-1-prog/assignees{/user}",
      "branches_url": "https://api.github.com/repos/M4theusz/Traballho-1-prog/branches{/branch}",
      "tags_url": "https://api.github.com/repos/M4theusz/Traballho-1-prog/tags",
      "blobs_url": "https://api.github.com/repos/M4theusz/Traballho-1-prog/git/blobs{/sha}",
      "git_tags_url": "https://api.github.com/repos/M4theusz/Traballho-1-prog/git/tags{/sha}",
      "git_refs_url": "https://api.github.com/repos/M4theusz/Traballho-1-prog/git/refs{/sha}",
      "trees_url": "https://api.github.com/repos/M4theusz/Traballho-1-prog/git/trees{/sha}",
      "statuses_url": "https://api.github.com/repos/M4theusz/Traballho-1-prog/statuses/{sha}",
      "languages_url": "https://api.github.com/repos/M4theusz/Traballho-1-prog/languages",
      "stargazers_url": "https://api.github.com/repos/M4theusz/Traballho-1-prog/stargazers",
      "contributors_url": "https://api.github.com/repos/M4theusz/Traballho-1-prog/contributors",
      "subscribers_url": "https://api.github.com/repos/M4theusz/Traballho-1-prog/subscribers",
      "subscription_url": "https://api.github.com/repos/M4theusz/Traballho-1-prog/subscription",
      "commits_url": "https://api.github.com/repos/M4theusz/Traballho-1-prog/commits{/sha}",
      "git_commits_url": "https://api.github.com/repos/M4theusz/Traballho-1-prog/git/commits{/sha}",
      "comments_url": "https://api.github.com/repos/M4theusz/Traballho-1-prog/comments{/number}",
      "issue_comment_url": "https://api.github.com/repos/M4theusz/Traballho-1-prog/issues/comments{/number}",
      "contents_url": "https://api.github.com/repos/M4theusz/Traballho-1-prog/contents/{+path}",
      "compare_url": "https://api.github.com/repos/M4theusz/Traballho-1-prog/compare/{base}...{head}",
      "merges_url": "https://api.github.com/repos/M4theusz/Traballho-1-prog/merges",
      "archive_url": "https://api.github.com/repos/M4theusz/Traballho-1-prog/{archive_format}{/ref}",
      "downloads_url": "https://api.github.com/repos/M4theusz/Traballho-1-prog/downloads",
      "issues_url": "https://api.github.com/repos/M4theusz/Traballho-1-prog/issues{/number}",
      "pulls_url": "https://api.github.com/repos/M4theusz/Traballho-1-prog/pulls{/number}",
      "milestones_url": "https://api.github.com/repos/M4theusz/Traballho-1-prog/milestones{/number}",
      "notifications_url": "https://api.github.com/repos/M4theusz/Traballho-1-prog/notifications{?since,all,participating}",
      "labels_url": "https://api.github.com/repos/M4theusz/Traballho-1-prog/labels{/name}",
      "releases_url": "https://api.github.com/repos/M4theusz/Traballho-1-prog/releases{/id}",
      "created_at": "2015-10-20T15:33:37Z",
      "updated_at": "2015-10-20T15:48:49Z",
      "pushed_at": "2015-11-09T00:37:07Z",
      "git_url": "git://github.com/M4theusz/Traballho-1-prog.git",
      "ssh_url": "git@github.com:M4theusz/Traballho-1-prog.git",
      "clone_url": "https://github.com/M4theusz/Traballho-1-prog.git",
      "svn_url": "https://github.com/M4theusz/Traballho-1-prog",
      "homepage": null,
      "size": 156,
      "stargazers_count": 0,
      "watchers_count": 0,
      "language": "C",
      "has_issues": true,
      "has_downloads": true,
      "has_wiki": true,
      "has_pages": false,
      "forks_count": 0,
      "mirror_url": null,
      "open_issues_count": 0,
      "forks": 0,
      "open_issues": 0,
      "watchers": 0,
      "default_branch": "master",
      "score": 1.0
    },
    {
      "id": 44634618,
      "name": "Arduino",
      "full_name": "racuelcer/Arduino",
      "owner": {
        "login": "racuelcer",
        "id": 14363801,
        "avatar_url": "https://avatars.githubusercontent.com/u/14363801?v=3",
        "gravatar_id": "",
        "url": "https://api.github.com/users/racuelcer",
        "html_url": "https://github.com/racuelcer",
        "followers_url": "https://api.github.com/users/racuelcer/followers",
        "following_url": "https://api.github.com/users/racuelcer/following{/other_user}",
        "gists_url": "https://api.github.com/users/racuelcer/gists{/gist_id}",
        "starred_url": "https://api.github.com/users/racuelcer/starred{/owner}{/repo}",
        "subscriptions_url": "https://api.github.com/users/racuelcer/subscriptions",
        "organizations_url": "https://api.github.com/users/racuelcer/orgs",
        "repos_url": "https://api.github.com/users/racuelcer/repos",
        "events_url": "https://api.github.com/users/racuelcer/events{/privacy}",
        "received_events_url": "https://api.github.com/users/racuelcer/received_events",
        "type": "User",
        "site_admin": false
      },
      "private": false,
      "html_url": "https://github.com/racuelcer/Arduino",
      "description": "",
      "fork": false,
      "url": "https://api.github.com/repos/racuelcer/Arduino",
      "forks_url": "https://api.github.com/repos/racuelcer/Arduino/forks",
      "keys_url": "https://api.github.com/repos/racuelcer/Arduino/keys{/key_id}",
      "collaborators_url": "https://api.github.com/repos/racuelcer/Arduino/collaborators{/collaborator}",
      "teams_url": "https://api.github.com/repos/racuelcer/Arduino/teams",
      "hooks_url": "https://api.github.com/repos/racuelcer/Arduino/hooks",
      "issue_events_url": "https://api.github.com/repos/racuelcer/Arduino/issues/events{/number}",
      "events_url": "https://api.github.com/repos/racuelcer/Arduino/events",
      "assignees_url": "https://api.github.com/repos/racuelcer/Arduino/assignees{/user}",
      "branches_url": "https://api.github.com/repos/racuelcer/Arduino/branches{/branch}",
      "tags_url": "https://api.github.com/repos/racuelcer/Arduino/tags",
      "blobs_url": "https://api.github.com/repos/racuelcer/Arduino/git/blobs{/sha}",
      "git_tags_url": "https://api.github.com/repos/racuelcer/Arduino/git/tags{/sha}",
      "git_refs_url": "https://api.github.com/repos/racuelcer/Arduino/git/refs{/sha}",
      "trees_url": "https://api.github.com/repos/racuelcer/Arduino/git/trees{/sha}",
      "statuses_url": "https://api.github.com/repos/racuelcer/Arduino/statuses/{sha}",
      "languages_url": "https://api.github.com/repos/racuelcer/Arduino/languages",
      "stargazers_url": "https://api.github.com/repos/racuelcer/Arduino/stargazers",
      "contributors_url": "https://api.github.com/repos/racuelcer/Arduino/contributors",
      "subscribers_url": "https://api.github.com/repos/racuelcer/Arduino/subscribers",
      "subscription_url": "https://api.github.com/repos/racuelcer/Arduino/subscription",
      "commits_url": "https://api.github.com/repos/racuelcer/Arduino/commits{/sha}",
      "git_commits_url": "https://api.github.com/repos/racuelcer/Arduino/git/commits{/sha}",
      "comments_url": "https://api.github.com/repos/racuelcer/Arduino/comments{/number}",
      "issue_comment_url": "https://api.github.com/repos/racuelcer/Arduino/issues/comments{/number}",
      "contents_url": "https://api.github.com/repos/racuelcer/Arduino/contents/{+path}",
      "compare_url": "https://api.github.com/repos/racuelcer/Arduino/compare/{base}...{head}",
      "merges_url": "https://api.github.com/repos/racuelcer/Arduino/merges",
      "archive_url": "https://api.github.com/repos/racuelcer/Arduino/{archive_format}{/ref}",
      "downloads_url": "https://api.github.com/repos/racuelcer/Arduino/downloads",
      "issues_url": "https://api.github.com/repos/racuelcer/Arduino/issues{/number}",
      "pulls_url": "https://api.github.com/repos/racuelcer/Arduino/pulls{/number}",
      "milestones_url": "https://api.github.com/repos/racuelcer/Arduino/milestones{/number}",
      "notifications_url": "https://api.github.com/repos/racuelcer/Arduino/notifications{?since,all,participating}",
      "labels_url": "https://api.github.com/repos/racuelcer/Arduino/labels{/name}",
      "releases_url": "https://api.github.com/repos/racuelcer/Arduino/releases{/id}",
      "created_at": "2015-10-20T20:59:07Z",
      "updated_at": "2015-11-10T22:54:02Z",
      "pushed_at": "2015-11-10T22:54:01Z",
      "git_url": "git://github.com/racuelcer/Arduino.git",
      "ssh_url": "git@github.com:racuelcer/Arduino.git",
      "clone_url": "https://github.com/racuelcer/Arduino.git",
      "svn_url": "https://github.com/racuelcer/Arduino",
      "homepage": null,
      "size": 6508,
      "stargazers_count": 0,
      "watchers_count": 0,
      "language": "C",
      "has_issues": true,
      "has_downloads": true,
      "has_wiki": true,
      "has_pages": false,
      "forks_count": 0,
      "mirror_url": null,
      "open_issues_count": 0,
      "forks": 0,
      "open_issues": 0,
      "watchers": 0,
      "default_branch": "master",
      "score": 1.0
    },
    {
      "id": 44639060,
      "name": "projeto_mirthys",
      "full_name": "zHunterz/projeto_mirthys",
      "owner": {
        "login": "zHunterz",
        "id": 15222000,
        "avatar_url": "https://avatars.githubusercontent.com/u/15222000?v=3",
        "gravatar_id": "",
        "url": "https://api.github.com/users/zHunterz",
        "html_url": "https://github.com/zHunterz",
        "followers_url": "https://api.github.com/users/zHunterz/followers",
        "following_url": "https://api.github.com/users/zHunterz/following{/other_user}",
        "gists_url": "https://api.github.com/users/zHunterz/gists{/gist_id}",
        "starred_url": "https://api.github.com/users/zHunterz/starred{/owner}{/repo}",
        "subscriptions_url": "https://api.github.com/users/zHunterz/subscriptions",
        "organizations_url": "https://api.github.com/users/zHunterz/orgs",
        "repos_url": "https://api.github.com/users/zHunterz/repos",
        "events_url": "https://api.github.com/users/zHunterz/events{/privacy}",
        "received_events_url": "https://api.github.com/users/zHunterz/received_events",
        "type": "User",
        "site_admin": false
      },
      "private": false,
      "html_url": "https://github.com/zHunterz/projeto_mirthys",
      "description": "Projeto da Materia LP1",
      "fork": false,
      "url": "https://api.github.com/repos/zHunterz/projeto_mirthys",
      "forks_url": "https://api.github.com/repos/zHunterz/projeto_mirthys/forks",
      "keys_url": "https://api.github.com/repos/zHunterz/projeto_mirthys/keys{/key_id}",
      "collaborators_url": "https://api.github.com/repos/zHunterz/projeto_mirthys/collaborators{/collaborator}",
      "teams_url": "https://api.github.com/repos/zHunterz/projeto_mirthys/teams",
      "hooks_url": "https://api.github.com/repos/zHunterz/projeto_mirthys/hooks",
      "issue_events_url": "https://api.github.com/repos/zHunterz/projeto_mirthys/issues/events{/number}",
      "events_url": "https://api.github.com/repos/zHunterz/projeto_mirthys/events",
      "assignees_url": "https://api.github.com/repos/zHunterz/projeto_mirthys/assignees{/user}",
      "branches_url": "https://api.github.com/repos/zHunterz/projeto_mirthys/branches{/branch}",
      "tags_url": "https://api.github.com/repos/zHunterz/projeto_mirthys/tags",
      "blobs_url": "https://api.github.com/repos/zHunterz/projeto_mirthys/git/blobs{/sha}",
      "git_tags_url": "https://api.github.com/repos/zHunterz/projeto_mirthys/git/tags{/sha}",
      "git_refs_url": "https://api.github.com/repos/zHunterz/projeto_mirthys/git/refs{/sha}",
      "trees_url": "https://api.github.com/repos/zHunterz/projeto_mirthys/git/trees{/sha}",
      "statuses_url": "https://api.github.com/repos/zHunterz/projeto_mirthys/statuses/{sha}",
      "languages_url": "https://api.github.com/repos/zHunterz/projeto_mirthys/languages",
      "stargazers_url": "https://api.github.com/repos/zHunterz/projeto_mirthys/stargazers",
      "contributors_url": "https://api.github.com/repos/zHunterz/projeto_mirthys/contributors",
      "subscribers_url": "https://api.github.com/repos/zHunterz/projeto_mirthys/subscribers",
      "subscription_url": "https://api.github.com/repos/zHunterz/projeto_mirthys/subscription",
      "commits_url": "https://api.github.com/repos/zHunterz/projeto_mirthys/commits{/sha}",
      "git_commits_url": "https://api.github.com/repos/zHunterz/projeto_mirthys/git/commits{/sha}",
      "comments_url": "https://api.github.com/repos/zHunterz/projeto_mirthys/comments{/number}",
      "issue_comment_url": "https://api.github.com/repos/zHunterz/projeto_mirthys/issues/comments{/number}",
      "contents_url": "https://api.github.com/repos/zHunterz/projeto_mirthys/contents/{+path}",
      "compare_url": "https://api.github.com/repos/zHunterz/projeto_mirthys/compare/{base}...{head}",
      "merges_url": "https://api.github.com/repos/zHunterz/projeto_mirthys/merges",
      "archive_url": "https://api.github.com/repos/zHunterz/projeto_mirthys/{archive_format}{/ref}",
      "downloads_url": "https://api.github.com/repos/zHunterz/projeto_mirthys/downloads",
      "issues_url": "https://api.github.com/repos/zHunterz/projeto_mirthys/issues{/number}",
      "pulls_url": "https://api.github.com/repos/zHunterz/projeto_mirthys/pulls{/number}",
      "milestones_url": "https://api.github.com/repos/zHunterz/projeto_mirthys/milestones{/number}",
      "notifications_url": "https://api.github.com/repos/zHunterz/projeto_mirthys/notifications{?since,all,participating}",
      "labels_url": "https://api.github.com/repos/zHunterz/projeto_mirthys/labels{/name}",
      "releases_url": "https://api.github.com/repos/zHunterz/projeto_mirthys/releases{/id}",
      "created_at": "2015-10-20T22:42:28Z",
      "updated_at": "2015-10-21T17:22:48Z",
      "pushed_at": "2015-11-10T23:06:11Z",
      "git_url": "git://github.com/zHunterz/projeto_mirthys.git",
      "ssh_url": "git@github.com:zHunterz/projeto_mirthys.git",
      "clone_url": "https://github.com/zHunterz/projeto_mirthys.git",
      "svn_url": "https://github.com/zHunterz/projeto_mirthys",
      "homepage": null,
      "size": 172,
      "stargazers_count": 0,
      "watchers_count": 0,
      "language": "C",
      "has_issues": true,
      "has_downloads": true,
      "has_wiki": true,
      "has_pages": false,
      "forks_count": 0,
      "mirror_url": null,
      "open_issues_count": 0,
      "forks": 0,
      "open_issues": 0,
      "watchers": 0,
      "default_branch": "master",
      "score": 1.0
    },
    {
      "id": 44640279,
      "name": "flounder",
      "full_name": "gchild320/flounder",
      "owner": {
        "login": "gchild320",
        "id": 3579393,
        "avatar_url": "https://avatars.githubusercontent.com/u/3579393?v=3",
        "gravatar_id": "",
        "url": "https://api.github.com/users/gchild320",
        "html_url": "https://github.com/gchild320",
        "followers_url": "https://api.github.com/users/gchild320/followers",
        "following_url": "https://api.github.com/users/gchild320/following{/other_user}",
        "gists_url": "https://api.github.com/users/gchild320/gists{/gist_id}",
        "starred_url": "https://api.github.com/users/gchild320/starred{/owner}{/repo}",
        "subscriptions_url": "https://api.github.com/users/gchild320/subscriptions",
        "organizations_url": "https://api.github.com/users/gchild320/orgs",
        "repos_url": "https://api.github.com/users/gchild320/repos",
        "events_url": "https://api.github.com/users/gchild320/events{/privacy}",
        "received_events_url": "https://api.github.com/users/gchild320/received_events",
        "type": "User",
        "site_admin": false
      },
      "private": false,
      "html_url": "https://github.com/gchild320/flounder",
      "description": "",
      "fork": false,
      "url": "https://api.github.com/repos/gchild320/flounder",
      "forks_url": "https://api.github.com/repos/gchild320/flounder/forks",
      "keys_url": "https://api.github.com/repos/gchild320/flounder/keys{/key_id}",
      "collaborators_url": "https://api.github.com/repos/gchild320/flounder/collaborators{/collaborator}",
      "teams_url": "https://api.github.com/repos/gchild320/flounder/teams",
      "hooks_url": "https://api.github.com/repos/gchild320/flounder/hooks",
      "issue_events_url": "https://api.github.com/repos/gchild320/flounder/issues/events{/number}",
      "events_url": "https://api.github.com/repos/gchild320/flounder/events",
      "assignees_url": "https://api.github.com/repos/gchild320/flounder/assignees{/user}",
      "branches_url": "https://api.github.com/repos/gchild320/flounder/branches{/branch}",
      "tags_url": "https://api.github.com/repos/gchild320/flounder/tags",
      "blobs_url": "https://api.github.com/repos/gchild320/flounder/git/blobs{/sha}",
      "git_tags_url": "https://api.github.com/repos/gchild320/flounder/git/tags{/sha}",
      "git_refs_url": "https://api.github.com/repos/gchild320/flounder/git/refs{/sha}",
      "trees_url": "https://api.github.com/repos/gchild320/flounder/git/trees{/sha}",
      "statuses_url": "https://api.github.com/repos/gchild320/flounder/statuses/{sha}",
      "languages_url": "https://api.github.com/repos/gchild320/flounder/languages",
      "stargazers_url": "https://api.github.com/repos/gchild320/flounder/stargazers",
      "contributors_url": "https://api.github.com/repos/gchild320/flounder/contributors",
      "subscribers_url": "https://api.github.com/repos/gchild320/flounder/subscribers",
      "subscription_url": "https://api.github.com/repos/gchild320/flounder/subscription",
      "commits_url": "https://api.github.com/repos/gchild320/flounder/commits{/sha}",
      "git_commits_url": "https://api.github.com/repos/gchild320/flounder/git/commits{/sha}",
      "comments_url": "https://api.github.com/repos/gchild320/flounder/comments{/number}",
      "issue_comment_url": "https://api.github.com/repos/gchild320/flounder/issues/comments{/number}",
      "contents_url": "https://api.github.com/repos/gchild320/flounder/contents/{+path}",
      "compare_url": "https://api.github.com/repos/gchild320/flounder/compare/{base}...{head}",
      "merges_url": "https://api.github.com/repos/gchild320/flounder/merges",
      "archive_url": "https://api.github.com/repos/gchild320/flounder/{archive_format}{/ref}",
      "downloads_url": "https://api.github.com/repos/gchild320/flounder/downloads",
      "issues_url": "https://api.github.com/repos/gchild320/flounder/issues{/number}",
      "pulls_url": "https://api.github.com/repos/gchild320/flounder/pulls{/number}",
      "milestones_url": "https://api.github.com/repos/gchild320/flounder/milestones{/number}",
      "notifications_url": "https://api.github.com/repos/gchild320/flounder/notifications{?since,all,participating}",
      "labels_url": "https://api.github.com/repos/gchild320/flounder/labels{/name}",
      "releases_url": "https://api.github.com/repos/gchild320/flounder/releases{/id}",
      "created_at": "2015-10-20T23:14:43Z",
      "updated_at": "2015-10-24T17:59:37Z",
      "pushed_at": "2015-11-11T01:37:28Z",
      "git_url": "git://github.com/gchild320/flounder.git",
      "ssh_url": "git@github.com:gchild320/flounder.git",
      "clone_url": "https://github.com/gchild320/flounder.git",
      "svn_url": "https://github.com/gchild320/flounder",
      "homepage": null,
      "size": 815872,
      "stargazers_count": 0,
      "watchers_count": 0,
      "language": "C",
      "has_issues": true,
      "has_downloads": true,
      "has_wiki": true,
      "has_pages": false,
      "forks_count": 0,
      "mirror_url": null,
      "open_issues_count": 0,
      "forks": 0,
      "open_issues": 0,
      "watchers": 0,
      "default_branch": "m",
      "score": 1.0
    },
    {
      "id": 44586786,
      "name": "note-book",
      "full_name": "cjdao/note-book",
      "owner": {
        "login": "cjdao",
        "id": 8414764,
        "avatar_url": "https://avatars.githubusercontent.com/u/8414764?v=3",
        "gravatar_id": "",
        "url": "https://api.github.com/users/cjdao",
        "html_url": "https://github.com/cjdao",
        "followers_url": "https://api.github.com/users/cjdao/followers",
        "following_url": "https://api.github.com/users/cjdao/following{/other_user}",
        "gists_url": "https://api.github.com/users/cjdao/gists{/gist_id}",
        "starred_url": "https://api.github.com/users/cjdao/starred{/owner}{/repo}",
        "subscriptions_url": "https://api.github.com/users/cjdao/subscriptions",
        "organizations_url": "https://api.github.com/users/cjdao/orgs",
        "repos_url": "https://api.github.com/users/cjdao/repos",
        "events_url": "https://api.github.com/users/cjdao/events{/privacy}",
        "received_events_url": "https://api.github.com/users/cjdao/received_events",
        "type": "User",
        "site_admin": false
      },
      "private": false,
      "html_url": "https://github.com/cjdao/note-book",
      "description": "",
      "fork": false,
      "url": "https://api.github.com/repos/cjdao/note-book",
      "forks_url": "https://api.github.com/repos/cjdao/note-book/forks",
      "keys_url": "https://api.github.com/repos/cjdao/note-book/keys{/key_id}",
      "collaborators_url": "https://api.github.com/repos/cjdao/note-book/collaborators{/collaborator}",
      "teams_url": "https://api.github.com/repos/cjdao/note-book/teams",
      "hooks_url": "https://api.github.com/repos/cjdao/note-book/hooks",
      "issue_events_url": "https://api.github.com/repos/cjdao/note-book/issues/events{/number}",
      "events_url": "https://api.github.com/repos/cjdao/note-book/events",
      "assignees_url": "https://api.github.com/repos/cjdao/note-book/assignees{/user}",
      "branches_url": "https://api.github.com/repos/cjdao/note-book/branches{/branch}",
      "tags_url": "https://api.github.com/repos/cjdao/note-book/tags",
      "blobs_url": "https://api.github.com/repos/cjdao/note-book/git/blobs{/sha}",
      "git_tags_url": "https://api.github.com/repos/cjdao/note-book/git/tags{/sha}",
      "git_refs_url": "https://api.github.com/repos/cjdao/note-book/git/refs{/sha}",
      "trees_url": "https://api.github.com/repos/cjdao/note-book/git/trees{/sha}",
      "statuses_url": "https://api.github.com/repos/cjdao/note-book/statuses/{sha}",
      "languages_url": "https://api.github.com/repos/cjdao/note-book/languages",
      "stargazers_url": "https://api.github.com/repos/cjdao/note-book/stargazers",
      "contributors_url": "https://api.github.com/repos/cjdao/note-book/contributors",
      "subscribers_url": "https://api.github.com/repos/cjdao/note-book/subscribers",
      "subscription_url": "https://api.github.com/repos/cjdao/note-book/subscription",
      "commits_url": "https://api.github.com/repos/cjdao/note-book/commits{/sha}",
      "git_commits_url": "https://api.github.com/repos/cjdao/note-book/git/commits{/sha}",
      "comments_url": "https://api.github.com/repos/cjdao/note-book/comments{/number}",
      "issue_comment_url": "https://api.github.com/repos/cjdao/note-book/issues/comments{/number}",
      "contents_url": "https://api.github.com/repos/cjdao/note-book/contents/{+path}",
      "compare_url": "https://api.github.com/repos/cjdao/note-book/compare/{base}...{head}",
      "merges_url": "https://api.github.com/repos/cjdao/note-book/merges",
      "archive_url": "https://api.github.com/repos/cjdao/note-book/{archive_format}{/ref}",
      "downloads_url": "https://api.github.com/repos/cjdao/note-book/downloads",
      "issues_url": "https://api.github.com/repos/cjdao/note-book/issues{/number}",
      "pulls_url": "https://api.github.com/repos/cjdao/note-book/pulls{/number}",
      "milestones_url": "https://api.github.com/repos/cjdao/note-book/milestones{/number}",
      "notifications_url": "https://api.github.com/repos/cjdao/note-book/notifications{?since,all,participating}",
      "labels_url": "https://api.github.com/repos/cjdao/note-book/labels{/name}",
      "releases_url": "https://api.github.com/repos/cjdao/note-book/releases{/id}",
      "created_at": "2015-10-20T06:31:49Z",
      "updated_at": "2015-11-12T08:29:25Z",
      "pushed_at": "2015-11-12T08:32:53Z",
      "git_url": "git://github.com/cjdao/note-book.git",
      "ssh_url": "git@github.com:cjdao/note-book.git",
      "clone_url": "https://github.com/cjdao/note-book.git",
      "svn_url": "https://github.com/cjdao/note-book",
      "homepage": null,
      "size": 1020,
      "stargazers_count": 0,
      "watchers_count": 0,
      "language": "C",
      "has_issues": true,
      "has_downloads": true,
      "has_wiki": true,
      "has_pages": false,
      "forks_count": 0,
      "mirror_url": null,
      "open_issues_count": 0,
      "forks": 0,
      "open_issues": 0,
      "watchers": 0,
      "default_branch": "master",
      "score": 1.0
    },
    {
      "id": 44610050,
      "name": "audio-controler-driving-I2C-rotary-encoders-digital-potentiometers-24xLEDs-bargraphs-LCD",
      "full_name": "F6HQZ/audio-controler-driving-I2C-rotary-encoders-digital-potentiometers-24xLEDs-bargraphs-LCD",
      "owner": {
        "login": "F6HQZ",
        "id": 14070175,
        "avatar_url": "https://avatars.githubusercontent.com/u/14070175?v=3",
        "gravatar_id": "",
        "url": "https://api.github.com/users/F6HQZ",
        "html_url": "https://github.com/F6HQZ",
        "followers_url": "https://api.github.com/users/F6HQZ/followers",
        "following_url": "https://api.github.com/users/F6HQZ/following{/other_user}",
        "gists_url": "https://api.github.com/users/F6HQZ/gists{/gist_id}",
        "starred_url": "https://api.github.com/users/F6HQZ/starred{/owner}{/repo}",
        "subscriptions_url": "https://api.github.com/users/F6HQZ/subscriptions",
        "organizations_url": "https://api.github.com/users/F6HQZ/orgs",
        "repos_url": "https://api.github.com/users/F6HQZ/repos",
        "events_url": "https://api.github.com/users/F6HQZ/events{/privacy}",
        "received_events_url": "https://api.github.com/users/F6HQZ/received_events",
        "type": "User",
        "site_admin": false
      },
      "private": false,
      "html_url": "https://github.com/F6HQZ/audio-controler-driving-I2C-rotary-encoders-digital-potentiometers-24xLEDs-bargraphs-LCD",
      "description": "Raspberry Midi audio controler driving rotary encoders,  I2C digital potentiometers, 24xLEDs bargraphs, LCD, for Raspberry PI, writed in C language",
      "fork": false,
      "url": "https://api.github.com/repos/F6HQZ/audio-controler-driving-I2C-rotary-encoders-digital-potentiometers-24xLEDs-bargraphs-LCD",
      "forks_url": "https://api.github.com/repos/F6HQZ/audio-controler-driving-I2C-rotary-encoders-digital-potentiometers-24xLEDs-bargraphs-LCD/forks",
      "keys_url": "https://api.github.com/repos/F6HQZ/audio-controler-driving-I2C-rotary-encoders-digital-potentiometers-24xLEDs-bargraphs-LCD/keys{/key_id}",
      "collaborators_url": "https://api.github.com/repos/F6HQZ/audio-controler-driving-I2C-rotary-encoders-digital-potentiometers-24xLEDs-bargraphs-LCD/collaborators{/collaborator}",
      "teams_url": "https://api.github.com/repos/F6HQZ/audio-controler-driving-I2C-rotary-encoders-digital-potentiometers-24xLEDs-bargraphs-LCD/teams",
      "hooks_url": "https://api.github.com/repos/F6HQZ/audio-controler-driving-I2C-rotary-encoders-digital-potentiometers-24xLEDs-bargraphs-LCD/hooks",
      "issue_events_url": "https://api.github.com/repos/F6HQZ/audio-controler-driving-I2C-rotary-encoders-digital-potentiometers-24xLEDs-bargraphs-LCD/issues/events{/number}",
      "events_url": "https://api.github.com/repos/F6HQZ/audio-controler-driving-I2C-rotary-encoders-digital-potentiometers-24xLEDs-bargraphs-LCD/events",
      "assignees_url": "https://api.github.com/repos/F6HQZ/audio-controler-driving-I2C-rotary-encoders-digital-potentiometers-24xLEDs-bargraphs-LCD/assignees{/user}",
      "branches_url": "https://api.github.com/repos/F6HQZ/audio-controler-driving-I2C-rotary-encoders-digital-potentiometers-24xLEDs-bargraphs-LCD/branches{/branch}",
      "tags_url": "https://api.github.com/repos/F6HQZ/audio-controler-driving-I2C-rotary-encoders-digital-potentiometers-24xLEDs-bargraphs-LCD/tags",
      "blobs_url": "https://api.github.com/repos/F6HQZ/audio-controler-driving-I2C-rotary-encoders-digital-potentiometers-24xLEDs-bargraphs-LCD/git/blobs{/sha}",
      "git_tags_url": "https://api.github.com/repos/F6HQZ/audio-controler-driving-I2C-rotary-encoders-digital-potentiometers-24xLEDs-bargraphs-LCD/git/tags{/sha}",
      "git_refs_url": "https://api.github.com/repos/F6HQZ/audio-controler-driving-I2C-rotary-encoders-digital-potentiometers-24xLEDs-bargraphs-LCD/git/refs{/sha}",
      "trees_url": "https://api.github.com/repos/F6HQZ/audio-controler-driving-I2C-rotary-encoders-digital-potentiometers-24xLEDs-bargraphs-LCD/git/trees{/sha}",
      "statuses_url": "https://api.github.com/repos/F6HQZ/audio-controler-driving-I2C-rotary-encoders-digital-potentiometers-24xLEDs-bargraphs-LCD/statuses/{sha}",
      "languages_url": "https://api.github.com/repos/F6HQZ/audio-controler-driving-I2C-rotary-encoders-digital-potentiometers-24xLEDs-bargraphs-LCD/languages",
      "stargazers_url": "https://api.github.com/repos/F6HQZ/audio-controler-driving-I2C-rotary-encoders-digital-potentiometers-24xLEDs-bargraphs-LCD/stargazers",
      "contributors_url": "https://api.github.com/repos/F6HQZ/audio-controler-driving-I2C-rotary-encoders-digital-potentiometers-24xLEDs-bargraphs-LCD/contributors",
      "subscribers_url": "https://api.github.com/repos/F6HQZ/audio-controler-driving-I2C-rotary-encoders-digital-potentiometers-24xLEDs-bargraphs-LCD/subscribers",
      "subscription_url": "https://api.github.com/repos/F6HQZ/audio-controler-driving-I2C-rotary-encoders-digital-potentiometers-24xLEDs-bargraphs-LCD/subscription",
      "commits_url": "https://api.github.com/repos/F6HQZ/audio-controler-driving-I2C-rotary-encoders-digital-potentiometers-24xLEDs-bargraphs-LCD/commits{/sha}",
      "git_commits_url": "https://api.github.com/repos/F6HQZ/audio-controler-driving-I2C-rotary-encoders-digital-potentiometers-24xLEDs-bargraphs-LCD/git/commits{/sha}",
      "comments_url": "https://api.github.com/repos/F6HQZ/audio-controler-driving-I2C-rotary-encoders-digital-potentiometers-24xLEDs-bargraphs-LCD/comments{/number}",
      "issue_comment_url": "https://api.github.com/repos/F6HQZ/audio-controler-driving-I2C-rotary-encoders-digital-potentiometers-24xLEDs-bargraphs-LCD/issues/comments{/number}",
      "contents_url": "https://api.github.com/repos/F6HQZ/audio-controler-driving-I2C-rotary-encoders-digital-potentiometers-24xLEDs-bargraphs-LCD/contents/{+path}",
      "compare_url": "https://api.github.com/repos/F6HQZ/audio-controler-driving-I2C-rotary-encoders-digital-potentiometers-24xLEDs-bargraphs-LCD/compare/{base}...{head}",
      "merges_url": "https://api.github.com/repos/F6HQZ/audio-controler-driving-I2C-rotary-encoders-digital-potentiometers-24xLEDs-bargraphs-LCD/merges",
      "archive_url": "https://api.github.com/repos/F6HQZ/audio-controler-driving-I2C-rotary-encoders-digital-potentiometers-24xLEDs-bargraphs-LCD/{archive_format}{/ref}",
      "downloads_url": "https://api.github.com/repos/F6HQZ/audio-controler-driving-I2C-rotary-encoders-digital-potentiometers-24xLEDs-bargraphs-LCD/downloads",
      "issues_url": "https://api.github.com/repos/F6HQZ/audio-controler-driving-I2C-rotary-encoders-digital-potentiometers-24xLEDs-bargraphs-LCD/issues{/number}",
      "pulls_url": "https://api.github.com/repos/F6HQZ/audio-controler-driving-I2C-rotary-encoders-digital-potentiometers-24xLEDs-bargraphs-LCD/pulls{/number}",
      "milestones_url": "https://api.github.com/repos/F6HQZ/audio-controler-driving-I2C-rotary-encoders-digital-potentiometers-24xLEDs-bargraphs-LCD/milestones{/number}",
      "notifications_url": "https://api.github.com/repos/F6HQZ/audio-controler-driving-I2C-rotary-encoders-digital-potentiometers-24xLEDs-bargraphs-LCD/notifications{?since,all,participating}",
      "labels_url": "https://api.github.com/repos/F6HQZ/audio-controler-driving-I2C-rotary-encoders-digital-potentiometers-24xLEDs-bargraphs-LCD/labels{/name}",
      "releases_url": "https://api.github.com/repos/F6HQZ/audio-controler-driving-I2C-rotary-encoders-digital-potentiometers-24xLEDs-bargraphs-LCD/releases{/id}",
      "created_at": "2015-10-20T13:59:35Z",
      "updated_at": "2015-11-13T12:33:02Z",
      "pushed_at": "2015-11-13T12:58:45Z",
      "git_url": "git://github.com/F6HQZ/audio-controler-driving-I2C-rotary-encoders-digital-potentiometers-24xLEDs-bargraphs-LCD.git",
      "ssh_url": "git@github.com:F6HQZ/audio-controler-driving-I2C-rotary-encoders-digital-potentiometers-24xLEDs-bargraphs-LCD.git",
      "clone_url": "https://github.com/F6HQZ/audio-controler-driving-I2C-rotary-encoders-digital-potentiometers-24xLEDs-bargraphs-LCD.git",
      "svn_url": "https://github.com/F6HQZ/audio-controler-driving-I2C-rotary-encoders-digital-potentiometers-24xLEDs-bargraphs-LCD",
      "homepage": "",
      "size": 316,
      "stargazers_count": 0,
      "watchers_count": 0,
      "language": "C",
      "has_issues": true,
      "has_downloads": true,
      "has_wiki": true,
      "has_pages": false,
      "forks_count": 0,
      "mirror_url": null,
      "open_issues_count": 0,
      "forks": 0,
      "open_issues": 0,
      "watchers": 0,
      "default_branch": "master",
      "score": 1.0
    },
    {
      "id": 44599076,
      "name": "os_proj1",
      "full_name": "mobile-os-dku-cis-mse/os_proj1",
      "owner": {
        "login": "mobile-os-dku-cis-mse",
        "id": 9083471,
        "avatar_url": "https://avatars.githubusercontent.com/u/9083471?v=3",
        "gravatar_id": "",
        "url": "https://api.github.com/users/mobile-os-dku-cis-mse",
        "html_url": "https://github.com/mobile-os-dku-cis-mse",
        "followers_url": "https://api.github.com/users/mobile-os-dku-cis-mse/followers",
        "following_url": "https://api.github.com/users/mobile-os-dku-cis-mse/following{/other_user}",
        "gists_url": "https://api.github.com/users/mobile-os-dku-cis-mse/gists{/gist_id}",
        "starred_url": "https://api.github.com/users/mobile-os-dku-cis-mse/starred{/owner}{/repo}",
        "subscriptions_url": "https://api.github.com/users/mobile-os-dku-cis-mse/subscriptions",
        "organizations_url": "https://api.github.com/users/mobile-os-dku-cis-mse/orgs",
        "repos_url": "https://api.github.com/users/mobile-os-dku-cis-mse/repos",
        "events_url": "https://api.github.com/users/mobile-os-dku-cis-mse/events{/privacy}",
        "received_events_url": "https://api.github.com/users/mobile-os-dku-cis-mse/received_events",
        "type": "Organization",
        "site_admin": false
      },
      "private": false,
      "html_url": "https://github.com/mobile-os-dku-cis-mse/os_proj1",
      "description": "OS_2015_proj1",
      "fork": false,
      "url": "https://api.github.com/repos/mobile-os-dku-cis-mse/os_proj1",
      "forks_url": "https://api.github.com/repos/mobile-os-dku-cis-mse/os_proj1/forks",
      "keys_url": "https://api.github.com/repos/mobile-os-dku-cis-mse/os_proj1/keys{/key_id}",
      "collaborators_url": "https://api.github.com/repos/mobile-os-dku-cis-mse/os_proj1/collaborators{/collaborator}",
      "teams_url": "https://api.github.com/repos/mobile-os-dku-cis-mse/os_proj1/teams",
      "hooks_url": "https://api.github.com/repos/mobile-os-dku-cis-mse/os_proj1/hooks",
      "issue_events_url": "https://api.github.com/repos/mobile-os-dku-cis-mse/os_proj1/issues/events{/number}",
      "events_url": "https://api.github.com/repos/mobile-os-dku-cis-mse/os_proj1/events",
      "assignees_url": "https://api.github.com/repos/mobile-os-dku-cis-mse/os_proj1/assignees{/user}",
      "branches_url": "https://api.github.com/repos/mobile-os-dku-cis-mse/os_proj1/branches{/branch}",
      "tags_url": "https://api.github.com/repos/mobile-os-dku-cis-mse/os_proj1/tags",
      "blobs_url": "https://api.github.com/repos/mobile-os-dku-cis-mse/os_proj1/git/blobs{/sha}",
      "git_tags_url": "https://api.github.com/repos/mobile-os-dku-cis-mse/os_proj1/git/tags{/sha}",
      "git_refs_url": "https://api.github.com/repos/mobile-os-dku-cis-mse/os_proj1/git/refs{/sha}",
      "trees_url": "https://api.github.com/repos/mobile-os-dku-cis-mse/os_proj1/git/trees{/sha}",
      "statuses_url": "https://api.github.com/repos/mobile-os-dku-cis-mse/os_proj1/statuses/{sha}",
      "languages_url": "https://api.github.com/repos/mobile-os-dku-cis-mse/os_proj1/languages",
      "stargazers_url": "https://api.github.com/repos/mobile-os-dku-cis-mse/os_proj1/stargazers",
      "contributors_url": "https://api.github.com/repos/mobile-os-dku-cis-mse/os_proj1/contributors",
      "subscribers_url": "https://api.github.com/repos/mobile-os-dku-cis-mse/os_proj1/subscribers",
      "subscription_url": "https://api.github.com/repos/mobile-os-dku-cis-mse/os_proj1/subscription",
      "commits_url": "https://api.github.com/repos/mobile-os-dku-cis-mse/os_proj1/commits{/sha}",
      "git_commits_url": "https://api.github.com/repos/mobile-os-dku-cis-mse/os_proj1/git/commits{/sha}",
      "comments_url": "https://api.github.com/repos/mobile-os-dku-cis-mse/os_proj1/comments{/number}",
      "issue_comment_url": "https://api.github.com/repos/mobile-os-dku-cis-mse/os_proj1/issues/comments{/number}",
      "contents_url": "https://api.github.com/repos/mobile-os-dku-cis-mse/os_proj1/contents/{+path}",
      "compare_url": "https://api.github.com/repos/mobile-os-dku-cis-mse/os_proj1/compare/{base}...{head}",
      "merges_url": "https://api.github.com/repos/mobile-os-dku-cis-mse/os_proj1/merges",
      "archive_url": "https://api.github.com/repos/mobile-os-dku-cis-mse/os_proj1/{archive_format}{/ref}",
      "downloads_url": "https://api.github.com/repos/mobile-os-dku-cis-mse/os_proj1/downloads",
      "issues_url": "https://api.github.com/repos/mobile-os-dku-cis-mse/os_proj1/issues{/number}",
      "pulls_url": "https://api.github.com/repos/mobile-os-dku-cis-mse/os_proj1/pulls{/number}",
      "milestones_url": "https://api.github.com/repos/mobile-os-dku-cis-mse/os_proj1/milestones{/number}",
      "notifications_url": "https://api.github.com/repos/mobile-os-dku-cis-mse/os_proj1/notifications{?since,all,participating}",
      "labels_url": "https://api.github.com/repos/mobile-os-dku-cis-mse/os_proj1/labels{/name}",
      "releases_url": "https://api.github.com/repos/mobile-os-dku-cis-mse/os_proj1/releases{/id}",
      "created_at": "2015-10-20T10:30:00Z",
      "updated_at": "2015-10-21T12:36:39Z",
      "pushed_at": "2015-11-14T13:20:30Z",
      "git_url": "git://github.com/mobile-os-dku-cis-mse/os_proj1.git",
      "ssh_url": "git@github.com:mobile-os-dku-cis-mse/os_proj1.git",
      "clone_url": "https://github.com/mobile-os-dku-cis-mse/os_proj1.git",
      "svn_url": "https://github.com/mobile-os-dku-cis-mse/os_proj1",
      "homepage": null,
      "size": 280,
      "stargazers_count": 0,
      "watchers_count": 0,
      "language": "C",
      "has_issues": true,
      "has_downloads": true,
      "has_wiki": true,
      "has_pages": false,
      "forks_count": 0,
      "mirror_url": null,
      "open_issues_count": 1,
      "forks": 0,
      "open_issues": 1,
      "watchers": 0,
      "default_branch": "master",
      "score": 1.0
    },
    {
      "id": 44592206,
      "name": "Cpp_03_RTOS",
      "full_name": "STM32F3Examples/Cpp_03_RTOS",
      "owner": {
        "login": "STM32F3Examples",
        "id": 11681132,
        "avatar_url": "https://avatars.githubusercontent.com/u/11681132?v=3",
        "gravatar_id": "",
        "url": "https://api.github.com/users/STM32F3Examples",
        "html_url": "https://github.com/STM32F3Examples",
        "followers_url": "https://api.github.com/users/STM32F3Examples/followers",
        "following_url": "https://api.github.com/users/STM32F3Examples/following{/other_user}",
        "gists_url": "https://api.github.com/users/STM32F3Examples/gists{/gist_id}",
        "starred_url": "https://api.github.com/users/STM32F3Examples/starred{/owner}{/repo}",
        "subscriptions_url": "https://api.github.com/users/STM32F3Examples/subscriptions",
        "organizations_url": "https://api.github.com/users/STM32F3Examples/orgs",
        "repos_url": "https://api.github.com/users/STM32F3Examples/repos",
        "events_url": "https://api.github.com/users/STM32F3Examples/events{/privacy}",
        "received_events_url": "https://api.github.com/users/STM32F3Examples/received_events",
        "type": "Organization",
        "site_admin": false
      },
      "private": false,
      "html_url": "https://github.com/STM32F3Examples/Cpp_03_RTOS",
      "description": "",
      "fork": false,
      "url": "https://api.github.com/repos/STM32F3Examples/Cpp_03_RTOS",
      "forks_url": "https://api.github.com/repos/STM32F3Examples/Cpp_03_RTOS/forks",
      "keys_url": "https://api.github.com/repos/STM32F3Examples/Cpp_03_RTOS/keys{/key_id}",
      "collaborators_url": "https://api.github.com/repos/STM32F3Examples/Cpp_03_RTOS/collaborators{/collaborator}",
      "teams_url": "https://api.github.com/repos/STM32F3Examples/Cpp_03_RTOS/teams",
      "hooks_url": "https://api.github.com/repos/STM32F3Examples/Cpp_03_RTOS/hooks",
      "issue_events_url": "https://api.github.com/repos/STM32F3Examples/Cpp_03_RTOS/issues/events{/number}",
      "events_url": "https://api.github.com/repos/STM32F3Examples/Cpp_03_RTOS/events",
      "assignees_url": "https://api.github.com/repos/STM32F3Examples/Cpp_03_RTOS/assignees{/user}",
      "branches_url": "https://api.github.com/repos/STM32F3Examples/Cpp_03_RTOS/branches{/branch}",
      "tags_url": "https://api.github.com/repos/STM32F3Examples/Cpp_03_RTOS/tags",
      "blobs_url": "https://api.github.com/repos/STM32F3Examples/Cpp_03_RTOS/git/blobs{/sha}",
      "git_tags_url": "https://api.github.com/repos/STM32F3Examples/Cpp_03_RTOS/git/tags{/sha}",
      "git_refs_url": "https://api.github.com/repos/STM32F3Examples/Cpp_03_RTOS/git/refs{/sha}",
      "trees_url": "https://api.github.com/repos/STM32F3Examples/Cpp_03_RTOS/git/trees{/sha}",
      "statuses_url": "https://api.github.com/repos/STM32F3Examples/Cpp_03_RTOS/statuses/{sha}",
      "languages_url": "https://api.github.com/repos/STM32F3Examples/Cpp_03_RTOS/languages",
      "stargazers_url": "https://api.github.com/repos/STM32F3Examples/Cpp_03_RTOS/stargazers",
      "contributors_url": "https://api.github.com/repos/STM32F3Examples/Cpp_03_RTOS/contributors",
      "subscribers_url": "https://api.github.com/repos/STM32F3Examples/Cpp_03_RTOS/subscribers",
      "subscription_url": "https://api.github.com/repos/STM32F3Examples/Cpp_03_RTOS/subscription",
      "commits_url": "https://api.github.com/repos/STM32F3Examples/Cpp_03_RTOS/commits{/sha}",
      "git_commits_url": "https://api.github.com/repos/STM32F3Examples/Cpp_03_RTOS/git/commits{/sha}",
      "comments_url": "https://api.github.com/repos/STM32F3Examples/Cpp_03_RTOS/comments{/number}",
      "issue_comment_url": "https://api.github.com/repos/STM32F3Examples/Cpp_03_RTOS/issues/comments{/number}",
      "contents_url": "https://api.github.com/repos/STM32F3Examples/Cpp_03_RTOS/contents/{+path}",
      "compare_url": "https://api.github.com/repos/STM32F3Examples/Cpp_03_RTOS/compare/{base}...{head}",
      "merges_url": "https://api.github.com/repos/STM32F3Examples/Cpp_03_RTOS/merges",
      "archive_url": "https://api.github.com/repos/STM32F3Examples/Cpp_03_RTOS/{archive_format}{/ref}",
      "downloads_url": "https://api.github.com/repos/STM32F3Examples/Cpp_03_RTOS/downloads",
      "issues_url": "https://api.github.com/repos/STM32F3Examples/Cpp_03_RTOS/issues{/number}",
      "pulls_url": "https://api.github.com/repos/STM32F3Examples/Cpp_03_RTOS/pulls{/number}",
      "milestones_url": "https://api.github.com/repos/STM32F3Examples/Cpp_03_RTOS/milestones{/number}",
      "notifications_url": "https://api.github.com/repos/STM32F3Examples/Cpp_03_RTOS/notifications{?since,all,participating}",
      "labels_url": "https://api.github.com/repos/STM32F3Examples/Cpp_03_RTOS/labels{/name}",
      "releases_url": "https://api.github.com/repos/STM32F3Examples/Cpp_03_RTOS/releases{/id}",
      "created_at": "2015-10-20T08:22:24Z",
      "updated_at": "2015-10-20T08:23:20Z",
      "pushed_at": "2015-11-13T10:30:48Z",
      "git_url": "git://github.com/STM32F3Examples/Cpp_03_RTOS.git",
      "ssh_url": "git@github.com:STM32F3Examples/Cpp_03_RTOS.git",
      "clone_url": "https://github.com/STM32F3Examples/Cpp_03_RTOS.git",
      "svn_url": "https://github.com/STM32F3Examples/Cpp_03_RTOS",
      "homepage": null,
      "size": 3272,
      "stargazers_count": 0,
      "watchers_count": 0,
      "language": "C",
      "has_issues": true,
      "has_downloads": true,
      "has_wiki": true,
      "has_pages": false,
      "forks_count": 0,
      "mirror_url": null,
      "open_issues_count": 0,
      "forks": 0,
      "open_issues": 0,
      "watchers": 0,
      "default_branch": "master",
      "score": 1.0
    },
    {
      "id": 44609144,
      "name": "FUP1B",
      "full_name": "alejandronava/FUP1B",
      "owner": {
        "login": "alejandronava",
        "id": 15214241,
        "avatar_url": "https://avatars.githubusercontent.com/u/15214241?v=3",
        "gravatar_id": "",
        "url": "https://api.github.com/users/alejandronava",
        "html_url": "https://github.com/alejandronava",
        "followers_url": "https://api.github.com/users/alejandronava/followers",
        "following_url": "https://api.github.com/users/alejandronava/following{/other_user}",
        "gists_url": "https://api.github.com/users/alejandronava/gists{/gist_id}",
        "starred_url": "https://api.github.com/users/alejandronava/starred{/owner}{/repo}",
        "subscriptions_url": "https://api.github.com/users/alejandronava/subscriptions",
        "organizations_url": "https://api.github.com/users/alejandronava/orgs",
        "repos_url": "https://api.github.com/users/alejandronava/repos",
        "events_url": "https://api.github.com/users/alejandronava/events{/privacy}",
        "received_events_url": "https://api.github.com/users/alejandronava/received_events",
        "type": "User",
        "site_admin": false
      },
      "private": false,
      "html_url": "https://github.com/alejandronava/FUP1B",
      "description": "",
      "fork": false,
      "url": "https://api.github.com/repos/alejandronava/FUP1B",
      "forks_url": "https://api.github.com/repos/alejandronava/FUP1B/forks",
      "keys_url": "https://api.github.com/repos/alejandronava/FUP1B/keys{/key_id}",
      "collaborators_url": "https://api.github.com/repos/alejandronava/FUP1B/collaborators{/collaborator}",
      "teams_url": "https://api.github.com/repos/alejandronava/FUP1B/teams",
      "hooks_url": "https://api.github.com/repos/alejandronava/FUP1B/hooks",
      "issue_events_url": "https://api.github.com/repos/alejandronava/FUP1B/issues/events{/number}",
      "events_url": "https://api.github.com/repos/alejandronava/FUP1B/events",
      "assignees_url": "https://api.github.com/repos/alejandronava/FUP1B/assignees{/user}",
      "branches_url": "https://api.github.com/repos/alejandronava/FUP1B/branches{/branch}",
      "tags_url": "https://api.github.com/repos/alejandronava/FUP1B/tags",
      "blobs_url": "https://api.github.com/repos/alejandronava/FUP1B/git/blobs{/sha}",
      "git_tags_url": "https://api.github.com/repos/alejandronava/FUP1B/git/tags{/sha}",
      "git_refs_url": "https://api.github.com/repos/alejandronava/FUP1B/git/refs{/sha}",
      "trees_url": "https://api.github.com/repos/alejandronava/FUP1B/git/trees{/sha}",
      "statuses_url": "https://api.github.com/repos/alejandronava/FUP1B/statuses/{sha}",
      "languages_url": "https://api.github.com/repos/alejandronava/FUP1B/languages",
      "stargazers_url": "https://api.github.com/repos/alejandronava/FUP1B/stargazers",
      "contributors_url": "https://api.github.com/repos/alejandronava/FUP1B/contributors",
      "subscribers_url": "https://api.github.com/repos/alejandronava/FUP1B/subscribers",
      "subscription_url": "https://api.github.com/repos/alejandronava/FUP1B/subscription",
      "commits_url": "https://api.github.com/repos/alejandronava/FUP1B/commits{/sha}",
      "git_commits_url": "https://api.github.com/repos/alejandronava/FUP1B/git/commits{/sha}",
      "comments_url": "https://api.github.com/repos/alejandronava/FUP1B/comments{/number}",
      "issue_comment_url": "https://api.github.com/repos/alejandronava/FUP1B/issues/comments{/number}",
      "contents_url": "https://api.github.com/repos/alejandronava/FUP1B/contents/{+path}",
      "compare_url": "https://api.github.com/repos/alejandronava/FUP1B/compare/{base}...{head}",
      "merges_url": "https://api.github.com/repos/alejandronava/FUP1B/merges",
      "archive_url": "https://api.github.com/repos/alejandronava/FUP1B/{archive_format}{/ref}",
      "downloads_url": "https://api.github.com/repos/alejandronava/FUP1B/downloads",
      "issues_url": "https://api.github.com/repos/alejandronava/FUP1B/issues{/number}",
      "pulls_url": "https://api.github.com/repos/alejandronava/FUP1B/pulls{/number}",
      "milestones_url": "https://api.github.com/repos/alejandronava/FUP1B/milestones{/number}",
      "notifications_url": "https://api.github.com/repos/alejandronava/FUP1B/notifications{?since,all,participating}",
      "labels_url": "https://api.github.com/repos/alejandronava/FUP1B/labels{/name}",
      "releases_url": "https://api.github.com/repos/alejandronava/FUP1B/releases{/id}",
      "created_at": "2015-10-20T13:44:45Z",
      "updated_at": "2015-11-02T05:34:16Z",
      "pushed_at": "2015-11-13T05:15:41Z",
      "git_url": "git://github.com/alejandronava/FUP1B.git",
      "ssh_url": "git@github.com:alejandronava/FUP1B.git",
      "clone_url": "https://github.com/alejandronava/FUP1B.git",
      "svn_url": "https://github.com/alejandronava/FUP1B",
      "homepage": "https://www.facebook.com/alejandro.nava.39",
      "size": 288,
      "stargazers_count": 0,
      "watchers_count": 0,
      "language": "C",
      "has_issues": true,
      "has_downloads": true,
      "has_wiki": true,
      "has_pages": false,
      "forks_count": 0,
      "mirror_url": null,
      "open_issues_count": 0,
      "forks": 0,
      "open_issues": 0,
      "watchers": 0,
      "default_branch": "master",
      "score": 1.0
    },
    {
      "id": 44601203,
      "name": "eiti-porr-3des",
      "full_name": "pstiasny/eiti-porr-3des",
      "owner": {
        "login": "pstiasny",
        "id": 589320,
        "avatar_url": "https://avatars.githubusercontent.com/u/589320?v=3",
        "gravatar_id": "",
        "url": "https://api.github.com/users/pstiasny",
        "html_url": "https://github.com/pstiasny",
        "followers_url": "https://api.github.com/users/pstiasny/followers",
        "following_url": "https://api.github.com/users/pstiasny/following{/other_user}",
        "gists_url": "https://api.github.com/users/pstiasny/gists{/gist_id}",
        "starred_url": "https://api.github.com/users/pstiasny/starred{/owner}{/repo}",
        "subscriptions_url": "https://api.github.com/users/pstiasny/subscriptions",
        "organizations_url": "https://api.github.com/users/pstiasny/orgs",
        "repos_url": "https://api.github.com/users/pstiasny/repos",
        "events_url": "https://api.github.com/users/pstiasny/events{/privacy}",
        "received_events_url": "https://api.github.com/users/pstiasny/received_events",
        "type": "User",
        "site_admin": false
      },
      "private": false,
      "html_url": "https://github.com/pstiasny/eiti-porr-3des",
      "description": "Zrównoleglona implementacja 3DES na projekt PORR",
      "fork": false,
      "url": "https://api.github.com/repos/pstiasny/eiti-porr-3des",
      "forks_url": "https://api.github.com/repos/pstiasny/eiti-porr-3des/forks",
      "keys_url": "https://api.github.com/repos/pstiasny/eiti-porr-3des/keys{/key_id}",
      "collaborators_url": "https://api.github.com/repos/pstiasny/eiti-porr-3des/collaborators{/collaborator}",
      "teams_url": "https://api.github.com/repos/pstiasny/eiti-porr-3des/teams",
      "hooks_url": "https://api.github.com/repos/pstiasny/eiti-porr-3des/hooks",
      "issue_events_url": "https://api.github.com/repos/pstiasny/eiti-porr-3des/issues/events{/number}",
      "events_url": "https://api.github.com/repos/pstiasny/eiti-porr-3des/events",
      "assignees_url": "https://api.github.com/repos/pstiasny/eiti-porr-3des/assignees{/user}",
      "branches_url": "https://api.github.com/repos/pstiasny/eiti-porr-3des/branches{/branch}",
      "tags_url": "https://api.github.com/repos/pstiasny/eiti-porr-3des/tags",
      "blobs_url": "https://api.github.com/repos/pstiasny/eiti-porr-3des/git/blobs{/sha}",
      "git_tags_url": "https://api.github.com/repos/pstiasny/eiti-porr-3des/git/tags{/sha}",
      "git_refs_url": "https://api.github.com/repos/pstiasny/eiti-porr-3des/git/refs{/sha}",
      "trees_url": "https://api.github.com/repos/pstiasny/eiti-porr-3des/git/trees{/sha}",
      "statuses_url": "https://api.github.com/repos/pstiasny/eiti-porr-3des/statuses/{sha}",
      "languages_url": "https://api.github.com/repos/pstiasny/eiti-porr-3des/languages",
      "stargazers_url": "https://api.github.com/repos/pstiasny/eiti-porr-3des/stargazers",
      "contributors_url": "https://api.github.com/repos/pstiasny/eiti-porr-3des/contributors",
      "subscribers_url": "https://api.github.com/repos/pstiasny/eiti-porr-3des/subscribers",
      "subscription_url": "https://api.github.com/repos/pstiasny/eiti-porr-3des/subscription",
      "commits_url": "https://api.github.com/repos/pstiasny/eiti-porr-3des/commits{/sha}",
      "git_commits_url": "https://api.github.com/repos/pstiasny/eiti-porr-3des/git/commits{/sha}",
      "comments_url": "https://api.github.com/repos/pstiasny/eiti-porr-3des/comments{/number}",
      "issue_comment_url": "https://api.github.com/repos/pstiasny/eiti-porr-3des/issues/comments{/number}",
      "contents_url": "https://api.github.com/repos/pstiasny/eiti-porr-3des/contents/{+path}",
      "compare_url": "https://api.github.com/repos/pstiasny/eiti-porr-3des/compare/{base}...{head}",
      "merges_url": "https://api.github.com/repos/pstiasny/eiti-porr-3des/merges",
      "archive_url": "https://api.github.com/repos/pstiasny/eiti-porr-3des/{archive_format}{/ref}",
      "downloads_url": "https://api.github.com/repos/pstiasny/eiti-porr-3des/downloads",
      "issues_url": "https://api.github.com/repos/pstiasny/eiti-porr-3des/issues{/number}",
      "pulls_url": "https://api.github.com/repos/pstiasny/eiti-porr-3des/pulls{/number}",
      "milestones_url": "https://api.github.com/repos/pstiasny/eiti-porr-3des/milestones{/number}",
      "notifications_url": "https://api.github.com/repos/pstiasny/eiti-porr-3des/notifications{?since,all,participating}",
      "labels_url": "https://api.github.com/repos/pstiasny/eiti-porr-3des/labels{/name}",
      "releases_url": "https://api.github.com/repos/pstiasny/eiti-porr-3des/releases{/id}",
      "created_at": "2015-10-20T11:17:44Z",
      "updated_at": "2015-10-22T23:54:41Z",
      "pushed_at": "2015-11-13T22:48:01Z",
      "git_url": "git://github.com/pstiasny/eiti-porr-3des.git",
      "ssh_url": "git@github.com:pstiasny/eiti-porr-3des.git",
      "clone_url": "https://github.com/pstiasny/eiti-porr-3des.git",
      "svn_url": "https://github.com/pstiasny/eiti-porr-3des",
      "homepage": "",
      "size": 176,
      "stargazers_count": 0,
      "watchers_count": 0,
      "language": "C",
      "has_issues": true,
      "has_downloads": true,
      "has_wiki": true,
      "has_pages": false,
      "forks_count": 0,
      "mirror_url": null,
      "open_issues_count": 0,
      "forks": 0,
      "open_issues": 0,
      "watchers": 0,
      "default_branch": "master",
      "score": 1.0
    },
    {
      "id": 44579267,
      "name": "EECS343",
      "full_name": "becky2014/EECS343",
      "owner": {
        "login": "becky2014",
        "id": 8609627,
        "avatar_url": "https://avatars.githubusercontent.com/u/8609627?v=3",
        "gravatar_id": "",
        "url": "https://api.github.com/users/becky2014",
        "html_url": "https://github.com/becky2014",
        "followers_url": "https://api.github.com/users/becky2014/followers",
        "following_url": "https://api.github.com/users/becky2014/following{/other_user}",
        "gists_url": "https://api.github.com/users/becky2014/gists{/gist_id}",
        "starred_url": "https://api.github.com/users/becky2014/starred{/owner}{/repo}",
        "subscriptions_url": "https://api.github.com/users/becky2014/subscriptions",
        "organizations_url": "https://api.github.com/users/becky2014/orgs",
        "repos_url": "https://api.github.com/users/becky2014/repos",
        "events_url": "https://api.github.com/users/becky2014/events{/privacy}",
        "received_events_url": "https://api.github.com/users/becky2014/received_events",
        "type": "User",
        "site_admin": false
      },
      "private": false,
      "html_url": "https://github.com/becky2014/EECS343",
      "description": null,
      "fork": false,
      "url": "https://api.github.com/repos/becky2014/EECS343",
      "forks_url": "https://api.github.com/repos/becky2014/EECS343/forks",
      "keys_url": "https://api.github.com/repos/becky2014/EECS343/keys{/key_id}",
      "collaborators_url": "https://api.github.com/repos/becky2014/EECS343/collaborators{/collaborator}",
      "teams_url": "https://api.github.com/repos/becky2014/EECS343/teams",
      "hooks_url": "https://api.github.com/repos/becky2014/EECS343/hooks",
      "issue_events_url": "https://api.github.com/repos/becky2014/EECS343/issues/events{/number}",
      "events_url": "https://api.github.com/repos/becky2014/EECS343/events",
      "assignees_url": "https://api.github.com/repos/becky2014/EECS343/assignees{/user}",
      "branches_url": "https://api.github.com/repos/becky2014/EECS343/branches{/branch}",
      "tags_url": "https://api.github.com/repos/becky2014/EECS343/tags",
      "blobs_url": "https://api.github.com/repos/becky2014/EECS343/git/blobs{/sha}",
      "git_tags_url": "https://api.github.com/repos/becky2014/EECS343/git/tags{/sha}",
      "git_refs_url": "https://api.github.com/repos/becky2014/EECS343/git/refs{/sha}",
      "trees_url": "https://api.github.com/repos/becky2014/EECS343/git/trees{/sha}",
      "statuses_url": "https://api.github.com/repos/becky2014/EECS343/statuses/{sha}",
      "languages_url": "https://api.github.com/repos/becky2014/EECS343/languages",
      "stargazers_url": "https://api.github.com/repos/becky2014/EECS343/stargazers",
      "contributors_url": "https://api.github.com/repos/becky2014/EECS343/contributors",
      "subscribers_url": "https://api.github.com/repos/becky2014/EECS343/subscribers",
      "subscription_url": "https://api.github.com/repos/becky2014/EECS343/subscription",
      "commits_url": "https://api.github.com/repos/becky2014/EECS343/commits{/sha}",
      "git_commits_url": "https://api.github.com/repos/becky2014/EECS343/git/commits{/sha}",
      "comments_url": "https://api.github.com/repos/becky2014/EECS343/comments{/number}",
      "issue_comment_url": "https://api.github.com/repos/becky2014/EECS343/issues/comments{/number}",
      "contents_url": "https://api.github.com/repos/becky2014/EECS343/contents/{+path}",
      "compare_url": "https://api.github.com/repos/becky2014/EECS343/compare/{base}...{head}",
      "merges_url": "https://api.github.com/repos/becky2014/EECS343/merges",
      "archive_url": "https://api.github.com/repos/becky2014/EECS343/{archive_format}{/ref}",
      "downloads_url": "https://api.github.com/repos/becky2014/EECS343/downloads",
      "issues_url": "https://api.github.com/repos/becky2014/EECS343/issues{/number}",
      "pulls_url": "https://api.github.com/repos/becky2014/EECS343/pulls{/number}",
      "milestones_url": "https://api.github.com/repos/becky2014/EECS343/milestones{/number}",
      "notifications_url": "https://api.github.com/repos/becky2014/EECS343/notifications{?since,all,participating}",
      "labels_url": "https://api.github.com/repos/becky2014/EECS343/labels{/name}",
      "releases_url": "https://api.github.com/repos/becky2014/EECS343/releases{/id}",
      "created_at": "2015-10-20T03:15:02Z",
      "updated_at": "2015-10-20T03:16:16Z",
      "pushed_at": "2015-11-14T06:04:20Z",
      "git_url": "git://github.com/becky2014/EECS343.git",
      "ssh_url": "git@github.com:becky2014/EECS343.git",
      "clone_url": "https://github.com/becky2014/EECS343.git",
      "svn_url": "https://github.com/becky2014/EECS343",
      "homepage": null,
      "size": 2428,
      "stargazers_count": 0,
      "watchers_count": 0,
      "language": "C",
      "has_issues": true,
      "has_downloads": true,
      "has_wiki": true,
      "has_pages": false,
      "forks_count": 0,
      "mirror_url": null,
      "open_issues_count": 0,
      "forks": 0,
      "open_issues": 0,
      "watchers": 0,
      "default_branch": "master",
      "score": 1.0
    }
  ]
}
