{
  "total_count": 617,
  "incomplete_results": false,
  "items": [
    {
      "id": 44523033,
      "name": "SDL2_Tizen",
      "full_name": "alleysark/SDL2_Tizen",
      "owner": {
        "login": "alleysark",
        "id": 2129392,
        "avatar_url": "https://avatars.githubusercontent.com/u/2129392?v=3",
        "gravatar_id": "",
        "url": "https://api.github.com/users/alleysark",
        "html_url": "https://github.com/alleysark",
        "followers_url": "https://api.github.com/users/alleysark/followers",
        "following_url": "https://api.github.com/users/alleysark/following{/other_user}",
        "gists_url": "https://api.github.com/users/alleysark/gists{/gist_id}",
        "starred_url": "https://api.github.com/users/alleysark/starred{/owner}{/repo}",
        "subscriptions_url": "https://api.github.com/users/alleysark/subscriptions",
        "organizations_url": "https://api.github.com/users/alleysark/orgs",
        "repos_url": "https://api.github.com/users/alleysark/repos",
        "events_url": "https://api.github.com/users/alleysark/events{/privacy}",
        "received_events_url": "https://api.github.com/users/alleysark/received_events",
        "type": "User",
        "site_admin": false
      },
      "private": false,
      "html_url": "https://github.com/alleysark/SDL2_Tizen",
      "description": "",
      "fork": false,
      "url": "https://api.github.com/repos/alleysark/SDL2_Tizen",
      "forks_url": "https://api.github.com/repos/alleysark/SDL2_Tizen/forks",
      "keys_url": "https://api.github.com/repos/alleysark/SDL2_Tizen/keys{/key_id}",
      "collaborators_url": "https://api.github.com/repos/alleysark/SDL2_Tizen/collaborators{/collaborator}",
      "teams_url": "https://api.github.com/repos/alleysark/SDL2_Tizen/teams",
      "hooks_url": "https://api.github.com/repos/alleysark/SDL2_Tizen/hooks",
      "issue_events_url": "https://api.github.com/repos/alleysark/SDL2_Tizen/issues/events{/number}",
      "events_url": "https://api.github.com/repos/alleysark/SDL2_Tizen/events",
      "assignees_url": "https://api.github.com/repos/alleysark/SDL2_Tizen/assignees{/user}",
      "branches_url": "https://api.github.com/repos/alleysark/SDL2_Tizen/branches{/branch}",
      "tags_url": "https://api.github.com/repos/alleysark/SDL2_Tizen/tags",
      "blobs_url": "https://api.github.com/repos/alleysark/SDL2_Tizen/git/blobs{/sha}",
      "git_tags_url": "https://api.github.com/repos/alleysark/SDL2_Tizen/git/tags{/sha}",
      "git_refs_url": "https://api.github.com/repos/alleysark/SDL2_Tizen/git/refs{/sha}",
      "trees_url": "https://api.github.com/repos/alleysark/SDL2_Tizen/git/trees{/sha}",
      "statuses_url": "https://api.github.com/repos/alleysark/SDL2_Tizen/statuses/{sha}",
      "languages_url": "https://api.github.com/repos/alleysark/SDL2_Tizen/languages",
      "stargazers_url": "https://api.github.com/repos/alleysark/SDL2_Tizen/stargazers",
      "contributors_url": "https://api.github.com/repos/alleysark/SDL2_Tizen/contributors",
      "subscribers_url": "https://api.github.com/repos/alleysark/SDL2_Tizen/subscribers",
      "subscription_url": "https://api.github.com/repos/alleysark/SDL2_Tizen/subscription",
      "commits_url": "https://api.github.com/repos/alleysark/SDL2_Tizen/commits{/sha}",
      "git_commits_url": "https://api.github.com/repos/alleysark/SDL2_Tizen/git/commits{/sha}",
      "comments_url": "https://api.github.com/repos/alleysark/SDL2_Tizen/comments{/number}",
      "issue_comment_url": "https://api.github.com/repos/alleysark/SDL2_Tizen/issues/comments{/number}",
      "contents_url": "https://api.github.com/repos/alleysark/SDL2_Tizen/contents/{+path}",
      "compare_url": "https://api.github.com/repos/alleysark/SDL2_Tizen/compare/{base}...{head}",
      "merges_url": "https://api.github.com/repos/alleysark/SDL2_Tizen/merges",
      "archive_url": "https://api.github.com/repos/alleysark/SDL2_Tizen/{archive_format}{/ref}",
      "downloads_url": "https://api.github.com/repos/alleysark/SDL2_Tizen/downloads",
      "issues_url": "https://api.github.com/repos/alleysark/SDL2_Tizen/issues{/number}",
      "pulls_url": "https://api.github.com/repos/alleysark/SDL2_Tizen/pulls{/number}",
      "milestones_url": "https://api.github.com/repos/alleysark/SDL2_Tizen/milestones{/number}",
      "notifications_url": "https://api.github.com/repos/alleysark/SDL2_Tizen/notifications{?since,all,participating}",
      "labels_url": "https://api.github.com/repos/alleysark/SDL2_Tizen/labels{/name}",
      "releases_url": "https://api.github.com/repos/alleysark/SDL2_Tizen/releases{/id}",
      "created_at": "2015-10-19T09:05:37Z",
      "updated_at": "2015-10-19T09:09:25Z",
      "pushed_at": "2015-11-03T09:48:39Z",
      "git_url": "git://github.com/alleysark/SDL2_Tizen.git",
      "ssh_url": "git@github.com:alleysark/SDL2_Tizen.git",
      "clone_url": "https://github.com/alleysark/SDL2_Tizen.git",
      "svn_url": "https://github.com/alleysark/SDL2_Tizen",
      "homepage": null,
      "size": 4216,
      "stargazers_count": 0,
      "watchers_count": 0,
      "language": "C",
      "has_issues": true,
      "has_downloads": true,
      "has_wiki": true,
      "has_pages": false,
      "forks_count": 0,
      "mirror_url": null,
      "open_issues_count": 0,
      "forks": 0,
      "open_issues": 0,
      "watchers": 0,
      "default_branch": "master",
      "score": 1.0
    },
    {
      "id": 44564768,
      "name": "Projeto-de-Estruturas-de-Dados",
      "full_name": "FannyVieira/Projeto-de-Estruturas-de-Dados",
      "owner": {
        "login": "FannyVieira",
        "id": 14113480,
        "avatar_url": "https://avatars.githubusercontent.com/u/14113480?v=3",
        "gravatar_id": "",
        "url": "https://api.github.com/users/FannyVieira",
        "html_url": "https://github.com/FannyVieira",
        "followers_url": "https://api.github.com/users/FannyVieira/followers",
        "following_url": "https://api.github.com/users/FannyVieira/following{/other_user}",
        "gists_url": "https://api.github.com/users/FannyVieira/gists{/gist_id}",
        "starred_url": "https://api.github.com/users/FannyVieira/starred{/owner}{/repo}",
        "subscriptions_url": "https://api.github.com/users/FannyVieira/subscriptions",
        "organizations_url": "https://api.github.com/users/FannyVieira/orgs",
        "repos_url": "https://api.github.com/users/FannyVieira/repos",
        "events_url": "https://api.github.com/users/FannyVieira/events{/privacy}",
        "received_events_url": "https://api.github.com/users/FannyVieira/received_events",
        "type": "User",
        "site_admin": false
      },
      "private": false,
      "html_url": "https://github.com/FannyVieira/Projeto-de-Estruturas-de-Dados",
      "description": "- Gerenciamento de compras de passagem de ônibus",
      "fork": false,
      "url": "https://api.github.com/repos/FannyVieira/Projeto-de-Estruturas-de-Dados",
      "forks_url": "https://api.github.com/repos/FannyVieira/Projeto-de-Estruturas-de-Dados/forks",
      "keys_url": "https://api.github.com/repos/FannyVieira/Projeto-de-Estruturas-de-Dados/keys{/key_id}",
      "collaborators_url": "https://api.github.com/repos/FannyVieira/Projeto-de-Estruturas-de-Dados/collaborators{/collaborator}",
      "teams_url": "https://api.github.com/repos/FannyVieira/Projeto-de-Estruturas-de-Dados/teams",
      "hooks_url": "https://api.github.com/repos/FannyVieira/Projeto-de-Estruturas-de-Dados/hooks",
      "issue_events_url": "https://api.github.com/repos/FannyVieira/Projeto-de-Estruturas-de-Dados/issues/events{/number}",
      "events_url": "https://api.github.com/repos/FannyVieira/Projeto-de-Estruturas-de-Dados/events",
      "assignees_url": "https://api.github.com/repos/FannyVieira/Projeto-de-Estruturas-de-Dados/assignees{/user}",
      "branches_url": "https://api.github.com/repos/FannyVieira/Projeto-de-Estruturas-de-Dados/branches{/branch}",
      "tags_url": "https://api.github.com/repos/FannyVieira/Projeto-de-Estruturas-de-Dados/tags",
      "blobs_url": "https://api.github.com/repos/FannyVieira/Projeto-de-Estruturas-de-Dados/git/blobs{/sha}",
      "git_tags_url": "https://api.github.com/repos/FannyVieira/Projeto-de-Estruturas-de-Dados/git/tags{/sha}",
      "git_refs_url": "https://api.github.com/repos/FannyVieira/Projeto-de-Estruturas-de-Dados/git/refs{/sha}",
      "trees_url": "https://api.github.com/repos/FannyVieira/Projeto-de-Estruturas-de-Dados/git/trees{/sha}",
      "statuses_url": "https://api.github.com/repos/FannyVieira/Projeto-de-Estruturas-de-Dados/statuses/{sha}",
      "languages_url": "https://api.github.com/repos/FannyVieira/Projeto-de-Estruturas-de-Dados/languages",
      "stargazers_url": "https://api.github.com/repos/FannyVieira/Projeto-de-Estruturas-de-Dados/stargazers",
      "contributors_url": "https://api.github.com/repos/FannyVieira/Projeto-de-Estruturas-de-Dados/contributors",
      "subscribers_url": "https://api.github.com/repos/FannyVieira/Projeto-de-Estruturas-de-Dados/subscribers",
      "subscription_url": "https://api.github.com/repos/FannyVieira/Projeto-de-Estruturas-de-Dados/subscription",
      "commits_url": "https://api.github.com/repos/FannyVieira/Projeto-de-Estruturas-de-Dados/commits{/sha}",
      "git_commits_url": "https://api.github.com/repos/FannyVieira/Projeto-de-Estruturas-de-Dados/git/commits{/sha}",
      "comments_url": "https://api.github.com/repos/FannyVieira/Projeto-de-Estruturas-de-Dados/comments{/number}",
      "issue_comment_url": "https://api.github.com/repos/FannyVieira/Projeto-de-Estruturas-de-Dados/issues/comments{/number}",
      "contents_url": "https://api.github.com/repos/FannyVieira/Projeto-de-Estruturas-de-Dados/contents/{+path}",
      "compare_url": "https://api.github.com/repos/FannyVieira/Projeto-de-Estruturas-de-Dados/compare/{base}...{head}",
      "merges_url": "https://api.github.com/repos/FannyVieira/Projeto-de-Estruturas-de-Dados/merges",
      "archive_url": "https://api.github.com/repos/FannyVieira/Projeto-de-Estruturas-de-Dados/{archive_format}{/ref}",
      "downloads_url": "https://api.github.com/repos/FannyVieira/Projeto-de-Estruturas-de-Dados/downloads",
      "issues_url": "https://api.github.com/repos/FannyVieira/Projeto-de-Estruturas-de-Dados/issues{/number}",
      "pulls_url": "https://api.github.com/repos/FannyVieira/Projeto-de-Estruturas-de-Dados/pulls{/number}",
      "milestones_url": "https://api.github.com/repos/FannyVieira/Projeto-de-Estruturas-de-Dados/milestones{/number}",
      "notifications_url": "https://api.github.com/repos/FannyVieira/Projeto-de-Estruturas-de-Dados/notifications{?since,all,participating}",
      "labels_url": "https://api.github.com/repos/FannyVieira/Projeto-de-Estruturas-de-Dados/labels{/name}",
      "releases_url": "https://api.github.com/repos/FannyVieira/Projeto-de-Estruturas-de-Dados/releases{/id}",
      "created_at": "2015-10-19T21:19:43Z",
      "updated_at": "2015-10-19T21:24:52Z",
      "pushed_at": "2015-11-03T13:25:02Z",
      "git_url": "git://github.com/FannyVieira/Projeto-de-Estruturas-de-Dados.git",
      "ssh_url": "git@github.com:FannyVieira/Projeto-de-Estruturas-de-Dados.git",
      "clone_url": "https://github.com/FannyVieira/Projeto-de-Estruturas-de-Dados.git",
      "svn_url": "https://github.com/FannyVieira/Projeto-de-Estruturas-de-Dados",
      "homepage": null,
      "size": 172,
      "stargazers_count": 0,
      "watchers_count": 0,
      "language": "C",
      "has_issues": true,
      "has_downloads": true,
      "has_wiki": true,
      "has_pages": false,
      "forks_count": 0,
      "mirror_url": null,
      "open_issues_count": 0,
      "forks": 0,
      "open_issues": 0,
      "watchers": 0,
      "default_branch": "master",
      "score": 1.0
    },
    {
      "id": 44526685,
      "name": "PatternMatching",
      "full_name": "MarcoDima/PatternMatching",
      "owner": {
        "login": "MarcoDima",
        "id": 14995975,
        "avatar_url": "https://avatars.githubusercontent.com/u/14995975?v=3",
        "gravatar_id": "",
        "url": "https://api.github.com/users/MarcoDima",
        "html_url": "https://github.com/MarcoDima",
        "followers_url": "https://api.github.com/users/MarcoDima/followers",
        "following_url": "https://api.github.com/users/MarcoDima/following{/other_user}",
        "gists_url": "https://api.github.com/users/MarcoDima/gists{/gist_id}",
        "starred_url": "https://api.github.com/users/MarcoDima/starred{/owner}{/repo}",
        "subscriptions_url": "https://api.github.com/users/MarcoDima/subscriptions",
        "organizations_url": "https://api.github.com/users/MarcoDima/orgs",
        "repos_url": "https://api.github.com/users/MarcoDima/repos",
        "events_url": "https://api.github.com/users/MarcoDima/events{/privacy}",
        "received_events_url": "https://api.github.com/users/MarcoDima/received_events",
        "type": "User",
        "site_admin": false
      },
      "private": false,
      "html_url": "https://github.com/MarcoDima/PatternMatching",
      "description": "",
      "fork": false,
      "url": "https://api.github.com/repos/MarcoDima/PatternMatching",
      "forks_url": "https://api.github.com/repos/MarcoDima/PatternMatching/forks",
      "keys_url": "https://api.github.com/repos/MarcoDima/PatternMatching/keys{/key_id}",
      "collaborators_url": "https://api.github.com/repos/MarcoDima/PatternMatching/collaborators{/collaborator}",
      "teams_url": "https://api.github.com/repos/MarcoDima/PatternMatching/teams",
      "hooks_url": "https://api.github.com/repos/MarcoDima/PatternMatching/hooks",
      "issue_events_url": "https://api.github.com/repos/MarcoDima/PatternMatching/issues/events{/number}",
      "events_url": "https://api.github.com/repos/MarcoDima/PatternMatching/events",
      "assignees_url": "https://api.github.com/repos/MarcoDima/PatternMatching/assignees{/user}",
      "branches_url": "https://api.github.com/repos/MarcoDima/PatternMatching/branches{/branch}",
      "tags_url": "https://api.github.com/repos/MarcoDima/PatternMatching/tags",
      "blobs_url": "https://api.github.com/repos/MarcoDima/PatternMatching/git/blobs{/sha}",
      "git_tags_url": "https://api.github.com/repos/MarcoDima/PatternMatching/git/tags{/sha}",
      "git_refs_url": "https://api.github.com/repos/MarcoDima/PatternMatching/git/refs{/sha}",
      "trees_url": "https://api.github.com/repos/MarcoDima/PatternMatching/git/trees{/sha}",
      "statuses_url": "https://api.github.com/repos/MarcoDima/PatternMatching/statuses/{sha}",
      "languages_url": "https://api.github.com/repos/MarcoDima/PatternMatching/languages",
      "stargazers_url": "https://api.github.com/repos/MarcoDima/PatternMatching/stargazers",
      "contributors_url": "https://api.github.com/repos/MarcoDima/PatternMatching/contributors",
      "subscribers_url": "https://api.github.com/repos/MarcoDima/PatternMatching/subscribers",
      "subscription_url": "https://api.github.com/repos/MarcoDima/PatternMatching/subscription",
      "commits_url": "https://api.github.com/repos/MarcoDima/PatternMatching/commits{/sha}",
      "git_commits_url": "https://api.github.com/repos/MarcoDima/PatternMatching/git/commits{/sha}",
      "comments_url": "https://api.github.com/repos/MarcoDima/PatternMatching/comments{/number}",
      "issue_comment_url": "https://api.github.com/repos/MarcoDima/PatternMatching/issues/comments{/number}",
      "contents_url": "https://api.github.com/repos/MarcoDima/PatternMatching/contents/{+path}",
      "compare_url": "https://api.github.com/repos/MarcoDima/PatternMatching/compare/{base}...{head}",
      "merges_url": "https://api.github.com/repos/MarcoDima/PatternMatching/merges",
      "archive_url": "https://api.github.com/repos/MarcoDima/PatternMatching/{archive_format}{/ref}",
      "downloads_url": "https://api.github.com/repos/MarcoDima/PatternMatching/downloads",
      "issues_url": "https://api.github.com/repos/MarcoDima/PatternMatching/issues{/number}",
      "pulls_url": "https://api.github.com/repos/MarcoDima/PatternMatching/pulls{/number}",
      "milestones_url": "https://api.github.com/repos/MarcoDima/PatternMatching/milestones{/number}",
      "notifications_url": "https://api.github.com/repos/MarcoDima/PatternMatching/notifications{?since,all,participating}",
      "labels_url": "https://api.github.com/repos/MarcoDima/PatternMatching/labels{/name}",
      "releases_url": "https://api.github.com/repos/MarcoDima/PatternMatching/releases{/id}",
      "created_at": "2015-10-19T10:12:16Z",
      "updated_at": "2015-10-19T16:56:54Z",
      "pushed_at": "2015-11-05T07:36:20Z",
      "git_url": "git://github.com/MarcoDima/PatternMatching.git",
      "ssh_url": "git@github.com:MarcoDima/PatternMatching.git",
      "clone_url": "https://github.com/MarcoDima/PatternMatching.git",
      "svn_url": "https://github.com/MarcoDima/PatternMatching",
      "homepage": null,
      "size": 169,
      "stargazers_count": 0,
      "watchers_count": 0,
      "language": "C",
      "has_issues": true,
      "has_downloads": true,
      "has_wiki": true,
      "has_pages": false,
      "forks_count": 1,
      "mirror_url": null,
      "open_issues_count": 0,
      "forks": 1,
      "open_issues": 0,
      "watchers": 0,
      "default_branch": "master",
      "score": 1.0
    },
    {
      "id": 44566201,
      "name": "608",
      "full_name": "ravitx/608",
      "owner": {
        "login": "ravitx",
        "id": 6005951,
        "avatar_url": "https://avatars.githubusercontent.com/u/6005951?v=3",
        "gravatar_id": "",
        "url": "https://api.github.com/users/ravitx",
        "html_url": "https://github.com/ravitx",
        "followers_url": "https://api.github.com/users/ravitx/followers",
        "following_url": "https://api.github.com/users/ravitx/following{/other_user}",
        "gists_url": "https://api.github.com/users/ravitx/gists{/gist_id}",
        "starred_url": "https://api.github.com/users/ravitx/starred{/owner}{/repo}",
        "subscriptions_url": "https://api.github.com/users/ravitx/subscriptions",
        "organizations_url": "https://api.github.com/users/ravitx/orgs",
        "repos_url": "https://api.github.com/users/ravitx/repos",
        "events_url": "https://api.github.com/users/ravitx/events{/privacy}",
        "received_events_url": "https://api.github.com/users/ravitx/received_events",
        "type": "User",
        "site_admin": false
      },
      "private": false,
      "html_url": "https://github.com/ravitx/608",
      "description": "",
      "fork": false,
      "url": "https://api.github.com/repos/ravitx/608",
      "forks_url": "https://api.github.com/repos/ravitx/608/forks",
      "keys_url": "https://api.github.com/repos/ravitx/608/keys{/key_id}",
      "collaborators_url": "https://api.github.com/repos/ravitx/608/collaborators{/collaborator}",
      "teams_url": "https://api.github.com/repos/ravitx/608/teams",
      "hooks_url": "https://api.github.com/repos/ravitx/608/hooks",
      "issue_events_url": "https://api.github.com/repos/ravitx/608/issues/events{/number}",
      "events_url": "https://api.github.com/repos/ravitx/608/events",
      "assignees_url": "https://api.github.com/repos/ravitx/608/assignees{/user}",
      "branches_url": "https://api.github.com/repos/ravitx/608/branches{/branch}",
      "tags_url": "https://api.github.com/repos/ravitx/608/tags",
      "blobs_url": "https://api.github.com/repos/ravitx/608/git/blobs{/sha}",
      "git_tags_url": "https://api.github.com/repos/ravitx/608/git/tags{/sha}",
      "git_refs_url": "https://api.github.com/repos/ravitx/608/git/refs{/sha}",
      "trees_url": "https://api.github.com/repos/ravitx/608/git/trees{/sha}",
      "statuses_url": "https://api.github.com/repos/ravitx/608/statuses/{sha}",
      "languages_url": "https://api.github.com/repos/ravitx/608/languages",
      "stargazers_url": "https://api.github.com/repos/ravitx/608/stargazers",
      "contributors_url": "https://api.github.com/repos/ravitx/608/contributors",
      "subscribers_url": "https://api.github.com/repos/ravitx/608/subscribers",
      "subscription_url": "https://api.github.com/repos/ravitx/608/subscription",
      "commits_url": "https://api.github.com/repos/ravitx/608/commits{/sha}",
      "git_commits_url": "https://api.github.com/repos/ravitx/608/git/commits{/sha}",
      "comments_url": "https://api.github.com/repos/ravitx/608/comments{/number}",
      "issue_comment_url": "https://api.github.com/repos/ravitx/608/issues/comments{/number}",
      "contents_url": "https://api.github.com/repos/ravitx/608/contents/{+path}",
      "compare_url": "https://api.github.com/repos/ravitx/608/compare/{base}...{head}",
      "merges_url": "https://api.github.com/repos/ravitx/608/merges",
      "archive_url": "https://api.github.com/repos/ravitx/608/{archive_format}{/ref}",
      "downloads_url": "https://api.github.com/repos/ravitx/608/downloads",
      "issues_url": "https://api.github.com/repos/ravitx/608/issues{/number}",
      "pulls_url": "https://api.github.com/repos/ravitx/608/pulls{/number}",
      "milestones_url": "https://api.github.com/repos/ravitx/608/milestones{/number}",
      "notifications_url": "https://api.github.com/repos/ravitx/608/notifications{?since,all,participating}",
      "labels_url": "https://api.github.com/repos/ravitx/608/labels{/name}",
      "releases_url": "https://api.github.com/repos/ravitx/608/releases{/id}",
      "created_at": "2015-10-19T21:50:36Z",
      "updated_at": "2015-10-19T21:52:03Z",
      "pushed_at": "2015-11-14T12:28:13Z",
      "git_url": "git://github.com/ravitx/608.git",
      "ssh_url": "git@github.com:ravitx/608.git",
      "clone_url": "https://github.com/ravitx/608.git",
      "svn_url": "https://github.com/ravitx/608",
      "homepage": null,
      "size": 592,
      "stargazers_count": 0,
      "watchers_count": 0,
      "language": "C",
      "has_issues": true,
      "has_downloads": true,
      "has_wiki": true,
      "has_pages": false,
      "forks_count": 1,
      "mirror_url": null,
      "open_issues_count": 1,
      "forks": 1,
      "open_issues": 1,
      "watchers": 0,
      "default_branch": "master",
      "score": 1.0
    },
    {
      "id": 44512088,
      "name": "software_design_6",
      "full_name": "k-youki/software_design_6",
      "owner": {
        "login": "k-youki",
        "id": 10322951,
        "avatar_url": "https://avatars.githubusercontent.com/u/10322951?v=3",
        "gravatar_id": "",
        "url": "https://api.github.com/users/k-youki",
        "html_url": "https://github.com/k-youki",
        "followers_url": "https://api.github.com/users/k-youki/followers",
        "following_url": "https://api.github.com/users/k-youki/following{/other_user}",
        "gists_url": "https://api.github.com/users/k-youki/gists{/gist_id}",
        "starred_url": "https://api.github.com/users/k-youki/starred{/owner}{/repo}",
        "subscriptions_url": "https://api.github.com/users/k-youki/subscriptions",
        "organizations_url": "https://api.github.com/users/k-youki/orgs",
        "repos_url": "https://api.github.com/users/k-youki/repos",
        "events_url": "https://api.github.com/users/k-youki/events{/privacy}",
        "received_events_url": "https://api.github.com/users/k-youki/received_events",
        "type": "User",
        "site_admin": false
      },
      "private": false,
      "html_url": "https://github.com/k-youki/software_design_6",
      "description": "",
      "fork": false,
      "url": "https://api.github.com/repos/k-youki/software_design_6",
      "forks_url": "https://api.github.com/repos/k-youki/software_design_6/forks",
      "keys_url": "https://api.github.com/repos/k-youki/software_design_6/keys{/key_id}",
      "collaborators_url": "https://api.github.com/repos/k-youki/software_design_6/collaborators{/collaborator}",
      "teams_url": "https://api.github.com/repos/k-youki/software_design_6/teams",
      "hooks_url": "https://api.github.com/repos/k-youki/software_design_6/hooks",
      "issue_events_url": "https://api.github.com/repos/k-youki/software_design_6/issues/events{/number}",
      "events_url": "https://api.github.com/repos/k-youki/software_design_6/events",
      "assignees_url": "https://api.github.com/repos/k-youki/software_design_6/assignees{/user}",
      "branches_url": "https://api.github.com/repos/k-youki/software_design_6/branches{/branch}",
      "tags_url": "https://api.github.com/repos/k-youki/software_design_6/tags",
      "blobs_url": "https://api.github.com/repos/k-youki/software_design_6/git/blobs{/sha}",
      "git_tags_url": "https://api.github.com/repos/k-youki/software_design_6/git/tags{/sha}",
      "git_refs_url": "https://api.github.com/repos/k-youki/software_design_6/git/refs{/sha}",
      "trees_url": "https://api.github.com/repos/k-youki/software_design_6/git/trees{/sha}",
      "statuses_url": "https://api.github.com/repos/k-youki/software_design_6/statuses/{sha}",
      "languages_url": "https://api.github.com/repos/k-youki/software_design_6/languages",
      "stargazers_url": "https://api.github.com/repos/k-youki/software_design_6/stargazers",
      "contributors_url": "https://api.github.com/repos/k-youki/software_design_6/contributors",
      "subscribers_url": "https://api.github.com/repos/k-youki/software_design_6/subscribers",
      "subscription_url": "https://api.github.com/repos/k-youki/software_design_6/subscription",
      "commits_url": "https://api.github.com/repos/k-youki/software_design_6/commits{/sha}",
      "git_commits_url": "https://api.github.com/repos/k-youki/software_design_6/git/commits{/sha}",
      "comments_url": "https://api.github.com/repos/k-youki/software_design_6/comments{/number}",
      "issue_comment_url": "https://api.github.com/repos/k-youki/software_design_6/issues/comments{/number}",
      "contents_url": "https://api.github.com/repos/k-youki/software_design_6/contents/{+path}",
      "compare_url": "https://api.github.com/repos/k-youki/software_design_6/compare/{base}...{head}",
      "merges_url": "https://api.github.com/repos/k-youki/software_design_6/merges",
      "archive_url": "https://api.github.com/repos/k-youki/software_design_6/{archive_format}{/ref}",
      "downloads_url": "https://api.github.com/repos/k-youki/software_design_6/downloads",
      "issues_url": "https://api.github.com/repos/k-youki/software_design_6/issues{/number}",
      "pulls_url": "https://api.github.com/repos/k-youki/software_design_6/pulls{/number}",
      "milestones_url": "https://api.github.com/repos/k-youki/software_design_6/milestones{/number}",
      "notifications_url": "https://api.github.com/repos/k-youki/software_design_6/notifications{?since,all,participating}",
      "labels_url": "https://api.github.com/repos/k-youki/software_design_6/labels{/name}",
      "releases_url": "https://api.github.com/repos/k-youki/software_design_6/releases{/id}",
      "created_at": "2015-10-19T04:56:45Z",
      "updated_at": "2015-11-02T04:12:07Z",
      "pushed_at": "2015-11-09T05:20:46Z",
      "git_url": "git://github.com/k-youki/software_design_6.git",
      "ssh_url": "git@github.com:k-youki/software_design_6.git",
      "clone_url": "https://github.com/k-youki/software_design_6.git",
      "svn_url": "https://github.com/k-youki/software_design_6",
      "homepage": null,
      "size": 180,
      "stargazers_count": 0,
      "watchers_count": 0,
      "language": "C",
      "has_issues": true,
      "has_downloads": true,
      "has_wiki": true,
      "has_pages": false,
      "forks_count": 0,
      "mirror_url": null,
      "open_issues_count": 0,
      "forks": 0,
      "open_issues": 0,
      "watchers": 0,
      "default_branch": "master",
      "score": 1.0
    },
    {
      "id": 44563936,
      "name": "Divers",
      "full_name": "OS-Project/Divers",
      "owner": {
        "login": "OS-Project",
        "id": 13891688,
        "avatar_url": "https://avatars.githubusercontent.com/u/13891688?v=3",
        "gravatar_id": "",
        "url": "https://api.github.com/users/OS-Project",
        "html_url": "https://github.com/OS-Project",
        "followers_url": "https://api.github.com/users/OS-Project/followers",
        "following_url": "https://api.github.com/users/OS-Project/following{/other_user}",
        "gists_url": "https://api.github.com/users/OS-Project/gists{/gist_id}",
        "starred_url": "https://api.github.com/users/OS-Project/starred{/owner}{/repo}",
        "subscriptions_url": "https://api.github.com/users/OS-Project/subscriptions",
        "organizations_url": "https://api.github.com/users/OS-Project/orgs",
        "repos_url": "https://api.github.com/users/OS-Project/repos",
        "events_url": "https://api.github.com/users/OS-Project/events{/privacy}",
        "received_events_url": "https://api.github.com/users/OS-Project/received_events",
        "type": "Organization",
        "site_admin": false
      },
      "private": false,
      "html_url": "https://github.com/OS-Project/Divers",
      "description": "",
      "fork": false,
      "url": "https://api.github.com/repos/OS-Project/Divers",
      "forks_url": "https://api.github.com/repos/OS-Project/Divers/forks",
      "keys_url": "https://api.github.com/repos/OS-Project/Divers/keys{/key_id}",
      "collaborators_url": "https://api.github.com/repos/OS-Project/Divers/collaborators{/collaborator}",
      "teams_url": "https://api.github.com/repos/OS-Project/Divers/teams",
      "hooks_url": "https://api.github.com/repos/OS-Project/Divers/hooks",
      "issue_events_url": "https://api.github.com/repos/OS-Project/Divers/issues/events{/number}",
      "events_url": "https://api.github.com/repos/OS-Project/Divers/events",
      "assignees_url": "https://api.github.com/repos/OS-Project/Divers/assignees{/user}",
      "branches_url": "https://api.github.com/repos/OS-Project/Divers/branches{/branch}",
      "tags_url": "https://api.github.com/repos/OS-Project/Divers/tags",
      "blobs_url": "https://api.github.com/repos/OS-Project/Divers/git/blobs{/sha}",
      "git_tags_url": "https://api.github.com/repos/OS-Project/Divers/git/tags{/sha}",
      "git_refs_url": "https://api.github.com/repos/OS-Project/Divers/git/refs{/sha}",
      "trees_url": "https://api.github.com/repos/OS-Project/Divers/git/trees{/sha}",
      "statuses_url": "https://api.github.com/repos/OS-Project/Divers/statuses/{sha}",
      "languages_url": "https://api.github.com/repos/OS-Project/Divers/languages",
      "stargazers_url": "https://api.github.com/repos/OS-Project/Divers/stargazers",
      "contributors_url": "https://api.github.com/repos/OS-Project/Divers/contributors",
      "subscribers_url": "https://api.github.com/repos/OS-Project/Divers/subscribers",
      "subscription_url": "https://api.github.com/repos/OS-Project/Divers/subscription",
      "commits_url": "https://api.github.com/repos/OS-Project/Divers/commits{/sha}",
      "git_commits_url": "https://api.github.com/repos/OS-Project/Divers/git/commits{/sha}",
      "comments_url": "https://api.github.com/repos/OS-Project/Divers/comments{/number}",
      "issue_comment_url": "https://api.github.com/repos/OS-Project/Divers/issues/comments{/number}",
      "contents_url": "https://api.github.com/repos/OS-Project/Divers/contents/{+path}",
      "compare_url": "https://api.github.com/repos/OS-Project/Divers/compare/{base}...{head}",
      "merges_url": "https://api.github.com/repos/OS-Project/Divers/merges",
      "archive_url": "https://api.github.com/repos/OS-Project/Divers/{archive_format}{/ref}",
      "downloads_url": "https://api.github.com/repos/OS-Project/Divers/downloads",
      "issues_url": "https://api.github.com/repos/OS-Project/Divers/issues{/number}",
      "pulls_url": "https://api.github.com/repos/OS-Project/Divers/pulls{/number}",
      "milestones_url": "https://api.github.com/repos/OS-Project/Divers/milestones{/number}",
      "notifications_url": "https://api.github.com/repos/OS-Project/Divers/notifications{?since,all,participating}",
      "labels_url": "https://api.github.com/repos/OS-Project/Divers/labels{/name}",
      "releases_url": "https://api.github.com/repos/OS-Project/Divers/releases{/id}",
      "created_at": "2015-10-19T21:03:21Z",
      "updated_at": "2015-10-19T21:57:04Z",
      "pushed_at": "2015-11-08T01:10:45Z",
      "git_url": "git://github.com/OS-Project/Divers.git",
      "ssh_url": "git@github.com:OS-Project/Divers.git",
      "clone_url": "https://github.com/OS-Project/Divers.git",
      "svn_url": "https://github.com/OS-Project/Divers",
      "homepage": null,
      "size": 51444,
      "stargazers_count": 0,
      "watchers_count": 0,
      "language": "C",
      "has_issues": true,
      "has_downloads": true,
      "has_wiki": true,
      "has_pages": false,
      "forks_count": 0,
      "mirror_url": null,
      "open_issues_count": 0,
      "forks": 0,
      "open_issues": 0,
      "watchers": 0,
      "default_branch": "master",
      "score": 1.0
    },
    {
      "id": 44534772,
      "name": "Practice",
      "full_name": "naoya3e/Practice",
      "owner": {
        "login": "naoya3e",
        "id": 14846330,
        "avatar_url": "https://avatars.githubusercontent.com/u/14846330?v=3",
        "gravatar_id": "",
        "url": "https://api.github.com/users/naoya3e",
        "html_url": "https://github.com/naoya3e",
        "followers_url": "https://api.github.com/users/naoya3e/followers",
        "following_url": "https://api.github.com/users/naoya3e/following{/other_user}",
        "gists_url": "https://api.github.com/users/naoya3e/gists{/gist_id}",
        "starred_url": "https://api.github.com/users/naoya3e/starred{/owner}{/repo}",
        "subscriptions_url": "https://api.github.com/users/naoya3e/subscriptions",
        "organizations_url": "https://api.github.com/users/naoya3e/orgs",
        "repos_url": "https://api.github.com/users/naoya3e/repos",
        "events_url": "https://api.github.com/users/naoya3e/events{/privacy}",
        "received_events_url": "https://api.github.com/users/naoya3e/received_events",
        "type": "User",
        "site_admin": false
      },
      "private": false,
      "html_url": "https://github.com/naoya3e/Practice",
      "description": "いろんな言語でプログラミングする練習",
      "fork": false,
      "url": "https://api.github.com/repos/naoya3e/Practice",
      "forks_url": "https://api.github.com/repos/naoya3e/Practice/forks",
      "keys_url": "https://api.github.com/repos/naoya3e/Practice/keys{/key_id}",
      "collaborators_url": "https://api.github.com/repos/naoya3e/Practice/collaborators{/collaborator}",
      "teams_url": "https://api.github.com/repos/naoya3e/Practice/teams",
      "hooks_url": "https://api.github.com/repos/naoya3e/Practice/hooks",
      "issue_events_url": "https://api.github.com/repos/naoya3e/Practice/issues/events{/number}",
      "events_url": "https://api.github.com/repos/naoya3e/Practice/events",
      "assignees_url": "https://api.github.com/repos/naoya3e/Practice/assignees{/user}",
      "branches_url": "https://api.github.com/repos/naoya3e/Practice/branches{/branch}",
      "tags_url": "https://api.github.com/repos/naoya3e/Practice/tags",
      "blobs_url": "https://api.github.com/repos/naoya3e/Practice/git/blobs{/sha}",
      "git_tags_url": "https://api.github.com/repos/naoya3e/Practice/git/tags{/sha}",
      "git_refs_url": "https://api.github.com/repos/naoya3e/Practice/git/refs{/sha}",
      "trees_url": "https://api.github.com/repos/naoya3e/Practice/git/trees{/sha}",
      "statuses_url": "https://api.github.com/repos/naoya3e/Practice/statuses/{sha}",
      "languages_url": "https://api.github.com/repos/naoya3e/Practice/languages",
      "stargazers_url": "https://api.github.com/repos/naoya3e/Practice/stargazers",
      "contributors_url": "https://api.github.com/repos/naoya3e/Practice/contributors",
      "subscribers_url": "https://api.github.com/repos/naoya3e/Practice/subscribers",
      "subscription_url": "https://api.github.com/repos/naoya3e/Practice/subscription",
      "commits_url": "https://api.github.com/repos/naoya3e/Practice/commits{/sha}",
      "git_commits_url": "https://api.github.com/repos/naoya3e/Practice/git/commits{/sha}",
      "comments_url": "https://api.github.com/repos/naoya3e/Practice/comments{/number}",
      "issue_comment_url": "https://api.github.com/repos/naoya3e/Practice/issues/comments{/number}",
      "contents_url": "https://api.github.com/repos/naoya3e/Practice/contents/{+path}",
      "compare_url": "https://api.github.com/repos/naoya3e/Practice/compare/{base}...{head}",
      "merges_url": "https://api.github.com/repos/naoya3e/Practice/merges",
      "archive_url": "https://api.github.com/repos/naoya3e/Practice/{archive_format}{/ref}",
      "downloads_url": "https://api.github.com/repos/naoya3e/Practice/downloads",
      "issues_url": "https://api.github.com/repos/naoya3e/Practice/issues{/number}",
      "pulls_url": "https://api.github.com/repos/naoya3e/Practice/pulls{/number}",
      "milestones_url": "https://api.github.com/repos/naoya3e/Practice/milestones{/number}",
      "notifications_url": "https://api.github.com/repos/naoya3e/Practice/notifications{?since,all,participating}",
      "labels_url": "https://api.github.com/repos/naoya3e/Practice/labels{/name}",
      "releases_url": "https://api.github.com/repos/naoya3e/Practice/releases{/id}",
      "created_at": "2015-10-19T12:59:04Z",
      "updated_at": "2015-10-19T14:22:39Z",
      "pushed_at": "2015-11-11T10:39:05Z",
      "git_url": "git://github.com/naoya3e/Practice.git",
      "ssh_url": "git@github.com:naoya3e/Practice.git",
      "clone_url": "https://github.com/naoya3e/Practice.git",
      "svn_url": "https://github.com/naoya3e/Practice",
      "homepage": null,
      "size": 152,
      "stargazers_count": 0,
      "watchers_count": 0,
      "language": "C",
      "has_issues": true,
      "has_downloads": true,
      "has_wiki": true,
      "has_pages": false,
      "forks_count": 0,
      "mirror_url": null,
      "open_issues_count": 0,
      "forks": 0,
      "open_issues": 0,
      "watchers": 0,
      "default_branch": "master",
      "score": 1.0
    },
    {
      "id": 44548780,
      "name": "ARLab2",
      "full_name": "Henrar/ARLab2",
      "owner": {
        "login": "Henrar",
        "id": 5493873,
        "avatar_url": "https://avatars.githubusercontent.com/u/5493873?v=3",
        "gravatar_id": "",
        "url": "https://api.github.com/users/Henrar",
        "html_url": "https://github.com/Henrar",
        "followers_url": "https://api.github.com/users/Henrar/followers",
        "following_url": "https://api.github.com/users/Henrar/following{/other_user}",
        "gists_url": "https://api.github.com/users/Henrar/gists{/gist_id}",
        "starred_url": "https://api.github.com/users/Henrar/starred{/owner}{/repo}",
        "subscriptions_url": "https://api.github.com/users/Henrar/subscriptions",
        "organizations_url": "https://api.github.com/users/Henrar/orgs",
        "repos_url": "https://api.github.com/users/Henrar/repos",
        "events_url": "https://api.github.com/users/Henrar/events{/privacy}",
        "received_events_url": "https://api.github.com/users/Henrar/received_events",
        "type": "User",
        "site_admin": false
      },
      "private": false,
      "html_url": "https://github.com/Henrar/ARLab2",
      "description": "",
      "fork": false,
      "url": "https://api.github.com/repos/Henrar/ARLab2",
      "forks_url": "https://api.github.com/repos/Henrar/ARLab2/forks",
      "keys_url": "https://api.github.com/repos/Henrar/ARLab2/keys{/key_id}",
      "collaborators_url": "https://api.github.com/repos/Henrar/ARLab2/collaborators{/collaborator}",
      "teams_url": "https://api.github.com/repos/Henrar/ARLab2/teams",
      "hooks_url": "https://api.github.com/repos/Henrar/ARLab2/hooks",
      "issue_events_url": "https://api.github.com/repos/Henrar/ARLab2/issues/events{/number}",
      "events_url": "https://api.github.com/repos/Henrar/ARLab2/events",
      "assignees_url": "https://api.github.com/repos/Henrar/ARLab2/assignees{/user}",
      "branches_url": "https://api.github.com/repos/Henrar/ARLab2/branches{/branch}",
      "tags_url": "https://api.github.com/repos/Henrar/ARLab2/tags",
      "blobs_url": "https://api.github.com/repos/Henrar/ARLab2/git/blobs{/sha}",
      "git_tags_url": "https://api.github.com/repos/Henrar/ARLab2/git/tags{/sha}",
      "git_refs_url": "https://api.github.com/repos/Henrar/ARLab2/git/refs{/sha}",
      "trees_url": "https://api.github.com/repos/Henrar/ARLab2/git/trees{/sha}",
      "statuses_url": "https://api.github.com/repos/Henrar/ARLab2/statuses/{sha}",
      "languages_url": "https://api.github.com/repos/Henrar/ARLab2/languages",
      "stargazers_url": "https://api.github.com/repos/Henrar/ARLab2/stargazers",
      "contributors_url": "https://api.github.com/repos/Henrar/ARLab2/contributors",
      "subscribers_url": "https://api.github.com/repos/Henrar/ARLab2/subscribers",
      "subscription_url": "https://api.github.com/repos/Henrar/ARLab2/subscription",
      "commits_url": "https://api.github.com/repos/Henrar/ARLab2/commits{/sha}",
      "git_commits_url": "https://api.github.com/repos/Henrar/ARLab2/git/commits{/sha}",
      "comments_url": "https://api.github.com/repos/Henrar/ARLab2/comments{/number}",
      "issue_comment_url": "https://api.github.com/repos/Henrar/ARLab2/issues/comments{/number}",
      "contents_url": "https://api.github.com/repos/Henrar/ARLab2/contents/{+path}",
      "compare_url": "https://api.github.com/repos/Henrar/ARLab2/compare/{base}...{head}",
      "merges_url": "https://api.github.com/repos/Henrar/ARLab2/merges",
      "archive_url": "https://api.github.com/repos/Henrar/ARLab2/{archive_format}{/ref}",
      "downloads_url": "https://api.github.com/repos/Henrar/ARLab2/downloads",
      "issues_url": "https://api.github.com/repos/Henrar/ARLab2/issues{/number}",
      "pulls_url": "https://api.github.com/repos/Henrar/ARLab2/pulls{/number}",
      "milestones_url": "https://api.github.com/repos/Henrar/ARLab2/milestones{/number}",
      "notifications_url": "https://api.github.com/repos/Henrar/ARLab2/notifications{?since,all,participating}",
      "labels_url": "https://api.github.com/repos/Henrar/ARLab2/labels{/name}",
      "releases_url": "https://api.github.com/repos/Henrar/ARLab2/releases{/id}",
      "created_at": "2015-10-19T16:37:54Z",
      "updated_at": "2015-10-19T17:21:52Z",
      "pushed_at": "2015-11-12T17:45:16Z",
      "git_url": "git://github.com/Henrar/ARLab2.git",
      "ssh_url": "git@github.com:Henrar/ARLab2.git",
      "clone_url": "https://github.com/Henrar/ARLab2.git",
      "svn_url": "https://github.com/Henrar/ARLab2",
      "homepage": null,
      "size": 272,
      "stargazers_count": 0,
      "watchers_count": 0,
      "language": "C",
      "has_issues": true,
      "has_downloads": true,
      "has_wiki": true,
      "has_pages": false,
      "forks_count": 0,
      "mirror_url": null,
      "open_issues_count": 0,
      "forks": 0,
      "open_issues": 0,
      "watchers": 0,
      "default_branch": "master",
      "score": 1.0
    },
    {
      "id": 44553672,
      "name": "CS50",
      "full_name": "anathemus/CS50",
      "owner": {
        "login": "anathemus",
        "id": 12959441,
        "avatar_url": "https://avatars.githubusercontent.com/u/12959441?v=3",
        "gravatar_id": "",
        "url": "https://api.github.com/users/anathemus",
        "html_url": "https://github.com/anathemus",
        "followers_url": "https://api.github.com/users/anathemus/followers",
        "following_url": "https://api.github.com/users/anathemus/following{/other_user}",
        "gists_url": "https://api.github.com/users/anathemus/gists{/gist_id}",
        "starred_url": "https://api.github.com/users/anathemus/starred{/owner}{/repo}",
        "subscriptions_url": "https://api.github.com/users/anathemus/subscriptions",
        "organizations_url": "https://api.github.com/users/anathemus/orgs",
        "repos_url": "https://api.github.com/users/anathemus/repos",
        "events_url": "https://api.github.com/users/anathemus/events{/privacy}",
        "received_events_url": "https://api.github.com/users/anathemus/received_events",
        "type": "User",
        "site_admin": false
      },
      "private": false,
      "html_url": "https://github.com/anathemus/CS50",
      "description": "",
      "fork": false,
      "url": "https://api.github.com/repos/anathemus/CS50",
      "forks_url": "https://api.github.com/repos/anathemus/CS50/forks",
      "keys_url": "https://api.github.com/repos/anathemus/CS50/keys{/key_id}",
      "collaborators_url": "https://api.github.com/repos/anathemus/CS50/collaborators{/collaborator}",
      "teams_url": "https://api.github.com/repos/anathemus/CS50/teams",
      "hooks_url": "https://api.github.com/repos/anathemus/CS50/hooks",
      "issue_events_url": "https://api.github.com/repos/anathemus/CS50/issues/events{/number}",
      "events_url": "https://api.github.com/repos/anathemus/CS50/events",
      "assignees_url": "https://api.github.com/repos/anathemus/CS50/assignees{/user}",
      "branches_url": "https://api.github.com/repos/anathemus/CS50/branches{/branch}",
      "tags_url": "https://api.github.com/repos/anathemus/CS50/tags",
      "blobs_url": "https://api.github.com/repos/anathemus/CS50/git/blobs{/sha}",
      "git_tags_url": "https://api.github.com/repos/anathemus/CS50/git/tags{/sha}",
      "git_refs_url": "https://api.github.com/repos/anathemus/CS50/git/refs{/sha}",
      "trees_url": "https://api.github.com/repos/anathemus/CS50/git/trees{/sha}",
      "statuses_url": "https://api.github.com/repos/anathemus/CS50/statuses/{sha}",
      "languages_url": "https://api.github.com/repos/anathemus/CS50/languages",
      "stargazers_url": "https://api.github.com/repos/anathemus/CS50/stargazers",
      "contributors_url": "https://api.github.com/repos/anathemus/CS50/contributors",
      "subscribers_url": "https://api.github.com/repos/anathemus/CS50/subscribers",
      "subscription_url": "https://api.github.com/repos/anathemus/CS50/subscription",
      "commits_url": "https://api.github.com/repos/anathemus/CS50/commits{/sha}",
      "git_commits_url": "https://api.github.com/repos/anathemus/CS50/git/commits{/sha}",
      "comments_url": "https://api.github.com/repos/anathemus/CS50/comments{/number}",
      "issue_comment_url": "https://api.github.com/repos/anathemus/CS50/issues/comments{/number}",
      "contents_url": "https://api.github.com/repos/anathemus/CS50/contents/{+path}",
      "compare_url": "https://api.github.com/repos/anathemus/CS50/compare/{base}...{head}",
      "merges_url": "https://api.github.com/repos/anathemus/CS50/merges",
      "archive_url": "https://api.github.com/repos/anathemus/CS50/{archive_format}{/ref}",
      "downloads_url": "https://api.github.com/repos/anathemus/CS50/downloads",
      "issues_url": "https://api.github.com/repos/anathemus/CS50/issues{/number}",
      "pulls_url": "https://api.github.com/repos/anathemus/CS50/pulls{/number}",
      "milestones_url": "https://api.github.com/repos/anathemus/CS50/milestones{/number}",
      "notifications_url": "https://api.github.com/repos/anathemus/CS50/notifications{?since,all,participating}",
      "labels_url": "https://api.github.com/repos/anathemus/CS50/labels{/name}",
      "releases_url": "https://api.github.com/repos/anathemus/CS50/releases{/id}",
      "created_at": "2015-10-19T18:05:13Z",
      "updated_at": "2015-10-19T18:05:20Z",
      "pushed_at": "2015-11-09T18:30:25Z",
      "git_url": "git://github.com/anathemus/CS50.git",
      "ssh_url": "git@github.com:anathemus/CS50.git",
      "clone_url": "https://github.com/anathemus/CS50.git",
      "svn_url": "https://github.com/anathemus/CS50",
      "homepage": null,
      "size": 6024,
      "stargazers_count": 0,
      "watchers_count": 0,
      "language": "C",
      "has_issues": true,
      "has_downloads": true,
      "has_wiki": true,
      "has_pages": false,
      "forks_count": 0,
      "mirror_url": null,
      "open_issues_count": 0,
      "forks": 0,
      "open_issues": 0,
      "watchers": 0,
      "default_branch": "master",
      "score": 1.0
    },
    {
      "id": 44560953,
      "name": "OnlyOS",
      "full_name": "OS-Project/OnlyOS",
      "owner": {
        "login": "OS-Project",
        "id": 13891688,
        "avatar_url": "https://avatars.githubusercontent.com/u/13891688?v=3",
        "gravatar_id": "",
        "url": "https://api.github.com/users/OS-Project",
        "html_url": "https://github.com/OS-Project",
        "followers_url": "https://api.github.com/users/OS-Project/followers",
        "following_url": "https://api.github.com/users/OS-Project/following{/other_user}",
        "gists_url": "https://api.github.com/users/OS-Project/gists{/gist_id}",
        "starred_url": "https://api.github.com/users/OS-Project/starred{/owner}{/repo}",
        "subscriptions_url": "https://api.github.com/users/OS-Project/subscriptions",
        "organizations_url": "https://api.github.com/users/OS-Project/orgs",
        "repos_url": "https://api.github.com/users/OS-Project/repos",
        "events_url": "https://api.github.com/users/OS-Project/events{/privacy}",
        "received_events_url": "https://api.github.com/users/OS-Project/received_events",
        "type": "Organization",
        "site_admin": false
      },
      "private": false,
      "html_url": "https://github.com/OS-Project/OnlyOS",
      "description": "The operating system",
      "fork": false,
      "url": "https://api.github.com/repos/OS-Project/OnlyOS",
      "forks_url": "https://api.github.com/repos/OS-Project/OnlyOS/forks",
      "keys_url": "https://api.github.com/repos/OS-Project/OnlyOS/keys{/key_id}",
      "collaborators_url": "https://api.github.com/repos/OS-Project/OnlyOS/collaborators{/collaborator}",
      "teams_url": "https://api.github.com/repos/OS-Project/OnlyOS/teams",
      "hooks_url": "https://api.github.com/repos/OS-Project/OnlyOS/hooks",
      "issue_events_url": "https://api.github.com/repos/OS-Project/OnlyOS/issues/events{/number}",
      "events_url": "https://api.github.com/repos/OS-Project/OnlyOS/events",
      "assignees_url": "https://api.github.com/repos/OS-Project/OnlyOS/assignees{/user}",
      "branches_url": "https://api.github.com/repos/OS-Project/OnlyOS/branches{/branch}",
      "tags_url": "https://api.github.com/repos/OS-Project/OnlyOS/tags",
      "blobs_url": "https://api.github.com/repos/OS-Project/OnlyOS/git/blobs{/sha}",
      "git_tags_url": "https://api.github.com/repos/OS-Project/OnlyOS/git/tags{/sha}",
      "git_refs_url": "https://api.github.com/repos/OS-Project/OnlyOS/git/refs{/sha}",
      "trees_url": "https://api.github.com/repos/OS-Project/OnlyOS/git/trees{/sha}",
      "statuses_url": "https://api.github.com/repos/OS-Project/OnlyOS/statuses/{sha}",
      "languages_url": "https://api.github.com/repos/OS-Project/OnlyOS/languages",
      "stargazers_url": "https://api.github.com/repos/OS-Project/OnlyOS/stargazers",
      "contributors_url": "https://api.github.com/repos/OS-Project/OnlyOS/contributors",
      "subscribers_url": "https://api.github.com/repos/OS-Project/OnlyOS/subscribers",
      "subscription_url": "https://api.github.com/repos/OS-Project/OnlyOS/subscription",
      "commits_url": "https://api.github.com/repos/OS-Project/OnlyOS/commits{/sha}",
      "git_commits_url": "https://api.github.com/repos/OS-Project/OnlyOS/git/commits{/sha}",
      "comments_url": "https://api.github.com/repos/OS-Project/OnlyOS/comments{/number}",
      "issue_comment_url": "https://api.github.com/repos/OS-Project/OnlyOS/issues/comments{/number}",
      "contents_url": "https://api.github.com/repos/OS-Project/OnlyOS/contents/{+path}",
      "compare_url": "https://api.github.com/repos/OS-Project/OnlyOS/compare/{base}...{head}",
      "merges_url": "https://api.github.com/repos/OS-Project/OnlyOS/merges",
      "archive_url": "https://api.github.com/repos/OS-Project/OnlyOS/{archive_format}{/ref}",
      "downloads_url": "https://api.github.com/repos/OS-Project/OnlyOS/downloads",
      "issues_url": "https://api.github.com/repos/OS-Project/OnlyOS/issues{/number}",
      "pulls_url": "https://api.github.com/repos/OS-Project/OnlyOS/pulls{/number}",
      "milestones_url": "https://api.github.com/repos/OS-Project/OnlyOS/milestones{/number}",
      "notifications_url": "https://api.github.com/repos/OS-Project/OnlyOS/notifications{?since,all,participating}",
      "labels_url": "https://api.github.com/repos/OS-Project/OnlyOS/labels{/name}",
      "releases_url": "https://api.github.com/repos/OS-Project/OnlyOS/releases{/id}",
      "created_at": "2015-10-19T20:09:44Z",
      "updated_at": "2015-10-19T22:17:02Z",
      "pushed_at": "2015-11-10T20:28:33Z",
      "git_url": "git://github.com/OS-Project/OnlyOS.git",
      "ssh_url": "git@github.com:OS-Project/OnlyOS.git",
      "clone_url": "https://github.com/OS-Project/OnlyOS.git",
      "svn_url": "https://github.com/OS-Project/OnlyOS",
      "homepage": null,
      "size": 1108,
      "stargazers_count": 0,
      "watchers_count": 0,
      "language": "C",
      "has_issues": true,
      "has_downloads": true,
      "has_wiki": true,
      "has_pages": false,
      "forks_count": 0,
      "mirror_url": null,
      "open_issues_count": 0,
      "forks": 0,
      "open_issues": 0,
      "watchers": 0,
      "default_branch": "master",
      "score": 1.0
    },
    {
      "id": 44522874,
      "name": "hardware_imx",
      "full_name": "huhuikevin/hardware_imx",
      "owner": {
        "login": "huhuikevin",
        "id": 5463040,
        "avatar_url": "https://avatars.githubusercontent.com/u/5463040?v=3",
        "gravatar_id": "",
        "url": "https://api.github.com/users/huhuikevin",
        "html_url": "https://github.com/huhuikevin",
        "followers_url": "https://api.github.com/users/huhuikevin/followers",
        "following_url": "https://api.github.com/users/huhuikevin/following{/other_user}",
        "gists_url": "https://api.github.com/users/huhuikevin/gists{/gist_id}",
        "starred_url": "https://api.github.com/users/huhuikevin/starred{/owner}{/repo}",
        "subscriptions_url": "https://api.github.com/users/huhuikevin/subscriptions",
        "organizations_url": "https://api.github.com/users/huhuikevin/orgs",
        "repos_url": "https://api.github.com/users/huhuikevin/repos",
        "events_url": "https://api.github.com/users/huhuikevin/events{/privacy}",
        "received_events_url": "https://api.github.com/users/huhuikevin/received_events",
        "type": "User",
        "site_admin": false
      },
      "private": false,
      "html_url": "https://github.com/huhuikevin/hardware_imx",
      "description": "",
      "fork": false,
      "url": "https://api.github.com/repos/huhuikevin/hardware_imx",
      "forks_url": "https://api.github.com/repos/huhuikevin/hardware_imx/forks",
      "keys_url": "https://api.github.com/repos/huhuikevin/hardware_imx/keys{/key_id}",
      "collaborators_url": "https://api.github.com/repos/huhuikevin/hardware_imx/collaborators{/collaborator}",
      "teams_url": "https://api.github.com/repos/huhuikevin/hardware_imx/teams",
      "hooks_url": "https://api.github.com/repos/huhuikevin/hardware_imx/hooks",
      "issue_events_url": "https://api.github.com/repos/huhuikevin/hardware_imx/issues/events{/number}",
      "events_url": "https://api.github.com/repos/huhuikevin/hardware_imx/events",
      "assignees_url": "https://api.github.com/repos/huhuikevin/hardware_imx/assignees{/user}",
      "branches_url": "https://api.github.com/repos/huhuikevin/hardware_imx/branches{/branch}",
      "tags_url": "https://api.github.com/repos/huhuikevin/hardware_imx/tags",
      "blobs_url": "https://api.github.com/repos/huhuikevin/hardware_imx/git/blobs{/sha}",
      "git_tags_url": "https://api.github.com/repos/huhuikevin/hardware_imx/git/tags{/sha}",
      "git_refs_url": "https://api.github.com/repos/huhuikevin/hardware_imx/git/refs{/sha}",
      "trees_url": "https://api.github.com/repos/huhuikevin/hardware_imx/git/trees{/sha}",
      "statuses_url": "https://api.github.com/repos/huhuikevin/hardware_imx/statuses/{sha}",
      "languages_url": "https://api.github.com/repos/huhuikevin/hardware_imx/languages",
      "stargazers_url": "https://api.github.com/repos/huhuikevin/hardware_imx/stargazers",
      "contributors_url": "https://api.github.com/repos/huhuikevin/hardware_imx/contributors",
      "subscribers_url": "https://api.github.com/repos/huhuikevin/hardware_imx/subscribers",
      "subscription_url": "https://api.github.com/repos/huhuikevin/hardware_imx/subscription",
      "commits_url": "https://api.github.com/repos/huhuikevin/hardware_imx/commits{/sha}",
      "git_commits_url": "https://api.github.com/repos/huhuikevin/hardware_imx/git/commits{/sha}",
      "comments_url": "https://api.github.com/repos/huhuikevin/hardware_imx/comments{/number}",
      "issue_comment_url": "https://api.github.com/repos/huhuikevin/hardware_imx/issues/comments{/number}",
      "contents_url": "https://api.github.com/repos/huhuikevin/hardware_imx/contents/{+path}",
      "compare_url": "https://api.github.com/repos/huhuikevin/hardware_imx/compare/{base}...{head}",
      "merges_url": "https://api.github.com/repos/huhuikevin/hardware_imx/merges",
      "archive_url": "https://api.github.com/repos/huhuikevin/hardware_imx/{archive_format}{/ref}",
      "downloads_url": "https://api.github.com/repos/huhuikevin/hardware_imx/downloads",
      "issues_url": "https://api.github.com/repos/huhuikevin/hardware_imx/issues{/number}",
      "pulls_url": "https://api.github.com/repos/huhuikevin/hardware_imx/pulls{/number}",
      "milestones_url": "https://api.github.com/repos/huhuikevin/hardware_imx/milestones{/number}",
      "notifications_url": "https://api.github.com/repos/huhuikevin/hardware_imx/notifications{?since,all,participating}",
      "labels_url": "https://api.github.com/repos/huhuikevin/hardware_imx/labels{/name}",
      "releases_url": "https://api.github.com/repos/huhuikevin/hardware_imx/releases{/id}",
      "created_at": "2015-10-19T09:01:52Z",
      "updated_at": "2015-10-19T09:17:13Z",
      "pushed_at": "2015-11-11T06:01:33Z",
      "git_url": "git://github.com/huhuikevin/hardware_imx.git",
      "ssh_url": "git@github.com:huhuikevin/hardware_imx.git",
      "clone_url": "https://github.com/huhuikevin/hardware_imx.git",
      "svn_url": "https://github.com/huhuikevin/hardware_imx",
      "homepage": null,
      "size": 7368,
      "stargazers_count": 0,
      "watchers_count": 0,
      "language": "C",
      "has_issues": true,
      "has_downloads": true,
      "has_wiki": true,
      "has_pages": false,
      "forks_count": 0,
      "mirror_url": null,
      "open_issues_count": 0,
      "forks": 0,
      "open_issues": 0,
      "watchers": 0,
      "default_branch": "ms600_dev",
      "score": 1.0
    },
    {
      "id": 44562951,
      "name": "CS135_Labs",
      "full_name": "BryceDMonaco/CS135_Labs",
      "owner": {
        "login": "BryceDMonaco",
        "id": 11812350,
        "avatar_url": "https://avatars.githubusercontent.com/u/11812350?v=3",
        "gravatar_id": "",
        "url": "https://api.github.com/users/BryceDMonaco",
        "html_url": "https://github.com/BryceDMonaco",
        "followers_url": "https://api.github.com/users/BryceDMonaco/followers",
        "following_url": "https://api.github.com/users/BryceDMonaco/following{/other_user}",
        "gists_url": "https://api.github.com/users/BryceDMonaco/gists{/gist_id}",
        "starred_url": "https://api.github.com/users/BryceDMonaco/starred{/owner}{/repo}",
        "subscriptions_url": "https://api.github.com/users/BryceDMonaco/subscriptions",
        "organizations_url": "https://api.github.com/users/BryceDMonaco/orgs",
        "repos_url": "https://api.github.com/users/BryceDMonaco/repos",
        "events_url": "https://api.github.com/users/BryceDMonaco/events{/privacy}",
        "received_events_url": "https://api.github.com/users/BryceDMonaco/received_events",
        "type": "User",
        "site_admin": false
      },
      "private": false,
      "html_url": "https://github.com/BryceDMonaco/CS135_Labs",
      "description": "Assignments done in my lab class for CS135 (Fall 2015)",
      "fork": false,
      "url": "https://api.github.com/repos/BryceDMonaco/CS135_Labs",
      "forks_url": "https://api.github.com/repos/BryceDMonaco/CS135_Labs/forks",
      "keys_url": "https://api.github.com/repos/BryceDMonaco/CS135_Labs/keys{/key_id}",
      "collaborators_url": "https://api.github.com/repos/BryceDMonaco/CS135_Labs/collaborators{/collaborator}",
      "teams_url": "https://api.github.com/repos/BryceDMonaco/CS135_Labs/teams",
      "hooks_url": "https://api.github.com/repos/BryceDMonaco/CS135_Labs/hooks",
      "issue_events_url": "https://api.github.com/repos/BryceDMonaco/CS135_Labs/issues/events{/number}",
      "events_url": "https://api.github.com/repos/BryceDMonaco/CS135_Labs/events",
      "assignees_url": "https://api.github.com/repos/BryceDMonaco/CS135_Labs/assignees{/user}",
      "branches_url": "https://api.github.com/repos/BryceDMonaco/CS135_Labs/branches{/branch}",
      "tags_url": "https://api.github.com/repos/BryceDMonaco/CS135_Labs/tags",
      "blobs_url": "https://api.github.com/repos/BryceDMonaco/CS135_Labs/git/blobs{/sha}",
      "git_tags_url": "https://api.github.com/repos/BryceDMonaco/CS135_Labs/git/tags{/sha}",
      "git_refs_url": "https://api.github.com/repos/BryceDMonaco/CS135_Labs/git/refs{/sha}",
      "trees_url": "https://api.github.com/repos/BryceDMonaco/CS135_Labs/git/trees{/sha}",
      "statuses_url": "https://api.github.com/repos/BryceDMonaco/CS135_Labs/statuses/{sha}",
      "languages_url": "https://api.github.com/repos/BryceDMonaco/CS135_Labs/languages",
      "stargazers_url": "https://api.github.com/repos/BryceDMonaco/CS135_Labs/stargazers",
      "contributors_url": "https://api.github.com/repos/BryceDMonaco/CS135_Labs/contributors",
      "subscribers_url": "https://api.github.com/repos/BryceDMonaco/CS135_Labs/subscribers",
      "subscription_url": "https://api.github.com/repos/BryceDMonaco/CS135_Labs/subscription",
      "commits_url": "https://api.github.com/repos/BryceDMonaco/CS135_Labs/commits{/sha}",
      "git_commits_url": "https://api.github.com/repos/BryceDMonaco/CS135_Labs/git/commits{/sha}",
      "comments_url": "https://api.github.com/repos/BryceDMonaco/CS135_Labs/comments{/number}",
      "issue_comment_url": "https://api.github.com/repos/BryceDMonaco/CS135_Labs/issues/comments{/number}",
      "contents_url": "https://api.github.com/repos/BryceDMonaco/CS135_Labs/contents/{+path}",
      "compare_url": "https://api.github.com/repos/BryceDMonaco/CS135_Labs/compare/{base}...{head}",
      "merges_url": "https://api.github.com/repos/BryceDMonaco/CS135_Labs/merges",
      "archive_url": "https://api.github.com/repos/BryceDMonaco/CS135_Labs/{archive_format}{/ref}",
      "downloads_url": "https://api.github.com/repos/BryceDMonaco/CS135_Labs/downloads",
      "issues_url": "https://api.github.com/repos/BryceDMonaco/CS135_Labs/issues{/number}",
      "pulls_url": "https://api.github.com/repos/BryceDMonaco/CS135_Labs/pulls{/number}",
      "milestones_url": "https://api.github.com/repos/BryceDMonaco/CS135_Labs/milestones{/number}",
      "notifications_url": "https://api.github.com/repos/BryceDMonaco/CS135_Labs/notifications{?since,all,participating}",
      "labels_url": "https://api.github.com/repos/BryceDMonaco/CS135_Labs/labels{/name}",
      "releases_url": "https://api.github.com/repos/BryceDMonaco/CS135_Labs/releases{/id}",
      "created_at": "2015-10-19T20:45:23Z",
      "updated_at": "2015-10-19T20:51:57Z",
      "pushed_at": "2015-11-11T04:50:15Z",
      "git_url": "git://github.com/BryceDMonaco/CS135_Labs.git",
      "ssh_url": "git@github.com:BryceDMonaco/CS135_Labs.git",
      "clone_url": "https://github.com/BryceDMonaco/CS135_Labs.git",
      "svn_url": "https://github.com/BryceDMonaco/CS135_Labs",
      "homepage": null,
      "size": 164,
      "stargazers_count": 0,
      "watchers_count": 0,
      "language": "C",
      "has_issues": true,
      "has_downloads": true,
      "has_wiki": true,
      "has_pages": false,
      "forks_count": 0,
      "mirror_url": null,
      "open_issues_count": 0,
      "forks": 0,
      "open_issues": 0,
      "watchers": 0,
      "default_branch": "master",
      "score": 1.0
    },
    {
      "id": 44538699,
      "name": "OWA",
      "full_name": "flowergom/OWA",
      "owner": {
        "login": "flowergom",
        "id": 6027726,
        "avatar_url": "https://avatars.githubusercontent.com/u/6027726?v=3",
        "gravatar_id": "",
        "url": "https://api.github.com/users/flowergom",
        "html_url": "https://github.com/flowergom",
        "followers_url": "https://api.github.com/users/flowergom/followers",
        "following_url": "https://api.github.com/users/flowergom/following{/other_user}",
        "gists_url": "https://api.github.com/users/flowergom/gists{/gist_id}",
        "starred_url": "https://api.github.com/users/flowergom/starred{/owner}{/repo}",
        "subscriptions_url": "https://api.github.com/users/flowergom/subscriptions",
        "organizations_url": "https://api.github.com/users/flowergom/orgs",
        "repos_url": "https://api.github.com/users/flowergom/repos",
        "events_url": "https://api.github.com/users/flowergom/events{/privacy}",
        "received_events_url": "https://api.github.com/users/flowergom/received_events",
        "type": "User",
        "site_admin": false
      },
      "private": false,
      "html_url": "https://github.com/flowergom/OWA",
      "description": "Once a week Algorithm",
      "fork": false,
      "url": "https://api.github.com/repos/flowergom/OWA",
      "forks_url": "https://api.github.com/repos/flowergom/OWA/forks",
      "keys_url": "https://api.github.com/repos/flowergom/OWA/keys{/key_id}",
      "collaborators_url": "https://api.github.com/repos/flowergom/OWA/collaborators{/collaborator}",
      "teams_url": "https://api.github.com/repos/flowergom/OWA/teams",
      "hooks_url": "https://api.github.com/repos/flowergom/OWA/hooks",
      "issue_events_url": "https://api.github.com/repos/flowergom/OWA/issues/events{/number}",
      "events_url": "https://api.github.com/repos/flowergom/OWA/events",
      "assignees_url": "https://api.github.com/repos/flowergom/OWA/assignees{/user}",
      "branches_url": "https://api.github.com/repos/flowergom/OWA/branches{/branch}",
      "tags_url": "https://api.github.com/repos/flowergom/OWA/tags",
      "blobs_url": "https://api.github.com/repos/flowergom/OWA/git/blobs{/sha}",
      "git_tags_url": "https://api.github.com/repos/flowergom/OWA/git/tags{/sha}",
      "git_refs_url": "https://api.github.com/repos/flowergom/OWA/git/refs{/sha}",
      "trees_url": "https://api.github.com/repos/flowergom/OWA/git/trees{/sha}",
      "statuses_url": "https://api.github.com/repos/flowergom/OWA/statuses/{sha}",
      "languages_url": "https://api.github.com/repos/flowergom/OWA/languages",
      "stargazers_url": "https://api.github.com/repos/flowergom/OWA/stargazers",
      "contributors_url": "https://api.github.com/repos/flowergom/OWA/contributors",
      "subscribers_url": "https://api.github.com/repos/flowergom/OWA/subscribers",
      "subscription_url": "https://api.github.com/repos/flowergom/OWA/subscription",
      "commits_url": "https://api.github.com/repos/flowergom/OWA/commits{/sha}",
      "git_commits_url": "https://api.github.com/repos/flowergom/OWA/git/commits{/sha}",
      "comments_url": "https://api.github.com/repos/flowergom/OWA/comments{/number}",
      "issue_comment_url": "https://api.github.com/repos/flowergom/OWA/issues/comments{/number}",
      "contents_url": "https://api.github.com/repos/flowergom/OWA/contents/{+path}",
      "compare_url": "https://api.github.com/repos/flowergom/OWA/compare/{base}...{head}",
      "merges_url": "https://api.github.com/repos/flowergom/OWA/merges",
      "archive_url": "https://api.github.com/repos/flowergom/OWA/{archive_format}{/ref}",
      "downloads_url": "https://api.github.com/repos/flowergom/OWA/downloads",
      "issues_url": "https://api.github.com/repos/flowergom/OWA/issues{/number}",
      "pulls_url": "https://api.github.com/repos/flowergom/OWA/pulls{/number}",
      "milestones_url": "https://api.github.com/repos/flowergom/OWA/milestones{/number}",
      "notifications_url": "https://api.github.com/repos/flowergom/OWA/notifications{?since,all,participating}",
      "labels_url": "https://api.github.com/repos/flowergom/OWA/labels{/name}",
      "releases_url": "https://api.github.com/repos/flowergom/OWA/releases{/id}",
      "created_at": "2015-10-19T13:59:57Z",
      "updated_at": "2015-10-27T17:40:08Z",
      "pushed_at": "2015-11-12T05:03:20Z",
      "git_url": "git://github.com/flowergom/OWA.git",
      "ssh_url": "git@github.com:flowergom/OWA.git",
      "clone_url": "https://github.com/flowergom/OWA.git",
      "svn_url": "https://github.com/flowergom/OWA",
      "homepage": null,
      "size": 518,
      "stargazers_count": 0,
      "watchers_count": 0,
      "language": "C",
      "has_issues": true,
      "has_downloads": true,
      "has_wiki": true,
      "has_pages": false,
      "forks_count": 2,
      "mirror_url": null,
      "open_issues_count": 3,
      "forks": 2,
      "open_issues": 3,
      "watchers": 0,
      "default_branch": "master",
      "score": 1.0
    },
    {
      "id": 44524395,
      "name": "makeground",
      "full_name": "ttzeng/makeground",
      "owner": {
        "login": "ttzeng",
        "id": 1763431,
        "avatar_url": "https://avatars.githubusercontent.com/u/1763431?v=3",
        "gravatar_id": "",
        "url": "https://api.github.com/users/ttzeng",
        "html_url": "https://github.com/ttzeng",
        "followers_url": "https://api.github.com/users/ttzeng/followers",
        "following_url": "https://api.github.com/users/ttzeng/following{/other_user}",
        "gists_url": "https://api.github.com/users/ttzeng/gists{/gist_id}",
        "starred_url": "https://api.github.com/users/ttzeng/starred{/owner}{/repo}",
        "subscriptions_url": "https://api.github.com/users/ttzeng/subscriptions",
        "organizations_url": "https://api.github.com/users/ttzeng/orgs",
        "repos_url": "https://api.github.com/users/ttzeng/repos",
        "events_url": "https://api.github.com/users/ttzeng/events{/privacy}",
        "received_events_url": "https://api.github.com/users/ttzeng/received_events",
        "type": "User",
        "site_admin": false
      },
      "private": false,
      "html_url": "https://github.com/ttzeng/makeground",
      "description": "My make ground",
      "fork": false,
      "url": "https://api.github.com/repos/ttzeng/makeground",
      "forks_url": "https://api.github.com/repos/ttzeng/makeground/forks",
      "keys_url": "https://api.github.com/repos/ttzeng/makeground/keys{/key_id}",
      "collaborators_url": "https://api.github.com/repos/ttzeng/makeground/collaborators{/collaborator}",
      "teams_url": "https://api.github.com/repos/ttzeng/makeground/teams",
      "hooks_url": "https://api.github.com/repos/ttzeng/makeground/hooks",
      "issue_events_url": "https://api.github.com/repos/ttzeng/makeground/issues/events{/number}",
      "events_url": "https://api.github.com/repos/ttzeng/makeground/events",
      "assignees_url": "https://api.github.com/repos/ttzeng/makeground/assignees{/user}",
      "branches_url": "https://api.github.com/repos/ttzeng/makeground/branches{/branch}",
      "tags_url": "https://api.github.com/repos/ttzeng/makeground/tags",
      "blobs_url": "https://api.github.com/repos/ttzeng/makeground/git/blobs{/sha}",
      "git_tags_url": "https://api.github.com/repos/ttzeng/makeground/git/tags{/sha}",
      "git_refs_url": "https://api.github.com/repos/ttzeng/makeground/git/refs{/sha}",
      "trees_url": "https://api.github.com/repos/ttzeng/makeground/git/trees{/sha}",
      "statuses_url": "https://api.github.com/repos/ttzeng/makeground/statuses/{sha}",
      "languages_url": "https://api.github.com/repos/ttzeng/makeground/languages",
      "stargazers_url": "https://api.github.com/repos/ttzeng/makeground/stargazers",
      "contributors_url": "https://api.github.com/repos/ttzeng/makeground/contributors",
      "subscribers_url": "https://api.github.com/repos/ttzeng/makeground/subscribers",
      "subscription_url": "https://api.github.com/repos/ttzeng/makeground/subscription",
      "commits_url": "https://api.github.com/repos/ttzeng/makeground/commits{/sha}",
      "git_commits_url": "https://api.github.com/repos/ttzeng/makeground/git/commits{/sha}",
      "comments_url": "https://api.github.com/repos/ttzeng/makeground/comments{/number}",
      "issue_comment_url": "https://api.github.com/repos/ttzeng/makeground/issues/comments{/number}",
      "contents_url": "https://api.github.com/repos/ttzeng/makeground/contents/{+path}",
      "compare_url": "https://api.github.com/repos/ttzeng/makeground/compare/{base}...{head}",
      "merges_url": "https://api.github.com/repos/ttzeng/makeground/merges",
      "archive_url": "https://api.github.com/repos/ttzeng/makeground/{archive_format}{/ref}",
      "downloads_url": "https://api.github.com/repos/ttzeng/makeground/downloads",
      "issues_url": "https://api.github.com/repos/ttzeng/makeground/issues{/number}",
      "pulls_url": "https://api.github.com/repos/ttzeng/makeground/pulls{/number}",
      "milestones_url": "https://api.github.com/repos/ttzeng/makeground/milestones{/number}",
      "notifications_url": "https://api.github.com/repos/ttzeng/makeground/notifications{?since,all,participating}",
      "labels_url": "https://api.github.com/repos/ttzeng/makeground/labels{/name}",
      "releases_url": "https://api.github.com/repos/ttzeng/makeground/releases{/id}",
      "created_at": "2015-10-19T09:29:49Z",
      "updated_at": "2015-10-19T09:31:28Z",
      "pushed_at": "2015-11-12T09:13:33Z",
      "git_url": "git://github.com/ttzeng/makeground.git",
      "ssh_url": "git@github.com:ttzeng/makeground.git",
      "clone_url": "https://github.com/ttzeng/makeground.git",
      "svn_url": "https://github.com/ttzeng/makeground",
      "homepage": null,
      "size": 176,
      "stargazers_count": 0,
      "watchers_count": 0,
      "language": "C",
      "has_issues": true,
      "has_downloads": true,
      "has_wiki": true,
      "has_pages": false,
      "forks_count": 0,
      "mirror_url": null,
      "open_issues_count": 0,
      "forks": 0,
      "open_issues": 0,
      "watchers": 0,
      "default_branch": "master",
      "score": 1.0
    },
    {
      "id": 44516345,
      "name": "ProjectDMOS",
      "full_name": "sidharth08singh/ProjectDMOS",
      "owner": {
        "login": "sidharth08singh",
        "id": 12002929,
        "avatar_url": "https://avatars.githubusercontent.com/u/12002929?v=3",
        "gravatar_id": "",
        "url": "https://api.github.com/users/sidharth08singh",
        "html_url": "https://github.com/sidharth08singh",
        "followers_url": "https://api.github.com/users/sidharth08singh/followers",
        "following_url": "https://api.github.com/users/sidharth08singh/following{/other_user}",
        "gists_url": "https://api.github.com/users/sidharth08singh/gists{/gist_id}",
        "starred_url": "https://api.github.com/users/sidharth08singh/starred{/owner}{/repo}",
        "subscriptions_url": "https://api.github.com/users/sidharth08singh/subscriptions",
        "organizations_url": "https://api.github.com/users/sidharth08singh/orgs",
        "repos_url": "https://api.github.com/users/sidharth08singh/repos",
        "events_url": "https://api.github.com/users/sidharth08singh/events{/privacy}",
        "received_events_url": "https://api.github.com/users/sidharth08singh/received_events",
        "type": "User",
        "site_admin": false
      },
      "private": false,
      "html_url": "https://github.com/sidharth08singh/ProjectDMOS",
      "description": "",
      "fork": false,
      "url": "https://api.github.com/repos/sidharth08singh/ProjectDMOS",
      "forks_url": "https://api.github.com/repos/sidharth08singh/ProjectDMOS/forks",
      "keys_url": "https://api.github.com/repos/sidharth08singh/ProjectDMOS/keys{/key_id}",
      "collaborators_url": "https://api.github.com/repos/sidharth08singh/ProjectDMOS/collaborators{/collaborator}",
      "teams_url": "https://api.github.com/repos/sidharth08singh/ProjectDMOS/teams",
      "hooks_url": "https://api.github.com/repos/sidharth08singh/ProjectDMOS/hooks",
      "issue_events_url": "https://api.github.com/repos/sidharth08singh/ProjectDMOS/issues/events{/number}",
      "events_url": "https://api.github.com/repos/sidharth08singh/ProjectDMOS/events",
      "assignees_url": "https://api.github.com/repos/sidharth08singh/ProjectDMOS/assignees{/user}",
      "branches_url": "https://api.github.com/repos/sidharth08singh/ProjectDMOS/branches{/branch}",
      "tags_url": "https://api.github.com/repos/sidharth08singh/ProjectDMOS/tags",
      "blobs_url": "https://api.github.com/repos/sidharth08singh/ProjectDMOS/git/blobs{/sha}",
      "git_tags_url": "https://api.github.com/repos/sidharth08singh/ProjectDMOS/git/tags{/sha}",
      "git_refs_url": "https://api.github.com/repos/sidharth08singh/ProjectDMOS/git/refs{/sha}",
      "trees_url": "https://api.github.com/repos/sidharth08singh/ProjectDMOS/git/trees{/sha}",
      "statuses_url": "https://api.github.com/repos/sidharth08singh/ProjectDMOS/statuses/{sha}",
      "languages_url": "https://api.github.com/repos/sidharth08singh/ProjectDMOS/languages",
      "stargazers_url": "https://api.github.com/repos/sidharth08singh/ProjectDMOS/stargazers",
      "contributors_url": "https://api.github.com/repos/sidharth08singh/ProjectDMOS/contributors",
      "subscribers_url": "https://api.github.com/repos/sidharth08singh/ProjectDMOS/subscribers",
      "subscription_url": "https://api.github.com/repos/sidharth08singh/ProjectDMOS/subscription",
      "commits_url": "https://api.github.com/repos/sidharth08singh/ProjectDMOS/commits{/sha}",
      "git_commits_url": "https://api.github.com/repos/sidharth08singh/ProjectDMOS/git/commits{/sha}",
      "comments_url": "https://api.github.com/repos/sidharth08singh/ProjectDMOS/comments{/number}",
      "issue_comment_url": "https://api.github.com/repos/sidharth08singh/ProjectDMOS/issues/comments{/number}",
      "contents_url": "https://api.github.com/repos/sidharth08singh/ProjectDMOS/contents/{+path}",
      "compare_url": "https://api.github.com/repos/sidharth08singh/ProjectDMOS/compare/{base}...{head}",
      "merges_url": "https://api.github.com/repos/sidharth08singh/ProjectDMOS/merges",
      "archive_url": "https://api.github.com/repos/sidharth08singh/ProjectDMOS/{archive_format}{/ref}",
      "downloads_url": "https://api.github.com/repos/sidharth08singh/ProjectDMOS/downloads",
      "issues_url": "https://api.github.com/repos/sidharth08singh/ProjectDMOS/issues{/number}",
      "pulls_url": "https://api.github.com/repos/sidharth08singh/ProjectDMOS/pulls{/number}",
      "milestones_url": "https://api.github.com/repos/sidharth08singh/ProjectDMOS/milestones{/number}",
      "notifications_url": "https://api.github.com/repos/sidharth08singh/ProjectDMOS/notifications{?since,all,participating}",
      "labels_url": "https://api.github.com/repos/sidharth08singh/ProjectDMOS/labels{/name}",
      "releases_url": "https://api.github.com/repos/sidharth08singh/ProjectDMOS/releases{/id}",
      "created_at": "2015-10-19T06:52:56Z",
      "updated_at": "2015-10-19T07:58:50Z",
      "pushed_at": "2015-11-13T07:50:27Z",
      "git_url": "git://github.com/sidharth08singh/ProjectDMOS.git",
      "ssh_url": "git@github.com:sidharth08singh/ProjectDMOS.git",
      "clone_url": "https://github.com/sidharth08singh/ProjectDMOS.git",
      "svn_url": "https://github.com/sidharth08singh/ProjectDMOS",
      "homepage": null,
      "size": 168,
      "stargazers_count": 0,
      "watchers_count": 0,
      "language": "C",
      "has_issues": true,
      "has_downloads": true,
      "has_wiki": true,
      "has_pages": false,
      "forks_count": 0,
      "mirror_url": null,
      "open_issues_count": 0,
      "forks": 0,
      "open_issues": 0,
      "watchers": 0,
      "default_branch": "master",
      "score": 1.0
    },
    {
      "id": 44516480,
      "name": "k-ind_aig",
      "full_name": "mgudemann/k-ind_aig",
      "owner": {
        "login": "mgudemann",
        "id": 2590540,
        "avatar_url": "https://avatars.githubusercontent.com/u/2590540?v=3",
        "gravatar_id": "",
        "url": "https://api.github.com/users/mgudemann",
        "html_url": "https://github.com/mgudemann",
        "followers_url": "https://api.github.com/users/mgudemann/followers",
        "following_url": "https://api.github.com/users/mgudemann/following{/other_user}",
        "gists_url": "https://api.github.com/users/mgudemann/gists{/gist_id}",
        "starred_url": "https://api.github.com/users/mgudemann/starred{/owner}{/repo}",
        "subscriptions_url": "https://api.github.com/users/mgudemann/subscriptions",
        "organizations_url": "https://api.github.com/users/mgudemann/orgs",
        "repos_url": "https://api.github.com/users/mgudemann/repos",
        "events_url": "https://api.github.com/users/mgudemann/events{/privacy}",
        "received_events_url": "https://api.github.com/users/mgudemann/received_events",
        "type": "User",
        "site_admin": false
      },
      "private": false,
      "html_url": "https://github.com/mgudemann/k-ind_aig",
      "description": "",
      "fork": false,
      "url": "https://api.github.com/repos/mgudemann/k-ind_aig",
      "forks_url": "https://api.github.com/repos/mgudemann/k-ind_aig/forks",
      "keys_url": "https://api.github.com/repos/mgudemann/k-ind_aig/keys{/key_id}",
      "collaborators_url": "https://api.github.com/repos/mgudemann/k-ind_aig/collaborators{/collaborator}",
      "teams_url": "https://api.github.com/repos/mgudemann/k-ind_aig/teams",
      "hooks_url": "https://api.github.com/repos/mgudemann/k-ind_aig/hooks",
      "issue_events_url": "https://api.github.com/repos/mgudemann/k-ind_aig/issues/events{/number}",
      "events_url": "https://api.github.com/repos/mgudemann/k-ind_aig/events",
      "assignees_url": "https://api.github.com/repos/mgudemann/k-ind_aig/assignees{/user}",
      "branches_url": "https://api.github.com/repos/mgudemann/k-ind_aig/branches{/branch}",
      "tags_url": "https://api.github.com/repos/mgudemann/k-ind_aig/tags",
      "blobs_url": "https://api.github.com/repos/mgudemann/k-ind_aig/git/blobs{/sha}",
      "git_tags_url": "https://api.github.com/repos/mgudemann/k-ind_aig/git/tags{/sha}",
      "git_refs_url": "https://api.github.com/repos/mgudemann/k-ind_aig/git/refs{/sha}",
      "trees_url": "https://api.github.com/repos/mgudemann/k-ind_aig/git/trees{/sha}",
      "statuses_url": "https://api.github.com/repos/mgudemann/k-ind_aig/statuses/{sha}",
      "languages_url": "https://api.github.com/repos/mgudemann/k-ind_aig/languages",
      "stargazers_url": "https://api.github.com/repos/mgudemann/k-ind_aig/stargazers",
      "contributors_url": "https://api.github.com/repos/mgudemann/k-ind_aig/contributors",
      "subscribers_url": "https://api.github.com/repos/mgudemann/k-ind_aig/subscribers",
      "subscription_url": "https://api.github.com/repos/mgudemann/k-ind_aig/subscription",
      "commits_url": "https://api.github.com/repos/mgudemann/k-ind_aig/commits{/sha}",
      "git_commits_url": "https://api.github.com/repos/mgudemann/k-ind_aig/git/commits{/sha}",
      "comments_url": "https://api.github.com/repos/mgudemann/k-ind_aig/comments{/number}",
      "issue_comment_url": "https://api.github.com/repos/mgudemann/k-ind_aig/issues/comments{/number}",
      "contents_url": "https://api.github.com/repos/mgudemann/k-ind_aig/contents/{+path}",
      "compare_url": "https://api.github.com/repos/mgudemann/k-ind_aig/compare/{base}...{head}",
      "merges_url": "https://api.github.com/repos/mgudemann/k-ind_aig/merges",
      "archive_url": "https://api.github.com/repos/mgudemann/k-ind_aig/{archive_format}{/ref}",
      "downloads_url": "https://api.github.com/repos/mgudemann/k-ind_aig/downloads",
      "issues_url": "https://api.github.com/repos/mgudemann/k-ind_aig/issues{/number}",
      "pulls_url": "https://api.github.com/repos/mgudemann/k-ind_aig/pulls{/number}",
      "milestones_url": "https://api.github.com/repos/mgudemann/k-ind_aig/milestones{/number}",
      "notifications_url": "https://api.github.com/repos/mgudemann/k-ind_aig/notifications{?since,all,participating}",
      "labels_url": "https://api.github.com/repos/mgudemann/k-ind_aig/labels{/name}",
      "releases_url": "https://api.github.com/repos/mgudemann/k-ind_aig/releases{/id}",
      "created_at": "2015-10-19T06:55:55Z",
      "updated_at": "2015-11-04T07:03:21Z",
      "pushed_at": "2015-11-13T12:17:02Z",
      "git_url": "git://github.com/mgudemann/k-ind_aig.git",
      "ssh_url": "git@github.com:mgudemann/k-ind_aig.git",
      "clone_url": "https://github.com/mgudemann/k-ind_aig.git",
      "svn_url": "https://github.com/mgudemann/k-ind_aig",
      "homepage": null,
      "size": 160,
      "stargazers_count": 0,
      "watchers_count": 0,
      "language": "C",
      "has_issues": true,
      "has_downloads": true,
      "has_wiki": true,
      "has_pages": false,
      "forks_count": 0,
      "mirror_url": null,
      "open_issues_count": 0,
      "forks": 0,
      "open_issues": 0,
      "watchers": 0,
      "default_branch": "master",
      "score": 1.0
    },
    {
      "id": 44549640,
      "name": "C_Study",
      "full_name": "BedirT/C_Study",
      "owner": {
        "login": "BedirT",
        "id": 10860127,
        "avatar_url": "https://avatars.githubusercontent.com/u/10860127?v=3",
        "gravatar_id": "",
        "url": "https://api.github.com/users/BedirT",
        "html_url": "https://github.com/BedirT",
        "followers_url": "https://api.github.com/users/BedirT/followers",
        "following_url": "https://api.github.com/users/BedirT/following{/other_user}",
        "gists_url": "https://api.github.com/users/BedirT/gists{/gist_id}",
        "starred_url": "https://api.github.com/users/BedirT/starred{/owner}{/repo}",
        "subscriptions_url": "https://api.github.com/users/BedirT/subscriptions",
        "organizations_url": "https://api.github.com/users/BedirT/orgs",
        "repos_url": "https://api.github.com/users/BedirT/repos",
        "events_url": "https://api.github.com/users/BedirT/events{/privacy}",
        "received_events_url": "https://api.github.com/users/BedirT/received_events",
        "type": "User",
        "site_admin": false
      },
      "private": false,
      "html_url": "https://github.com/BedirT/C_Study",
      "description": "My C studies during my freshman year",
      "fork": false,
      "url": "https://api.github.com/repos/BedirT/C_Study",
      "forks_url": "https://api.github.com/repos/BedirT/C_Study/forks",
      "keys_url": "https://api.github.com/repos/BedirT/C_Study/keys{/key_id}",
      "collaborators_url": "https://api.github.com/repos/BedirT/C_Study/collaborators{/collaborator}",
      "teams_url": "https://api.github.com/repos/BedirT/C_Study/teams",
      "hooks_url": "https://api.github.com/repos/BedirT/C_Study/hooks",
      "issue_events_url": "https://api.github.com/repos/BedirT/C_Study/issues/events{/number}",
      "events_url": "https://api.github.com/repos/BedirT/C_Study/events",
      "assignees_url": "https://api.github.com/repos/BedirT/C_Study/assignees{/user}",
      "branches_url": "https://api.github.com/repos/BedirT/C_Study/branches{/branch}",
      "tags_url": "https://api.github.com/repos/BedirT/C_Study/tags",
      "blobs_url": "https://api.github.com/repos/BedirT/C_Study/git/blobs{/sha}",
      "git_tags_url": "https://api.github.com/repos/BedirT/C_Study/git/tags{/sha}",
      "git_refs_url": "https://api.github.com/repos/BedirT/C_Study/git/refs{/sha}",
      "trees_url": "https://api.github.com/repos/BedirT/C_Study/git/trees{/sha}",
      "statuses_url": "https://api.github.com/repos/BedirT/C_Study/statuses/{sha}",
      "languages_url": "https://api.github.com/repos/BedirT/C_Study/languages",
      "stargazers_url": "https://api.github.com/repos/BedirT/C_Study/stargazers",
      "contributors_url": "https://api.github.com/repos/BedirT/C_Study/contributors",
      "subscribers_url": "https://api.github.com/repos/BedirT/C_Study/subscribers",
      "subscription_url": "https://api.github.com/repos/BedirT/C_Study/subscription",
      "commits_url": "https://api.github.com/repos/BedirT/C_Study/commits{/sha}",
      "git_commits_url": "https://api.github.com/repos/BedirT/C_Study/git/commits{/sha}",
      "comments_url": "https://api.github.com/repos/BedirT/C_Study/comments{/number}",
      "issue_comment_url": "https://api.github.com/repos/BedirT/C_Study/issues/comments{/number}",
      "contents_url": "https://api.github.com/repos/BedirT/C_Study/contents/{+path}",
      "compare_url": "https://api.github.com/repos/BedirT/C_Study/compare/{base}...{head}",
      "merges_url": "https://api.github.com/repos/BedirT/C_Study/merges",
      "archive_url": "https://api.github.com/repos/BedirT/C_Study/{archive_format}{/ref}",
      "downloads_url": "https://api.github.com/repos/BedirT/C_Study/downloads",
      "issues_url": "https://api.github.com/repos/BedirT/C_Study/issues{/number}",
      "pulls_url": "https://api.github.com/repos/BedirT/C_Study/pulls{/number}",
      "milestones_url": "https://api.github.com/repos/BedirT/C_Study/milestones{/number}",
      "notifications_url": "https://api.github.com/repos/BedirT/C_Study/notifications{?since,all,participating}",
      "labels_url": "https://api.github.com/repos/BedirT/C_Study/labels{/name}",
      "releases_url": "https://api.github.com/repos/BedirT/C_Study/releases{/id}",
      "created_at": "2015-10-19T16:53:31Z",
      "updated_at": "2015-10-19T16:53:36Z",
      "pushed_at": "2015-11-13T22:12:05Z",
      "git_url": "git://github.com/BedirT/C_Study.git",
      "ssh_url": "git@github.com:BedirT/C_Study.git",
      "clone_url": "https://github.com/BedirT/C_Study.git",
      "svn_url": "https://github.com/BedirT/C_Study",
      "homepage": null,
      "size": 168,
      "stargazers_count": 0,
      "watchers_count": 0,
      "language": "C",
      "has_issues": true,
      "has_downloads": true,
      "has_wiki": true,
      "has_pages": false,
      "forks_count": 0,
      "mirror_url": null,
      "open_issues_count": 0,
      "forks": 0,
      "open_issues": 0,
      "watchers": 0,
      "default_branch": "master",
      "score": 1.0
    }
  ]
}
