"QlowB/zombieporn",168,"User",,0,0,true,true,true,false,0,,0,0,"master",1
"ducminh296/Embedded-Codes",196,"User",,0,0,true,true,true,false,0,,0,0,"master",1
"Irais97/FUP1B",136,"User",,0,0,true,true,true,false,0,,0,0,"master",1
"Morovaille/ft_sh1",172,"User",,0,0,true,true,true,false,0,,0,0,"master",1
"acampoh/SoundBerry",2432,"User","",0,0,true,true,true,false,0,,0,0,"master",1
"627656505/leetcode",144,"User",,0,0,true,true,true,false,0,,0,0,"master",1
"asjimene/CSE424WVSNPMiddleware",156,"User",,0,0,true,true,true,false,0,,0,0,"master",1
"souzavyvy/TrabProgI",148,"User",,0,0,true,true,true,false,0,,0,0,"master",1
"kahnar/CRYPTASYM",148,"User",,0,0,true,true,true,false,0,,0,0,"master",1
"aglqcs/P2P_CC",1584,"User",,0,0,true,true,true,false,0,,0,0,"master",1
"jtc11005/Senior_Project",30628,"User",,0,0,true,true,true,false,0,,0,0,"master",1
"friendlyarm/linux-3.4.y",123132,"User","",0,0,true,true,true,false,0,,0,0,"s5p4418-nanopi2",1
"christophgysin/moc",3532,"User",,0,0,true,true,true,false,0,,0,0,"lyrics",1
"Zola/agentsofshield",408,"User",,0,0,true,true,true,false,0,,0,0,"master",1
"open-university-notes/20465-systems-programing-workshop",128,"Organization",,0,0,true,true,true,false,0,,0,0,"master",1
"roman-neuhauser/shellsql",244,"User",,0,0,true,true,true,false,0,,0,0,"master",1
"ziotom78/libpolycomp",708,"User",,0,0,true,true,true,true,0,,0,0,"master",1
"Ragnok/IntroC",156,"User",,0,0,true,true,true,false,0,,0,0,"master",1
"muhammadahmad2/Lab3",188,"User",,0,0,true,true,true,false,0,,0,0,"master",1
"brnluiz/QMULEmbeddedSystems",708,"User",,0,0,true,true,true,false,0,,0,0,"master",1
"wetwicky/programmation-C",180,"User",,0,0,true,true,true,false,0,,0,0,"master",1
"trulstveoy/Celery.Native",96840,"User",,0,0,true,true,true,false,0,,0,0,"master",1
"bruno-/hello-trolld",140,"User","",0,0,true,true,false,false,0,,0,0,"master",1
"vmonteco/libft_test",160,"User",,0,0,true,true,true,false,0,,0,0,"master",1
"danmar3/quadcopter",3444,"User",,0,0,true,true,true,false,0,,0,0,"master",1
"izaera/joker",932,"User","",0,0,true,true,true,false,0,,0,0,"master",1
"brandonto/SYSC_4001",135,"User",,0,0,true,true,true,false,1,,0,1,"master",1
"lunacyl/ics2015",3172,"User",,0,0,true,true,true,false,0,,0,0,"master",1
"Ldcamposh/FUP1C",152,"User",,0,0,true,true,true,false,0,,0,0,"master",1
"Luiis17/FUP1B",136,"User",,0,0,true,true,true,false,0,,0,0,"master",1
"hoihu/projects",7636,"User",,0,0,true,true,true,false,0,,0,0,"master",1
"AdamYang121/on-campus-study",140,"User",,0,0,true,true,true,false,0,,0,0,"master",1
"dennis-chen/NES-Emu",328,"User",,0,0,true,true,true,false,0,,0,0,"master",1
"N3r1GonzalezDaniel/FUP1B",188,"User",,0,0,true,true,true,false,0,,0,0,"master",1
"UBERMALLOW/device_htc_flounder",0,"Organization",,0,0,true,true,true,false,0,,0,0,"master",1
"hoelzlw/hpc-lab",788,"User",,0,0,true,true,true,false,0,,0,0,"master",1
"Benyjuice/netbee",188,"User",,0,0,true,true,true,false,0,,1,0,"master",1
"ekane043/kaneel01lc",108,"User",,0,0,true,true,true,false,0,,0,0,"master",1
"protezion/CProject",112,"User",,0,0,true,true,true,false,0,,0,0,"master",1
"kuffz/libpcap-bk",3892,"User","",0,0,true,true,true,false,0,,0,0,"master",1
"ClarkChen633/5minInLinuxV011",7568,"User",,0,0,true,true,true,false,0,,0,0,"master",1
"dannypickle/cse430_proj",160,"User",,0,0,true,true,true,false,0,,0,0,"master",1
"redmi2/android_external_busybox",27796,"Organization",,0,0,true,true,true,false,0,,0,0,"m",1
"doctorxyz/open-ps2-loader",5604,"User","",0,0,true,true,true,false,0,,0,0,"master",1
"zhui-ying/HeartColorLEDDIYcode",348,"User",,0,0,true,true,true,false,0,,0,0,"master",1
"JosephLi141242/apv",64748,"User",,0,0,true,false,false,false,0,,116,0,"master",1
"friendlyarm/android_hardware_broadcom_libbt",152,"User",,0,0,true,true,true,false,0,,0,0,"kitkat-mr1-release",1
"ryankurte/EAN13",148,"User",,0,0,true,true,true,false,0,,0,0,"master",1
"LeoPendotiba/Prog1Trab1-IMC",140,"User",,0,0,true,true,true,false,0,,0,0,"master",1
"Alwnikrotikz/awd",3676,"User",,0,0,true,false,false,false,0,,41,0,"master",1
"Alwnikrotikz/dolread",1736,"User",,0,0,true,false,false,false,0,,16,0,"master",1
"yixd/ooo",112,"User",,0,0,true,true,true,false,0,,0,0,"master",1
"b1013190/TestMan",132,"User",,0,0,true,true,true,false,0,,0,0,"master",1
"zhu410289616/RHAudioKit",3560,"User",,0,0,true,true,true,false,0,,0,0,"master",1
"b1013063/test",132,"User",,0,0,true,true,true,false,0,,0,0,"master",1
"friendlyarm/android_external_fuse",352,"User",,0,0,true,true,true,false,0,,0,0,"s5p4418-kitkat",1
"friendlyarm/android_system_core",1560,"User",,0,0,true,true,true,false,0,,0,0,"kitkat-mr1-release",1
"b1013107/fublab_test1",132,"User",,0,0,true,true,true,false,0,,0,0,"master",1
"Protonentomate/word2vec",272,"User",,0,0,true,false,false,false,0,,35,0,"master",1
"kuffz/pf-ring-bk",8260,"User",,0,0,true,true,true,false,0,,0,0,"6.0.3-stable",1
"rajasagashe/Cool-Projects",116,"User",,0,0,true,true,true,false,0,,0,0,"master",1
"Alizyt/Git",4236,"User","",0,0,true,true,true,false,0,,0,0,"master",1
"Curtis017/ParallelProject",148,"User",,0,0,true,true,true,false,0,,0,0,"master",1
"Munene777/Simple-Prefix-notation-calculator-in-C",116,"User",,0,0,true,true,true,false,0,,0,0,"master",1
"SamLin95/PageMemory",260,"User",,0,0,true,true,true,false,0,,0,0,"master",1
"rsidorov/tiffonandroid",2384,"User",,0,0,true,false,false,false,0,,5,0,"master",1
"dnduc789/submodules",132832,"User",,0,0,true,true,true,false,0,,0,0,"master",1
"Dishank1/binarytree",144,"User",,0,0,true,true,true,false,0,,0,0,"master",1
"fangxuepeng/Fang",5392,"User",,0,0,true,true,true,false,0,,0,0,"master",1
"wcs7846/STM32F407",128,"User",,0,0,true,true,true,false,0,,0,0,"master",1
"CM13-Y300/android_hardware_qcom_gps",639,"Organization",,0,0,true,true,true,false,0,,0,0,"cm-13.0",1
"lucarossi93/merces",184,"User",,0,0,true,true,true,false,0,,0,0,"master",1
"cmjonze/gmp",9264,"User",,0,0,true,true,true,false,0,,0,0,"master",1
"Balancor/BigNumberMulti",112,"User",,0,0,true,true,true,false,0,,0,0,"master",1
"BenjaminDeregnaucourt/C",140,"User",,0,0,true,true,true,false,0,,0,0,"master",1
"mindcont/OpenSource",172908,"User",,0,0,true,true,true,true,0,,0,0,"master",1
"xj-coder/android-screenshot-library",564,"User",,0,0,true,false,false,false,0,,8,0,"master",1
"FreemanX/GuidanceForMatlab",9572,"User",,0,0,true,true,true,false,0,,0,0,"master",1
"jfcralo/SI",87628,"User",,0,0,true,true,true,false,0,,0,0,"master",1
"jsnagai/PP",128,"User",,0,0,true,true,true,false,0,,0,0,"master",1
"CM13-Y300/android_hardware_atheros_wlan",107,"Organization",,0,0,true,true,true,false,0,,0,0,"cm-13.0",1
"xiaoliangzuo/learngit",128,"User",,0,0,true,true,true,false,0,,0,0,"master",1
"pgvoorhees/active-pickguard",231064,"User",,0,0,true,false,false,false,0,,0,0,"master",1
"AleixBV/Dev_class7_handout",3224,"User",,0,0,true,true,true,false,0,,0,0,"master",1
"kandasamy73/SSE",132,"User",,0,0,true,true,true,false,0,,0,0,"master",1
"wwjzxwjc/568a2",276,"User",,0,0,true,true,true,false,0,,0,0,"master",1
"Cajjunb/trabalhoSO_2-2015",248,"User",,0,0,true,true,true,false,0,,0,0,"master",1
"AlfaroukhLO/tdpprcd",128,"User",,0,0,true,true,true,false,0,,0,0,"master",1
"neikhil123/project",140,"User",,0,0,true,true,true,false,0,,0,0,"master",1
"ndantam/viewblocks",132,"User",,0,0,true,true,true,false,0,,0,0,"master",1
"surikat/sql-library",112,"User",,0,0,true,true,true,false,0,,0,0,"master",1
"musicwarez/arducam-osd",9168,"User",,0,0,true,false,false,false,0,,39,0,"master",1
"Ermitanio/LPCOpen_PWM-MotorBrushless",237,"User",,0,0,true,true,true,false,1,,0,1,"master",1
"faical-yannick-congo/PyRngStream",308,"User",,0,0,true,true,true,false,0,,0,0,"master",1
"ragzer/lista-enlazada",146,"User",,0,0,true,true,true,false,1,,0,1,"master",1
"baohoangabc/ass1os",124,"User",,0,0,true,true,true,false,0,,0,0,"master",1
"Germano0/alfred-custom",460,"User",,0,0,true,true,true,false,0,,0,0,"master",1
"fabsat/Power_mater_program",160,"Organization",,0,0,true,true,true,false,0,,0,0,"master",1
"XMelancholy/Mkqcdtbootimg_ForWindows",1420,"User",,0,0,true,true,true,false,0,,0,0,"master",1
"turnervink/candycorn",5572,"User",,0,0,true,true,true,false,0,,0,0,"master",1
