"DodusDen/Pintos-Project1",496,"User",,0,0,true,true,true,false,0,,0,0,"master",1
"rdm-dev/rtl8189ES_linux",2135,"Organization",,0,0,true,true,true,false,2,,0,2,"master",1
"istefano82/c-hard-way",188,"User",,0,0,true,true,true,false,0,,0,0,"master",1
"ta5aka1/practice",188,"User",,0,0,true,true,true,false,0,,0,0,"master",1
"zachyee/cs143-project1",392,"User",,0,0,true,true,true,false,0,,0,0,"master",1
"wqslucifer/CS631-linux",1080,"User",,0,0,true,true,true,false,0,,0,0,"ls-fts",1
"Zaboon/cpp_babel",45356,"User","",0,0,true,true,true,false,0,,0,0,"master",1
"Bhargavi19/Mini-Project-Dsa",140,"User",,0,0,true,true,true,false,0,,0,0,"master",1
"PrgrmAtCeleritas/RTOS",188,"User",,0,0,true,true,true,false,0,,0,0,"master",1
"NakOh/ImageProcessing",3300,"User",,0,0,true,true,true,false,0,,0,0,"master",1
"MaybeS/ITE1009",18127,"User",,0,0,true,true,true,false,1,,0,1,"master",1
"FrKevin/Licence3-Semestre5",14792,"User",,0,0,true,true,true,false,1,,0,1,"master",1
"EstebanDalelR/ProyInfratec",14498,"User",,0,0,true,true,true,false,1,,0,1,"master",1
"kozakromch/git",148,"User",,0,0,true,true,true,false,0,,0,0,"master",1
"GusMonod/index-me",272,"User",,0,0,true,true,true,false,0,,0,0,"master",1
"renesas-rcar/vsp2driver",212,"Organization",,0,0,true,true,true,false,0,,0,0,"rcar-gen3",1
"RomanZavodskikh/Lunyov",3248,"User",,0,0,true,true,true,false,0,,0,0,"master",1
"abcxyz09/codelibrary",256,"User",,0,0,true,true,true,false,0,,0,0,"master",1
"ecomptiago/EmbarcadosLab2",472,"User",,0,0,true,true,true,false,0,,0,0,"master",1
"kreuzman/indicator-countdown",192,"User",,0,0,true,true,true,false,0,,0,0,"master",1
"kusl/clion-hello",132,"Organization",,0,0,true,true,true,false,0,,0,0,"master",1
"thndrwrks/lookup",144,"User",,0,0,true,true,true,false,0,,0,0,"master",1
"nicholaslum444/RC4-Cracker",18528,"User",,0,0,true,true,true,false,0,,0,0,"master",1
"chcoppernoll/Ethernet-Collision-Simulation",140,"User",,0,0,true,true,true,false,0,,0,0,"master",1
"funtoo/gnome-3.16-fixups",272,"Organization",,0,0,true,true,true,false,0,,1,0,"master",1
"tilast/comp_networks_1",99,"User",,0,0,true,true,true,false,1,,0,1,"master",1
"cielavenir/7razf",868,"User",,0,0,true,true,true,false,0,,0,0,"master",1
"mcku/leptonica-osx",6876,"User",,0,0,true,true,true,false,0,,0,0,"master",1
"Nandopolis/Robot-6DOF-UMSA",492,"User",,0,0,true,true,true,false,0,,0,0,"master",1
"steby/stebyOBD",204,"User",,0,0,true,true,true,false,0,,0,0,"master",1
"girikuncoro/ble4",136,"User",,0,0,true,true,true,false,0,,0,0,"master",1
"Brlgomez/CMPS101-graphs",152,"User",,0,0,true,true,true,false,0,,0,0,"master",1
"OpenInkpot-archive/iplinux-sox",7348,"Organization",,0,0,true,true,true,false,0,,0,0,"master",1
"OpenInkpot-archive/iplinux-uclibc",17284,"Organization",,0,0,true,true,true,false,0,,0,0,"master",1
"OpenInkpot-archive/iplinux-alsa-lib",1916,"Organization",,0,0,true,true,true,false,0,,0,0,"master",1
"OpenInkpot-archive/iplinux-gdb",20912,"Organization",,0,0,true,true,true,false,0,,0,0,"master",1
"OpenInkpot-archive/iplinux-gdbm",620,"Organization",,0,0,true,true,true,false,0,,0,0,"master",1
"OpenInkpot-archive/iplinux-libfontenc",452,"Organization",,0,0,true,true,true,false,0,,0,0,"master",1
"OpenInkpot-archive/iplinux-libxfont",1560,"Organization",,0,0,true,true,true,false,0,,0,0,"master",1
"OpenInkpot-archive/iplinux-libxkbfile",284,"Organization",,0,0,true,true,true,false,0,,0,0,"master",1
"OpenInkpot-archive/iplinux-libxt",1216,"Organization",,0,0,true,true,true,false,0,,0,0,"master",1
"OpenInkpot-archive/iplinux-x11proto-bigreqs",232,"Organization",,0,0,true,true,true,false,0,,0,0,"master",1
"cburwell/chat_client",112,"User",,0,0,true,true,true,false,0,,0,0,"master",1
"OpenInkpot-archive/iplinux-iptables",804,"Organization",,0,0,true,true,true,false,0,,0,0,"master",1
"laindir/spill",128,"User",,0,0,true,true,true,false,0,,0,0,"master",1
"deerishi/project_copy_from_hg",828,"User",,0,0,true,true,true,false,0,,0,0,"master",1
"OpenInkpot-archive/iplinux-libsha1",156,"Organization",,0,0,true,true,true,false,0,,0,0,"master",1
"OpenInkpot-archive/iplinux-libvorbisidec",284,"Organization",,0,0,true,true,true,false,0,,0,0,"master",1
"OpenInkpot-archive/iplinux-mpd",7048,"Organization",,0,0,true,true,true,false,0,,0,0,"master",1
"OpenInkpot-archive/iplinux-mpg321",288,"Organization",,0,0,true,true,true,false,0,,0,0,"master",1
"OpenInkpot-archive/iplinux-openjpeg",1188,"Organization",,0,0,true,true,true,false,0,,0,0,"master",1
"OpenInkpot-archive/iplinux-oprofile",5668,"Organization",,0,0,true,true,true,false,0,,0,0,"master",1
"OpenInkpot-archive/iplinux-strace",724,"Organization",,0,0,true,true,true,false,0,,0,0,"master",1
"OpenInkpot-archive/iplinux-udhcp",180,"Organization",,0,0,true,true,true,false,0,,0,0,"master",1
"OpenInkpot-archive/iplinux-uucp",1324,"Organization",,0,0,true,true,true,false,0,,0,0,"master",1
"holywyvern/gwi",212,"User","",0,0,true,true,true,false,0,,0,0,"master",1
"OpenInkpot-archive/iplinux-xorg-fontutil",188,"Organization",,0,0,true,true,true,false,0,,0,0,"master",1
"OpenInkpot-archive/iplinux-xtrans",636,"Organization",,0,0,true,true,true,false,0,,0,0,"master",1
"0x00f/Logger",3656,"User",,0,0,true,true,true,false,0,,0,0,"master",1
"OpenInkpot-archive/iplinux-x11proto-fonts",248,"Organization",,0,0,true,true,true,false,0,,0,0,"master",1
"OpenInkpot-archive/iplinux-x11proto-record",244,"Organization",,0,0,true,true,true,false,0,,0,0,"master",1
"amikey/ManifestAmbiguity",120,"User",,0,0,true,true,true,false,0,,0,0,"master",1
"Kermit95/DataStructure-Algorithm",176,"User",,0,0,true,true,true,false,0,,0,0,"master",1
"amikey/WProtect",19520,"User",,0,0,true,true,true,false,0,,0,0,"master",1
"aarathy-ramesh/RX62N-FreeRTOS",680,"User",,0,0,true,true,true,false,0,,0,0,"master",1
"MarcusLaw/nPong",156,"User",,0,0,true,true,true,false,0,,0,0,"master",1
"DanishKhan14/xv86Fun",256,"User",,0,0,true,true,true,false,0,,0,0,"master",1
"LionsWrath/LUDecomposition",112,"User",,0,0,true,true,true,false,0,,0,0,"master",1
"LionsWrath/ORDtrab",124,"User",,0,0,true,true,true,false,0,,0,0,"master",1
"ADVANTECH-Corp/node-red-contrib-virtual-app-node",600,"Organization",,0,0,true,true,true,false,0,,0,0,"master",1
"zhangbiaoyi/onebox",248,"User",,0,0,true,true,true,false,0,,0,0,"master",1
"neocjmix/openglPhysics",132,"User",,0,0,true,true,true,false,0,,0,0,"master",1
"denispyr/doubango",347484,"User",,0,0,true,false,false,false,0,,216,0,"master",1
"omarandstuff/Image-Mass-Center",840,"User",,0,0,true,true,true,false,0,,0,0,"master",1
"OpenInkpot-archive/efl-bindings",112,"Organization",,0,0,true,true,true,false,0,,0,0,"master",1
"OpenInkpot-archive/libfixedlame",204,"Organization",,0,0,true,true,true,false,0,,0,0,"master",1
"OpenInkpot-archive/linux-2.6",567884,"Organization",,0,0,true,true,true,false,0,,0,0,"master",1
"OpenInkpot-archive/emessage",152,"Organization",,0,0,true,true,true,false,0,,0,0,"master",1
"OpenInkpot-archive/libedrawable",268,"Organization",,0,0,true,true,true,false,0,,0,0,"master",1
"OpenInkpot-archive/iplinux-eglibc",24348,"Organization",,0,0,true,true,true,false,0,,0,0,"master",1
"CanarySolutions/little-kernel",33552,"Organization",,0,0,true,true,true,false,0,,0,0,"cr-4.0-dev",1
"OpenInkpot-archive/edict",184,"Organization",,0,0,true,true,true,false,0,,0,0,"master",1
"OpenInkpot-archive/gm",2572,"Organization",,0,0,true,true,true,false,0,,0,0,"master",1
"OpenInkpot-archive/language-selector",196,"Organization",,0,0,true,true,true,false,0,,0,0,"master",1
"OpenInkpot-archive/libeoi",552,"Organization",,0,0,true,true,true,false,0,,0,0,"master",1
"OpenInkpot-archive/madeye",460,"Organization",,0,0,true,true,true,false,0,,0,0,"master",1
"OpenInkpot-archive/madshelf",2840,"Organization",,0,0,true,true,true,false,0,,0,0,"master",1
"ss91/hmwk2-demo-new",140,"User",,0,0,true,true,true,false,0,,0,0,"master",1
"daveti/tcpSockHack",142116,"User",,0,0,true,true,true,false,0,,0,0,"master",1
"nssilva/SDL",360,"User",,0,0,true,true,true,false,0,,0,0,"master",1
"namco-4/nForgeEngine",212,"User",,0,0,true,true,true,false,0,,0,0,"master",1
"Jesterhearts/cmsc-404-rubiks-solver",248,"User",,0,0,true,false,false,false,0,,0,0,"master",1
"ahlstromcj/xpccutxx",1108,"User",,0,0,true,true,true,false,0,,0,0,"master",1
"sevengram/linux-0.11",7548,"User",,0,0,true,true,true,false,0,,0,0,"master",1
"nicholasess/abc",108,"User",,0,0,true,true,true,false,0,,0,0,"master",1
"mhungerford/pebble_spirograph",140,"User",,0,0,true,true,true,false,0,,0,0,"master",1
"sarahraquel/Pixeling",128,"User","",0,0,true,true,true,false,0,,4,0,"master",1
"TuuCal/OS161",2044,"User",,0,0,true,true,true,false,0,,0,0,"master",1
"shen15/stm32-3d",11236,"User",,0,0,true,true,true,false,0,,0,0,"master",1
"italogs/Fila-e-Pilha",108,"User",,0,0,true,true,true,false,0,,0,0,"master",1
