"PIC-Niagara/MPcopy",43736,"User",,0,0,true,true,true,false,0,,0,0,"master",1
"radc/qflow",77304,"User",,0,0,true,true,true,false,0,,0,0,"master",1
"yangmiemie/apue",140,"User",,0,0,true,true,true,false,0,,0,0,"master",1
"schets/task_parallel_python",152,"User",,0,0,true,true,true,false,0,,0,0,"master",1
"jlrainbolt/ANA",120,"User",,0,0,true,true,true,false,0,,0,0,"master",1
"sparkslabs/sortinghat",144,"User",,0,0,true,true,true,false,0,,0,0,"master",1
"Suraj-Rajesh/Linux_Kernel_List_h",144,"User",,0,0,true,true,true,false,0,,0,0,"master",1
"liusiqi43/word2vec",272,"User",,0,0,true,false,false,false,0,,35,0,"master",1
"muraliraghubabu1994/Bar-code-Scanner",956,"User",,0,0,true,true,true,false,0,,0,0,"master",1
"Mulambev/3dGayme",6736,"User",,0,0,true,true,true,false,0,,0,0,"master",1
"yyang382/Stop-Wait-protocol",112,"User",,0,0,true,true,true,false,0,,0,0,"master",1
"pts/pts-swiggle",180,"User",,0,0,true,true,true,false,0,,0,0,"master",1
"ShadowFiend14MS/tinyhttpd_plus",140,"User",,0,0,true,true,true,false,0,,0,0,"master",1
"OpenHMD/OpenHMD-Java",156,"Organization","",0,0,true,true,true,false,0,,0,0,"master",1
"salimaouar/c-linked-list",152,"User",,0,0,true,true,true,false,1,,0,1,"master",1
"Vochsel/Graph-Fix",1732,"User",,0,0,true,true,true,false,0,,0,0,"master",1
"ibazzi/opennhrp",736,"User","",0,0,true,true,true,false,0,,0,0,"master",1
"linkisensei/AGENDA-EM-C-COM-ALOCA--O-DINAMICA-DE-MEMORIA-E-TAD-DE-COLE--O-DE-STRINGS",128,"User",,0,0,true,true,true,false,0,,0,0,"master",1
"some-lizard/droidsheep",3316,"User",,0,0,true,false,false,false,0,,11,0,"master",1
"tmsk8219/test",176,"User",,0,0,true,true,true,false,0,,0,0,"master",1
"CS241Honors/parallel_homework",16936,"User",,0,0,true,true,true,false,0,,0,0,"master",1
"CaseyCJohnston/gittutorial",108,"User",,0,0,true,true,true,false,0,,0,0,"master",1
"wilywyrm/u8glib",13928,"User",,0,0,true,false,false,false,0,,80,0,"master",1
"nsauzede/mybf",136,"User",,0,0,true,true,true,false,0,,0,0,"master",1
"Orion116/device_samsung_lt03wifi-liquid",224,"User",,0,0,true,true,true,false,0,,0,0,"master",1
"iunknown10/camera-android",69996,"User",,0,0,false,true,true,false,0,,0,0,"master",1
"mysidia/irc2010ncserv",296,"User",,0,0,true,true,true,false,0,,0,0,"master",1
"RaulWei/MarkovDataPreprocess",22820,"User",,0,0,true,true,true,false,0,,0,0,"master",1
"xttyyy/minimosd-extra",12524,"User",,0,0,true,false,false,false,0,,37,0,"master",1
"CankingApp/SmartUpdate",456,"User",,0,0,true,true,true,true,0,,0,0,"master",1
"Sundrops/Notes",280,"User",,0,0,true,true,true,false,0,,0,0,"master",1
"nonewbie/externc",108,"User",,0,0,true,true,true,false,0,,0,0,"master",1
"GeorgeMaratos/get_requester",124,"User",,0,0,true,true,true,false,0,,0,0,"master",1
"ncarrier/fake_libulog",112,"User",,0,0,true,true,true,false,0,,0,0,"master",1
"fenaranjo42/cs50-pset3",236,"User",,0,0,true,true,true,false,0,,0,0,"master",1
"polarcat/yad",388,"User",,0,0,true,true,true,false,0,,0,0,"master",1
"sideb0ard/CCodez",108,"User",,0,0,true,true,true,false,0,,0,0,"master",1
"redrumrobot/quakeconstruct",71916,"User",,0,0,true,false,false,false,0,,1,0,"master",1
"BlissRoms/platform_system_qcom",240,"Organization",,0,0,true,true,true,false,0,,0,0,"mm6.0",1
"jvcleave/gputracker",8604,"User",,0,0,true,false,false,false,0,,5,0,"master",1
"luanmaquino/Bubble-Sort",112,"User","",0,0,true,true,true,false,0,,0,0,"master",1
"CaltechPrecisionTiming/CPT-CERN-October2015",144,"Organization",,0,0,true,true,true,false,0,,0,0,"master",1
"valdirSalgueiro/poly2tri.archive",424,"User",,0,0,true,false,false,false,0,,0,0,"master",1
"Vonger/vocoremon",108,"User",,0,0,true,true,true,false,1,,0,1,"master",1
"LinuxEmbed/LinuxEmbed-RPI-Linux",129448,"User",,0,0,true,true,true,false,0,,0,0,"master",1
"lbarr33/MPI-Hotplate",120,"User",,0,0,true,true,true,false,0,,0,0,"master",1
"mouradev/maior_numero",148,"User",,0,0,true,true,true,false,0,,0,0,"master",1
"Parrot-Developers/bebop_mavlink_ctrl",168,"Organization",,0,0,true,true,true,false,0,,0,0,"master",1
"uLipe/Disco_boost_converter",2844,"User",,0,0,true,true,true,false,0,,0,0,"master",1
"Alastairm/UWAdata_win64",4492,"User",,0,0,true,true,true,false,0,,0,0,"master",1
"lhomme/mman-win32",144,"User",,0,0,true,false,false,false,0,,2,0,"master",1
"DominikSchmidtlein/IoTSimulation",124,"User",,0,0,true,true,true,false,0,,0,0,"master",1
"lequievre/FRI_IP",740,"User",,0,0,true,true,true,false,0,,0,0,"master",1
"airhorns/jailkit",272,"User",,0,0,true,true,true,false,0,,0,0,"master",1
"xkyyxj/Compiler",132,"User",,0,0,true,true,true,false,0,,0,0,"master",1
"ericwazhung/xc32_mathBugTester",180,"User",,0,0,true,true,true,false,0,,0,0,"master",1
"toshiyukihina/hello-scons",112,"User",,0,0,true,true,true,false,0,,0,0,"master",1
"GamerDeveloper/blackout-telnet",148,"User",,0,0,true,true,true,false,0,,0,0,"master",1
"wow2006/cudpp",45956,"User",,0,0,true,false,false,false,0,,25,0,"master",1
"jackyding2679/dm-cache",1788,"User",,0,0,true,true,true,false,0,,0,0,"master",1
"cirosantilli/skelix-os",172,"User",,0,0,true,true,true,false,0,,0,0,"master",1
"SKredoc/ks-and-hon",128,"User",,0,0,true,true,true,false,0,,0,0,"master",1
"ttuzz/minini",2472,"User",,0,0,true,false,false,false,0,,3,0,"master",1
"PolymorhicCode/C-Exercises",148,"User",,0,0,true,true,true,false,0,,0,0,"master",1
"blorente/OSASS1",892,"User",,0,0,true,true,true,false,0,,0,0,"master",1
"develroo/pipecut",316,"User",,0,0,true,false,false,false,0,,0,0,"master",1
"casamia918/2015_2_System_Programming",132,"User",,0,0,true,true,true,false,0,,0,0,"master",1
"caffett/FlexAndBison",136,"User",,0,0,true,true,true,false,0,,0,0,"master",1
"sungsujo/nacl-llvm-branches.llvm-gcc",59304,"User",,0,0,true,false,false,false,0,,0,0,"pnacl-sfi",1
"sungsujo/nacl-llvm-branches.binutils",27436,"User",,0,0,true,false,false,false,0,,0,0,"pnacl-sfi",1
"sungsujo/nacl-llvm-branches.llvm-gcc-trunk",59300,"User",,0,0,true,false,false,false,0,,0,0,"pnacl-sfi",1
"texierp/msinttypes",172,"User",,0,0,true,false,false,false,0,,8,0,"master",1
"AlexZielinski/C-Assignment-1",140,"User",,0,0,true,true,true,false,0,,0,0,"master",1
"LiYuanxing/ANO_Test",4356,"User",,0,0,true,true,true,false,0,,0,0,"master",1
"Digas29/LCOM-FROGGER",4436,"User",,0,0,true,true,true,false,0,,0,0,"master",1
"electricpocket/aisdecoder",204,"User",,0,0,true,true,true,false,0,,0,0,"master",1
"Pigmoth69/LCOM-DODGEM",2188,"User",,0,0,true,true,true,false,0,,0,0,"master",1
"4D-JP/4d-tips-startup-delay",616,"User",,0,0,true,true,true,false,0,,0,0,"master",1
"DARKHOURS/afrodevices",12196,"User",,0,0,true,false,false,false,0,,11,0,"master",1
"matrix-static/Abacus",784,"User",,0,0,true,true,true,false,0,,0,0,"master",1
"tzhongdev/lcthw",136,"User",,0,0,true,true,true,false,0,,0,0,"master",1
"yoinx/N6-Kernel",862928,"User",,0,0,true,true,true,false,0,,0,0,"staging-mm",1
"scottyshi/Limited-Calculator",9004,"User",,0,0,true,true,true,false,0,,0,0,"master",1
"42Pygmalion/ft_select",160,"User","",0,0,true,true,true,false,0,,0,0,"master",1
"seyko2/cfront-1",644,"User",,0,0,true,true,true,false,0,,0,0,"master",1
"goran-mahovlic/Hauba",5882,"User",,0,0,true,true,true,false,1,,0,1,"master",1
"HerrR/Datorgrafik-Visualisering",5316,"User",,0,0,true,true,true,false,0,,0,0,"master",1
"Highnewb/projet-pacman",316,"User",,0,0,true,true,true,false,0,,0,0,"master",1
"hei1682004/chris-come-to-hug-me",196,"User",,0,0,true,true,true,false,0,,0,0,"master",1
"BarberShopOperativos/Initializer",280,"Organization",,0,0,true,true,true,false,0,,0,0,"master",1
"BarberShopOperativos/SpecialClients",176,"Organization",,0,0,true,true,true,false,0,,0,0,"master",1
"GSTR-UNRC/disse_linux_embed",620,"User",,0,0,true,true,true,false,0,,0,0,"master",1
"secken/secken-raduis",4156,"Organization",,0,0,true,true,true,false,0,,0,0,"master",1
"danielthank/sp_hw1",2308,"User",,0,0,true,true,true,false,0,,0,0,"master",1
"oliviertilmans/LINGI1341-linksim",205,"User",,0,0,true,true,true,false,3,,1,3,"master",1
"mmm13/CUnit-test",164,"User",,0,0,true,true,true,false,0,,0,0,"master",1
"storm20200/FireEngine",331,"User",,0,0,true,true,true,false,0,,0,0,"master",1
"miguelrodriguesdossantos/ctable",196,"User",,0,0,true,true,true,false,0,,0,0,"master",1
"jaredivey/OpenCLPhold",748,"User",,0,0,true,true,true,false,0,,0,0,"master",1
"roboarctos/arctos-robot",160,"Organization",,0,0,true,true,true,false,0,,0,0,"master",1
