"caseyparker/bind9",19388,"User",,0,0,true,true,true,false,0,,0,0,"master",1
"rickchung1082/blink-nohal-frdm-k64f",268,"User",,0,0,true,true,true,false,0,,0,0,"master",1
"srcnert/STM32F4DISCOVERY_MPU6050_DMP",552,"User",,0,0,true,true,true,false,0,,0,0,"master",1
"rayed9o9/jkeyboard-hook",172,"User",,0,0,true,false,false,false,0,,0,0,"master",1
"g01000111/C-Password-Application",81,"User",,0,0,true,true,true,false,1,,0,1,"master",1
"benquike/cstl",620,"User",,0,0,true,false,false,false,0,,1,0,"master",1
"MichaelMcBreen/Cpts455Server",19424,"User",,0,0,true,true,true,false,0,,0,0,"master",1
"joshlbaker/Hashit-reborn",11388,"User",,0,0,true,true,true,false,0,,0,0,"master",1
"david-pzh/ballBot",2932,"User",,0,0,true,true,true,false,0,,0,0,"master",1
"huangbohui/tengine-203",1872,"User",,0,0,true,true,true,true,0,,0,0,"master",1
"huangbohui/tengine-200",1844,"User",,0,0,true,true,true,true,0,,0,0,"master",1
"huangbohui/tengine-202",1864,"User",,0,0,true,true,true,true,0,,0,0,"master",1
"LionShadows/FirstProject",152,"Organization",,0,0,true,true,true,false,0,,0,0,"master",1
"amihart/txt2img",184,"User",,0,0,true,true,true,false,0,,0,0,"master",1
"mshenron/justry",116,"User",,0,0,true,true,true,false,0,,0,0,"master",1
"StackCanary/hackathon",113,"User",,0,0,true,true,true,false,0,,0,0,"master",1
"AlexanderSimonov/qtetramesher",3272,"User",,0,0,true,false,false,false,0,,0,0,"master",1
"RyodoTanaka/lrf_scan",136,"User",,0,0,true,true,true,false,0,,0,0,"master",1
"Phexcom/droidsheep",3312,"User",,0,0,true,false,false,false,0,,11,0,"master",1
"zhou1990/AlgorithmsCpp",804,"User",,0,0,true,true,true,false,0,,0,0,"master",1
"arthurbeggs/MSP430OpticalWirelessCom",360,"User","",0,0,true,true,false,false,0,,0,0,"master",1
"edwardtree/NCKU_embedded_105_fall",144,"User",,0,0,true,true,true,false,0,,0,0,"master",1
"ZCXL/CMM_C",229,"User",,0,0,true,true,true,false,1,,0,1,"master",1
"Babtsov/Junior-Design",2325,"User",,0,0,true,true,true,false,0,,0,0,"master",1
"jafffy/remote-calculator",140,"User",,0,0,true,true,true,false,0,,0,0,"master",1
"0x2c/SlidingWin_Doze",196,"User","",0,0,true,true,true,false,0,,0,0,"master",1
"ktvexe/socket-program",204,"User",,0,0,true,true,true,false,0,,0,0,"master",1
"bencentra/first-watchface",636,"User",,0,0,true,true,true,true,0,,1,0,"master",1
"kevupton/CAB403",2332,"User",,0,0,true,true,true,false,0,,0,0,"master",1
"MenchiG/DJI-Onboard-SDK-for-Mavlink",528,"User",,0,0,true,true,true,false,0,,0,0,"master",1
"vasalf/walkthlab",172,"User",,0,0,true,true,true,false,0,,0,0,"master",1
"ar-naseef/Data-Structures",140,"User",,0,0,true,true,true,false,0,,0,0,"master",1
"mattruston/proj2",648,"User",,0,0,true,true,true,false,0,,0,0,"master",1
"ejdysinger/phase3",752,"User",,0,0,true,true,true,false,0,,0,0,"master",1
"Shubhangi135/Library-Database-management",140,"User",,0,0,true,true,true,false,0,,0,0,"master",1
"Reemelk/C",172,"User",,0,0,true,true,true,false,0,,0,0,"master",1
"TooStrongMagic/heap",188,"User","",0,0,true,true,true,false,0,,0,0,"master",1
"mnemonyc/platform_hardware_samsung",1360,"User",,0,0,true,true,true,false,0,,0,0,"hazy-mallow",1
"Halolegend94/uni_compilers",196,"User",,0,0,true,true,true,false,0,,0,0,"master",1
"kopytkoProg/PowerSupplay",160,"User",,0,0,true,true,true,false,0,,0,0,"master",1
"brickbtv/CROS",1776,"User",,0,0,true,true,true,false,0,,0,0,"master",1
"xj9/VirtualDesktop",48476,"User","https://virtualdesktop.tech",0,0,true,true,true,true,1,,0,1,"master",1
"wolf9466/wolf-aeon-miner",235,"User",,0,0,true,true,true,false,2,,0,2,"master",1
"keiya/paranoid-copy",156,"User",,0,0,true,true,true,false,0,,0,0,"master",1
"olevole/runcron",152,"User",,0,0,true,true,true,false,0,,0,0,"master",1
"jinseokYeom/Computer-Systems",176,"User",,0,0,true,true,true,false,0,,0,0,"master",1
"hpepper/key-performance-observer",188,"User",,0,0,true,true,true,false,0,,0,0,"master",1
"mnemonyc/platform_hardware_libhardware",1980,"User",,0,0,true,true,true,false,0,,0,0,"hazy-mallow",1
"mnemonyc/platform_bionic",16952,"User",,0,0,true,true,true,false,0,,0,0,"hazy-mallow",1
"maximgonchar/tinyC",188,"User",,0,0,true,true,true,false,0,,0,0,"master",1
"rybak-g/kernel1",200,"User",,0,0,true,true,true,false,0,,0,0,"master",1
"MoKee/android_kernel_oppo_msm8939",910152,"Organization","",0,0,true,true,true,false,0,,0,0,"mkl-mr1",1
"manuscola/work_misc",152,"User",,0,0,true,true,true,false,0,,0,0,"master",1
"donmccaughey/stringset",180,"User",,0,0,true,true,true,false,0,,0,0,"master",1
"commshare/testSparrow",11876,"User",,0,0,true,true,true,false,0,,0,0,"master",1
"josejacomeb/MarcadorVolley",200,"User",,0,0,true,true,true,false,0,,0,0,"master",1
"onerving/shellito",144,"User",,0,0,true,true,true,false,0,,0,0,"master",1
"Ironlenny/fsnotify",156,"User",,0,0,true,true,true,false,0,,0,0,"master",1
"shionlau/human_accompanying_robot",35692,"User",,0,0,true,true,true,false,0,,0,0,"master",1
"fbli41/android_kernel_samsung_cs02",126600,"User",,0,0,true,true,true,false,1,,0,1,"kitkat",1
"zhangrunhuan/program",124,"User",,0,0,true,true,true,false,0,,0,0,"master",1
"geovaninogueiras/Projetos",380,"User",,0,0,true,true,true,false,0,,0,0,"master",1
"cmotc/schs738c-external_bluetooth",4604,"User",,0,0,true,true,true,false,0,,0,0,"master",1
"adinb/SlidingWindowProtocolSim",181,"User",,0,0,true,true,true,false,1,,0,1,"master",1
"andreas-kupries/miniz",512,"User",,0,0,true,false,false,false,0,,27,0,"master",1
"121786404/ffmpeg_msvc_debug",44236,"User",,0,0,true,true,true,false,0,,0,0,"master",1
"jame298/clearsilver",2324,"User",,0,0,true,false,false,false,0,,10,0,"master",1
"pittau/vudroid",31408,"User",,0,0,true,false,false,false,0,,107,0,"master",1
"Zer0-One/Flare-On-Writeups",13240,"User",,0,0,true,true,true,false,0,,0,0,"master",1
"OscarL/thunar-tortoisehg-plugin",184,"User",,0,0,true,false,false,false,0,,1,0,"master",1
"lechinoix/trifich.c",144,"User",,0,0,true,true,true,false,0,,0,0,"master",1
"aprovy/pococapsule",856,"User",,0,0,true,false,false,false,0,,17,0,"master",1
"Rekai/codingground",180,"User",,0,0,true,true,true,false,0,,0,0,"master",1
"fatSaadeh/android-vnc",164,"User",,0,0,true,false,false,false,0,,14,0,"master",1
"jpluimers/macrompatcher",152,"User",,0,0,true,false,false,false,0,,0,0,"master",1
"tn2009/tn2009_kernel",142340,"User",,0,0,true,true,true,false,0,,0,0,"master",1
"rbanks4/lexical-analizer-C",120,"User",,0,0,true,true,true,false,0,,0,0,"master",1
"modman/iphone-dataprotection.keychainviewer",192,"User",,0,0,true,false,false,false,0,,0,0,"master",1
"troyspencer/537-p2b",468,"User",,0,0,true,true,true,false,0,,0,0,"master",1
"aceshao/546hw2",136,"User",,0,0,true,true,true,false,0,,0,0,"master",1
"bhargav2408/arduino-to-xmc",37720,"User",,0,0,true,false,false,false,0,,0,0,"master",1
"sysperf/fio",4688,"Organization",,0,0,true,true,true,false,0,,0,0,"master",1
"shreyasgune/GuneECC",652,"User",,0,0,true,true,true,false,0,,0,0,"master",1
"sysperf/libaio",312,"Organization",,0,0,true,true,true,false,1,,0,1,"master",1
"Wazzymandias/floodfill",148,"User",,0,0,true,true,true,false,0,,0,0,"master",1
"polang/coturn",2740,"User",,0,0,true,false,false,false,0,,0,0,"master",1
"axot/SNG",244,"User",,0,0,true,true,true,false,0,,0,0,"master",1
"fergussonmj/frdm-tfc",6692,"User",,0,0,true,false,false,false,0,,0,0,"master",1
"muhin-cse/vudroid",31416,"User",,0,0,true,false,false,false,0,,107,0,"master",1
"muhin-cse/droidreader",2088,"User",,0,0,true,false,false,false,0,,0,0,"master",1
"Twinkle0613/Heapsort",996,"User",,0,0,true,true,true,false,0,,0,0,"master",1
"sggrissom/SimpleOpenGL",232,"User",,0,0,true,true,true,false,0,,0,0,"master",1
"OTOKON/os-workshop",136,"Organization",,0,0,true,true,true,false,0,,0,0,"master",1
"temasek/android_external_libhevc",2008,"User",,0,0,true,true,true,false,0,,0,0,"master",1
"huangbohui/tengine-201",1856,"User",,0,0,true,true,true,true,0,,0,0,"master",1
"parasrish/TUTs",160,"User","",0,0,true,true,true,false,0,,0,0,"master",1
"kiranshashiny/handlecommands_device",164,"User",,0,0,true,true,true,false,0,,0,0,"master",1
"maodanp/named",4864,"User",,0,0,true,true,true,false,0,,0,0,"master",1
"huangbohui/tengine-211",2252,"User",,0,0,true,true,true,true,0,,0,0,"master",1
"fabiopedrosa/iphone-dataprotection",7412,"User",,0,0,true,false,false,false,0,,63,0,"master",1
