"yevp/c",144,"User",,0,0,true,true,true,false,0,,0,0,"master",1
"sedihglow/sys_tee",112,"User",,0,0,true,true,true,false,0,,0,0,"master",1
"ChaopengWu/GetEasyConsoleDemo",61,"User",,0,0,false,true,true,false,0,,0,0,"master",1
"sedihglow/bowling_game",124,"User",,0,0,true,true,true,false,0,,0,0,"master",1
"eyusupov/dwm",4928,"User","",0,0,true,true,true,false,0,,0,0,"master",1
"flying-dutchmen/NDS-file-shell",120,"Organization","https://drive.google.com/open?id=0B-6PL59ryjzgWjZ1aDFFQ0Y3OUU",0,0,true,true,true,false,0,,0,0,"master",1
"SummerLv/test1014",584,"User",,0,0,true,true,true,false,0,,0,0,"master",1
"eSDK/eSDKHTTPClient",94620,"Organization",,0,0,true,true,true,false,0,,0,0,"master",1
"rlx310/c-programming-language---kernighan",16172,"User",,0,0,true,true,true,false,0,,0,0,"master",1
"jschoer/HelloWorld",5488,"User",,0,0,true,true,true,false,0,,0,0,"master",1
"tho068/database-2",612,"User",,0,0,true,true,true,false,0,,0,0,"master",1
"tectronics/cryptospecs",18512,"User",,0,0,true,false,false,false,0,,0,0,"master",1
"christianreintges/dithering",4708,"User",,0,0,true,true,true,false,0,,0,0,"master",1
"PINK-FL0YD/TinyOS",287,"User",,0,0,true,true,true,false,0,,0,0,"master",1
"sedihglow/err_handle",136,"User","",0,0,true,true,true,false,0,,0,0,"master",1
"yeojinkim/cshape",70848,"User",,0,0,true,true,true,false,0,,0,0,"master",1
"Andrey-Dubas/snull",156,"User",,0,0,true,true,true,false,0,,0,0,"master",1
"UjjwalPandey/Code_it",304,"User","",0,0,true,true,true,false,0,,0,0,"master",1
"snaika/k1",2464,"User",,0,0,true,true,true,false,0,,0,0,"master",1
"JoseMichael/OS-Assignment-1",440,"User",,0,0,true,true,true,false,0,,0,0,"master",1
"falcaopetri/B-Tree",236,"User","",0,0,true,true,true,false,0,,0,0,"master",1
"SwimGlass/quiz",144,"User",,0,0,true,true,true,false,0,,0,0,"master",1
"DataBackups/Linux-IPC",164,"User",,0,0,true,true,true,false,0,,0,0,"master",1
"Parrot-Developers/firmwared",7112,"Organization",,0,0,true,true,true,false,0,,0,0,"master",1
"kaktus3000/HighGain",484,"User",,0,0,true,true,true,false,0,,0,0,"master",1
"PianoCat/XMU_AR_System",83424,"User","",0,0,true,true,true,false,0,,0,0,"master",1
"wizzard94/TP1",356,"User",,0,0,true,true,true,false,0,,0,0,"master",1
"UnixSystemProgramingKeioUniversity/uspku",212,"Organization",,0,0,true,true,true,false,0,,0,0,"master",1
"wadimw/sem_15Z",156,"User",,0,0,true,true,true,false,0,,0,0,"master",1
"trama/ieiit-kbp4111-80211",17120,"User",,0,0,true,true,true,false,0,,0,0,"master",1
"vertigo-dk/VardeWaves",13164,"Organization",,0,0,true,true,true,false,0,,0,0,"master",1
"cterizi/System-programming-labs",172,"User",,0,0,true,true,true,false,0,,0,0,"master",1
"imgits/ShellcodeOS",6308,"User",,0,0,true,true,true,false,0,,0,0,"master",1
"TylerNakamura/Address-Book-in-C",335,"User","",0,0,true,true,true,false,1,,0,1,"master",1
"seth4618/stacklets",5288,"User",,0,0,true,true,true,false,0,,0,0,"master",1
"toticavalcanti/C-codes",160,"User",,0,0,true,true,true,false,0,,0,0,"master",1
"Dustofgoat/ruzzle",10831,"User",,0,0,true,true,true,false,2,,0,2,"master",1
"liyang1025/syndata",140,"User",,0,0,true,true,true,false,0,,0,0,"master",1
"emarteca/Compiler",168,"User",,0,0,true,true,true,false,0,,0,0,"master",1
"devaib/cnn",4980,"User",,0,0,true,true,true,false,0,,0,0,"master",1
"Neves4/DatKernel",127320,"User","",0,0,true,true,true,false,0,,0,0,"master",1
