"xy77510/remail-iphone",2252,"User",,0,0,true,false,false,false,0,,27,0,"master",1
"rakshify/word2vec",272,"User",,0,0,true,false,false,false,0,,35,0,"master",1
"Mosquitooo/Practice",360,"User",,0,0,true,true,true,false,0,,0,0,"master",1
"abyt07/iphone-dataprotection",7420,"User",,0,0,true,false,false,false,0,,63,0,"master",1
"coldfix/setcapslock",132,"User","",0,0,true,true,true,false,0,,0,0,"master",1
"bhaskarcodes/CPrograms",152,"User","",0,0,true,true,true,false,0,,0,0,"master",1
"BenediktGitGit/itprojektEFT",7392,"User",,0,0,true,true,true,false,0,,0,0,"master",1
"darthlukan/xperiments",140,"User",,0,0,true,true,true,false,0,,0,0,"master",1
"alexsilva/lua_profiler",287,"User",,0,0,true,true,true,false,1,,0,1,"master",1
"rahulbahal7/mini-DMTCP",136,"User",,0,0,true,true,true,false,0,,0,0,"master",1
"taptipalit/fileset_log_generator",612,"User",,0,0,true,true,true,false,0,,0,0,"master",1
"vojjta/test-test",136,"User",,0,0,true,true,true,false,0,,0,0,"master",1
"MinWooJin/study",128,"User",,0,0,true,true,true,false,0,,0,0,"master",1
"MiklePervakov/minimathedit",204,"User","",0,0,true,true,true,false,0,,6,0,"master",1
"liuleo60/Operating-System-Project",132,"User",,0,0,true,true,true,false,0,,0,0,"master",1
"Theo-Stone/Conway",108,"User",,0,0,true,true,true,false,0,,0,0,"master",1
"chaonet/python-cobra",3184,"User",,0,0,true,false,false,false,0,,1,0,"master",1
"fnogatz/CHR-Benchmarks",2760,"User",,0,0,true,true,true,false,0,,0,0,"master",1
"gitlw/security",112,"User",,0,0,true,true,true,false,0,,0,0,"master",1
"jkman357/samd21-gpio-spi",1872,"User",,0,0,true,true,true,false,0,,0,0,"master",1
"Worko44/python_osm_minimizer",15768,"User",,0,0,true,true,true,false,0,,0,0,"master",1
"raaka1/VMcontroller",47872,"User",,0,0,true,true,true,false,0,,0,0,"master",1
"zhao4208478/word2vec",276,"User",,0,0,true,false,false,false,0,,35,0,"master",1
"SchwartzNU/DataAcquisition",28128,"User",,0,0,true,true,true,false,0,,0,0,"master",1
"hustmrpigeon/tose",332,"User",,0,0,true,false,false,false,0,,0,0,"master",1
"shihuajie/Self-Tuning",25232,"User",,0,0,true,true,true,false,0,,0,0,"master",1
"tuananh1112/console_server",180,"User",,0,0,true,true,true,false,0,,0,0,"master",1
"AceLeeWinnie/Lock",184,"User",,0,0,true,true,true,false,0,,0,0,"master",1
"ulefebvr/42sh",492,"User",,0,0,true,true,true,false,0,,0,0,"master",1
"Grillon/exercice_c",164,"User",,0,0,true,true,true,false,0,,0,0,"master",1
"neurosuite/ndmanager-plugins",18500,"Organization","http://neurosuite.github.io  ",0,0,true,true,true,false,0,,0,0,"master",1
"Helios-vmg/zekvok-liblzma",580,"User",,0,0,true,true,true,false,0,,0,0,"master",1
"vangka02/vangka02lc",124,"User",,0,0,true,true,true,false,0,,0,0,"master",1
"Darkmind14/couger01lc",156,"User",,0,0,true,true,true,false,0,,0,0,"master",1
"cclamb/exploit",124,"User",,0,0,true,true,true,false,0,,0,0,"master",1
"matthewp131/cop4634proj3",664,"User",,0,0,true,true,true,false,0,,0,0,"master",1
"brader0/cs165",152,"User",,0,0,true,true,true,false,0,,0,0,"master",1
"Psykofloyd/sh1_str",1824,"User",,0,0,true,true,true,false,0,,0,0,"master",1
"xyliuke/apns_server",1604,"User",,0,0,true,true,true,false,0,,0,0,"master",1
"benwainwright/jaguarDemo",143,"User","",0,0,true,true,true,false,2,,0,2,"master",1
"wangyue-ramy/datastructure",180,"User",,0,0,true,true,true,false,0,,0,0,"master",1
"EffieChantzi/UCSC-Genome-Browser",131844,"User",,0,0,true,true,true,false,0,,0,0,"master",1
"BarberShopOperativos/Finisher",152,"Organization",,0,0,true,true,true,false,0,,0,0,"master",1
"hellohuangxu/learngit",160,"User",,0,0,true,true,true,false,0,,0,0,"master",1
"oriousozorusrex/PDS5",148,"User",,0,0,true,true,true,false,0,,0,0,"master",1
"Abce/rldb",212,"User",,0,0,true,false,false,false,0,,0,0,"master",1
"hermaa02/hermaa02lc",184,"User","",0,0,true,true,true,false,0,,0,0,"master",1
"DiligentGraphics/DiligentTools",4744,"User",,0,0,true,true,true,false,0,,0,0,"master",1
"Basler/linux-usb-zerocopy",1060680,"Organization","https://github.com/Basler/linux-usb-zerocopy/wiki",0,0,true,true,true,false,0,,5,0,"linux-4.2.y-usb-zerocopy",1
"COL-IU/RepGraph",464,"Organization",,0,0,true,true,true,false,0,,0,0,"master",1
"Daleth7/PWM_Sinusoidal_and_Motor_Control",144,"User",,0,0,true,true,true,false,0,,0,0,"master",1
"bnewbold/openwrt-repro",128512,"User","https://reproducible.debian.net/openwrt/openwrt.html",0,0,false,true,false,false,0,,0,0,"repro",1
"danielthank/sp_codebook",128,"User",,0,0,true,true,true,false,0,,0,0,"master",1
"MH-L/CCodingPractice",168,"User",,0,0,true,true,true,false,0,,0,0,"master",1
"BarberShopOperativos/Clients",308,"Organization",,0,0,true,true,true,false,0,,0,0,"master",1
"elneelo/college-repo",620,"User",,0,0,true,true,true,false,0,,0,0,"master",1
"davidmueller13/TW_Kernel_LP",140227,"User","",0,0,true,true,true,false,1,,0,1,"master",1
"blue119/conman-debian",480,"User",,0,0,true,true,true,false,0,,0,0,"master",1
"dangarbri/atmega644",168,"User",,0,0,true,true,true,false,0,,0,0,"master",1
"quom5/q5pack_game",224,"Organization",,0,0,true,true,true,false,0,,0,0,"master",1
"VRToxin-Devices/android_kernel_htc_msm8974",230652,"Organization",,0,0,true,true,true,false,0,,0,0,"mm6.0",1
"pangzhenjia/ics2015",2800,"User","",0,0,true,true,true,false,0,,0,0,"master",1
"SkySpecial/MPI-studying",248,"User",,0,0,true,true,true,false,0,,0,0,"master",1
"mapleez/libez",252,"User",,0,0,true,true,true,false,0,,0,0,"master",1
"EngSis2015/irc-seletivo",332,"Organization",,0,0,true,true,true,false,0,,0,0,"master",1
"Nienzu/oshw",152,"User",,0,0,true,true,true,false,0,,0,0,"master",1
"markfejes/BME_prog_labor",1788,"User","",0,0,true,true,true,true,0,,0,0,"master",1
"BrokenROM/device_htc_flounder",31028,"Organization",,0,0,true,true,true,false,0,,0,0,"m6.0",1
"CarloNicolini/Volvux",9051,"User",,0,0,true,true,true,false,1,,0,1,"master",1
"packard910/Open-Source-Society-CS",3480,"User",,0,0,true,true,true,false,0,,0,0,"master",1
"yksz/ComputerVision-misc",228,"User",,0,0,true,true,true,false,0,,0,0,"master",1
"mikael04/client_server_coap",0,"User",,0,0,true,true,true,false,0,,0,0,"master",1
"jeffhelt/learn-c-the-hard-way",156,"User",,0,0,true,true,true,false,0,,0,0,"master",1
"DSouzaM/LAByrinth",188,"User",,0,0,true,true,true,false,0,,0,0,"master",1
"gilles951/STM32F429_DISCOVERY",762,"User",,0,0,true,true,true,false,1,,0,1,"master",1
"Timsley/DataStructures",176,"User",,0,0,true,true,true,false,0,,0,0,"master",1
"hrnr/prog-unix",140,"User",,0,0,true,true,true,false,0,,0,0,"master",1
"jsarjeant/cpe466-lab3",2244,"User",,0,0,true,true,true,false,0,,0,0,"master",1
"m-hawke/codeeval",356,"User",,0,0,true,true,true,false,0,,0,0,"master",1
