"andrejmuhic/word2vec",240,"User",,0,0,true,true,true,false,0,,0,0,"master",1
"like16306/Honeywell_project",87340,"User",,0,0,true,true,true,false,0,,0,0,"master",1
"aparnard/SlidingWindow",112,"User",,0,0,true,true,true,false,0,,0,0,"master",1
"jfasch/jf-kernel-course",128,"User",,0,0,true,true,true,false,0,,0,0,"master",1
"JeremieRouH/readnfccc",1840,"User",,0,0,true,false,false,false,0,,10,0,"master",1
"oday0311/ToolBox_fivemiles",1172,"User",,0,0,true,true,true,false,0,,0,0,"master",1
"ecotton/MP2",244,"User",,0,0,true,true,true,false,0,,0,0,"master",1
"svantelidman/ctest",112,"User",,0,0,true,true,true,false,0,,0,0,"master",1
"likunjk/SkipList",120,"User",,0,0,true,true,true,false,0,,0,0,"master",1
"qigreen/word2vec",276,"User",,0,0,true,false,false,false,0,,35,0,"master",1
"YachaoLiu/rk3288_kernel",168520,"User",,0,0,true,true,true,false,0,,0,0,"master",1
"pendai/jay-sip",4044,"User",,0,0,true,false,false,false,0,,0,0,"master",1
"c1fra/cs11",196,"User",,0,0,true,true,true,false,0,,0,0,"master",1
"mahongliang/CanAndWifi",1652,"User",,0,0,true,true,true,false,0,,0,0,"master",1
"Split-Screen/android_device_samsung_trltexx",1792,"Organization",,0,0,true,true,true,false,0,,0,0,"pac-5.1",1
"mew-cx/Vincent_ES_2.x",428,"User",,0,0,true,true,true,false,0,,0,0,"master",1
"mew-cx/Vincent_SC",480,"User",,0,0,true,true,true,false,0,,0,0,"master",1
"mereed/pebbleface-utc2",176,"User",,0,0,true,true,true,false,0,,0,0,"master",1
"D400150004/tugas3",140,"User",,0,0,true,true,true,false,0,,0,0,"master",1
"rbrito/pkg-mp3gain",316,"User",,0,0,true,true,true,false,0,,0,0,"master",1
"chazhang/Mytest",108,"User",,0,0,true,true,true,false,0,,0,0,"master",1
"porzell/word2vec",272,"User",,0,0,true,false,false,false,0,,35,0,"master",1
"boobalaninfo/siphon",7644,"User",,0,0,true,false,false,false,0,,159,0,"master",1
"johnbrittop/remail-iphone",2252,"User",,0,0,true,false,false,false,0,,27,0,"master",1
"stevethrowback/forsaken",5312,"User","",0,0,true,true,true,false,0,,0,0,"master",1
"MADGameStudio/CSnk",128,"User",,0,0,true,true,true,false,0,,0,0,"master",1
"kid2412/socket",156,"User",,0,0,true,true,true,false,0,,0,0,"master",1
"ALexanderpu/word2vec",272,"User",,0,0,true,false,false,false,0,,35,0,"master",1
"vjs3/Data-Validation",140,"User",,0,0,true,true,true,false,0,,0,0,"master",1
"tahardi/Password-Breaker",120,"User",,0,0,true,true,true,false,0,,0,0,"master",1
"botx1238amt/MacMapStats",132,"User",,0,0,true,true,true,false,0,,0,0,"master",1
"mamta2203/trainSims",144,"User",,0,0,true,true,true,false,0,,0,0,"master",1
"abeconnelly/tranche",152,"User","",0,0,true,true,true,false,0,,0,0,"master",1
"JanScheurich/racetrack",156,"User",,0,0,true,true,true,false,0,,0,0,"master",1
"helderPetra/aulasProg1-",144,"User",,0,0,true,true,true,false,0,,0,0,"master",1
"AnthonyAleman/demoGL",150,"User",,0,0,true,true,true,false,1,,0,1,"master",1
"lhcoyle4/minres",148,"User",,0,0,true,true,true,false,0,,0,0,"master",1
"Mighty2007/Example",132,"User",,0,0,true,true,true,false,0,,0,0,"master",1
"brenoinojosa/bytelore-johnny",14872,"User",,0,0,true,true,true,false,0,,0,0,"master",1
"huhydro/helloc",144,"User",,0,0,true,true,true,false,0,,0,0,"master",1
"zzphamvanthanhzz/af_netlink",192,"User",,0,0,true,true,true,false,0,,0,0,"master",1
"mnxu/word2vec",272,"User",,0,0,true,false,false,false,0,,35,0,"master",1
"xcitech/Genesis.3.0",38932,"User",,0,0,true,true,true,false,0,,0,0,"master",1
"annaproch/radix_tree",144,"User",,0,0,true,true,true,false,0,,0,0,"master",1
"arthgi01/project",124,"User",,0,0,true,true,true,false,0,,0,0,"master",1
"freak97/external_busybox",28120,"User",,0,0,true,true,true,false,0,,0,0,"m6.0",1
"cmdetorr/SPM_v1",120,"User",,0,0,true,true,true,false,0,,0,0,"master",1
"Aminelahlou/Test_Run",108,"User",,0,0,true,true,true,false,0,,0,0,"master",1
"cryptonome/openanpr",5528,"User",,0,0,true,false,false,false,0,,2,0,"master",1
"brantr/riemann-toro",148,"User",,0,0,true,true,true,false,0,,0,0,"master",1
"aospfhem/device_htc_flounder",56576,"User",,0,0,false,true,true,false,0,,0,0,"r14",1
"dovahkiin95/Computer-Networks",160,"User",,0,0,true,true,true,false,0,,0,0,"master",1
"kanelu01/rmpunc",128,"User",,0,0,true,true,true,false,0,,0,0,"master",1
"stoeckmann/signify-windows",208,"User",,0,0,true,true,true,false,0,,0,0,"master",1
"hermaa02/rmpunc",136,"User","",0,0,true,true,true,false,0,,0,0,"master",1
"bbouabou/ft_ls",124,"User",,0,0,true,true,true,false,0,,0,0,"master",1
"w3nd1go/android_external_ant-wireless_ant_native",165,"User",,0,0,true,true,true,false,1,,0,1,"m-caf",1
"holmem01/rmpunc",128,"User",,0,0,true,true,true,false,0,,0,0,"master",1
"ekane043/rmpunc",128,"User",,0,0,true,true,true,false,0,,0,0,"master",1
"smitma09/rmpunc",128,"User",,0,0,true,true,true,false,0,,0,0,"master",1
"zcons/hidden_bulldozer-tokenizer",112,"User",,0,0,true,true,true,false,0,,0,0,"master",1
"gstv1/Trabalho-IMC",140,"User",,0,0,true,true,true,false,0,,0,0,"master",1
"ymwdalex/WASBISH",16952,"User",,0,0,true,true,true,false,0,,0,0,"master",1
"theanurin/emphatic-fs",248,"User",,0,0,true,false,false,false,0,,0,0,"master",1
"maciejdlugosz/PPK",144,"User",,0,0,true,true,true,false,0,,0,0,"master",1
"cleitonalmeida1/EstacaoMet",524,"User",,0,0,true,true,true,false,0,,0,0,"master",1
"HaiWangEE/swift",144,"User",,0,0,true,true,true,false,0,,0,0,"code",1
"aleung-c/Basic_Multithreading_Program",136,"User",,0,0,true,true,true,false,0,,0,0,"master",1
"andy1729/algomaster",140,"User",,0,0,true,true,true,false,0,,0,0,"master",1
"USBhost/TWRP",21252,"User",,0,0,true,true,true,false,0,,0,0,"android-6.0",1
"elhmn/lmin",160,"User",,0,0,true,true,true,false,0,,0,0,"master",1
"mitchty/ellcc-mirror",339024,"User",,0,0,true,true,true,false,0,,0,0,"master",1
"ssamot/wmd-python",252,"User",,0,0,true,true,true,false,0,,0,0,"master",1
"lumblu01lc/lumblu01lc",136,"User",,0,0,true,true,true,false,0,,0,0,"master",1
"coweatyou/school",6724,"User",,0,0,true,true,true,false,0,,0,0,"master",1
"SteelShad0w/GitHub",128,"User",,0,0,true,true,true,false,0,,0,0,"master",1
"ksrm/redox",644,"User",,0,0,true,true,true,false,0,,0,0,"master",1
"damsp82/jogos_gcc",124,"User",,0,0,true,true,true,false,0,,0,0,"master",1
"homesangsang/learngit",132,"User",,0,0,true,true,true,false,0,,0,0,"master",1
"CesarArroyo09/light_geodesics_thesis",156,"User",,0,0,true,true,true,false,0,,0,0,"master",1
"rranelli/k-r-c",136,"User",,0,0,true,true,true,false,0,,0,0,"master",1
"sumit4iit/axel",200,"User","http://axel.alioth.debian.org/",0,0,false,true,true,false,0,,0,0,"master",1
"qko03160316/Net-Text-Editor",3352,"User",,0,0,true,true,true,false,0,,0,0,"master",1
"msolters/riot-applications",148,"User",,0,0,true,true,true,false,0,,0,0,"master",1
"Q-Max/pp2015hw1",1780,"User",,0,0,true,true,true,false,0,,0,0,"master",1
"janaRamirez/FUP1B",184,"User",,0,0,true,true,true,false,0,,0,0,"master",1
"mateusz94/C-Projects",128,"User",,0,0,true,true,true,false,0,,0,0,"master",1
"HPCE/hpce-2015-cw2",294,"Organization",,0,0,true,true,true,false,3,,1,3,"master",1
"wizzard94/ABB",156,"User",,0,0,true,true,true,false,0,,0,0,"master",1
"faslds/Trabalho2-LPA",1520,"User","",0,0,true,true,true,false,0,,0,0,"master",1
"serprex/sxi",172,"User","",0,0,true,true,true,false,0,,0,0,"master",1
"yujue86/NOTEBOOK",136,"User","",0,0,true,true,true,false,0,,0,0,"master",1
"maodanp/named_9.9.8",664,"User",,0,0,true,true,true,false,0,,0,0,"master",1
"AlexZayats/N7.MediaPlayer",15000,"User",,0,0,true,true,true,false,0,,0,0,"master",1
"PSSGCSim/psb-temperature",195,"User","https://www.psb1.org/psb-temperature/",0,0,false,true,false,false,0,,0,0,"master",1
"livelaughconquer/TechFeasibilityDemo",164,"User",,0,0,true,true,true,false,0,,0,0,"master",1
"u007/rails_for_windows",14980,"User","",0,0,true,true,true,false,0,,0,0,"master",1
"GustavoCayres/MAC300_EP2",204,"User",,0,0,true,true,true,false,0,,0,0,"master",1
"kurowataru/graduate_study",252,"User",,0,0,true,true,true,false,0,,0,0,"master",1
"DroneBuster/cam_ctrl",148,"User",,0,0,true,true,true,false,0,,0,0,"master",1
