"jrjang2/test1",124,"User",,0,0,true,true,true,false,1,,0,1,"master",1
"stasth/avr-drv",2516,"User",,0,0,true,false,false,false,0,,2,0,"master",1
"arclabch/uuid4gen",124,"User",,0,0,true,true,true,false,0,,0,0,"master",1
"tectronics/ulib",1360,"User",,0,0,true,false,false,false,0,,1,0,"master",1
"ljtale/u-boot-ljtale",14940,"User",,0,0,true,true,true,false,0,,0,0,"master",1
"tcdog001/autelan_v2",206420,"User",,0,0,true,true,true,false,0,,0,0,"master",1
"HudsonWerks/debug-samples",120,"User",,0,0,true,true,true,false,0,,0,0,"master",1
"eighteight/dual-wii-nunchuk-joystick",296,"User",,0,0,true,false,false,false,0,,0,0,"master",1
"mcmurroj/Data_Struct",16000,"User",,0,0,true,true,true,false,0,,0,0,"master",1
"colby-harper/maze",156,"User",,0,0,true,true,true,false,0,,1,0,"main",1
"docfabio/eathena-project",319732,"User",,0,0,true,false,false,false,0,,1,0,"master",1
"akshatam4/project",108,"User",,0,0,true,true,true,false,0,,0,0,"master",1
"AlexisCosano/PhysicsII",20272,"User",,0,0,true,true,true,false,0,,0,0,"master",1
"LupinusAlbus/WorkshopGit",140,"User",,0,0,true,true,true,false,0,,0,0,"master",1
"FernandoSamayoa/prueba",128,"User",,0,0,true,true,true,false,0,,0,0,"master",1
"captainjtx/redpitaya_gensig",340,"User",,0,0,true,true,true,false,0,,0,0,"master",1
"mortehu/json-stream",364,"User",,0,0,true,true,true,false,0,,0,0,"master",1
"JasonAlt/GridFTP-DSI-for-Lustre",148,"User",,0,0,true,true,true,false,0,,0,0,"master",1
"JasonAlt/GridFTP-Transfer-Logger",124,"User",,0,0,true,true,true,false,0,,0,0,"master",1
"OS2World/DEV-SAMPLES-Real_World_Programming",300,"Organization",,0,0,true,true,true,false,0,,0,0,"master",1
"Tzic/flowd",616,"User",,0,0,true,false,false,false,0,,8,0,"master",1
"renanalboy/FSC-Projeto2",144,"User",,0,0,true,true,true,false,0,,0,0,"master",1
"midkillergod/CaiBing",104,"User",,0,0,false,true,true,false,0,,0,0,"master",1
"maybe2009/SomeCode",108,"User",,0,0,true,true,true,false,0,,0,0,"master",1
"zc0315/ik-svd",1164,"User",,0,0,true,false,false,false,0,,0,0,"master",1
"TotallyYoursCode/QuestControllerFirmware",540,"User",,0,0,true,true,true,false,0,,0,0,"develop",1
"tectronics/stereowrap",172,"User",,0,0,true,false,false,false,0,,8,0,"master",1
"Peter95/Proyecto-Robot",108,"User",,0,0,true,true,true,false,0,,0,0,"master",1
"Josh-Stewart/GeneticAlgorithmVsAntColonyOptimisationExample",848,"User",,0,0,true,true,true,false,0,,0,0,"master",1
"greg-amorim/C-libraries",512,"User",,0,0,true,true,true,false,0,,0,0,"master",1
"lchish/procfw",3724,"User",,0,0,true,false,false,false,0,,177,0,"master",1
"bnb525584/hello",124,"User",,0,0,true,true,true,false,0,,0,0,"master",1
"oldoak/pe",108,"User",,0,0,true,true,true,false,0,,0,0,"master",1
"kbatbouta/Test",120,"User",,0,0,true,true,true,false,0,,0,0,"master",1
"albanijr/itchy-tanuki",124,"User",,0,0,true,true,true,false,0,,0,0,"master",1
"azyx3/lz4",848,"User",,0,0,true,false,false,false,0,,2,0,"master",1
"Lundtoft/Automated-Bike-Light",148,"User",,0,0,true,true,true,false,0,,0,0,"master",1
"jkomyno/sasken-player",114612,"User",,0,0,true,false,false,false,0,,0,0,"master",1
"thizanne/mlcuddidl",1644,"User",,0,0,true,true,true,false,0,,0,0,"master",1
"atsygantsov/MyExercise",108,"User",,0,0,true,true,true,false,0,,0,0,"master",1
"irstavr/Hipstagram",184,"User","",0,0,true,true,true,false,0,,0,0,"master",1
"shebu18/5110-LCD",128,"User",,0,0,true,true,true,false,0,,0,0,"master",1
"pd-smith/os161",1232,"User",,0,0,true,true,true,false,0,,0,0,"master",1
"solobsd/HardenedBSD",208512,"User",,0,0,true,true,true,false,0,,0,0,"master",1
"gunnar94/http-server",112,"User",,0,0,true,true,true,false,0,,0,0,"master",1
"lgajewski/sysopy",7060,"User",,0,0,true,true,true,false,0,,0,0,"master",1
"ynewman/Project3",180,"User",,0,0,true,true,true,false,0,,0,0,"master",1
"carlossless/quibble",452840,"User","https://code.google.com/p/quibble",0,0,true,false,false,false,0,,26,0,"master",1
"kathiouchka/libft",140,"User",,0,0,true,true,true,false,0,,0,0,"master",1
"jackfagner/twrp-kernel-sony-kitkami",138916,"User",,0,0,true,true,false,false,0,,0,0,"TWRP",1
"jungwonkim/bigarrays",144,"User",,0,0,true,true,true,false,0,,0,0,"master",1
"ckotowski/credis",248,"User",,0,0,true,false,false,false,0,,18,0,"master",1
"psyyz10/Castle",19004,"User",,0,0,true,true,true,false,0,,0,0,"master",1
"Jian117/Quadcopter-Michelle",44656,"User",,0,0,true,true,true,false,0,,0,0,"master",1
"gszauer/XsystemSDK",19232,"User",,0,0,true,true,true,false,0,,0,0,"master",1
"shortcast/pjsip",25528,"Organization",,0,0,true,true,true,false,0,,0,0,"master",1
"openbmc/phosphor-event",126,"Organization",,0,0,true,true,true,false,2,,0,2,"master",1
"cberman/wii-bounce",6820,"User",,0,0,true,true,true,false,0,,0,0,"master",1
"pageSwanson/redolent-octo-python",164,"User",,0,0,true,true,true,false,0,,0,0,"master",1
"creator83/stm8s003",4416,"User",,0,0,true,true,true,false,0,,0,0,"master",1
"hkallweit/ir_daemon",156,"User",,0,0,true,true,true,false,0,,0,0,"master",1
"odrevet/GE",6736,"User",,0,0,true,true,true,false,0,,0,0,"master",1
"OMCS/RPiSort",140,"User","",0,0,true,true,true,false,0,,0,0,"master",1
"timehop/pebble-time-watch-face",156,"Organization",,0,0,true,true,true,false,0,,0,0,"master",1
"c66x/ffmpeg",3592,"User","",0,0,true,true,true,false,0,,0,0,"master",1
"dimitrijejankov/computer_graphics_ftn",172,"User",,0,0,true,true,true,false,0,,0,0,"master",1
"mfcron/tst",160,"User",,0,0,true,true,true,false,0,,0,0,"master",1
"gi097/android_kernel_motorola_msm8226",694844,"User",,0,0,true,true,false,false,0,,0,0,"cm-12.1",1
"threadmaster/intersect",124,"User",,0,0,true,true,true,false,0,,0,0,"master",1
"darlinghq/darling-bzip2",892,"Organization","http://www.darlinghq.org/",0,0,true,true,true,false,0,,0,0,"master",1
"sganon/libft",112,"User",,0,0,true,true,true,false,0,,0,0,"master",1
"Lanzzz/openGL_sorting_OOP",2880,"User",,0,0,true,true,true,false,0,,0,0,"master",1
"paleolimbot/cantopo",3684,"User",,0,0,true,true,true,false,0,,0,0,"master",1
"EdwardGonzalez/vkcrypto",144,"User",,0,0,true,true,true,false,0,,0,0,"master",1
"DarrienG/Dynamic-Workout",108,"User",,0,0,true,true,true,false,1,,0,1,"master",1
"khinbaptista/T2FS",128,"User",,0,0,true,true,true,false,0,,0,0,"master",1
"rf5940709/Homework1-Ext",152,"User",,0,0,true,true,true,false,0,,0,0,"master",1
"adan-martinez/prueba_1",176,"User",,0,0,true,true,true,false,0,,0,0,"master",1
"Isa1892/wlaep",820,"User",,0,0,true,true,true,false,0,,0,0,"master",1
"kyulee1/repro",124,"User",,0,0,true,true,true,false,0,,0,0,"master",1
"lijunsgit/gp8b9YHYwT",2248,"User",,0,0,true,true,true,false,0,,0,0,"master",1
"cxn4689/GPU-real-time-resampler-for-Foobar2000",9632,"User","",0,0,true,true,true,false,0,,0,0,"master",1
"JugglerMurdoc/equanimous-octo-quack",332,"User",,0,0,true,true,true,false,0,,0,0,"master",1
"paratool/test",124,"User",,0,0,true,true,true,false,0,,0,0,"master",1
"lucasfonseca/strings-and-arrays",144,"User",,0,0,true,true,true,false,0,,0,0,"master",1
"shahid313/MSCourseWork",4668,"User",,0,0,true,true,true,false,0,,0,0,"master",1
"linvan/DEBUG",120,"User",,0,0,true,true,true,false,0,,0,0,"master",1
"nkuligoski/challenges",156,"User",,0,0,true,true,true,false,0,,0,0,"master",1
"fengpeiyuan/ngx_http_request_analysis_filter_module",136,"User",,0,0,true,true,true,false,0,,0,0,"master",1
"maserguo/hello_world",140,"User",,0,0,true,true,true,false,0,,0,0,"master",1
"evandorn/CPSC-3600-Final-Project",128,"User",,0,0,true,true,true,false,0,,0,0,"master",1
"atalax/linux",984902,"User",,0,0,true,true,true,false,0,,0,0,"h3",1
"IvanZorov/TU_PIK1",128,"User",,0,0,true,true,true,false,0,,0,0,"master",1
"librallu/UQAC-paralel-prog2",664,"User",,0,0,true,true,true,false,0,,0,0,"master",1
"eshyo89114/LinuxProgramStudy",136,"User","",0,0,true,true,true,false,0,,0,0,"master",1
"dulrich/mandelbrot-viewer",156,"User",,0,0,true,true,true,false,0,,0,0,"master",1
"jigsaw2212/Distributed-Computing-Practicals",856,"User",,0,0,true,true,true,false,0,,0,0,"master",1
"SMFloris/kernelmotion",220,"User",,0,0,true,true,true,false,0,,0,0,"master",1
"sgygayoung/SoftEngineering",2848,"User",,0,0,true,true,true,false,0,,0,0,"master",1
"Shane-S/COMP8551-Assign3",2832,"User",,0,0,true,true,true,false,0,,0,0,"master",1
