"Edison-Wang/ziparchive",204,"User",,0,0,true,false,false,false,0,,35,0,"master",1
"TrySound/ttf2eot",316,"User",,0,0,true,false,false,false,0,,25,0,"master",1
"kang0921ok/swaymusic",28948,"User",,0,0,true,true,true,false,0,,0,0,"master",1
"Raymondd/Finn",43432,"User",,0,0,true,true,true,false,0,,0,0,"master",1
"TheWookie/pidgin-java",152,"User",,0,0,true,false,false,false,0,,0,0,"master",1
"YoMommaHouse/android_system_extras",2912,"Organization",,0,0,true,true,true,false,0,,0,0,"m-caf",1
"sea212/snes-controller-driver-using-raspberry-pi-gpio",152,"User",,0,0,true,true,true,false,0,,0,0,"master",1
"mirrorinf/LibASynx",152,"User",,0,0,true,true,true,false,0,,0,0,"master",1
"xy2012/bignumber-test-",11780,"User","",0,0,true,true,true,false,0,,0,0,"master",1
"amiitt/Time-Interval-Calculator",120,"User",,0,0,true,true,true,false,0,,0,0,"master",1
"rizo/libconcurrency",196,"User",,0,0,true,false,false,false,0,,5,0,"master",1
"idor/dk50-bootable_bootloader_lk",8132,"User",,0,0,true,true,true,false,0,,0,0,"variscite_origin-8_bit",1
"nfxosp/platform_external_busybox",21968,"Organization",,0,0,true,true,true,false,0,,0,0,"android-4.3",1
"sandrain/fuse-xattrfs",148,"User","",0,0,true,true,true,false,0,,0,0,"master",1
"thinkincode/nbds",376,"User",,0,0,true,false,false,false,0,,3,0,"master",1
"DataBackups/Module",128,"User",,0,0,true,true,true,false,0,,0,0,"master",1
"ibrahimdraidia/HelloDLL",140,"User",,0,0,true,true,true,false,0,,1,0,"master",1
"zhangmh2015/stm8s-tm1629",836,"User",,0,0,true,true,true,false,0,,0,0,"master",1
"Ripagood/CoolUtils",780,"User",,0,0,true,true,true,false,0,,0,0,"master",1
"zrj-rimwis/mesa-demos",26408,"User","",0,0,true,true,true,false,0,,0,0,"master",1
"havaeimo/WithinBrainGeneralization",1803,"User",,0,0,true,true,true,false,0,,0,0,"master",1
"mihai-agape/to-be-deleted",144,"User",,0,0,true,true,true,false,0,,0,0,"master",1
"cmjonze/inetutils",3044,"User",,0,0,true,true,true,false,0,,0,0,"master",1
"GYiyouth/How-is-0-be-defined-as-a-double",136,"User",,0,0,true,true,true,false,0,,0,0,"master",1
"ruanpablom/Ex_MPI",108,"User",,0,0,true,true,true,false,0,,0,0,"master",1
"jsturdy/root-scripts",176,"User",,0,0,true,true,true,false,0,,0,0,"master",1
"Eric-Dang/CocosLua",3900,"User",,0,0,true,true,true,false,0,,0,0,"master",1
"kdzlvaids/uh.h",136,"User","",0,0,true,true,true,false,0,,0,0,"master",1
"eddieantonio/isri-ocr-evaluation-tools",412,"User","http://code.google.com/p/isri-ocr-evaluation-tools",0,0,true,false,false,false,0,,1,0,"master",1
"theMADoc/AutonoumousQuadrocopter",168,"User",,0,0,true,true,true,false,0,,0,0,"master",1
"XBOOS/wordcount",144,"User",,0,0,true,true,true,false,0,,0,0,"master",1
"chasmodo/android_system_extras",2924,"User",,0,0,true,true,true,false,0,,0,0,"m-caf",1
"fnurl/detectdisplays",148,"User",,0,0,true,false,false,false,0,,0,0,"master",1
"ManjiriJ/indic-text-renderer",268,"User",,0,0,true,false,false,false,0,,14,0,"master",1
"rpfitpass/php-for-android",1904,"User",,0,0,true,false,false,false,0,,14,0,"master",1
"omikey/PCHex",1108,"User",,0,0,true,true,true,false,0,,0,0,"master",1
"sknnywhiteman/lars",144,"User",,0,0,true,true,true,false,0,,0,0,"master",1
"AlfredBroda/mavlink-gopigo",172,"User",,0,0,true,true,true,false,0,,0,0,"master",1
"chlorm-forks/rtmpdump",1036,"Organization",,0,0,true,true,true,false,0,,0,0,"master",1
"marespiaut/eduke32",98444,"User",,0,0,true,true,true,false,0,,0,0,"master",1
"luigialberti/poly2tri.archive",432,"User",,0,0,true,false,false,false,0,,0,0,"master",1
"tectronics/codeports",31700,"User",,0,0,true,false,false,false,0,,0,0,"master",1
"kakinuma4ko/Leetcode",120,"User",,0,0,true,true,true,false,0,,0,0,"master",1
"yuya-oc/minidlna-bravia",1480,"User",,0,0,true,true,true,false,0,,0,0,"master",1
"phreak1n/droidsheep",3312,"User",,0,0,true,false,false,false,0,,11,0,"master",1
"msanmartinacosta/7502_tp1_generador_graficador_codigo_barras_EAN13",112,"User",,0,0,true,true,true,false,0,,0,0,"master",1
"zevlg/x11-lupe",160,"User",,0,0,true,true,true,false,0,,0,0,"master",1
"siyuan/hook_mprotect",108,"User",,0,0,true,true,true,false,0,,0,0,"master",1
"shadowsnap/g729",240,"User",,0,0,true,false,false,false,0,,4,0,"master",1
"sergio1525/Tienda",148,"User",,0,0,true,true,true,false,0,,0,0,"master",1
"DarioGH/C_Limit-of-Datatype",124,"User",,0,0,true,true,true,false,0,,0,0,"master",1
"OriRoth/Keti-Programming-Language-v2-OOP",144,"User",,0,0,true,true,true,false,0,,0,0,"master",1
"bazaglia/linked-list",168,"User",,0,0,true,true,true,false,1,,1,1,"master",1
"scarlso/LED_controller",35520,"User",,0,0,true,true,true,false,0,,0,0,"master",1
"CarltonYang/cosc301-proj03",260,"User",,0,0,true,true,true,false,0,,0,0,"master",1
"mramani/bloomfilter_experiments",244,"User",,0,0,true,true,true,false,0,,0,0,"master",1
"rfkrocktk/macbook-btusb-trusty",268,"User",,0,0,true,true,true,false,0,,0,0,"master",1
"jlange91/piscine",396,"User",,0,0,true,true,true,false,0,,0,0,"master",1
"FaucetDrop/Faucet",4287,"User",,0,0,true,true,true,false,2,,1,2,"master",1
"mimihalo/SIMDpi",0,"User",,0,0,true,true,true,false,0,,0,0,"master",1
"sziter/misc",868,"User",,0,0,true,true,true,false,0,,0,0,"master",1
"kcs9301/pintos2_postech",492,"User",,0,0,true,true,true,false,0,,0,0,"master",1
"mashkoff/studying",120,"User",,0,0,true,true,true,false,0,,0,0,"master",1
"Sungsonic/device_oneplus_bacon",7812,"Organization",,0,0,true,true,true,false,0,,0,0,"sshd-m6.0",1
"Sungsonic/kernel_oneplus_msm8974",717988,"Organization",,0,0,true,true,true,false,0,,0,0,"sshd-m6.0",1
"Ppian/network-bandwidth",232,"User",,0,0,true,true,true,false,0,,0,0,"master",1
"kelifrisk/alisp",332,"User",,0,0,true,true,true,false,0,,0,0,"master",1
"peterfuture/dtcurl",160,"User",,0,0,true,true,true,false,0,,0,0,"master",1
"griggi/wifidog",284,"Organization",,0,0,true,true,true,false,0,,0,0,"master",1
"alfredlucero/CS143",587,"User",,0,0,true,true,true,false,1,,0,1,"master",1
"shtony/base64",124,"User",,0,0,true,true,true,false,0,,0,0,"master",1
"mxz96102/C-program-",183,"User",,0,0,true,true,true,false,0,,1,0,"master",1
"gunnark13/tsam.p3",448,"User",,0,0,true,true,true,false,0,,0,0,"master",1
"caiminf/cShell",144,"User",,0,0,true,true,true,false,0,,0,0,"master",1
"mposlinski/TFT_Py_web",3376,"User",,0,0,true,true,true,false,0,,0,0,"master",1
"saneee/yaos",232,"User",,0,0,true,true,true,false,0,,0,0,"master",1
"troyseed/Test",124,"User",,0,0,true,true,true,false,0,,0,0,"master",1
"VRToxin-Devices/android_kernel_samsung_mondrianwifi",705724,"Organization",,0,0,true,true,true,false,0,,0,0,"mm6.0",1
"zblimp/zblimp_firmware",604,"Organization",,0,0,true,true,true,false,0,,0,0,"master",1
"sazrocks/Program",128,"User",,0,0,true,true,true,false,0,,1,0,"master",1
"blakemartin13/pintos-cis-3",532,"User",,0,0,true,true,true,false,0,,0,0,"master",1
"supremeedible/ntstats",468,"User",,0,0,true,true,true,false,0,,0,0,"master",1
"SKlocwork/test",136,"User",,0,0,true,true,true,false,0,,0,0,"master",1
"xiansl/mytests",2500,"User",,0,0,true,true,true,false,0,,0,0,"master",1
"MohammadKOmer/CubeCycle",12916,"User",,0,0,true,true,true,false,0,,0,0,"master",1
"avroshk/7100ProjectSource",8196,"User",,0,0,true,true,true,false,0,,1,0,"master",1
"rocreguant/TUM-real-time-systems",108,"User",,0,0,true,true,true,false,0,,0,0,"master",1
"pchero/asterisk-outbound",136,"User",,0,0,true,true,true,false,0,,0,0,"master",1
"veficos/ulcer",180,"User",,0,0,true,true,true,false,0,,0,0,"master",1
"jdokoop/urmd-flow",7461,"User",,0,0,true,true,true,false,1,,0,1,"master",1
"Rovanion/OpenGL-snow-scene",8858,"User",,0,0,true,true,true,false,1,,0,1,"master",1
"nikobellic760/INF3SS15",108,"User",,0,0,true,true,true,false,0,,0,0,"master",1
"Selk/Dev",164,"User",,0,0,true,true,true,false,0,,0,0,"master",1
"Andthen/amaze-cc3200",1888,"User",,0,0,true,true,true,false,0,,0,0,"master",1
"rozentill/Small-C-Compiler",240,"User",,0,0,true,true,true,false,0,,0,0,"master",1
"io7m/intel-texture-bug-20151029",108,"User",,0,0,true,true,true,false,0,,0,0,"master",1
"demarco40/Project2",112,"User",,0,0,true,true,true,false,0,,0,0,"master",1
"lucatonile/lagerhanteraren-2.0",232,"User",,0,0,true,true,true,false,0,,0,0,"master",1
"torywheelwright/midi-hid",644,"User",,0,0,true,true,true,false,0,,0,0,"master",1
"olafhering/qemu-xen-traditional",19588,"User",,0,0,true,true,true,false,0,,0,0,"staging-wip",1
