"persona5/hexhosts",144,"User","http://up1ink.tumblr.com/post/132370869368/bruteforcing-knownhosts-file-with-hashcat",8,8,true,true,true,false,1,,0,1,"master",1
"gokmen/istanbul",200,"User",,8,8,true,true,true,false,0,,0,0,"master",1
"theevilbit/fakevm",6992,"User","",7,7,true,true,true,false,0,,0,0,"master",1
"FundFusionNow/client-fusion",73456,"Organization","http://www.fundfusionnow.org",6,6,true,true,true,false,0,,0,0,"master",1
"calid/bash",27144,"User","",5,5,true,true,true,false,0,,0,0,"modestrs",1
"catwell/lua-chacha",161,"User",,5,5,true,true,true,false,1,,0,1,"master",1
"msempere/redispool",135,"User",,4,4,true,true,true,false,1,,0,1,"master",1
"zxjcarrot/uproc",156,"User",,3,3,true,true,true,false,0,,0,0,"master",1
"HeckMina/Alice",5053,"User","",2,2,true,true,false,false,3,,0,3,"master",1
"Dominic12/MarkCalc",132,"User",,2,2,true,true,true,false,0,,0,0,"master",1
"Touched/follow-me",176,"User",,2,2,true,true,true,false,1,,0,1,"master",1
"Hebali/ciSpeech",6416,"User",,2,2,true,true,true,false,0,,0,0,"master",1
"uecker/view",156,"User",,2,2,true,true,true,false,0,,0,0,"master",1
"cayetanobv/randgeojson",128,"User","",1,1,true,true,true,false,0,,0,0,"master",1
"charliearlie/Learning-C-And-Cuda",13116,"User",,1,1,true,true,true,false,0,,0,0,"master",1
"asiridissa/ics_",12932,"User",,1,1,false,true,false,true,0,,0,0,"gh-pages",1
"Plasticoo/CHIP8_C",133,"User","",1,1,true,true,true,false,1,,1,1,"master",1
"linuslagerhjelm/common",143,"User",,1,1,true,true,true,false,0,,0,0,"master",1
"ASPLes/ext-dns",896,"Organization","http://www.aspl.es/ext-dns",1,1,true,true,true,false,0,,0,0,"master",1
"ekavroch/hackerrank",152,"User","",1,1,true,true,true,false,0,,0,0,"master",1
"johanGelinder/Particles_OpenFrameworks",6112,"User",,1,1,true,true,true,false,0,,0,0,"master",1
"rentiansheng/devSync",156,"User",,1,1,true,true,true,false,1,,1,1,"master",1
"emanueleforestieri/technicolor_bruteforce",144,"User",,1,1,true,true,true,false,0,,0,0,"master",1
"itstehkman/PebbleWikiHow",320,"User",,1,1,true,true,true,false,0,,3,0,"master",1
"eightplusone/lm3s8962-example",1064,"User",,1,1,true,false,false,false,0,,0,0,"master",1
"mo10/Unicom-Sgin-in",192,"User",,1,1,true,true,true,false,0,,0,0,"master",1
"vonzhou/UNPv1",2548,"User",,1,1,true,true,true,false,0,,0,0,"master",1
"erich666/StandardProceduralDatabases",1752,"User",,1,1,true,true,true,false,0,,0,0,"master",1
"phtomlins/clRTOCT",19687,"User",,1,1,true,true,true,false,1,,0,1,"master",1
"NetCDF4Excel/project",1480,"User",,1,1,true,false,true,true,0,,4,0,"master",1
"Vivek-sagar/Prepple",120,"User",,1,1,true,true,true,false,1,,0,1,"master",1
"UGent-HES/Custom-Reconfiguration-Drivers-for-DCS-Type-2",152,"Organization",,0,0,true,true,true,false,0,,0,0,"master",1
"IlKaiser/kaiser_kernel",132624,"User","",0,0,true,true,true,false,0,,0,0,"master",1
"friendlyarm/uboot_nanopi2",75576,"User",,0,0,true,true,true,false,0,,0,0,"s5p4418-nanopi2",1
"vaibhavviswanathan/lab6_vv",204,"User",,0,0,true,true,true,false,0,,0,0,"master",1
"containers-tools/fakefs",128,"Organization",,0,0,true,true,true,false,0,,0,0,"master",1
"mmj-the-fighter/LindaTheRisingOfThePhoenixTrilogy",800,"User","",0,0,true,true,true,false,0,,0,0,"master",1
"elrond1369/Rollers-Log",120,"User",,0,0,true,true,true,false,0,,0,0,"master",1
"trevordavies095/NightStand",136,"User","",0,0,true,true,true,false,0,,0,0,"master",1
"jasonwong115/CommandPrompt",136,"User",,0,0,true,true,true,false,0,,0,0,"master",1
"Infinitive-OS/system_extras",2344,"Organization",,0,0,true,true,true,false,0,,0,0,"m-6.0",1
"andre-felipe-ufc/ED-2015.2",144,"User",,0,0,true,true,true,false,0,,0,0,"master",1
"kellyawang/hashtable",144,"User",,0,0,true,true,true,false,0,,0,0,"master",1
"jsjessen/prand",1296,"User",,0,0,true,true,true,false,0,,0,0,"master",1
"raveit65/libcompizconfig",2764,"User",,0,0,true,true,true,false,0,,0,0,"master",1
"amt3/Bank-Management",144,"User",,0,0,true,true,true,false,0,,0,0,"master",1
"pavgup/WRT1900AC",128120,"User",,0,0,true,true,true,false,0,,0,0,"master",1
"mytbk/cipher_algo",156,"User",,0,0,true,true,true,false,0,,0,0,"master",1
"masenov1/neural-computation",20532,"User",,0,0,true,true,true,false,0,,0,0,"master",1
"jean-tessier/TCP-Client",132,"User",,0,0,true,true,true,false,0,,0,0,"master",1
"bibop-qu/Push_swap",148,"User",,0,0,true,true,true,false,0,,0,0,"master",1
"bssilva/ghs-with-mpi",132,"User",,0,0,true,true,true,false,0,,0,0,"master",1
"deerishi/server_version_OS161",2368,"User",,0,0,true,true,true,false,0,,0,0,"master",1
"drewet/iphone-dataprotection",7424,"User",,0,0,true,false,false,false,0,,63,0,"master",1
"lowenthal-jason/pebble-watchfaces",156,"User",,0,0,true,true,true,false,0,,0,0,"master",1
"Michael-List/ggT",152,"User",,0,0,true,true,true,false,0,,0,0,"master",1
"boulzordev/android_system_extras",2016,"Organization",,0,0,true,true,true,false,0,,0,0,"caf-6.0",1
"khaledhosny/fntsample",300,"User",,0,0,true,true,true,false,0,,0,0,"master",1
"paologentili/minimosd-extra",12524,"User",,0,0,true,false,false,false,0,,37,0,"master",1
"cam719/cs457",2484,"User",,0,0,true,true,true,false,0,,0,0,"master",1
"working12/hello-world",188,"User",,0,0,true,true,true,false,0,,1,0,"master",1
"mimaun/Aizu",45900,"User",,0,0,true,true,true,false,0,,0,0,"master",1
"richiefreedom/gc",152,"User",,0,0,true,true,true,false,0,,0,0,"master",1
"ERICK4444CIELO/fup1c",112,"User",,0,0,true,true,true,false,0,,0,0,"master",1
"kyungreal/QuardBody",448,"User",,0,0,true,true,true,false,0,,0,0,"master",1
"yaziid/bataille_navale",120,"User",,0,0,true,true,true,false,0,,0,0,"master",1
"tryton-vanmeer/Otterm",192,"User",,0,0,true,true,true,false,0,,0,0,"master",1
"MiniOS/android_kernel_oneplus_msm8994",915240,"Organization","https://github.com/OnePlusOSS/android_kernel_oneplus_msm8994.git",0,0,true,true,true,false,0,,0,0,"5.1.1",1
"axel-w/uebung-22-team-8",363,"User","",0,0,false,true,true,false,0,,0,0,"master",1
"Dexus/ubuntu-trusty-dovecot",89180,"User",,0,0,true,true,true,false,0,,0,0,"master",1
"tbarker25/alphalobby",1952,"User",,0,0,true,false,false,false,0,,0,0,"master",1
"Cartis7323/Starfield",156,"User",,0,0,true,true,true,false,0,,0,0,"master",1
"mason-hale/letterpress-solver",816,"User","",0,0,true,true,true,false,0,,0,0,"master",1
"MumbleFysh/simple-nfc",176,"User",,0,0,true,false,false,false,0,,0,0,"master",1
"121786404/mini2440_kernel",92784,"User",,0,0,true,true,true,false,0,,0,0,"master",1
"IndianTinker/OpenBadge",108,"User",,0,0,true,true,true,false,0,,0,0,"master",1
"ayush-m/pintos2",488,"User",,0,0,true,true,true,false,0,,0,0,"master",1
"tuxerhubert/piPID",140,"User",,0,0,true,true,true,false,0,,0,0,"master",1
"AjudaCodi/flow",132,"Organization",,0,0,true,true,true,false,0,,0,0,"master",1
"reAsOn2010/rsp",116,"User",,0,0,true,true,true,false,0,,0,0,"master",1
"kaileu/mlbtv-hls-nexdef",244,"User",,0,0,true,false,false,false,0,,3,0,"master",1
"slakzaee/the-hacker-workshop",180,"User",,0,0,true,false,false,false,0,,0,0,"master",1
"gngshn/u-boot-201510-super4412",15492,"User",,0,0,true,true,true,false,0,,0,0,"master",1
"KotovSyndrome/PebbleFace",980,"User",,0,0,true,true,true,false,0,,0,0,"master",1
"MwTop/calendar",120,"User",,0,0,true,true,true,false,0,,0,0,"master",1
"ale-roy/get_next_line",124,"User",,0,0,false,true,false,false,0,,0,0,"master",1
"fb39ca4/picoc",1680,"User",,0,0,true,false,false,false,0,,31,0,"master",1
"rdebath/wy60",484,"User",,0,0,true,false,false,false,0,,5,0,"master",1
"abmartinr/battleship",124,"User",,0,0,true,true,true,false,0,,0,0,"master",1
"shangdawei/the-bus-pirate",18708,"User",,0,0,true,false,false,false,0,,38,0,"master",1
"shangdawei/logicdiscovery",232,"User",,0,0,true,false,false,false,0,,4,0,"master",1
"drummingdemon/cs50-pset3",124,"User",,0,0,true,true,true,false,0,,0,0,"master",1
"shangdawei/cheapla",208,"User",,0,0,true,false,false,false,0,,0,0,"master",1
"shangdawei/rfidusb",284,"User",,0,0,true,false,false,false,0,,0,0,"master",1
"shangdawei/obd2-instruments",412,"User",,0,0,true,false,false,false,0,,1,0,"master",1
"nikolalsvk/pay-toll",180,"User",,0,0,true,true,true,false,0,,0,0,"master",1
"shangdawei/32bitmicro",7912,"User",,0,0,true,false,false,false,0,,0,0,"master",1
"Deenysoft/Junk-Aboki-Messenger-master",21384,"Organization","",0,0,false,true,true,false,0,,0,0,"master",1
"Infinitive-OS/external_f2fs-tools",456,"Organization",,0,0,true,true,true,false,0,,0,0,"m-6.0",1
"tigerarm/FreeRTOSV8.2.3",26228,"User",,0,0,true,true,true,false,0,,0,0,"master",1
