"Saskereliz/03",116,"User",,0,0,true,true,true,false,0,,0,0,"master",1
"ConstantJoe/ass-2015-openmp",148,"User",,0,0,true,true,true,false,0,,0,0,"master",1
"vahnmarty/subnetmask",136,"User",,0,0,true,true,true,false,0,,0,0,"master",1
"kallisons/ephemeris",23176,"User","",0,0,true,true,true,false,0,,0,0,"master",1
"Kylekato/Neutrino-Keyboard",136,"User",,0,0,true,true,true,false,0,,0,0,"master",1
"pvelasco/hello_world",152,"User",,0,0,true,true,true,false,0,,0,0,"master",1
"shadow28rock/Parallel_Program",120,"User",,0,0,true,true,true,false,0,,0,0,"master",1
"d4nielcosta/AP3-Lab2",192,"User",,0,0,true,true,true,false,0,,0,0,"master",1
"Aspirar/cs304",632,"User",,0,0,true,true,true,false,0,,0,0,"master",1
"bolinkd/Simple-Web-Server",120,"User",,0,0,true,true,true,false,0,,0,0,"master",1
"mastermat64/tp",108,"User","",0,0,true,true,true,false,0,,0,0,"master",1
"fekriomar/reaver-wps",1004,"User",,0,0,true,false,false,false,0,,582,0,"master",1
"socram8888/miau",416,"User",,0,0,true,true,true,false,0,,0,0,"master",1
"PoL0/hqx",196,"User",,0,0,true,false,false,false,0,,7,0,"master",1
"soickm/AppDynamics-sdk-example",148,"User",,0,0,true,true,true,false,0,,0,0,"master",1
"OliWheeler/arm11_16",3568,"User",,0,0,true,true,true,false,0,,0,0,"master",1
"ilyaseeyousoon/stm32f030k6_encoder",8136,"User",,0,0,true,true,true,false,0,,0,0,"master",1
"Pandelani/hw3",120,"User",,0,0,true,true,true,false,0,,0,0,"master",1
"ruanolin/LoRa_ruanolin",1044,"User",,0,0,true,true,true,false,0,,0,0,"master",1
"romanov6416/reliability-task2",580,"User",,0,0,true,true,true,false,0,,0,0,"master",1
"prinellm/hw3",112,"User",,0,0,true,true,true,false,0,,0,0,"master",1
"cmjonze/libpcre",7624,"User",,0,0,true,true,true,false,0,,0,0,"master",1
"bestmjh47/prima",60336,"User",,0,0,true,true,true,false,0,,0,0,"master",1
"antoinegergy/my_get_nbr",120,"User",,0,0,true,true,true,false,0,,0,0,"master",1
"Ekillz/Scope",708,"User",,0,0,true,true,true,false,0,,0,0,"master",1
"gaoshuaixiong/send_imme",15472,"User",,0,0,true,true,true,false,0,,0,0,"master",1
"baolfire/aries_kernel_pexcn",129716,"User",,0,0,true,true,true,false,0,,0,0,"cm-12.1",1
"gberginc/heyho-snappy",136,"User",,0,0,true,true,true,false,0,,0,0,"master",1
"patrickriordan/lostatspace",132,"User",,0,0,true,true,true,false,0,,0,0,"master",1
"bob-linuxtoys/proxy",116,"User",,0,0,true,true,true,false,0,,0,0,"master",1
"joeljk13/vim",39684,"User",,0,0,true,true,true,false,0,,0,0,"master",1
"draetsch/SDL-game-test",3112,"User",,0,0,true,true,true,false,0,,0,0,"master",1
"jeffreybrowning/c-projects",144,"User",,0,0,true,true,true,false,0,,0,0,"master",1
"VantanCreativeStudio/QuestManagement",4792,"Organization",,0,0,true,true,true,false,0,,0,0,"master",1
"dheerajgopi/SIMPLE-SCHEME-INTERPRETER",108,"User",,0,0,true,true,true,false,0,,0,0,"master",1
"EvgenyMakhnovets/PVS_Lab4",124,"User",,0,0,true,true,true,false,0,,0,0,"master",1
"Teranet/innodb-tools",2056,"User",,0,0,true,false,false,false,0,,11,0,"master",1
"martsve/cs50x",252,"User",,0,0,true,true,true,false,0,,0,0,"master",1
"ppma/android_device_for_ZTE_A880",7352,"User",,0,0,true,true,true,false,0,,0,0,"master",1
"yiyidhuang/android-serialport-api",276,"User",,0,0,true,false,false,false,0,,27,0,"master",1
"LiFantastic/SAT-Solver",6300,"User",,0,0,true,true,true,false,0,,0,0,"master",1
"MaxiCM/kernel_samsung_lt02xx",123824,"Organization",,0,0,true,true,true,false,0,,0,0,"maxi-5.1",1
"Metallium-ROM/android_system_bt",5592,"Organization",,0,0,true,true,true,false,0,,0,0,"temp",1
"GlowingEgg/ParallelComputing",144,"User",,0,0,true,true,true,false,0,,0,0,"master",1
"jrfastab/hardware_maps",1147752,"User",,0,0,true,true,true,false,0,,0,0,"master",1
"hustfanxu/internet",144,"User",,0,0,true,true,true,false,0,,0,0,"master",1
"La-BlueFrog/L4-LimiFrog-SW-WIP",98296,"User",,0,0,true,true,true,false,0,,0,0,"master",1
"alexmesquita/embarcadosProva1",284,"User",,0,0,true,true,true,false,0,,0,0,"master",1
"Bafou/ASE_TP5",172,"User",,0,0,true,true,true,false,0,,0,0,"master",1
"eguer048/peer2peer",148,"User",,0,0,true,true,true,false,0,,0,0,"master",1
"rosatolen/HSU-linux-to-pn532",136,"User",,0,0,true,true,true,false,0,,0,0,"master",1
"fecloud/ngx_http_oauth_module",160,"User",,0,0,true,true,true,false,0,,0,0,"master",1
"bedwards144/uoguelph",140,"User",,0,0,true,true,true,false,0,,0,0,"master",1
"squareGTS/proga",128,"User",,0,0,true,true,true,false,0,,0,0,"master",1
"temik42/dave",2392,"User",,0,0,true,true,true,false,0,,0,0,"master",1
"bbergen/Big_Integer",160,"User",,0,0,true,true,true,false,0,,0,0,"master",1
"zxexz/cs3650",128,"User",,0,0,true,true,true,false,0,,0,0,"master",1
"dfilskov/quarterweek",376,"User",,0,0,true,true,true,true,0,,0,0,"master",1
"foliot/os-project1",1944,"User",,0,0,true,true,true,false,0,,0,0,"master",1
"MaNikkel/lista-9-estrutura-de-dados",128,"User",,0,0,true,true,true,false,0,,0,0,"master",1
"BenjaminNavarro/assembly_control",2384,"User","",0,0,true,true,true,false,0,,0,0,"master",1
"jeanjiron/redes",25652,"User",,0,0,true,true,true,false,0,,0,0,"master",1
"parmartwinkle/Project",140,"User","",0,0,true,true,true,false,0,,0,0,"master",1
"vendethiel/battle_of_wutgar.c",156,"User",,0,0,true,true,true,false,0,,6,0,"master",1
"zflat/gimp-cgrid",192,"User",,0,0,true,true,true,false,0,,0,0,"master",1
"aumkarpraja/Vector-Pathfinder",459,"User","http://aumkar.ca",0,0,false,true,false,false,0,,0,0,"master",1
"Mr-Kumar-Abhishek/Asitor",244,"User","",0,0,true,true,true,false,0,,1,0,"master",1
"felipeprov/sethengine2",412,"User",,0,0,true,true,true,false,0,,0,0,"master",1
"ev-staging/android_system_bt",8208,"Organization",,0,0,true,true,true,false,0,,0,0,"mm-6.0",1
"palatinuse/database-vertical-partitioning",3959,"User",,0,0,true,true,true,false,1,,0,1,"master",1
"jlhutch/SipHash",132,"User","",0,0,true,true,true,false,0,,0,0,"master",1
"LuckyHappyBear/internship_project",3288,"User",,0,0,true,true,true,false,0,,0,0,"master",1
"rockinroyle/kernel_moto_shamu",986824,"User",,0,0,true,true,true,false,0,,0,0,"aospd_2.0",1
"VRToxin/android_bionic",23916,"Organization",,0,0,true,true,true,false,0,,0,0,"mm6.0",1
"ygorcf/ProjetoFinalLab1",9640,"User",,0,0,true,true,true,false,0,,0,0,"master",1
"TDobravec/PJC-201516",180,"User","http://tdobravec.github.io/PJC-201516",0,0,true,true,true,true,0,,0,0,"master",1
"mhahsler/arules",1644,"User",,0,0,true,true,true,false,0,,0,0,"master",1
"karl-wxw/cproject",180,"User",,0,0,true,true,true,false,0,,0,0,"master",1
"naigon/MonteCarloPI",232,"User",,0,0,true,true,true,false,0,,0,0,"master",1
"mobi12/math-lib",156,"User",,0,0,true,true,true,false,0,,0,0,"master",1
"npd/nl-bayes",188,"User","",0,0,true,true,true,false,0,,0,0,"master",1
"likaiwen123/SmartCar",487,"User",,0,0,false,true,true,false,0,,0,0,"master",1
"MartinNikolovMarinov/SoftUniHomeWorks_C",550,"User",,0,0,true,true,true,false,3,,0,3,"master",1
"Haelia/AEO",12284,"User",,0,0,true,true,true,false,0,,0,0,"master",1
