"TenebrisFulmen/encodage",152,"User",,0,0,true,true,true,false,0,,0,0,"master",1
"samalaee/android-screenshot-library",564,"User",,0,0,true,false,false,false,0,,40,0,"master",1
"quinzio/KBL201P-fw-12_5_207_RC44_Cantata",5824,"User",,0,0,true,true,true,false,0,,0,0,"master",1
"Evervolv/android_system_qcom",260,"Organization",,0,0,true,true,true,false,0,,0,0,"mm-6.0",1
"OneRom/external_f2fs-tools",404,"Organization",,0,0,true,true,true,false,0,,0,0,"mm6.0",1
"whitehood15/Tests",140,"User",,0,0,true,true,true,false,0,,0,0,"master",1
"OneRom/external_libnfc-nci",1588,"Organization",,0,0,true,true,true,false,0,,0,0,"mm6.0",1
"Teino1978-Corp/Teino1978-Corp-WiggleTools",2560,"User","",0,0,true,true,true,false,0,,0,0,"master",1
"jangsoopark/kernel_timer",108,"User",,0,0,true,true,true,false,0,,0,0,"master",1
"clevercarlos/LogicaProgramacao49725",164,"User",,0,0,true,true,true,false,0,,0,0,"master",1
"zyonee/opencbm",11712,"User",,0,0,true,true,true,false,0,,0,0,"master",1
"umakulkarni/My-SPI-driver-for-LED-display",120,"User",,0,0,true,true,true,false,0,,0,0,"master",1
"cognoscola/mandelbrot",9412,"User",,0,0,true,true,true,false,0,,0,0,"master",1
"Melgaco/AulaC---49725",168,"User",,0,0,true,true,true,false,0,,0,0,"master",1
"dariolah/wuisqlite",2668,"User",,0,0,true,true,true,false,0,,0,0,"master",1
"jwt27/watt32",2356,"User",,0,0,true,true,true,false,0,,0,0,"master",1
"anti4/brainfucc",128,"User",,0,0,true,true,true,false,0,,0,0,"master",1
"sunhongtao/Testgit1",136,"User",,0,0,true,true,true,false,0,,0,0,"master",1
"Bloobs/pebble_blue_analog_fahrenheit_watchface",132,"User",,0,0,true,true,true,false,0,,0,0,"master",1
"daniel-perry/PLY.jl",1692,"User",,0,0,true,true,true,false,0,,0,0,"master",1
"BIG-FAN/The-C-programming-language-second-edition-Exercises",220,"User",,0,0,true,true,true,false,0,,0,0,"master",1
"DarioGi/ECEC413_Lab2",180,"User",,0,0,true,true,true,false,0,,0,0,"master",1
"odzhan/rabbit",116,"User",,0,0,true,true,true,false,0,,0,0,"master",1
"klihub/ripncode",212,"User",,0,0,true,true,true,false,0,,0,0,"master",1
"akaros/nineutil",152,"Organization",,0,0,true,true,true,false,0,,0,0,"master",1
"b00074979/Loop-accepts-10-integers-and-gets-sum-but-terminated-when-0-is-entered",140,"User",,0,0,true,true,true,false,0,,0,0,"master",1
"ttn-dcy/decoy_c",328,"User","https://github.com/tickelton/ghdecoy",0,0,true,true,true,false,0,,0,0,"master",1
"Majlen/afsadm",176,"User",,0,0,true,true,true,false,0,,0,0,"master",1
"meetrp/cmocka",260,"User",,0,0,true,true,true,false,0,,0,0,"master",1
"jabibi100/project1testcases",172,"User",,0,0,true,true,true,false,0,,0,0,"master",1
"jangsoopark/fireindev_temp",140,"User",,0,0,true,true,true,false,0,,0,0,"master",1
"ryanisaacg/FiveStages",136,"User","",0,0,true,true,true,false,0,,0,0,"master",1
"d1m1tr1/android",436,"User",,0,0,true,true,true,false,0,,0,0,"master",1
"Zallarn/fdf",136,"User",,0,0,true,true,true,false,0,,0,0,"master",1
"roFilip/COMP7005_CRONLAB",136,"User",,0,0,true,true,true,false,0,,0,0,"master",1
"skymixos/skymixos",12136,"User",,0,0,true,true,true,false,0,,0,0,"master",1
"julianweisbord/binary_sort",124,"User",,0,0,true,true,true,false,0,,0,0,"master",1
"one000mph/RingBuffer",252,"User",,0,0,true,true,true,false,0,,0,0,"master",1
"brythonick/c_coursework",132,"User",,0,0,true,true,true,false,0,,0,0,"master",1
"otaku42/lm77-2.4",156,"User","",0,0,false,true,false,false,0,,0,0,"master",1
"MenZil/C-2",148,"User",,0,0,true,true,true,false,0,,0,0,"master",1
"ggsklias/projects",168,"User","",0,0,true,true,true,false,0,,0,0,"master",1
"HappyEmu/sensor-networks-tpsn",408,"User",,0,0,true,true,true,false,0,,0,0,"master",1
"pengyi/al",152,"User",,0,0,true,true,true,false,0,,0,0,"master",1
"wizzfizz94/CITS3402_prg2",10752,"User",,0,0,true,true,true,false,0,,0,0,"master",1
"prismskylabs/prismlibvpx",11516,"Organization",,0,0,true,true,true,false,0,,0,0,"master",1
"emul8/tlib",636,"Organization",,0,0,true,true,true,false,2,,7,2,"master",1
"xwuxjim333/pi",156,"User",,0,0,true,true,true,false,0,,0,0,"master",1
"kovalexius/findPath3d",348,"User",,0,0,true,true,true,false,0,,0,0,"master",1
"dongchiyong/toybox",144,"User",,0,0,true,true,true,false,0,,0,0,"master",1
"weprikjm/DevPathFinding",3644,"User",,0,0,true,true,true,false,0,,0,0,"master",1
"chu11/freeipmi",28196,"User",,0,0,true,true,true,false,0,,0,0,"master",1
"Shamitha-R/ENGINE_x64",5732,"User",,0,0,true,true,true,false,0,,0,0,"master",1
"TurkeyJerky/Treasure-Room-Simulation",0,"User",,0,0,true,true,true,false,0,,0,0,"master",1
"Daleth7/Interrupt-based-LPF-and-Notch-filter",0,"User",,0,0,true,true,true,false,0,,0,0,"master",1
"murisi/ChASM",2784,"User","",0,0,true,true,true,false,0,,0,0,"master",1
"auberj/ComputerNetworkB1",27428,"User",,0,0,true,true,true,false,0,,0,0,"master",1
"AndreLuis-21/linguagem-aulas-c",128,"User",,0,0,true,true,true,false,0,,0,0,"master",1
"djvoleur/S6_UniPR_BOI1",143816,"User",,0,0,true,true,true,false,0,,0,0,"UniKernel-v9b",1
"nettapper/379.Assn2",128,"User",,0,0,true,true,true,false,0,,0,0,"master",1
"fathoniadi/inireposisop",144,"User",,0,0,true,true,true,false,0,,0,0,"master",1
"geltoncruz/Logica-C",129,"User",,0,0,true,true,true,false,2,,0,2,"master",1
"shouvanik95/DB-Internals",1436,"User","",0,0,true,true,true,false,0,,0,0,"master",1
"reynold07/table",144,"User",,0,0,true,true,true,false,0,,0,0,"master",1
"tmpvar/cpu-voxels",4252,"User",,0,0,true,true,true,false,0,,0,0,"master",1
"ThomasHangstoerfer/Wega",208,"User",,0,0,true,true,true,false,0,,0,0,"master",1
"chintanp/i2c-charger",192,"User",,0,0,true,true,true,false,0,,0,0,"master",1
"tritium21/dicelib",140,"User","",0,0,true,true,true,false,0,,0,0,"master",1
"garytan0722/libcurl-with-openssl-for-Android",15056,"User",,0,0,true,true,true,false,0,,0,0,"master",1
"AdventureKing/UTSASCHOOLWORK",0,"User",,0,0,true,true,true,false,0,,0,0,"master",1
"mixer20/PREN_MC",396,"User",,0,0,true,true,true,false,0,,0,0,"master",1
"NothingMuch123/Adv-GDev",35608,"User",,0,0,true,true,true,false,0,,0,0,"master",1
"funanfeng/FNF_Project1",144,"User",,0,0,true,true,true,false,0,,0,0,"master",1
"frenchwr/SimpleMD",152,"User",,0,0,true,true,true,false,0,,0,0,"master",1
"menasameh/OS-labs",308,"User",,0,0,true,true,true,false,0,,0,0,"master",1
"MobileCloudNetworking/icnaas",7808,"Organization",,0,0,true,true,true,false,0,,0,0,"master",1
"joostrijneveld/STM32-getting-started",0,"User",,0,0,true,true,false,false,0,,0,0,"master",1
"micnyk/cFTP",156,"User",,0,0,true,true,true,false,0,,0,0,"master",1
"kraj/musl",4640,"User",,0,0,true,true,true,false,0,,0,0,"master",1
"kraj/glibc",108924,"User",,0,0,true,true,true,false,0,,0,0,"master",1
"JakubSzczerbinski/WdPC",136,"User",,0,0,true,true,true,false,0,,0,0,"master",1
"akshayk0406/Spherical-K-means-Clustering",124,"User",,0,0,true,true,true,false,0,,0,0,"master",1
"iszengGit/ellipsoid-surface-fitting",148,"User",,0,0,true,true,true,false,0,,0,0,"master",1
"andela-lmeke/cs50",184,"User",,0,0,true,true,true,false,0,,0,0,"master",1
"jam-world/calculator",224,"User",,0,0,true,true,true,false,0,,0,0,"master",1
"NatkungZ/PRNG",112,"User",,0,0,true,true,true,false,0,,0,0,"master",1
"VoIPGRID/PJSIP",25084,"Organization",,0,0,true,true,true,false,0,,0,0,"master",1
"willcast/evilclock",156,"User",,0,0,true,true,true,false,0,,0,0,"master",1
"FeiFei521/feifeizi",141,"User",,0,0,true,true,true,false,1,,1,1,"master",1
"li77leprince/MPU6050-data-analysis",1820,"User",,0,0,true,true,true,false,0,,0,0,"master",1
"lbenedette/Faculdade",136,"User",,0,0,true,true,true,false,0,,0,0,"master",1
"tectronics/ns-co",936,"User",,0,0,true,false,false,false,0,,0,0,"master",1
"tectronics/open-rp",2888,"User",,0,0,true,false,false,false,0,,13,0,"master",1
"ska80/qemacs",920,"User",,0,0,true,true,true,false,0,,0,0,"master",1
"wangqi509/MyOS-20150825",2500,"User",,0,0,true,true,true,false,0,,0,0,"master",1
"thankmelater23/Asteroids",20280,"User",,0,0,true,true,true,false,0,,0,0,"master",1
"kabarkalov/stack",112,"User",,0,0,true,true,true,false,0,,0,0,"master",1
"terastream/mif-NetworkManager",40088,"User",,0,0,true,true,true,false,0,,0,0,"master",1
"voltio71/syko-devel",1632,"User",,0,0,true,true,true,false,0,,0,0,"master",1
"lubosz/mesa-demos",28240,"User",,0,0,true,true,true,false,0,,0,0,"wayland",1
