"tunefish/I2A-Project1",204,"User",,0,0,false,true,false,false,0,,0,0,"master",1
"piotroramus/OORA2015",456,"User",,0,0,true,true,true,false,0,,0,0,"master",1
"rbischoff/projects",224,"User","",0,0,true,true,true,false,0,,0,0,"master",1
"andavargas/PebbleBatteryLine",120,"User","",0,0,true,true,true,false,0,,0,0,"master",1
"iMohannad/LSM303D-SPI",160,"User",,0,0,true,true,true,false,0,,0,0,"master",1
"high-moctane/test_repo",140,"User",,0,0,true,true,true,false,0,,0,0,"master",1
"lkfeddersen/EMB1",7828,"User",,0,0,true,true,true,false,0,,0,0,"master",1
"Toianoke/SAT",192,"Organization",,0,0,true,true,true,false,0,,0,0,"master",1
"khungryapple/VexB_Fall_Ian_FlyBot",196,"User",,0,0,true,true,true,false,0,,0,0,"master",1
"akowalew/ROB",160,"User",,0,0,true,true,true,false,0,,0,0,"master",1
"wolfSSL/wolfMQTT",248,"Organization",,0,0,true,true,true,false,0,,0,0,"master",1
"aprsworld/tsTSelector",168,"Organization",,0,0,true,true,true,false,0,,0,0,"master",1
"crawfxrd/ping",164,"User",,0,0,true,true,true,false,0,,0,0,"master",1
"DeshpandeVaidehi/dsaproject",164,"User",,0,0,true,true,true,false,0,,0,0,"master",1
"forwchen/xv6-memory-mapping",212,"User",,0,0,true,true,true,false,0,,0,0,"master",1
