"mihazet/magicdoc",3248,"User",,0,0,true,false,false,false,0,,0,0,"master",1
"NoelMacwan/arm-eabi-linaro-5.2",47788,"User",,0,0,true,true,true,false,0,,0,0,"linaro-5.2",1
"vmaffione/arithcoder",144,"User",,0,0,true,true,true,false,0,,0,0,"master",1
"NamNguyen147/patchFile",124,"User",,0,0,true,true,true,false,0,,0,0,"master",1
"WangChun420/picojpeg",312,"User",,0,0,true,false,false,false,0,,1,0,"master",1
"whitestone8214/Taibu",128,"User",,0,0,true,true,true,false,0,,0,0,"master",1
"TeslaProject-Marshmallow/android_external_ppp",1272,"Organization",,0,0,true,true,true,false,0,,0,0,"mm",1
"mark-marinas/pe_tools-vcdToPattern",124,"User","",0,0,true,true,true,false,0,,0,0,"master",1
"rastogitanuj/word2vec",272,"User",,0,0,true,false,false,false,0,,35,0,"master",1
"cmjonze/gdbm",1432,"User",,0,0,true,true,true,false,0,,0,0,"master",1
"vmaffione/initramfs-boot",688,"User",,0,0,true,true,true,false,0,,0,0,"master",1
"ViniciusFPatrao/cafe-com-c",144,"User",,0,0,true,true,true,false,0,,0,0,"master",1
"gaogaoxiasha/project",328,"User",,0,0,true,true,true,false,0,,0,0,"master",1
"Koosuf/Koo",132,"User",,0,0,true,true,true,false,0,,0,0,"master",1
"jakubt33/BalanSyner",2032,"User",,0,0,true,true,true,false,0,,0,0,"master",1
"AxFab/newlib",10788,"User","",0,0,true,true,true,false,0,,0,0,"master",1
"jadomingo/MP1-Redo",652,"User","",0,0,true,true,true,false,0,,0,0,"master",1
"mariomulansky/cvode_playground",124,"User",,0,0,true,true,true,false,0,,0,0,"master",1
"gardhi01/CS165-final-project",140,"User",,0,0,true,true,true,false,0,,0,0,"master",1
"Grep-Juub/ft_ls",136,"User",,0,0,true,true,true,false,0,,0,0,"master",1
"mirahs/cwebserver",184,"User",,0,0,true,true,true,false,0,,0,0,"master",1
"tylerdohrn/m15",144,"User","",0,0,true,true,true,false,0,,0,0,"master",1
"cy33hc/puzzattack4vita",664,"User",,0,0,true,true,true,false,0,,0,0,"master",1
"dbremner/aplusdev",5412,"User",,0,0,true,true,true,false,0,,0,0,"master",1
"gozek/parlab",920,"User",,0,0,true,true,true,false,0,,0,0,"master",1
"haroonhassan/GOL",168,"User",,0,0,true,true,true,false,0,,1,0,"master",1
"paserihuku/CS_CIT_final",124,"User",,0,0,true,true,true,false,0,,0,0,"master",1
"mroseman95/EECS338_Assignment_04",616,"User","",0,0,true,true,true,false,0,,0,0,"master",1
"tardoe/elec4403-lab8",140,"User",,0,0,true,true,true,false,0,,0,0,"master",1
"AceAuttapong/droidreader",2092,"User",,0,0,true,false,false,false,0,,0,0,"master",1
"lcthums/engine",132,"User",,0,0,true,true,true,false,0,,0,0,"master",1
"MiloJiang/spdyshark",200,"User",,0,0,true,false,false,false,0,,3,0,"master",1
"ktb92677/BulkClub",1120,"User",,0,0,true,true,true,false,0,,0,0,"master",1
"scw00/traffic-server-test",140,"User",,0,0,true,true,true,false,0,,0,0,"master",1
"foolswood/Tempsensor",136,"User",,0,0,true,true,true,false,0,,0,0,"master",1
"deppari-head/sw1",121,"User",,0,0,true,true,true,false,1,,0,1,"master",1
"atsushi-n/report2015",125,"User",,0,0,true,true,true,false,1,,0,1,"master",1
"scottytee06/threads",120,"User",,0,0,true,true,true,false,0,,0,0,"master",1
"thakurakhil/p2p-file-sharing",140,"User",,0,0,true,true,true,false,0,,0,0,"master",1
"thakurakhil/raw_sockets",112,"User",,0,0,true,true,true,false,0,,0,0,"master",1
"vasiyi/reaver-wps",1008,"User",,0,0,true,false,false,false,0,,582,0,"master",1
"shenjiang11/hpplVScblas",164,"User",,0,0,true,true,true,false,0,,0,0,"master",1
"thischarles/MacStageKit",144,"User",,0,0,true,true,true,false,0,,0,0,"master",1
"bhpebble/Counter",124,"User",,0,0,true,true,true,false,0,,0,0,"master",1
"theorbtwo/dangerous-prototypes-open-hardware",315932,"User",,0,0,true,false,false,false,0,,12,0,"master",1
"luanhssa/uno-c",7564,"User",,0,0,true,true,true,false,0,,0,0,"master",1
"Gentalman/STM8",1904,"User",,0,0,true,true,true,false,0,,0,0,"master",1
"stutim95/CSI402HW1",168,"User",,0,0,true,true,true,false,0,,0,0,"master",1
"northfisher/Test",160,"User",,0,0,true,true,true,false,0,,0,0,"master",1
"easaemad14/cse430_proj2",112,"User",,0,0,true,true,true,false,0,,0,0,"master",1
"prosergeant/space_prototype",1036,"User",,0,0,true,true,true,false,0,,0,0,"master",1
"fajsid/mongoose",840,"User",,0,0,true,false,false,false,0,,32,0,"master",1
"Phals/Sudoku",116,"User",,0,0,true,true,true,false,0,,0,0,"master",1
"PaulaGVF/your-age",212,"User",,0,0,true,true,true,false,0,,0,0,"master",1
"hangde01/hangde01lc",108,"User",,0,0,true,true,true,false,0,,0,0,"master",1
"dan-hart/cs4830_exploration3",1348,"User","http://alaska.cloudapp.net/exploration3",0,0,true,true,true,false,0,,0,0,"master",1
"eager7/socket_comm_server",224,"User",,0,0,true,true,true,false,0,,0,0,"master",1
"GuilhermeSCP/multibanco-sope",412,"User",,0,0,true,true,true,false,0,,0,0,"master",1
"rmccullagh/como-src",108,"User",,0,0,true,true,true,false,0,,0,0,"master",1
"lokoder/sniff",124,"User",,0,0,true,true,true,false,0,,0,0,"master",1
"RTK99/Nexus-Themer-",144,"User",,0,0,true,true,true,false,0,,0,0,"master",1
"jusa/pulseaudio-modules-droid-glue",128,"User",,0,0,true,true,true,false,0,,0,0,"master",1
"matthewbode/mg2",520,"User",,0,0,true,true,true,false,0,,0,0,"master",1
"GuilhermeSCP/ftp-client-rcom",532,"User",,0,0,true,true,true,false,0,,0,0,"master",1
"altor/TP_S5",124,"User",,0,0,true,true,true,false,0,,0,0,"master",1
"markpudd/serial_bin",140,"User",,0,0,true,true,true,false,0,,0,0,"master",1
"amzin7000/mongoose",840,"User",,0,0,true,false,false,false,0,,32,0,"master",1
"francescofresta/universityalgorithms",148,"User",,0,0,true,true,true,false,0,,0,0,"master",1
"psudheerhh/SFTP",108,"User",,0,0,true,true,true,false,0,,0,0,"master",1
"bgernert/fwKegelomat",172,"User",,0,0,true,true,true,false,0,,0,0,"master",1
"GuilhermeSCP/football-simulator-lcom",372,"User",,0,0,true,true,true,false,0,,0,0,"master",1
"TeslaProject-Marshmallow/android_external_libpng",3824,"Organization",,0,0,true,true,true,false,0,,0,0,"mm",1
"zholer/rfsensornode",152,"User","",0,0,true,true,true,false,0,,0,0,"master",1
"Onhyro/esercizi-tecnologie-2015-2016",192,"User",,0,0,true,true,true,false,0,,0,0,"master",1
"AcideSpud/Fdf",208,"User",,0,0,true,true,true,false,0,,0,0,"master",1
"bartelthunter/reaver-wps",1016,"User",,0,0,true,false,false,false,0,,7,0,"master",1
"bpeeters/C_Sample",148,"User",,0,0,true,true,true,false,0,,0,0,"master",1
"Nayeem170/Digital-Diary",44000,"User",,0,0,true,true,true,false,0,,0,0,"master",1
"amittal91/DevOps-Workshop-Reddis",3676,"User",,0,0,true,true,true,false,0,,0,0,"master",1
"stewart/st",1996,"User","http://st.suckless.org/",0,0,true,true,true,false,0,,0,0,"master",1
"telf/TDR_patch_series_1",1140172,"User",,0,0,true,true,true,false,0,,0,0,"20151019_TDR_upstream_patches_start_splitting2_rebase_bugfixes_delivery",1
"TeslaProject-Marshmallow/android_external_android-clat",664,"Organization",,0,0,true,true,true,false,0,,0,0,"mm",1
"gadeta01/gadeta01lc",108,"User",,0,0,true,true,true,false,0,,0,0,"master",1
"DRed96/Pinball",12668,"User",,0,0,true,true,true,false,0,,0,0,"master",1
"lo0re3/paradigmas",172,"User",,0,0,true,true,true,false,0,,0,0,"master",1
"Tydax/m1-systeme-tp06",133,"User",,0,0,true,true,true,false,0,,0,0,"master",1
"TeslaProject-Marshmallow/android_system_bt",9056,"Organization",,0,0,true,true,true,false,0,,0,0,"mm",1
"seieibob/FaceOff",6987,"User",,0,0,true,true,true,false,0,,0,0,"master",1
"oncebasun/DataStructures",272,"User",,0,0,true,true,true,false,0,,0,0,"master",1
"FireLord1/CM10.1_device_kylepro",279,"User","",0,0,false,true,true,false,0,,0,0,"master",1
"GoinsWithTheWind/libdrm-prime-sync",11704,"User","",0,0,true,true,true,false,0,,0,0,"agoins-prime",1
"tkisme/judgeTriangle",172,"User",,0,0,true,true,true,false,0,,0,0,"master",1
"backup-kb/pnotify-linux-4.1.6",145604,"User",,0,0,true,true,true,false,0,,0,0,"master",1
"guitarman0831/CS-392",204,"User",,0,0,true,true,true,false,0,,0,0,"master",1
"leicj/POINTERSONC",188,"User",,0,0,true,true,true,false,0,,0,0,"master",1
"vibhu0009/Swift",921720,"User",,0,0,true,true,true,false,0,,0,0,"lp5.1",1
"iamyuiwong/posix-anywhere-basis",168,"User",,0,0,true,true,true,false,0,,0,0,"master",1
"marianopenn-jhu/marianopenn-Public-Code",9052,"User","",0,0,true,true,true,false,0,,0,0,"master",1
"joaoiora/DataStructures",164,"User",,0,0,true,true,true,false,0,,0,0,"master",1
"Andrew-McCormack/CSPFiles",284,"User",,0,0,true,true,true,false,0,,0,0,"master",1
