"jonaitken/ARDroneCamera",1188,"User",,0,0,true,true,true,false,0,,0,0,"master",1
"tectronics/avrusbmodem",968,"User",,0,0,true,false,false,false,0,,0,0,"master",1
"AleixBV/Dev_class8_handout",3640,"User",,0,0,true,true,true,false,0,,0,0,"master",1
"tectronics/napt66",168,"User",,0,0,true,false,false,false,0,,46,0,"master",1
"kihun1024/kernel12",152,"User",,0,0,true,true,true,false,0,,0,0,"master",1
"aqing1987/s-mp4-resolver",620,"User",,0,0,true,true,true,false,0,,0,0,"master",1
"voltch/volt",111496,"User",,0,0,true,true,true,false,0,,0,0,"master",1
"woodsts/linux-omap",1263432,"User","",0,0,true,true,true,false,0,,0,0,"master",1
"MrDongQihong/PuzzleC",156,"User",,0,0,true,true,true,false,0,,0,0,"master",1
"crossbuild/mpfr",2336,"Organization",,0,0,true,true,true,false,0,,0,0,"build_master",1
"bwlewis/lz4",208,"User",,0,0,true,true,true,false,0,,2,0,"master",1
"Mukesh52Pareek/git_learning",148,"User",,0,0,true,true,true,false,0,,0,0,"master",1
"khushsuk/gitlearning",156,"User",,0,0,true,true,true,false,0,,0,0,"master",1
"may2250/ipgw-wdg-ati",424,"User",,0,0,true,true,true,false,0,,0,0,"master",1
"jinshubai/plranksvm",240,"User",,0,0,true,true,true,false,0,,0,0,"master",1
"dmillerw/TaskerVoice-Pebble",120,"User",,0,0,true,true,true,false,0,,0,0,"master",1
"durake/QCA4004_IPP",448,"User",,0,0,true,true,true,false,0,,0,0,"master",1
"92243/Mytest",152,"User",,0,0,true,true,true,false,0,,0,0,"master",1
"aaronsieting/test",140,"User",,0,0,true,true,true,false,0,,0,0,"master",1
"stamilo/eventlog-to-syslog",5620,"User",,0,0,true,false,false,false,0,,37,0,"master",1
"anchitjain1234/Simple-TFTP",132,"User",,0,0,true,true,true,false,0,,0,0,"master",1
"wkvictor/C-Prog-China-MOOC",19208,"User",,0,0,true,true,true,false,0,,0,0,"master",1
"Avtelyes/Tarea-4",168,"User",,0,0,true,true,true,false,0,,0,0,"master",1
"tectronics/jmupdf",14588,"User",,0,0,true,false,false,false,0,,13,0,"master",1
"aniruddhag-gdb/sample",1460,"User",,0,0,true,true,true,false,0,,0,0,"master",1
"DELTA7564/MazeRunner",124,"User",,0,0,true,true,true,false,0,,0,0,"master",1
"bhnascar/Snake-Matrix",5332,"User","",0,0,true,true,true,false,0,,0,0,"master",1
"jayvdb/plstok",224,"User","https://web.archive.org/web/20070818235915/http://home.swbell.net/mck9/pls/index.html",0,0,true,true,true,false,0,,0,0,"master",1
"b00074979/Populating-an-array-and-then-outputting-values-of-array.",140,"User",,0,0,true,true,true,false,0,,0,0,"master",1
"craiglowe/bamToWig",140,"User",,0,0,true,true,true,false,0,,0,0,"master",1
"gokulanathan1992/wireless-gap",507,"User",,0,0,true,true,true,false,1,,0,1,"master",1
"b00074979/Calculating_GPA",140,"User",,0,0,true,true,true,false,0,,0,0,"master",1
"j16out/rs232",188,"User",,0,0,true,true,true,false,0,,0,0,"master",1
"b00074979/Calculating-sum-average-and-product",140,"User",,0,0,true,true,true,false,0,,0,0,"master",1
"yogeshsingh01/UART_Transmit",356,"User",,0,0,true,true,true,false,0,,0,0,"master",1
"b00074979/Game-of-High-Low-with-feedback-on-guess",140,"User",,0,0,true,true,true,false,0,,0,0,"master",1
"b00074979/Calculating-Perimeter-of-Triangle",144,"User",,0,0,true,true,true,false,0,,0,0,"master",1
"JavaWarrior/matrixMulti",536,"User",,0,0,true,true,true,false,0,,0,0,"master",1
"b00074979/Print-a-table-which-prints-number-number-squared-number-cubed",140,"User",,0,0,true,true,true,false,0,,0,0,"master",1
"weskerhluffy/caca_x",136,"User",,0,0,true,true,true,false,0,,0,0,"master",1
"costa-na/K",124,"User",,0,0,true,true,true,false,0,,0,0,"master",1
"burkegavan/ComputerGraphics",16324,"User",,0,0,true,true,true,false,0,,0,0,"master",1
"leicj/DataStructuresAndAlgorithmAnalysisInC",176,"User",,0,0,true,true,true,false,0,,0,0,"master",1
"MSC19950601/kururuLib",124,"User",,0,0,true,true,true,false,0,,0,0,"master",1
"squallee/Intro-of-ACM",132,"User",,0,0,true,true,true,false,0,,0,0,"master",1
"dgb/byol",148,"User",,0,0,true,true,true,false,0,,0,0,"master",1
"carterdy/csc458",268,"User",,0,0,true,true,true,false,0,,0,0,"master",1
"flamingwang/lab2",140,"User",,0,0,true,true,true,false,0,,0,0,"master",1
"deemru/dlfl",220,"User","",0,0,true,true,true,false,0,,0,0,"master",1
"Narusaki/GLSLDemo",3284,"User","",0,0,true,true,true,false,0,,0,0,"master",1
"zbo9269/ci_driver",3340,"User",,0,0,true,true,true,false,0,,0,0,"master",1
"pridolfi/monitor_multicore",136,"User",,0,0,true,true,true,false,0,,0,0,"master",1
"feiqian/BrepProject",236,"User","",0,0,true,true,true,false,0,,0,0,"master",1
"KBuild/os-study",160,"User",,0,0,true,true,true,false,0,,0,0,"master",1
"semyda94/safeTFTP",136,"User",,0,0,true,true,true,false,0,,0,0,"master",1
"MPRC-Lab/FPGA_Coprocessor",1044,"Organization",,0,0,true,true,true,false,0,,0,0,"master",1
"hana11/termproject",112,"User",,0,0,true,true,true,false,0,,0,0,"master",1
"charlestrep91/DroneLab3",156,"User",,0,0,true,true,true,false,0,,0,0,"master",1
"taozhijiang/st_utils",168,"User",,0,0,true,true,true,false,0,,0,0,"master",1
"paladin-t/framepacker",120,"User","",0,0,true,true,true,false,0,,0,0,"master",1
"mboussaa/GCCFlagsGenerator",2080,"User",,0,0,true,true,true,false,0,,0,0,"master",1
"janaRamirez/FFUP1B",144,"User",,0,0,true,true,true,false,0,,0,0,"master",1
"shail/build_your_own_lisp",392,"User",,0,0,true,true,true,false,0,,0,0,"master",1
"vexparadox/PAPProject",21800,"User",,0,0,true,true,true,false,0,,0,0,"master",1
"jrsouza95/AulaC49725",124,"User",,0,0,true,true,true,false,0,,0,0,"master",1
"daviddrysdale/libpng",15856,"User",,0,0,true,true,true,false,0,,0,0,"test17",1
"ilyasToumlilt/M2_NMV",384,"User",,0,0,true,true,true,false,0,,0,0,"master",1
"kraj/binutils-gdb",289456,"User",,0,0,true,true,true,false,0,,0,0,"master",1
"tinyFatAries/RayEngine",2708,"User",,0,0,true,true,true,false,0,,0,0,"master",1
"guangtaoli/StarTravel-1",81,"User",,0,0,false,true,true,false,0,,0,0,"master",1
"pkethe/MTP",120,"User",,0,0,true,true,true,false,0,,0,0,"master",1
"ZTECH2015/nilmtest",6420,"User",,0,0,true,true,true,false,0,,0,0,"master",1
"annie60/TrashNinja",304,"User",,0,0,true,true,true,false,0,,0,0,"master",1
"helizabethwhite/tftp",200,"User",,0,0,true,true,true,false,0,,0,0,"master",1
"LeoErvik/c_for_linux_innlevering2",396,"User",,0,0,true,true,true,false,0,,0,0,"master",1
"debugfan/lfmp",15460,"User",,0,0,true,true,true,false,0,,0,0,"master",1
"eaglewyng/DLXBranchPredictor",292,"User",,0,0,true,true,true,false,0,,0,0,"master",1
"wind-river-rocket/galileo-gpio",100,"Organization",,0,0,true,true,true,false,0,,0,0,"master",1
"wind-river-rocket/any-philosophers",101,"Organization",,0,0,true,true,true,false,0,,0,0,"master",1
"rameshrajagopal/libuv-wrapper",196,"User",,0,0,true,true,true,false,0,,0,0,"master",1
"Voley/IconResizer",240,"User",,0,0,true,true,true,false,0,,0,0,"master",1
"gstv1/Trabalho-Ret-ngulo",144,"User",,0,0,true,true,true,false,0,,0,0,"master",1
"JohnGeorgiadis/Basic-Security-Algorithms",148,"User",,0,0,true,true,true,false,0,,0,0,"master",1
"norwack/pranks",132,"User",,0,0,true,true,false,false,0,,0,0,"master",1
"justinsider/diosmios",364,"User",,0,0,true,false,false,false,0,,1,0,"master",1
"coderkan/Calculate-USB-Free-Space",140,"User",,0,0,true,true,true,false,0,,0,0,"master",1
"Alonso07/GPS",220,"User",,0,0,true,true,true,false,0,,0,0,"master",1
"zzzsfk/Flymakerserver",144,"User",,0,0,true,true,true,false,0,,0,0,"master",1
"tectronics/chipmunk-physics",1800,"User",,0,0,true,false,false,false,0,,11,0,"master",1
"SelfAwareCoder/RayTracer2",184,"User",,0,0,true,true,true,false,0,,0,0,"master",1
"TheAlphaNerd/build-you-own-lisp",124,"User",,0,0,true,true,true,false,0,,0,0,"master",1
"SandeshKa07/git_learning",216,"User",,0,0,true,true,true,false,0,,0,0,"master",1
"susheelanhh/first_git_repository",152,"User",,0,0,true,true,true,false,0,,0,0,"master",1
"thkim7816/ble_template",132,"User","",0,0,true,true,true,false,0,,0,0,"master",1
"mbakhterev/lime",1188,"User",,0,0,true,true,true,false,0,,0,0,"master",1
"JasonSkyWesker/smarttraffic-car",260,"User",,0,0,true,true,true,false,0,,0,0,"master",1
"phagara/bdsm",152,"User",,0,0,true,true,true,false,0,,0,0,"master",1
"jam-world/funAnalysis",192,"User",,0,0,true,true,true,false,0,,0,0,"master",1
"nightsource/P1_1SEM20152016",148,"User",,0,0,true,true,true,false,0,,0,0,"master",1
"NameVergessen/stm32tutor",1412,"User",,0,0,true,false,false,false,0,,0,0,"master",1
