"zhaop/go",184,"User",,0,0,true,true,true,false,0,,0,0,"master",1
"yoanlcq/FerOS",176,"User",,0,0,true,true,true,false,0,,0,0,"master",1
"jonatastbelotti/ModeloAlocacaoFluxo",6956,"User",,0,0,true,true,true,false,0,,0,0,"master",1
"eharvey328/CS477",1604,"User",,0,0,true,true,true,false,0,,0,0,"master",1
"shenxueyuan/ffmpeg",85448,"User",,0,0,true,true,true,false,0,,0,0,"master",1
"amoylel/amo_test",1552,"User",,0,0,true,true,true,false,0,,0,0,"master",1
"lammobile/FINGER_PRINT",796,"User",,0,0,true,true,true,false,0,,0,0,"master",1
"placiano/plc_511",807632,"User",,0,0,true,true,true,false,0,,0,0,"master",1
"truthatt11/compiler_design_hw2",160,"User",,0,0,true,true,true,false,0,,0,0,"master",1
"kori4r2/trabalho5",160,"User",,0,0,true,true,true,false,0,,0,0,"master",1
"mhoffacker/OpenDBCEditor",232,"User",,0,0,true,true,true,false,0,,0,0,"master",1
"iccanobif/screencolours",124,"User",,0,0,true,true,true,false,0,,0,0,"master",1
"skogshjort/forMa",2524,"User",,0,0,true,true,false,false,0,,1,0,"master",1
"lucas794/ABB",160,"User",,0,0,true,true,true,false,1,,0,1,"master",1
"Glastis/9gag_last_post",140,"User",,0,0,true,true,true,false,0,,0,0,"master",1
"saetar/Interpreter",248,"User","",0,0,true,true,true,false,0,,0,0,"master",1
"jetspace/jetlibs",152,"Organization",,0,0,true,true,true,false,0,,0,0,"master",1
"4ni1/barriers",168,"User",,0,0,true,true,true,false,0,,0,0,"master",1
"PAC-ROM/android_external_libncurses",11300,"Organization",,0,0,true,true,true,false,0,,0,0,"pac-6.0",1
"PAC-ROM/android_external_libnetfilter_conntrack",664,"Organization",,0,0,true,true,true,false,0,,0,0,"pac-6.0",1
"PAC-ROM/android_external_libnfnetlink",556,"Organization",,0,0,true,true,true,false,0,,0,0,"pac-6.0",1
"nplayfair/CS50_Speller",168,"User",,0,0,true,true,true,false,0,,0,0,"master",1
"robin92/libuuid",160,"User",,0,0,true,true,true,false,0,,0,0,"master",1
"PAC-ROM/android_external_bash",19728,"Organization",,0,0,true,true,true,false,0,,0,0,"pac-6.0",1
"PAC-ROM/android_external_dropbear",2180,"Organization",,0,0,true,true,true,false,0,,0,0,"pac-6.0",1
"PAC-ROM/android_external_exfat",516,"Organization",,0,0,true,true,true,false,0,,0,0,"pac-6.0",1
"carlaccif/ex1",112,"User",,0,0,true,true,true,false,0,,0,0,"master",1
"matheusfrancisco/matriz-esparsa",148,"User",,0,0,true,false,false,false,0,,0,0,"master",1
"PAC-ROM/android_external_fsck_msdos",212,"Organization",,0,0,true,true,true,false,0,,0,0,"pac-6.0",1
"PAC-ROM/android_external_libtar",420,"Organization",,0,0,true,true,true,false,0,,0,0,"pac-6.0",1
"georgiy-pruss/Mongoose",180,"User",,0,0,true,true,true,false,0,,0,0,"master",1
"radek13/ipsec_github",85928,"User",,0,0,true,true,true,false,0,,0,0,"master",1
"moeedkhalid/mman-win32",144,"User",,0,0,true,false,false,false,0,,2,0,"master",1
"PAC-ROM/android_external_backports-wireless",16984,"Organization",,0,0,true,true,true,false,0,,0,0,"pac-5.1",1
"PAC-ROM/android_external_pigz",460,"Organization",,0,0,true,true,true,false,0,,0,0,"pac-6.0",1
"bokny/smelly-inc",128,"User",,0,0,true,true,true,false,0,,0,0,"master",1
"PAC-ROM/android_external_qrngd",136,"Organization",,0,0,true,true,true,false,0,,0,0,"pac-6.0",1
"levy2jm/reaver-wps",972,"User",,0,0,true,false,false,false,0,,8,0,"master",1
"jacobrosenthal/openocd",13704,"User",,0,0,true,true,true,false,0,,0,0,"nrf51-uicr",1
"InvaderZim19/rpg-arduino-adv",140,"User",,0,0,true,true,true,false,0,,0,0,"master",1
"clcarwin/quad-wheel",240,"User",,0,0,true,false,false,false,0,,2,0,"master",1
"hadrianpaulo/CS50",148,"User",,0,0,true,true,true,false,0,,0,0,"master",1
"Add9Sus4/ImpulseSynthesis",4524,"User",,0,0,true,true,true,false,0,,0,0,"master",1
"Smalinuxer/Space",184,"User",,0,0,true,true,true,false,0,,0,0,"develop",1
"PAC-ROM/android_external_wpa_supplicant_8",8692,"Organization",,0,0,true,true,true,false,0,,0,0,"pac-6.0",1
"PAC-ROM/android_external_libnfc-nci",1800,"Organization",,0,0,true,true,true,false,0,,0,0,"pac-6.0",1
"PAC-ROM/android_external_ntfs-3g",1344,"Organization",,0,0,true,true,true,false,0,,0,0,"pac-6.0",1
"PAC-ROM/android_external_fuse",4040,"Organization",,0,0,true,true,true,false,0,,0,0,"pac-6.0",1
"PAC-ROM/android_external_boringssl",4196,"Organization",,0,0,true,true,true,false,0,,0,0,"pac-6.0",1
"xcvista/M177v2-driver",160,"User","",0,0,true,true,true,false,0,,0,0,"master",1
"PAC-ROM/android_hardware_libhardware",3044,"Organization",,0,0,true,true,true,false,0,,0,0,"pac-6.0",1
"yiningchao/Travel-the-World",11868,"User",,0,0,true,true,true,false,0,,0,0,"master",1
"billybell/chip-testing",2308,"User",,0,0,true,true,true,false,0,,0,0,"master",1
"Schischu/android_device_samsung_klimtwifi",6432,"User",,0,0,true,true,true,false,0,,0,0,"aosp-6.0",1
"Evervolv/android_system_bt",8080,"Organization",,0,0,true,true,true,false,0,,0,0,"mm-6.0",1
"C11320591/tsh",1052,"User",,0,0,true,true,true,false,0,,0,0,"master",1
"wjpjw/rand_graph",4631,"User",,0,0,true,true,true,false,1,,1,1,"master",1
"ooooak/c_impl",112,"User","",0,0,true,true,true,false,0,,0,0,"master",1
"Saptaparna/BlackHoleAnalysis",164,"User",,0,0,true,true,true,false,1,,0,1,"master",1
"CS194-project/CS194-project",2732,"Organization",,0,0,true,true,true,false,0,,0,0,"master",1
"joeyGumer/PI_Pinball",13676,"User",,0,0,true,true,true,false,0,,0,0,"master",1
"NegativeMjark/libvterm",3324,"User",,0,0,true,true,true,false,0,,0,0,"master",1
"isadorasophia/desafio-griaule",12683,"User",,0,0,true,true,true,false,0,,0,0,"master",1
"anhDean/cryptographic_implementations",168,"User",,0,0,true,true,true,false,0,,0,0,"master",1
"Infinitive-OS/system_bt",7892,"Organization",,0,0,true,true,true,false,0,,0,0,"m-6.0",1
"DingDean/lyrebird",432,"User",,0,0,true,true,true,false,0,,0,0,"master",1
"PAC-ROM/android_external_lsof",1260,"Organization",,0,0,true,true,true,false,0,,0,0,"pac-6.0",1
"i2ot/i2ot-client-RIOT",248,"Organization",,0,0,true,true,true,false,0,,0,0,"master",1
"Razhagal/FirstStepsIntoC",192,"User",,0,0,true,true,true,false,0,,0,0,"master",1
"eroach/data-structure",103,"User",,0,0,true,true,true,false,1,,0,1,"master",1
"forestaa/cpu_simulator",188,"User","",0,0,true,true,true,false,1,,0,1,"master",1
"GabrielDFreitas/projeto-cervejaria",140,"User",,0,0,true,true,true,false,0,,0,0,"master",1
"shanfl/collectcode",78688,"User",,0,0,true,false,false,false,0,,0,0,"master",1
"llrun/01_language",112,"User",,0,0,true,true,true,false,0,,0,0,"master",1
"hy15816/tabbar",18108,"User",,0,0,true,true,true,false,0,,0,0,"master",1
"NewmanJ1987/Comp6281-Assignment-2",112,"User",,0,0,true,true,true,false,0,,0,0,"master",1
"tryton-vanmeer/linuxtemplates",1100,"User",,0,0,true,true,true,false,0,,0,0,"master",1
"aswild/dodgeblocks",192,"User",,0,0,true,true,true,false,0,,0,0,"master",1
"LordNerevar/external_flac",2388,"User",,0,0,true,true,true,false,0,,0,0,"master",1
"1yvT0s/cur-loader-non-official-",13188,"User",,0,0,true,true,true,false,0,,0,0,"master",1
"maage/quagga",8944,"User",,0,0,true,true,true,false,0,,0,0,"master",1
"simonxeko/winrandom-py3",144,"User",,0,0,true,true,true,false,0,,0,0,"master",1
"TrevorFoster/brain-fck",140,"User",,0,0,true,true,true,false,0,,0,0,"master",1
"imwls/android_kernel_nubia_nx511j",141068,"User","http://weibo.com/lwanggg",0,0,true,true,true,false,1,,0,1,"master",1
"dmfloyd/Mytest",112,"User",,0,0,true,true,true,false,0,,0,0,"master",1
"ranjan14196/16-bit-ISA-assembler",388,"User","",0,0,true,true,true,false,0,,0,0,"master",1
"ObliviaSimplex/xfctf",176,"User",,0,0,true,true,true,false,0,,0,0,"master",1
"plasticchris/charms",140,"User",,0,0,true,true,true,false,0,,0,0,"master",1
"Zeno-/ACFramework",108,"User",,0,0,true,true,true,false,0,,0,0,"master",1
"XQuartz/AppleSGLX",1160,"Organization",,0,0,false,true,false,false,0,,0,0,"master",1
"EvanGlazer/Boggle-in-C",107,"User",,0,0,true,true,true,false,0,,0,0,"master",1
"JedMeister/jessie-lxc-dev",2144,"User",,0,0,true,true,true,false,0,,1,0,"lxc-dev",1
"eyohadrian/Programming",108,"User",,0,0,true,true,true,false,0,,0,0,"master",1
"PAC-ROM/android_external_ebtables",4020,"Organization",,0,0,true,true,true,false,0,,0,0,"pac-6.0",1
"PAC-ROM/android_external_protobuf-c",496,"Organization",,0,0,true,true,true,false,0,,0,0,"pac-6.0",1
"PAC-ROM/android_external_libxslt",356,"Organization",,0,0,true,true,true,false,0,,0,0,"pac-6.0",1
"zined/iknowthis",544,"User",,0,0,true,false,false,false,0,,0,0,"master",1
"tmaudev/ArtificialNeuralNetwork",112,"User",,0,0,true,true,true,false,0,,0,0,"master",1
"kroesche/cmx_fault_decoder",112,"User",,0,0,true,true,true,false,0,,0,0,"master",1
"LadyWhaleton/Outrageous-Gems",416,"User",,0,0,true,true,true,false,0,,0,0,"master",1
