"guillaumechereau/goxel",1153,"User",,328,328,true,true,true,false,14,,5,14,"master",1
"zserge/jsmn",381,"User","http://zserge.com/jsmn.html",56,56,true,true,true,false,14,,8,14,"master",1
"cfdrake/swift-framework-c-library-example",224,"User","http://colindrake.me/2015/10/05/wrapping-a-c-library-in-a-swift-framework/",25,25,true,true,true,false,1,,0,1,"master",1
"mooffie/luacexplain",152,"User",,7,7,true,true,true,false,1,,0,1,"master",1
"khairul169/gdsqlite",1616,"User",,4,4,true,true,true,false,0,,0,0,"master",1
"drbeco/qqcoisa18",229,"User",,3,3,true,true,true,false,0,,2,0,"master",1
"pascomnet/asterisk_sbr",232,"Organization","https://www.pascom.net",3,3,true,true,true,false,1,,0,1,"master",1
"defuse/juggler-pow",552,"User",,2,2,true,true,true,false,0,,16,0,"master",1
"jason-mitchell/C-Code",140,"User",,1,1,true,true,true,false,0,,0,0,"master",1
"joyent/illumos-libavl",131,"Organization",,1,1,true,true,true,false,0,,0,0,"master",1
"exit32studio/SearchAndSort",152,"User",,1,1,true,true,true,false,0,,2,0,"master",1
"calio/nginx-conf-utils",160,"User",,1,1,true,true,true,false,1,,0,1,"master",1
"jason-mitchell/IRDecode",264,"User",,1,1,true,true,true,false,0,,0,0,"master",1
"lelag/aapr",212,"User",,1,1,true,true,true,false,1,,0,1,"master",1
"daniel-k/openocd",11763,"User",,1,1,true,true,true,false,2,,1,2,"riot_patched",1
"lucasagcv/camolesao",215,"User",,1,1,true,true,true,false,1,,0,1,"master",1
"leogouttefarde/JPEG",17008,"User","",1,1,true,true,true,false,1,,0,1,"master",1
"Deependra-Patel/memoryBuddies",0,"User",,1,1,true,true,true,false,0,,0,0,"master",1
"twik1/memshare",240,"User",,1,1,true,false,false,false,0,,0,0,"master",1
"ryo/pagemalloc",136,"User",,1,1,true,true,true,false,0,,0,0,"master",1
"mhungerford/pebble_fireworks",176,"User",,1,1,true,true,true,false,0,,0,0,"master",1
"cnvogelg/axb",176,"User",,1,1,true,true,true,false,0,,0,0,"master",1
"asselapathirana/epanettools",488,"User",,1,1,true,true,true,false,0,,0,0,"master",1
"simingweng/qmi-api-test",3512,"User",,1,1,true,true,true,false,0,,0,0,"master",1
"zardozzy/k8",869,"User",,1,1,true,true,true,false,1,,0,1,"master",1
"MJL85/wiiuse",468,"User",,1,1,true,true,true,false,1,,0,1,"master",1
"Swapnil133609/Zeus_bacon",132584,"User",,1,1,true,true,true,false,0,,0,0,"master",1
"14214079/Project",160,"User","",1,1,true,true,true,false,0,,0,0,"master",1
"soma6th/DOSv1.0",936,"Organization",,1,1,true,true,true,false,0,,0,0,"master",1
"OmronSensingEggProject/HVC_C2W_SDK_Android",26877,"Organization","",1,1,true,true,true,false,1,,0,1,"master",1
"leogouttefarde/quiestce",452,"User","",0,0,true,true,true,false,0,,0,0,"master",1
"TH3-DR/winPi",596,"User",,0,0,true,true,true,false,1,,1,1,"master",1
"danghuutoan/motion-player-project",12576,"User",,0,0,true,false,false,false,0,,2,0,"master",1
"ATmega8/WM8974_STM32",1748,"User",,0,0,true,true,true,false,0,,0,0,"master",1
"leanderyuan/motoriplotter",240,"User",,0,0,true,false,false,false,0,,0,0,"master",1
"jwise/dvbt",4064,"User",,0,0,true,true,true,false,0,,0,0,"master",1
"gitdksmith/stacksmash",152,"User",,0,0,true,true,true,false,0,,0,0,"master",1
"sock-puppet/iphone-dataprotection",7232,"User",,0,0,true,false,false,false,0,,7,0,"master",1
"akileshsadassivam/os-161",780,"User",,0,0,true,true,true,false,0,,0,0,"master",1
"ThatWilsonNerd/CProjects",108,"User",,0,0,true,true,true,false,0,,0,0,"master",1
"extera-nl/minnazaosd",18124,"User",,0,0,true,false,false,false,0,,2,0,"master",1
"oere/FIRESTARTER",228,"User",,0,0,true,true,true,false,0,,0,0,"master",1
"HenriqueLimas/thread-in-c",108,"User",,0,0,true,true,true,false,0,,0,0,"master",1
"andsveking/fontbench",840,"User","",0,0,true,true,true,false,0,,0,0,"master",1
"mogau/HW3",116,"User",,0,0,true,true,true,false,0,,0,0,"master",1
"mgirard/android-serialport-api",276,"User",,0,0,true,false,false,false,0,,27,0,"master",1
"lukaszgemborowski/i2c-mock-bus",196,"User","",0,0,true,true,true,false,0,,0,0,"master",1
"ruanpablom/SymbioticOrganismsSearch_pthread",284,"User",,0,0,true,true,true,false,0,,0,0,"master",1
"JLGarofal/threading_library",222,"User","",0,0,true,true,true,false,0,,0,0,"master",1
"WeijunDeng/ReadIT",14104,"User","",0,0,true,true,true,false,0,,0,0,"master",1
"nbarbosa/pong-mcu",3756,"User",,0,0,true,true,true,false,0,,0,0,"master",1
"abhishek29061992/msp430-midi-controller",148,"User",,0,0,true,true,true,false,0,,0,0,"master",1
"birdeclipse/MyCprogram",332,"User",,0,0,true,true,true,false,0,,0,0,"master",1
"OZN159/O.Z.N",108,"User",,0,0,true,true,true,false,0,,0,0,"master",1
"dalinhuang/demodemo",339228,"User",,0,0,true,false,false,false,0,,14,0,"master",1
"lrd15/B-Tree",7632,"User",,0,0,true,true,true,false,0,,0,0,"master",1
"bobchin/reikai_unix_programing",224,"User",,0,0,true,true,true,false,0,,0,0,"master",1
"sumedhghaisas/gyp-libtiff",2356,"User",,0,0,true,true,true,false,0,,0,0,"master",1
"alu0100721805/LPP_43",132,"User",,0,0,true,true,true,false,0,,0,0,"master",1
"glennpaulmartin/Lab4-Docker",24388,"User",,0,0,true,true,true,false,0,,0,0,"master",1
"appleitung/3D20",120,"User",,0,0,true,true,true,false,0,,0,0,"master",1
"btrd/ASE_TP4",164,"User",,0,0,true,true,true,false,0,,0,0,"master",1
"ninjawhite/droidsheep",3316,"User",,0,0,true,true,false,false,0,,11,0,"master",1
"Morto/hw3",108,"User",,0,0,true,true,true,false,0,,0,0,"master",1
"lcbcFoo/F---X29",136,"User",,0,0,true,true,true,false,0,,0,0,"master",1
"hectorinoman/LPP_37",156,"User",,0,0,true,true,true,false,0,,0,0,"master",1
"oriousozorusrex/PDS3",144,"User",,0,0,true,true,true,false,0,,0,0,"master",1
"ThatWilsonNerd/Pi",116,"User",,0,0,true,true,true,false,0,,0,0,"master",1
"Zilindile/hw3",112,"User",,0,0,true,true,true,false,0,,0,0,"master",1
"aagnieszka/Pong-STM",17960,"User",,0,0,true,true,true,false,0,,0,0,"master",1
"alexpashevich/OS_lab1",212,"User",,0,0,true,true,true,false,0,,0,0,"master",1
"Warbo/genetic-turing-machines",108,"User",,0,0,true,true,true,false,0,,0,0,"master",1
"OrN/xfwm4",25176,"User",,0,0,true,true,true,false,0,,0,0,"master",1
"svwu/RO",7804,"User",,0,0,true,true,true,false,0,,0,0,"master",1
"Dominiator/laser1",868,"User",,0,0,true,true,true,false,0,,0,0,"master",1
"JohnnyPP/AVR-ATtiny85-LED-PWM",128,"User",,0,0,true,true,true,false,0,,0,0,"master",1
"cyring/RaspberryPi",1016,"User",,0,0,true,true,true,false,0,,0,0,"master",1
"siddhanthgupta/socket-chat",124,"User",,0,0,true,true,true,false,0,,0,0,"master",1
"bbu/wavescout-4d",1200,"User",,0,0,true,true,true,false,0,,0,0,"master",1
"ShinySide/361h",135000,"User",,0,0,true,true,true,false,0,,0,0,"master",1
"phethothagwana/hw3",120,"User",,0,0,true,true,true,false,0,,0,0,"master",1
"whitj00/blitz",5428,"User",,0,0,true,true,true,false,0,,0,0,"master",1
"DineshKaushik/Sudoku-Solver",120,"User",,0,0,true,true,true,false,0,,0,0,"master",1
"manuguri/helloworld",156,"User",,0,0,true,true,true,false,0,,1,0,"master",1
"JaredTremayneNaidoo/hw3",120,"User",,0,0,true,true,true,false,0,,0,0,"master",1
"igormatkovic/education",180,"User",,0,0,true,true,true,false,0,,0,0,"master",1
"ManelisiS/hw3",148,"User",,0,0,true,true,true,false,0,,0,0,"master",1
"thabovagusmashile/hw3",108,"User",,0,0,true,true,true,false,0,,0,0,"master",1
"kolorobos/httpsegmenter",176,"User",,0,0,true,false,false,false,0,,3,0,"master",1
"danielcabralsilveira/Matasano",124,"User",,0,0,true,true,true,false,0,,0,0,"master",1
"Nthabiseng22/hw3",108,"User",,0,0,true,true,true,false,0,,0,0,"master",1
"JBour20/iosched",112,"User",,0,0,true,true,true,false,0,,0,0,"master",1
"tammyd/HockeyScoreboard",192,"User",,0,0,true,true,true,true,0,,0,0,"gh-pages",1
"EionRobb/netnexus-pidgin",208,"User","",0,0,true,false,false,false,0,,0,0,"master",1
"aderussell/arsn_json_parser",8184,"User",,0,0,true,true,true,false,0,,0,0,"master",1
"iconxprog/hw3",116,"User",,0,0,true,true,true,false,0,,0,0,"master",1
"manodeep/hinge",1324,"User",,0,0,true,true,true,false,0,,0,0,"master",1
"wjxcsu/gitskills",152,"User",,0,0,true,true,true,false,0,,0,0,"master",1
"cupostv/The_Runner",200,"User",,0,0,true,true,true,false,0,,0,0,"master",1
"Koncar93/PACMAN",1312,"User",,0,0,true,true,true,false,0,,0,0,"master",1
