"Pafcholini/emotion_tw_511_COI3",141392,"User",,0,0,true,true,true,false,0,,0,0,"master",1
"YUKISnowFly/Test",268,"User",,0,0,true,true,true,false,0,,0,0,"master",1
"yuanjianjiang/doubango",347484,"User",,0,0,true,false,false,false,0,,216,0,"master",1
"openluopworld/c",156,"User",,0,0,true,true,true,false,0,,0,0,"master",1
"asjadathick/CSCI131",124,"User",,0,0,true,true,true,false,0,,0,0,"master",1
"daohai39/Mytest",108,"User",,0,0,true,true,true,false,0,,0,0,"master",1
"sprytnyserek/huffcompress",184,"User",,0,0,true,false,false,false,0,,0,0,"master",1
"jdb110/word2vec",272,"User",,0,0,true,false,false,false,0,,35,0,"master",1
"Dselvia/Homework_4",124,"User",,0,0,true,true,true,false,0,,0,0,"master",1
"deerishi/cs842_project_building_files",128,"User",,0,0,true,true,true,false,0,,0,0,"master",1
"thanasi-sofronis/UIUC-ece391",4176,"User",,0,0,true,true,true,false,0,,0,0,"master",1
"GordeyChernyy/DrawingTool",24664,"User","",0,0,true,true,true,false,0,,0,0,"master",1
"ShubhamWadhe/Calculator1",104,"User",,0,0,true,true,true,false,0,,0,0,"master",1
"AleixBV/Physics2_class3---handout",2980,"User",,0,0,true,true,true,false,0,,0,0,"master",1
"CyanideDevices/android_device_samsung_smdk4412-common",892,"Organization",,0,0,true,true,true,false,0,,0,0,"cm-13.0",1
"ECG-XMU/OpenWRT-Galileo-gen2",13316,"Organization",,0,0,true,true,true,false,0,,0,0,"master",1
"adamheins/pebble-watchface-template",128,"User",,0,0,true,true,true,false,0,,0,0,"master",1
"afeefebrahim/my_unix_shell",112,"User",,0,0,true,true,true,false,0,,0,0,"master",1
"aliaspider/np2",8232,"User",,0,0,true,true,true,false,0,,0,0,"master",1
"iamvarunsingh/tps-bitbucket.org-deboghosh-tridiaglu",1844,"User",,0,0,true,true,true,false,0,,0,0,"master",1
"yiliangxu/psift",396,"User",,0,0,true,false,false,false,0,,0,0,"master",1
"juan199/Microcontroladores_labos",548,"User",,0,0,true,true,true,false,0,,0,0,"master",1
"desr/dwm",5752,"User",,0,0,true,true,true,false,0,,0,0,"custom",1
"android-x86-mirror/platform_external_e2fsprogs",20828,"Organization",,0,0,true,true,true,false,0,,0,0,"lollipop-x86",1
"android-x86-mirror/platform_external_exfat",568,"Organization",,0,0,true,true,true,false,0,,0,0,"lollipop-x86",1
"saviorabelo/arquivosC",152,"User",,0,0,true,true,true,false,0,,0,0,"master",1
"hkuro/embedded-fall2015",144,"User",,0,0,true,true,true,false,0,,0,0,"master",1
"android-x86-mirror/platform_external_wpa_supplicant_8",6108,"Organization",,0,0,true,true,true,false,0,,0,0,"lollipop-x86",1
"android-x86-mirror/platform_bionic",19076,"Organization",,0,0,true,true,true,false,0,,0,0,"lollipop-x86",1
"clairew17/hpc",216,"User",,0,0,true,true,true,false,0,,0,0,"master",1
"mengzhugithub/S5",111224,"User",,0,0,true,true,true,false,0,,0,0,"master",1
"streylight/UnmannedGroundVehicle",4080,"User",,0,0,true,true,true,false,0,,0,0,"master",1
"Abott1222/os161",1928,"User",,0,0,true,true,true,false,0,,0,0,"master",1
"eckucukoglu/application-launcher",151,"User",,0,0,true,true,true,false,0,,0,0,"master",1
"spacex/kernel-centos7",134432,"User",,0,0,true,true,true,false,0,,0,0,"master",1
"scsdima/sensor_485",3516,"User",,0,0,true,true,true,false,0,,0,0,"master",1
"Dantragof/jos-labs",300,"User",,0,0,true,true,true,false,0,,0,0,"lab2",1
"nfxosp/platform_system_extras",76728,"Organization",,0,0,true,true,true,false,0,,0,0,"nfx-6.0",1
"android-x86-mirror/platform_external_koush_Superuser",4136,"Organization",,0,0,true,true,true,false,0,,0,0,"lollipop-x86",1
"madhuriranavare/KBC",136,"User","",0,0,true,true,true,false,0,,0,0,"master",1
"xxxpokemon/pws",35556,"User","",0,0,true,true,true,false,1,,0,1,"master",1
"NatTuck/pscm",236,"User",,0,0,true,true,true,false,0,,0,0,"master",1
"spa-pal/UKU207_INV",4708,"User",,0,0,true,true,true,false,0,,0,0,"master",1
"m0re4u/simdlab",1141,"User",,0,0,true,true,true,false,0,,0,0,"master",1
"OwenTN/User",125,"User",,0,0,false,true,true,false,0,,0,0,"master",1
"themailman05/CS361-p1",892,"User",,0,0,true,true,true,false,0,,0,0,"master",1
"Sunrel/SortedList",188,"User",,0,0,true,true,true,true,0,,0,0,"master",1
"sapphirew/clientServer",144,"User",,0,0,true,true,true,false,0,,0,0,"master",1
"keyrrae/MicroBlazeProj",172,"User",,0,0,true,true,true,false,0,,0,0,"master",1
"Cl3Kener/UBER-M",682792,"User",,0,0,true,true,true,false,0,,0,0,"master",1
"jack1314007/FUTURE_ABM",134232,"User",,0,0,true,true,true,false,0,,0,0,"master",1
"rafirafi/MonaEv",3296,"User",,0,0,true,true,true,false,0,,0,0,"master",1
"BrianJayD/CSCI-2000U-Personal",980,"User",,0,0,true,true,true,false,0,,0,0,"master",1
"s00500/OEBBPebble",148,"User",,0,0,true,true,true,false,0,,0,0,"master",1
"3daughterdad/cs496",39068,"User",,0,0,true,true,true,false,0,,0,0,"master",1
"butterflyfish/libaev",152,"User",,0,0,true,true,true,false,0,,0,0,"master",1
"Michelin96/os161",2276,"User",,0,0,true,true,true,false,0,,0,0,"master",1
"wanghongfucoder/C_learn",128,"User",,0,0,true,true,true,false,0,,0,0,"master",1
"bitmarker/EspressoGuide",536,"User","",0,0,true,true,true,true,0,,0,0,"master",1
"mmbuw/software-engineering-ws15",4858,"Organization","",0,0,true,true,true,false,15,,12,15,"master",1
"oldoak/LibraryItem",152,"User","",0,0,true,true,true,false,0,,0,0,"master",1
"sherry97/parallel",1524,"User",,0,0,true,true,true,false,0,,0,0,"master",1
"xapp-le/owl",43768,"Organization",,0,0,true,true,true,false,0,,1,0,"master",1
"Sungsonic/external_sqlite",11480,"Organization",,0,0,true,true,true,false,0,,0,0,"sshd-mm6.0",1
"GordeyChernyy/FBOblend",4424,"User",,0,0,true,true,true,false,0,,0,0,"master",1
"barrylw/lamp_project_master",32232,"User",,0,0,true,true,true,false,0,,0,0,"master",1
"aagadzia/csci-2000-personal",260,"User",,0,0,true,true,true,false,0,,0,0,"master",1
