"BYUMarsRover2016/Main-board",248,"User",,0,0,true,true,true,false,2,,0,2,"master",1
"moonmilk/snowblossoms",140,"User",,0,0,true,true,true,false,0,,0,0,"master",1
"rangeo/LicenseManager",144,"User","",0,0,true,true,true,false,0,,0,0,"master",1
"JCisneros77/EjerciciosPA",140,"User",,0,0,true,true,true,false,0,,0,0,"master",1
"scottore/cu358-2-l",2892,"User",,0,0,true,true,true,false,0,,0,0,"master",1
"JonathanOlesz/malloc",148,"User",,0,0,true,true,true,false,0,,0,0,"master",1
"fixee/work",140,"User",,0,0,true,true,true,false,0,,0,0,"master",1
"PrabhanshuAttri/git-test",136,"User",,0,0,true,true,true,false,0,,0,0,"master",1
"cohadar/math-puzzles",140,"User",,0,0,true,true,true,false,0,,0,0,"master",1
"Grimnack/tp4_ase",124,"User",,0,0,true,true,true,false,0,,0,0,"master",1
"hasegaw/avfoundation_input",134,"User",,0,0,true,true,true,false,1,,0,1,"master",1
"IvanBodnar/TPdniDevcpp",328,"User",,0,0,true,true,true,false,0,,0,0,"master",1
"cloudlinux/mod_hostinglimits",184,"User",,0,0,true,true,true,false,0,,0,0,"master",1
"yin2jun/test",156,"User",,0,0,true,true,true,false,0,,0,0,"master",1
"runsisi/ufreebsdtcp",8316,"User",,0,0,true,true,true,false,0,,0,0,"master",1
"snyoonoh/myls",156,"User",,0,0,true,true,true,false,0,,0,0,"master",1
"Azq2/misc",136,"User",,0,0,true,true,true,false,0,,0,0,"master",1
"sohaeb/C-exercises",144,"User",,0,0,true,true,true,false,0,,0,0,"master",1
"Newspaperman57/Raytracer",144,"User",,0,0,true,true,true,false,0,,0,0,"master",1
"pnaponoceno/ed_ii",120,"User",,0,0,true,true,true,false,0,,0,0,"master",1
"lesliesbird/randbug",196,"User",,0,0,true,true,true,false,0,,0,0,"master",1
"backspace229/prog2",1136,"User",,0,0,true,true,true,false,0,,0,0,"master",1
"zhd785576549/uhttpd2",260,"User",,0,0,true,true,true,false,0,,0,0,"master",1
"823893795/testgit",124,"User",,0,0,true,true,true,false,0,,0,0,"master",1
"Gevand/MultiProc",136,"User",,0,0,true,true,true,false,0,,0,0,"master",1
"zhd785576549/rpcd",216,"User",,0,0,true,true,true,false,0,,0,0,"master",1
"GKerison/droidreader",2084,"User",,0,0,true,false,false,false,0,,0,0,"master",1
"alu0100221879/LPP_51",128,"User",,0,0,true,true,true,false,0,,0,0,"master",1
"shivam07/workshop1",136,"User",,0,0,true,true,true,false,0,,0,0,"master",1
"neeraj12121/Test-Github2",140,"User",,0,0,true,true,true,false,0,,0,0,"master",1
"thepavonazzo/hw3",104,"User",,0,0,true,true,true,false,0,,0,0,"master",1
"ajatgd/hello_git",136,"User",,0,0,true,true,true,false,0,,0,0,"master",1
"davidcunado/testrepo",124,"User",,0,0,true,true,true,false,0,,0,0,"master",1
"markusFrost/parallel-gaussian-elimination",152,"User",,0,0,true,false,false,false,0,,0,0,"master",1
"Micrium/test-debug-component",124,"User",,0,0,true,true,true,false,0,,0,0,"master",1
"4l3o/progetto_reti",104,"User",,0,0,true,true,true,false,0,,0,0,"master",1
"taochengbo/git-core",46716,"User",,0,0,true,false,false,false,0,,18,0,"master",1
"xplodwild/qrencode-win32",1564,"User",,0,0,true,false,false,false,0,,0,0,"master",1
"WilliamPring/myLibrary-",1780,"User","",0,0,true,true,true,false,0,,0,0,"master",1
"dushi96/hello-",136,"User",,0,0,true,true,true,false,0,,0,0,"master",1
"Abheet099/workshop",140,"User",,0,0,true,true,true,false,0,,0,0,"master",1
"AkashSharma/test1",136,"User",,0,0,true,true,true,false,0,,0,0,"master",1
"dhruvhacks/workshop",136,"User",,0,0,true,true,true,false,0,,0,0,"master",1
"zorindmitry/download_manager",89,"User",,0,0,true,true,true,false,1,,0,1,"zorindk",1
"CODEHIMANSHU/workshop",136,"User",,0,0,true,true,true,false,0,,0,0,"master",1
"Tydax/m1-systeme-tp04",144,"User",,0,0,true,true,true,false,0,,0,0,"master",1
"PayalAnand/gnupg-ecc",5512,"User",,0,0,true,false,false,false,0,,4,0,"master",1
"TheProjecter/wrekagrid",380,"User",,0,0,true,false,false,false,0,,0,0,"master",1
"flv1991/STM32_LAMEC_CAN",56260,"User",,0,0,true,true,true,false,0,,0,0,"master",1
"alxklk/OGLBase",9140,"User",,0,0,true,true,true,false,0,,0,0,"master",1
"griviere42/SearchEngine",168,"User",,0,0,true,true,true,false,0,,0,0,"master",1
"fabiofenoglio/f-nrf24l01p-mC",136,"User",,0,0,true,true,true,false,0,,0,0,"master",1
"bkovitz/pru",4036,"User",,0,0,true,true,true,false,0,,0,0,"master",1
"SMR39/Named-pipes",120,"User",,0,0,true,true,true,false,0,,0,0,"master",1
"garfieldsam/orchard-buildpack-R-test",676,"User",,0,0,true,true,true,false,0,,0,0,"master",1
"SMR39/Producer-Consumer",120,"User",,0,0,true,true,true,false,0,,0,0,"master",1
"truthatt11/compiler_design_hw1",128,"User",,0,0,true,true,true,false,0,,0,0,"master",1
"EmbolismSoil/menu",16068,"User",,0,0,true,true,true,false,0,,0,0,"master",1
"d0cj0n3s/THREADING",148,"User",,0,0,true,true,true,false,0,,0,0,"master",1
"TheProjecter/libhomemenu",616,"User",,0,0,true,false,false,false,0,,2,0,"master",1
"nikpai89/OS_Projects",136,"User",,0,0,true,true,true,false,0,,0,0,"master",1
"miaoqi/ctlrender_adx",7952,"User",,0,0,true,true,true,false,0,,0,0,"master",1
"jcmvbkbc/memsetrw",104,"User",,0,0,true,true,true,false,0,,0,0,"master",1
"luming89/MyGameEngine",168,"User",,0,0,true,true,true,false,0,,0,0,"master",1
"connorbode/embedded",120,"User",,0,0,true,true,true,false,0,,0,0,"master",1
"ylcdou/WAFR-01-C001.X",9400,"User",,0,0,true,true,true,false,0,,1,0,"myfireware",1
"avisri/trueip",168,"User",,0,0,true,true,true,false,0,,0,0,"master",1
"toxxin/barebox_am335xice",40908,"User",,0,0,true,true,true,false,0,,0,0,"master",1
"MortalCornflake/Steg",10688,"User",,0,0,true,true,true,false,0,,0,0,"master",1
"darakian/base64",176,"User","",0,0,true,true,true,false,0,,0,0,"master",1
"JerryYangJin/zmq",144,"User",,0,0,true,true,true,false,0,,0,0,"master",1
"sahilm1992/Algos",188,"User",,0,0,true,true,true,false,0,,0,0,"master",1
"dizzyblyat/IOOPM",164,"User",,0,0,true,true,true,false,0,,0,0,"master",1
"winterpa/e-build361",204,"User",,0,0,true,true,true,false,0,,0,0,"master",1
"lsoldano93/OS427_Assn2",904,"User",,0,0,true,true,true,false,0,,0,0,"master",1
"KeyboardNerd/Sclib",160,"User",,0,0,true,true,true,false,0,,0,0,"master",1
"jdaheron/BLDR",2496,"User",,0,0,true,true,true,false,0,,0,0,"master",1
"BrokenROM/external_busybox",26740,"Organization",,0,0,true,true,true,false,0,,0,0,"m6.0",1
"punitsoni/scratch",216,"User",,0,0,true,true,true,false,0,,0,0,"master",1
"MinimalOS-AOSP/platform_hardware_libhardware",3236,"Organization",,0,0,true,true,true,false,0,,0,0,"mm-6.0",1
"MinimalOS-AOSP/platform_hardware_qcom_audio",2020,"Organization",,0,0,true,true,true,false,0,,0,0,"mm-6.0",1
"gafry/project_X",124,"User",,0,0,true,true,true,false,1,,0,1,"master",1
"a-nakanishi/hash",200,"User",,0,0,true,true,true,false,0,,0,0,"master",1
"xunmengdeganjue/workTest",0,"User",,0,0,true,true,true,false,0,,0,0,"master",1
"minxomat/MiniCL",5796,"User","",0,0,true,true,true,false,0,,0,0,"master",1
"Ensaf/STM32-MotionSensor",152,"User",,0,0,true,true,true,false,0,,0,0,"master",1
"TalentlessAlpaca/Automated_Vacuum_Cleaner",5696,"User",,0,0,true,true,true,false,2,,0,2,"master",1
"ryutaroikeda/halmos",304,"User",,0,0,true,true,true,false,0,,0,0,"master",1
"schoonod/261",0,"User",,0,0,true,true,true,false,0,,0,0,"master",1
"jaspersong/homework",584,"User",,0,0,true,true,true,false,0,,0,0,"master",1
"174high/wifi_lib",240,"User",,0,0,true,true,true,false,0,,0,0,"master",1
"raspberrypi/pipackage",3140,"Organization",,0,0,true,true,true,false,0,,0,0,"master",1
"vishsahu/Anti-malware-Linux-File-System",352,"User",,0,0,true,true,true,false,0,,0,0,"master",1
"Mattti0/ax12-robot-arm-movement",328,"User",,0,0,true,true,true,false,0,,0,0,"master",1
"Zay950/ECE473",216,"User",,0,0,true,true,true,false,0,,0,0,"master",1
"Smahle/tdt4258",245512,"User","",0,0,true,true,true,false,0,,0,0,"master",1
"thindil/laeran-mud",1460,"User",,0,0,true,true,true,false,0,,0,0,"master",1
"zhou9110/Assignment-2",600,"User",,0,0,true,true,true,false,0,,0,0,"master",1
"sfreeman2494/CIS380_Project1",288,"User",,0,0,true,true,true,false,0,,0,0,"master",1
"fuenor/ComittoNN",2828,"User",,0,0,true,true,true,false,0,,0,0,"patches",1
