"odrevet/Chess-Wii",1092,"User",,0,0,true,true,true,false,0,,0,0,"master",1
"APOPHIS9283/vortex-lp",907284,"User",,0,0,true,true,true,false,0,,0,0,"lp5.1",1
"sbraver/301proj03",240,"User",,0,0,true,true,true,false,0,,0,0,"master",1
"eugenelet/8051Lab",128,"User",,0,0,true,true,true,false,0,,0,0,"master",1
"ahossainNW/Agribrink_AVT",8636,"User",,0,0,true,true,true,false,0,,0,0,"master",1
"pandada8/leetcode",144,"User",,0,0,true,true,true,false,0,,0,0,"master",1
"elj4/Quake2Mod",372,"User",,0,0,true,true,true,false,0,,0,0,"master",1
"crisferlop/SQLcodeCompiler",340,"User",,0,0,true,true,true,false,0,,0,0,"master",1
"mhoran/pam_auth_ticket",168,"User",,0,0,true,true,true,false,0,,5,0,"master",1
"mterente/.c",188,"User",,0,0,true,true,true,false,0,,0,0,"master",1
"MenZil/C",148,"User","",0,0,true,true,true,false,0,,0,0,"master",1
"johanvts/FN-Implementations",28188,"User","http://link.springer.com/chapter/10.1007/978-3-319-25087-8_1",0,0,true,true,true,false,0,,0,0,"master",1
"asdlei00/pdfviewer-win32",15084,"User",,0,0,true,false,false,false,0,,26,0,"master",1
"DavidAlphaFox/openbsd-kernel",23456,"User",,0,0,true,true,true,false,0,,0,0,"master",1
"nuujay/legacy-project",1328,"User",,0,0,true,false,false,false,0,,3,0,"master",1
"ishu63/binarytree-in-C",124,"User",,0,0,true,true,true,false,0,,0,0,"master",1
"krow17/CSCE-315",116,"User",,0,0,true,true,true,false,0,,0,0,"master",1
"knusbaum/C-Garbage-Collection",128,"User",,0,0,true,true,true,false,0,,0,0,"master",1
"timrsfo/CountThrees_C",13672,"User",,0,0,true,true,true,false,0,,0,0,"master",1
"Shell64/LOVE-SMAA",4432,"User","",0,0,true,true,true,false,0,,0,0,"master",1
"mnsk/OS",113,"User",,0,0,true,true,true,false,1,,0,1,"master",1
"muhammadahmad2/Tutorial6",156,"User",,0,0,true,true,true,false,0,,0,0,"master",1
"avinash99/studentdatabasemanagement",144,"User",,0,0,true,true,true,false,0,,0,0,"master",1
"tksst/httpd-ci",162436,"User",,0,0,true,true,true,false,0,,0,0,"trunk",1
"lambd0x/Projeto-de-arquivos---PRA0001",2124,"User",,0,0,true,true,true,false,0,,0,0,"master",1
"InhyukYee/PeanutButterWolf",136032,"User",,0,0,true,true,true,false,0,,0,0,"master",1
"yueruchen/learngit",136,"User",,0,0,true,true,true,false,0,,0,0,"master",1
"banisadr/acrobat",816,"User",,0,0,true,true,true,false,0,,0,0,"master",1
"RileyDavidson/2DHull",1812,"User",,0,0,true,true,true,false,0,,0,0,"master",1
"David-Guo/OpenGLTrain",14312,"User",,0,0,true,true,true,false,0,,0,0,"master",1
"esosebee/cs481_pa5",192,"User",,0,0,true,true,true,false,0,,0,0,"master",1
"undisputed-seraphim/libmatio",228,"User",,0,0,true,true,true,false,0,,0,0,"master",1
"weprikjm/DevLogicMap",3296,"User",,0,0,true,true,true,false,0,,0,0,"master",1
"Darast/Projet_SE",118,"User",,0,0,true,true,true,false,1,,0,1,"master",1
"citizenten/STM32F4-ESP8266WifiModule",4416,"User",,0,0,true,true,true,false,0,,0,0,"master",1
"JorgeGomez/AEP_JLJL",2776,"User",,0,0,true,true,true,false,0,,0,0,"master",1
"cortoproject/cpp-binding",136,"Organization",,0,0,true,true,true,false,0,,0,0,"master",1
"edesvin/WiLi",1168,"User",,0,0,true,true,true,false,0,,0,0,"master",1
"Ben-Ramchandani/cracking_the_Enigma",164,"User",,0,0,true,true,true,false,0,,0,0,"master",1
"NightFury13/ClassificationMNIST",25648,"User",,0,0,true,true,true,false,0,,0,0,"master",1
"John2143658709/bingo-homework-solver",168,"User",,0,0,true,true,true,false,0,,0,0,"master",1
"Gedankenn/Algoritmos",664,"User",,0,0,true,true,true,false,0,,0,0,"master",1
"diegottl/algoritmos",164,"User",,0,0,true,true,true,false,0,,0,0,"master",1
"ceoconnor/LearningC",208,"User",,0,0,true,true,true,false,0,,0,0,"master",1
"fmonpelat/TP3-ALGO",285,"User",,0,0,true,true,true,false,1,,0,1,"master",1
"badriciobq/DriverAssistence",55824,"User",,0,0,true,true,true,false,0,,0,0,"master",1
"renanalboy/Projeto-Compiladores-1",152,"User",,0,0,true,true,true,false,0,,0,0,"master",1
"zhu126fang/git",144,"User","",0,0,true,true,true,false,0,,0,0,"master",1
"smallcapp/capp",516,"User",,0,0,true,true,true,false,0,,0,0,"master",1
"fkolacek/dwm-customized",240,"User",,0,0,true,true,true,false,0,,0,0,"master",1
"adutev/C-Programming",332,"User",,0,0,true,true,true,false,0,,0,0,"master",1
"sandibell00/FundamentosdeProgramacion1Aa",220,"User",,0,0,true,true,true,false,0,,0,0,"master",1
"ar664/Quak2Mod",348,"User",,0,0,true,true,true,false,0,,0,0,"master",1
"jasontom13/phase4",760,"User",,0,0,true,true,true,false,0,,0,0,"master",1
"Nicu34/Academy-Plus-Year1",1508,"User",,0,0,true,true,true,false,0,,0,0,"master",1
"freudshow/collection_union",1084,"User",,0,0,true,true,true,false,0,,0,0,"master",1
"pk2010/nf",924,"User",,0,0,true,true,true,false,0,,0,0,"master",1
"judsonx/base85",256,"User","",0,0,true,true,true,false,0,,0,0,"master",1
"qigao/ExtractPDF",472,"User",,0,0,true,true,true,false,0,,0,0,"master",1
"ohirose/cpd",144,"User","",0,0,true,true,true,false,0,,0,0,"master",1
"shennongmin/StudyFreeRTOS",26128,"User",,0,0,true,true,true,false,0,,0,0,"master",1
"sacaggarwal/hello-world",192,"User",,0,0,true,true,true,false,0,,0,0,"master",1
"Garik-/crawler",172,"User",,0,0,true,true,true,false,0,,0,0,"master",1
"hek23/Zudocu",116,"User",,0,0,true,true,true,false,0,,0,0,"master",1
"Frank-yujiang/OCC-I2C",112,"User",,0,0,true,true,true,false,0,,0,0,"master",1
"socram8888/intdb",124,"User",,0,0,true,true,true,false,0,,0,0,"master",1
"aflat/heirloom-pkgtools",1404,"User",,0,0,true,true,true,false,0,,0,0,"master",1
"markomitr/Student-2007-C-plus-plus-Project",640,"User",,0,0,true,true,true,false,0,,0,0,"master",1
"BogdanCojocaru/Programs-C",191,"User",,0,0,true,true,true,false,1,,0,1,"master",1
"aflat/heirloom-sh",248,"User",,0,0,true,true,true,false,0,,0,0,"master",1
"cmorty/watershed",164,"User",,0,0,true,true,true,false,0,,0,0,"master",1
"fivezeroes/RayTracer2",144,"User",,0,0,true,true,true,false,0,,0,0,"master",1
"jmarini/archimedes-nitrides",788,"User",,0,0,true,true,true,false,0,,0,0,"master",1
"jesshack10/Robython",228,"User",,0,0,true,true,true,false,1,,0,1,"master",1
"m-cullen/Mean-variance-SD-of-a-sample-c",136,"User",,0,0,true,true,true,false,0,,0,0,"master",1
"Voley/c_troubles",148,"User",,0,0,true,true,true,false,0,,0,0,"master",1
"gs0622/acm",124,"User",,0,0,true,true,true,false,0,,0,0,"master",1
"owah/random_ledpar_writer",280,"User",,0,0,true,true,true,false,0,,0,0,"master",1
"ujwalp15/3rd_Sem_DS_Lab",156,"User",,0,0,true,true,true,false,0,,0,0,"master",1
"WuZhuangbo/SoftwareTraining",1196,"User",,0,0,true,true,true,false,0,,0,0,"master",1
"OtherCrashOverride/armsoc-hardkernel",516,"User",,0,0,true,true,true,false,0,,0,0,"danger-g2d",1
"prismskylabs/prismlibx264",2940,"Organization",,0,0,true,true,true,false,0,,0,0,"master",1
"jee4404/i2cdevlibcport",152,"User","",0,0,true,true,true,false,0,,0,0,"master",1
"markjohndoyle/hdf5-nar",2332,"User",,0,0,true,true,true,false,0,,0,0,"master",1
"edems96/MD3-Model---Animation-Viewer",540,"User",,0,0,true,true,true,false,0,,0,0,"master",1
"BvdP/BalanceBot",140,"User",,0,0,true,true,true,false,0,,0,0,"master",1
"yihaoye/data-structure-and-algorithm-study-note",140,"User","",0,0,true,true,true,false,0,,0,0,"master",1
"rickhoefer/Scanner",30736,"User",,0,0,true,true,true,false,0,,0,0,"master",1
"shaded-enmity/prt",388,"User","",0,0,true,true,true,false,0,,0,0,"master",1
"AlliVaughn/collect_it_rails_angular",1612,"User",,0,0,true,true,true,false,0,,0,0,"master",1
"Harsh111/thread_lib",136,"User",,0,0,true,true,true,false,0,,0,0,"master",1
"yRyuSoGood/RikiLibC",180,"User","",0,0,true,true,true,false,0,,0,0,"master",1
"OS2World/UTIL-FILE-xbin",156,"Organization",,0,0,true,true,true,false,0,,0,0,"master",1
"mauricio98/Pr-cticaOpenMP",244,"User",,0,0,true,true,true,false,0,,0,0,"master",1
"Tomo1975/wireless-head-tracker",2748,"User",,0,0,true,false,false,false,0,,0,0,"master",1
"hjmangalam/tacg",860,"User",,0,0,true,true,true,false,0,,0,0,"master",1
"kduvaz/terceira",152,"User",,0,0,true,true,true,false,0,,0,0,"master",1
"ShaunRW/minimosd-extra",12520,"User",,0,0,true,false,false,false,0,,37,0,"master",1
"xuwening/Thread-Pool",164,"User",,0,0,true,true,true,false,0,,0,0,"master",1
"jinxingxing/qqwry",188,"User",,0,0,true,false,false,false,0,,1,0,"master",1
