"SamuelDoud/checkSumPOSIX",108,"User",,0,0,true,true,true,false,0,,0,0,"master",1
"pjedur/T-409-TSAM---http-server",108,"User",,0,0,true,true,true,false,0,,0,0,"master",1
"jprider63/simplessh-modified",128,"User",,0,0,true,true,true,false,0,,0,0,"master",1
"rahulagr2000/SecureChat-Encrypted-Chat-Application",540,"User",,0,0,true,true,true,false,0,,0,0,"master",1
"whitelok/androidgens",2056,"User",,0,0,true,false,false,false,0,,0,0,"master",1
"giggle-engineer/STEM-Core",2828,"User","",0,0,true,true,true,false,0,,0,0,"master",1
"sudhansusingh22/leetCode",152,"User",,0,0,true,true,true,false,0,,0,0,"master",1
"ironed/File-System",160,"User",,0,0,true,true,true,false,0,,0,0,"master",1
"Jack12816/avm-motion-trigger",948,"User","",0,0,true,true,true,true,0,,0,0,"master",1
"Maosn/bitwm",192,"User",,0,0,true,true,true,false,0,,0,0,"master",1
"Sequoya42/squealing-fibula",180,"User",,0,0,true,true,true,false,0,,0,0,"master",1
"dcorderoch/sockets-reference",156,"User",,0,0,true,true,true,false,0,,0,0,"master",1
"lainegholson/gtk-helloworld",192,"User",,0,0,true,true,true,false,0,,0,0,"master",1
"lean001/OJ",176,"User",,0,0,true,true,true,false,0,,1,0,"master",1
"als123/libmimemagic",556,"User",,0,0,true,true,true,false,0,,0,0,"master",1
"mkongster/Open-Source-Society-University",536,"User",,0,0,true,true,true,false,0,,0,0,"master",1
"AICP/device_oneplus_oneplus2",8716,"Organization",,0,0,true,true,true,false,0,,0,0,"lp5.1",1
"HoustonWeHaveABug/BaseConversion",140,"User",,0,0,true,true,true,false,0,,0,0,"master",1
"clementleger/cypress_linux_tools",176,"User","",0,0,true,true,true,false,0,,0,0,"master",1
"462cmu/asst3_pathtracer",67012,"User","",0,0,true,true,true,true,1,,0,1,"master",1
"George91/FlightPath",184,"User",,0,0,true,true,true,false,0,,0,0,"master",1
"Wildefyr/mpc",732,"User",,0,0,true,true,true,false,0,,0,0,"githubmaster",1
"bobetsanova/PIK",156,"User",,0,0,true,true,true,false,0,,0,0,"master",1
"kicsyromy/MediaOrganizer",94248,"User",,0,0,true,true,true,false,0,,5,0,"master",1
"SkyroverTech/SkyroverCF",3348,"Organization",,0,0,true,true,true,false,3,,4,3,"master",1
"YordankaTumbakova/exercises",180,"User",,0,0,true,true,true,false,1,,0,1,"master",1
"hmoster/android_kernel",128736,"User","",0,0,true,true,true,false,0,,0,0,"master",1
"trivigy/w4187.p1",164,"User",,0,0,true,true,true,false,0,,0,0,"master",1
"Kobzol/ZPG-project",36152,"User",,0,0,true,true,true,false,0,,0,0,"master",1
"VRToxin-Devices/android_kernel_samsung_smdk4412",538476,"Organization",,0,0,true,true,true,false,0,,0,0,"mm6.0",1
"nils-hamel/libgnomonic",4484,"User","",0,0,true,true,true,false,0,,0,0,"master",1
"nils-hamel/norama-suite",6380,"User","",0,0,true,true,true,false,0,,0,0,"master",1
"Dexter245/gb_tetris",144,"User",,0,0,true,true,true,false,0,,0,0,"master",1
"cmgraff/Grafos",580,"User",,0,0,true,true,true,false,0,,0,0,"master",1
"goblinhack/aminethyst",12096,"User",,0,0,true,true,true,false,0,,0,0,"master",1
"plding/redis-0.100",132,"User",,0,0,true,true,true,false,0,,0,0,"master",1
"DanCard/5lines",160,"User",,0,0,true,true,true,false,0,,0,0,"master",1
"mxui/cpplogin",148,"User",,0,0,true,true,true,false,0,,0,0,"master",1
"khhang/AVR-ARMSerial",248,"User",,0,0,true,true,true,false,0,,0,0,"master",1
"lippo97/server",140,"User",,0,0,true,true,true,false,0,,0,0,"master",1
"LaputaChiu/Algorithm",152,"User",,0,0,true,true,true,false,0,,0,0,"master",1
"BrokenROM/hardware_qcom_audio",956,"Organization",,0,0,true,true,true,false,0,,0,0,"m6.0",1
"JangSing/MergeSort",872,"User",,0,0,true,true,true,false,0,,0,0,"master",1
"wuyuehang/mathilda",496,"User",,0,0,true,true,true,false,0,,0,0,"master",1
"wilkie/classickong",1080,"User",,0,0,true,false,false,false,0,,0,0,"master",1
"likvidera/CTF",9588,"User",,0,0,true,true,true,false,0,,0,0,"master",1
"LanceJZ/SFML-2.3.2",18344,"User","http://www.sfml-dev.org/index.php",0,0,true,true,true,false,0,,0,0,"master",1
"wdougwatson/mingwgit",45276,"User",,0,0,true,true,true,false,0,,0,0,"master",1
"arsalan914/downloadmanager",16824,"User",,0,0,true,true,true,false,0,,0,0,"master",1
"robert1771/Position_display_accelerometer_based",236,"User",,0,0,true,true,true,false,0,,0,0,"master",1
"Allen-Make/git_skill",136,"User",,0,0,true,true,true,false,0,,0,0,"master",1
"underscoremone/android_device_samsung_trltexx",1788,"User",,0,0,true,true,true,false,0,,0,0,"cm-12.0",1
"NanoExplorer/siderealPebble",120,"User",,0,0,true,true,true,false,0,,0,0,"master",1
"askwon/poco-test",124,"User",,0,0,true,true,true,false,0,,0,0,"master",1
"KumarAmitMehta/STM32Discovery",3540,"User",,0,0,true,true,true,false,0,,0,0,"master",1
"Shelo/terror-game",4084,"User",,0,0,true,true,true,false,0,,0,0,"master",1
"kimura21/algorithms",104,"User",,0,0,true,true,true,false,0,,0,0,"master",1
"intervention814/blockify",108,"User",,0,0,true,true,true,false,0,,0,0,"master",1
"VRToxin-Devices/android_kernel_lge_g3",625645,"Organization",,0,0,true,true,true,false,1,,0,1,"mm6.0",1
"FernandoVelcic/tp-2014-1c-sistemasoperativos",652,"User",,0,0,true,true,true,false,0,,0,0,"master",1
"scottbanyard/random",120,"User",,0,0,true,true,true,false,0,,0,0,"master",1
"gromaudio/android_external_yaffs2",276,"User",,0,0,true,true,true,false,0,,0,0,"vline-kk_4.4.3",1
"gromaudio/android_external_ntfs-3g",1524,"User",,0,0,true,true,true,false,0,,0,0,"vline-kk_4.4.3",1
"jaykay12/first",104,"User",,0,0,true,true,true,false,0,,0,0,"master",1
"gpfwestie/kossel_2020_sintron",2052,"User",,0,0,true,true,true,false,0,,0,0,"master",1
"bjandre/avr-parking-proximity",140,"User","",0,0,true,true,true,false,0,,0,0,"master",1
"tunahansahiner/picquadcontroller",204,"User",,0,0,true,false,false,false,0,,0,0,"master",1
"ramilian/big_father_firmware",540,"User",,0,0,true,true,true,false,0,,0,0,"master",1
"pto/tpop",212,"User",,0,0,true,true,true,false,0,,0,0,"master",1
"JohnnyPP/AVR-ATtiny85-ADC",120,"User",,0,0,true,true,true,false,0,,0,0,"master",1
"marchelzo/libre",144,"User",,0,0,true,true,true,false,0,,0,0,"master",1
"ljf921007/word2vec",268,"User",,0,0,true,false,false,false,0,,35,0,"master",1
"nicehash/cgminer-3.7.2-scrypt-jane",2072,"Organization",,0,0,true,true,true,false,0,,0,0,"master",1
"marckunze/cs178-ServerCountThrees",13632,"User",,0,0,true,true,true,false,0,,0,0,"master",1
"starwing/lua-miniz",208,"User",,0,0,true,true,true,false,0,,0,0,"master",1
"TLoebner/openims_core_ims",29084,"User",,0,0,true,true,true,false,0,,0,0,"master",1
"pklima/DvorakPlusPlus",152,"User",,0,0,true,true,true,false,0,,1,0,"master",1
"MrL90/gitskills",165,"User",,0,0,true,true,true,false,1,,1,1,"master",1
"Tabaie/KR_A1",228,"User",,0,0,true,true,true,false,0,,0,0,"master",1
"kansascityshuffle/konverge",324,"User",,0,0,true,true,true,false,0,,0,0,"master",1
"carlosmccosta/Arkanoid",3704,"User",,0,0,true,true,true,false,0,,0,0,"master",1
"kayaklee/ctest",124,"User",,0,0,true,true,true,false,0,,0,0,"master",1
"igordotsenko/C-code-Algoritmics",140,"User","",0,0,true,true,true,false,0,,0,0,"master",1
"Grouper-AOSP/android_hardware_invensense",2924,"Organization",,0,0,true,true,true,false,0,,0,0,"aosp-6.0",1
"opless/small-prolog",240,"User",,0,0,true,true,true,false,0,,0,0,"master",1
"Zaahndile/hw3",104,"User",,0,0,true,true,true,false,0,,0,0,"master",1
"siziyman/C_HW2",104,"User",,0,0,true,true,true,false,0,,0,0,"master",1
"ebugfix/poly2tri.archive",420,"User",,0,0,true,false,false,false,0,,0,0,"master",1
"pilugin/jgep",156,"User",,0,0,true,true,true,false,0,,0,0,"master",1
"iclodq/SnailOS",2476,"User",,0,0,true,true,true,false,0,,0,0,"master",1
"ankupis/test",136,"User",,0,0,true,true,true,false,0,,0,0,"master",1
"byronka/capsaicin_server",156,"User",,0,0,true,true,true,false,0,,0,0,"master",1
"bigbird2444/linux_c",124,"User",,0,0,true,true,true,false,0,,0,0,"master",1
"Nasri-Bilel/SLITHERLINK-C",176,"User",,0,0,true,true,true,false,0,,0,0,"master",1
"JoshSu/rutgersComputerArch",172,"User",,0,0,true,true,true,false,0,,0,0,"master",1
"shibunath/DS",136,"User",,0,0,true,true,true,false,0,,0,0,"master",1
"swuiojkl/CMPUT313",13224,"User",,0,0,true,true,true,false,0,,0,0,"master",1
"gromaudio/android_bootable_recovery_cm",7040,"User",,0,0,true,true,true,false,0,,0,0,"vline-kk_4.4.3",1
"kestop/C-Programming",104,"User",,0,0,true,true,true,false,0,,0,0,"master",1
"gulfstreamiv/UCLA-CS-Coursework",207808,"User",,0,0,true,true,true,false,0,,0,0,"master",1
