"yorickdewid/php-atree",176,"User",,7,7,true,true,true,false,0,,0,0,"master",1
"evrythng/evrythng-marvell-sdk",145,"Organization",,6,6,true,true,true,false,0,,0,0,"master",1
"lucasperin/object-pkcs11",314,"User","http://perin.space/objectpkcs11",4,4,true,true,false,false,2,,3,2,"master",1
"Maximus5/plink",75748,"User",,4,4,true,true,true,false,0,,0,0,"plink",1
"jrmobley/pebble-laughing-demo",168,"User","",3,3,true,true,true,true,0,,0,0,"master",1
"wrathematics/fastcosim",220,"User",,3,3,true,true,true,false,0,,0,0,"master",1
"noporpoise/carrays",153,"User","",3,3,true,true,true,false,0,,0,0,"master",1
"developforapple/VDFParser",148,"User",,2,2,true,true,true,false,0,,0,0,"master",1
"silver13/h8mini-testing",368,"User",,2,2,true,true,true,false,0,,0,0,"master",1
"thesquaregroot/monkeys-with-keyboards",152,"User","",2,2,true,true,true,false,0,,0,0,"master",1
"aaaddress1/PkZIP-Unarchiver-in-C",400,"User","",2,2,true,true,true,false,0,,0,0,"master",1
"letiemble/OpenSSL-LET",25648,"User",,1,1,true,true,true,false,0,,0,0,"master",1
"vonzhou/source-dedu",1052,"User","",1,1,true,true,true,false,0,,0,0,"master",1
"pinnockf/UB",696,"User",,1,1,true,true,true,false,0,,0,0,"master",1
"S-YOU/ruby-fastpbkdf2",192,"User","",1,1,true,true,true,false,0,,0,0,"master",1
"Rinnegatamante/vitaHexenII",992,"User",,1,1,true,true,true,false,0,,0,0,"master",1
"MSoft1115/Rad3D",65740,"User",,1,1,true,true,true,false,0,,0,0,"master",1
"victormonteiro/Analise-combinatoria-UTFPR-Trabalho-Discreta",112,"User",,1,1,true,true,true,false,0,,0,0,"master",1
"mame98/jscr",140,"User",,1,1,true,true,true,false,0,,0,0,"master",1
"idoku/The-C-Programming-Language-K-R",244,"User",,1,1,true,true,true,false,0,,0,0,"master",1
"koalavc/speechrecognition",30084,"User",,1,1,true,true,true,false,0,,0,0,"master",1
"cicku/roxterm",2816,"User","git.code.sf.net/p/roxterm/code",1,1,false,true,false,false,1,,0,1,"master",1
"sergev/sdwriter",119,"User",,1,1,true,true,true,false,2,,0,2,"master",1
"wzyforgit/comx",168,"User",,1,1,true,true,true,false,0,,0,0,"master",1
"ianwild/qsl",280,"User","",1,1,true,true,true,false,0,,1,0,"master",1
"omarmurcia/C-Programming",124,"User",,0,0,true,true,true,false,0,,0,0,"master",1
"uberius/prodzekt-devel",1652,"User",,0,0,true,true,true,false,0,,0,0,"master",1
"clearwa/mypi",1336468,"User",,0,0,true,true,true,false,0,,0,0,"mypir1",1
"BeginMan/CLibrarys",168,"User",,0,0,true,true,true,false,0,,0,0,"master",1
"bunndan/HerculesRO",65248,"User",,0,0,true,true,true,false,0,,0,0,"master",1
"marc-tech/bistro",148,"User",,0,0,true,true,true,false,0,,0,0,"master",1
"drm00/xkeyboard-config",6416,"User",,0,0,true,true,true,false,0,,0,0,"master",1
"TheaHenry/A36717",152,"User",,0,0,true,true,true,false,0,,0,0,"master",1
"JohnDMicrochip/Hello-World-Test-Version-1.0",152,"User",,0,0,true,true,true,false,0,,0,0,"master",1
"fokane/GitHarmonyTest",148,"User",,0,0,true,true,true,false,0,,0,0,"master",1
"welchomatic/ESI_HelloWorld",160,"User",,0,0,true,true,true,false,0,,0,0,"master",1
"bbobich/test_repo",120,"User",,0,0,true,true,true,false,0,,0,0,"master",1
"PatrickMCHP/ESI_HelloWorld",148,"User",,0,0,true,true,true,false,0,,0,0,"master",1
"sa2ajj/opencryptotoken",528,"User",,0,0,false,false,false,false,0,,2,0,"master",1
"michaelrhughes/opencore-aacdec",632,"User",,0,0,true,false,false,false,0,,0,0,"master",1
"atsb/LearnColours",140,"User",,0,0,true,true,true,false,0,,0,0,"master",1
"BroadCyanMod/android_bootable_recovery",10076,"Organization",,0,0,true,true,true,false,0,,0,0,"cm-10.2",1
"mvancompernolle/space_invaders_td",6760,"User",,0,0,true,true,true,false,0,,0,0,"master",1
"orcaur1516daw2/mitja",124,"User",,0,0,true,true,true,false,0,,0,0,"master",1
"JorgeCastanedaGarcia/Evidencias",108,"User",,0,0,true,true,true,false,0,,0,0,"master",1
"rakesh2215/wifidog",284,"User",,0,0,true,true,true,false,0,,0,0,"master",1
"Botyto/autosave",320,"User",,0,0,true,true,true,false,0,,0,0,"master",1
"Maxikkk/phantomuserland",97452,"User",,0,0,true,false,false,false,0,,83,0,"master",1
"alyakovlev/Phones",112,"User",,0,0,true,true,true,false,0,,0,0,"master",1
"Bharatiyun/DSA-miniproject",112,"User",,0,0,true,true,true,false,0,,0,0,"master",1
"haoyangyu/RIOT",15572,"User",,0,0,true,true,true,false,0,,0,0,"master",1
"JCisneros77/PATarea4",148,"User",,0,0,true,true,true,false,0,,0,0,"master",1
"sonodasong/Indoor_Positioning_System",348,"User",,0,0,true,true,true,false,0,,0,0,"master",1
"qdk0901/openwrt-ar9331",15792,"User",,0,0,true,true,true,false,0,,0,0,"master",1
"jackzhouqd/myservice",828,"User",,0,0,true,true,true,false,0,,0,0,"master",1
"antiwinter/slt.handler.emu",132,"User",,0,0,true,true,true,false,0,,0,0,"master",1
"tech-projects/kfs",136,"Organization",,0,0,true,true,true,false,0,,0,0,"master",1
"jashin91/kiv_os",160,"User",,0,0,true,true,true,false,0,,0,0,"master",1
"kiukotsu/PA",612,"User",,0,0,true,true,true,false,0,,0,0,"master",1
"msrojas/Implementacion-simple-de-AES",176,"User",,0,0,true,true,true,false,0,,0,0,"master",1
"tregua87/InvertBinaryMatrix",132,"User","",0,0,true,true,true,false,0,,0,0,"master",1
"tech-projects/exo2",128,"Organization",,0,0,true,true,true,false,0,,0,0,"master",1
"Sofia2/c-api",20360,"Organization",,0,0,true,true,true,true,0,,0,0,"master",1
"gustavocovas/irksome-octo-wookie",176,"User",,0,0,true,true,true,false,0,,0,0,"master",1
"babayorgun46/Odysseus-Windows",12272,"User",,0,0,true,true,true,false,0,,0,0,"master",1
"Zowrer/CalculadoraMathH",236,"User",,0,0,true,true,true,false,0,,0,0,"master",1
"olzone/OORA",2136,"User",,0,0,true,true,true,false,0,,0,0,"master",1
"coduemat/nav5v2",1104,"User",,0,0,true,true,true,false,0,,0,0,"master",1
"kzlin129/tt-gpl",107096,"User",,0,0,true,true,true,false,0,,0,0,"master",1
"OEM-GPL-Releases/belkin_f5l049_v1000",301824,"Organization",,0,0,true,true,true,false,0,,0,0,"1.00.04",1
"Hiropon256/OpenEars",55724,"User",,0,0,true,true,true,false,0,,0,0,"master",1
"Haxynox/android_system_extras",78676,"Organization",,0,0,true,true,true,false,0,,0,0,"Mmm",1
"MiniOS/android_system_core",12896,"Organization","https://github.com/CyanogenMod/android_system_core.git",0,0,true,true,true,false,0,,0,0,"cm-12.1",1
"kedh/568",316,"User",,0,0,true,true,true,false,0,,0,0,"master",1
"xiaobasil/K_R",144,"User",,0,0,true,true,true,false,0,,0,0,"master",1
"Saskereliz/04",144,"User",,0,0,true,true,true,false,0,,0,0,"master",1
"sccluisx/Mytest",128,"User",,0,0,true,true,true,false,0,,0,0,"master",1
"tectronics/sparkyrobotcontroller",5696,"User",,0,0,true,false,false,false,0,,0,0,"master",1
"Pranavuikey333/Airline",108,"User",,0,0,true,true,true,false,0,,0,0,"master",1
"MwTop/Data-Structure-and-Algorithm",224,"User",,0,0,true,true,true,false,0,,1,0,"master",1
"icosferu/lab3",112,"User",,0,0,true,true,true,false,0,,0,0,"master",1
"yeokm1/mov-is-turing-complete",2164,"User","",0,0,true,true,true,false,0,,0,0,"master",1
"i-yxd/firmware-mod-kit",10372,"User",,0,0,true,false,false,false,0,,1,0,"master",1
"victor29z/haptics-ext-enc",1216,"User",,0,0,true,true,true,false,0,,0,0,"enc-ext",1
"SunnyMCW/android-fplayer",364,"User",,0,0,true,false,false,false,0,,1,0,"master",1
"theplaymate/windespacman",223232,"User",,0,0,true,false,false,false,0,,0,0,"master",1
"herohezi/simple-nfc",176,"User",,0,0,true,false,false,false,0,,0,0,"master",1
"speedstalker/MIPT-Computational_math",144,"User",,0,0,true,true,true,false,0,,0,0,"master",1
"praveen-yadav/hello-world",148,"User",,0,0,true,true,true,false,0,,1,0,"master",1
"GumpYangchh/DA14582-Remote-Audio",1464,"User",,0,0,true,true,true,false,0,,0,0,"master",1
"crzmp3/PMVS_lab5",128,"User",,0,0,true,true,true,false,0,,0,0,"master",1
"liujiantong/word2vec",276,"User",,0,0,true,false,false,false,0,,35,0,"master",1
"physcom/BB3",356,"User",,0,0,true,true,true,false,0,,0,0,"master",1
"TeamWin/android_device_samsung_j2lte",5396,"Organization",,0,0,true,true,true,false,0,,0,0,"android-5.1",1
"David-Guo/Soft-testing-practice",168,"User",,0,0,true,true,true,false,0,,0,0,"master",1
"51001558/ass",156,"User",,0,0,true,true,true,false,0,,0,0,"master",1
"xuefeng0707/compilerdragon",728,"User",,0,0,true,true,true,false,0,,0,0,"master",1
"FreemanX/handy_tools",124,"User",,0,0,true,true,true,false,0,,0,0,"master",1
"gienter/test",144,"User",,0,0,true,true,true,false,0,,0,0,"master",1
"gunnerliao/MyCode",124,"User",,0,0,true,true,true,false,0,,0,0,"master",1
