"sevengram/calg",124,"User",,0,0,true,true,true,false,0,,0,0,"master",1
"git4tony/i2c-test",108,"User",,0,0,true,true,true,false,0,,0,0,"master",1
"lakrisen/TEST",116,"User",,0,0,true,true,true,false,0,,0,0,"master",1
"ankitrathi001/Online-Social-Networking-Service--Tweeter",1072,"User",,0,0,true,true,true,false,0,,0,0,"master",1
"CyanideDevices/android_device_samsung_t0lte",5092,"Organization",,0,0,true,true,true,false,0,,0,0,"cm-13.0",1
"grey24/s-w-configuration",188,"Organization",,0,0,true,true,true,false,0,,0,0,"master",1
"anton-christensen/raytracer",180,"User",,0,0,true,true,true,false,0,,0,0,"master",1
"xiangup1/Parallel-computing",104,"User",,0,0,true,true,true,false,0,,0,0,"master",1
"khanoyan/hello_world",148,"User","",0,0,true,true,true,false,0,,0,0,"master",1
"Rainsy/Parallel-programming",136,"User",,0,0,true,true,true,false,0,,0,0,"master",1
"kralin27/os161",1952,"User",,0,0,true,true,true,false,0,,0,0,"master",1
"Mugy/steganography",968,"User",,0,0,true,true,true,false,0,,0,0,"master",1
"indiche/LearnCTheHardWay",144,"User",,0,0,true,true,true,false,0,,0,0,"master",1
"android-x86-mirror/platform_external_busybox",28260,"Organization",,0,0,true,true,true,false,0,,0,0,"lollipop-x86",1
"android-x86-mirror/platform_external_drm",11828,"Organization",,0,0,true,true,true,false,0,,0,0,"lollipop-x86",1
"android-x86-mirror/platform_external_eject",160,"Organization",,0,0,true,true,true,false,0,,0,0,"lollipop-x86",1
"holovati/pythonize",176,"User",,0,0,true,true,true,false,0,,0,0,"master",1
"visualcamp/CameraForVrex",5860,"User",,0,0,true,true,true,false,0,,0,0,"master",1
"DesolationStaging/marshbionic",24200,"Organization",,0,0,true,true,true,false,0,,0,0,"mm6.0",1
"fschill/MavBoot",1376,"User",,0,0,true,true,true,false,0,,0,0,"master",1
"android-x86-mirror/platform_external_ppp",924,"Organization",,0,0,true,true,true,false,0,,0,0,"kitkat-x86",1
"ArthuruhtrA/Spring-2015",360,"User",,0,0,true,true,true,false,0,,0,0,"master",1
"eoponomareva/myPersonalRepo",124,"User",,0,0,true,true,true,false,0,,0,0,"master",1
"BigHappy/Hello_of",4340,"User",,0,0,true,true,true,false,0,,0,0,"master",1
"maurice2k/putty",5876,"User",,0,0,true,true,true,false,0,,0,0,"master",1
"linuzo/stock_kernel_lge_d852",147924,"User",,0,0,true,true,true,false,0,,0,0,"master",1
"ellingtonjp/BuzzFizz",140,"User",,0,0,true,true,true,false,0,,0,0,"master",1
"rahul012345/MY_FIRST_REPO",120,"User",,0,0,true,true,true,false,0,,0,0,"master",1
"mimihalo/HW3",132,"User",,0,0,true,true,true,false,0,,0,0,"master",1
"android-x86-mirror/platform_hardware_gps",168,"Organization",,0,0,true,true,true,false,0,,0,0,"lollipop-x86",1
"alu0100502114/LPP_1",132,"User",,0,0,true,true,true,false,0,,0,0,"master",1
"android-x86-mirror/platform_system_extras",2384,"Organization",,0,0,true,true,true,false,0,,0,0,"lollipop-x86",1
"Alagris/StrategyGameRepo",104,"User",,0,0,true,true,true,false,0,,0,0,"master",1
"sampurdue/Xinu-OS-code-cs-503",920,"User",,0,0,true,true,true,false,0,,0,0,"master",1
"onexmaster/radium_device_asus_grouper",277500,"User",,0,0,true,true,true,false,0,,0,0,"5.1",1
"kollinslima/Grafo_Lista",136,"User",,0,0,true,true,true,false,0,,0,0,"master",1
"mposchl/arducam-osd",9164,"User",,0,0,true,false,false,false,0,,39,0,"master",1
"SaithRodriguezR/Interface",1828,"User",,0,0,true,true,true,false,0,,0,0,"master",1
"DesolationRom/android_external_compiler-rt",8776,"Organization",,0,0,true,true,true,false,0,,0,0,"mm6.0",1
"LPP31/LPP31",128,"Organization",,0,0,true,true,true,false,0,,0,0,"master",1
"Marsh-Rom/android_device_samsung_tuna",1399656,"Organization",,0,0,true,true,true,false,0,,0,0,"marsh-6.0",1
"alu0100825893/LPP_35",128,"User",,0,0,true,true,true,false,0,,0,0,"master",1
"WailSolaiman/betriebssysteme_speicherverwaltung_c",2564,"User",,0,0,true,true,true,false,0,,0,0,"master",1
"duongthequan1509/laptrinhmang",1480,"User",,0,0,true,true,true,false,0,,0,0,"master",1
"UBERMALLOW/external_libpng",3950,"Organization",,0,0,true,true,true,false,1,,0,1,"master",1
"alu0100825503/LPP_19",128,"User",,0,0,true,true,true,false,0,,0,0,"master",1
"crezefire/yelpcurl",296,"User",,0,0,true,false,false,false,0,,0,0,"master",1
"JackyHao/haina",192516,"User",,0,0,true,false,false,false,0,,1,0,"master",1
"MaximusDolphin/os161",1248,"User","",0,0,true,true,true,false,0,,0,0,"master",1
"ECE4534TEAM16/Mapper",146,"Organization",,0,0,true,true,true,false,0,,0,0,"master",1
"ax3l91/master",120,"User",,0,0,true,true,true,false,0,,0,0,"master",1
"otakupie/something",1248,"User",,0,0,true,true,true,false,0,,0,0,"master",1
"numap-library/numap",128,"Organization",,0,0,true,true,true,false,0,,0,0,"master",1
"dennis-musk/netradio",132,"User",,0,0,true,true,true,false,0,,0,0,"master",1
"fatmonitor/porr-12z-travelling-salesman",324,"User",,0,0,true,false,false,false,0,,0,0,"master",1
"alu0100851700/LPP_27",132,"User",,0,0,true,true,true,false,0,,0,0,"master",1
"vamsipavanmahesh/everyC",104,"User",,0,0,true,true,true,false,0,,0,0,"master",1
"muntasir2000/vudroid",27632,"User",,0,0,true,false,false,false,0,,107,0,"master",1
"robincsebuet/LinuxMultithreadingExample",348,"User",,0,0,true,true,true,false,0,,0,0,"master",1
"alu0100697315/LPP_16",128,"User",,0,0,true,true,true,false,0,,0,0,"master",1
"SatriaPriambada/RobotC-MazeSolver",87,"User",,0,0,true,true,true,false,1,,0,1,"master",1
"dereulenspiegel/respondd",104,"User",,0,0,true,true,true,false,0,,0,0,"master",1
"Keith-Chambers/PrimeFactorize",108,"User",,0,0,true,true,true,false,0,,0,0,"master",1
"Bakinam/VIC_Preprocessing_rules",124,"User",,0,0,true,true,true,false,0,,0,0,"master",1
"FarawayInkJet/os161",1960,"User",,0,0,true,true,true,false,0,,0,0,"master",1
"elisobylak/OS161",2580,"User",,0,0,true,true,true,false,0,,0,0,"master",1
"kedricz/ish",216,"User",,0,0,true,true,true,false,0,,0,0,"master",1
"mojonapower/langprogra",360,"User",,0,0,true,true,true,false,0,,0,0,"master",1
"davelindell/soil_moisture",128,"User",,0,0,true,true,true,false,0,,0,0,"master",1
"flarss/many",364,"User",,0,0,true,true,true,false,0,,0,0,"master",1
"jashwanth/helloworld",104,"User",,0,0,true,true,true,false,0,,0,0,"master",1
"piyush-arora/AVR-Atmega168-",1696,"User",,0,0,true,true,true,false,0,,0,0,"master",1
"bhattigurjot/Crawler",964,"User",,0,0,true,true,true,false,0,,0,0,"master",1
"sean3546/cs50",116,"User",,0,0,true,true,true,false,0,,0,0,"master",1
"broke/synchronous-rtsp-recorder",116,"User",,0,0,true,true,true,false,0,,0,0,"master",1
"ironmask2004/gittest1",140,"User",,0,0,true,true,true,false,0,,0,0,"master",1
"Codeform/MyApp",156,"User",,0,0,true,true,true,false,0,,0,0,"master",1
"wowlin/gitest",132,"User",,0,0,true,true,true,false,0,,0,0,"test",1
"picrin/DACCS",128,"User",,0,0,true,true,true,false,0,,0,0,"master",1
"bmacdona9517/ISS-maintainSpeed",8376,"User",,0,0,true,true,true,false,0,,0,0,"master",1
"samuelmarinov/CSCE313-MP2",212,"User",,0,0,true,true,true,false,0,,0,0,"master",1
"avrjs/swavr",128,"User",,0,0,true,true,true,false,0,,0,0,"master",1
"Denis2222/Piscine-42",124,"User",,0,0,true,true,true,false,0,,0,0,"master",1
"ChristosKon/honeyd-ipv6",1280,"User",,0,0,true,true,true,false,0,,0,0,"master",1
"android-x86-mirror/platform_external_v86d",244,"Organization",,0,0,true,true,true,false,0,,0,0,"lollipop-x86",1
"android-x86-mirror/platform_system_core",14092,"Organization",,0,0,true,true,true,false,0,,0,0,"lollipop-x86",1
"android-x86-mirror/device_generic_common",42184,"Organization",,0,0,true,true,true,false,0,,0,0,"lollipop-x86",1
"mateddy/Kossel",1712,"User",,0,0,true,true,true,false,0,,0,0,"master",1
"ErikWallstrom/Top_Down_RPG",532,"User",,0,0,true,true,true,false,0,,0,0,"master",1
"aaorsi/samplesag",1244,"User",,0,0,true,true,true,false,0,,0,0,"master",1
"numpad/project_iss",27612,"User",,0,0,true,true,true,false,0,,0,0,"master",1
"chihaokuo/C_FlagOperation",156,"User",,0,0,true,true,true,false,0,,0,0,"master",1
"isac322/BOJ",500,"User","http://acmicpc.net",0,0,true,true,true,false,0,,0,0,"master",1
"jamesconrad/Algorithms-Assignments",656,"User",,0,0,true,true,true,false,0,,0,0,"master",1
"amandalund/simple-deterministic",172,"User",,0,0,true,true,true,false,0,,0,0,"master",1
"shreyakamath2311/xv6-kernel-MLFQ-process-scheduler",287,"User",,0,0,true,true,true,false,0,,0,0,"master",1
"christoulas/junkcode",176,"User","",0,0,true,true,true,false,0,,0,0,"master",1
"dargaCode/ansiColorTest",164,"User","",0,0,true,true,true,false,0,,0,0,"master",1
"betho890/edd2015",152,"User","",0,0,true,true,true,false,0,,0,0,"master",1
"fatimarafiqui/C-Programming",160,"User",,0,0,true,true,true,false,0,,0,0,"master",1
