"arxmobi/imagix-photivolibs",14752,"User","",0,0,true,true,true,false,0,,1,0,"test00",1
"Hamdiovish/android-fplayer",364,"User",,0,0,true,false,false,false,0,,1,0,"master",1
"Hamdiovish/dolphin-player",303164,"User",,0,0,true,false,false,false,0,,35,0,"master",1
"NX404H/android_device_ZTE_NX404H",6582,"User",,0,0,true,true,true,false,1,,0,1,"master",1
"chenxianqin/vaapi-libva",3592,"User",,0,0,true,true,true,false,0,,0,0,"master",1
"wenliu2/share",120,"User",,0,0,true,true,true,false,0,,0,0,"master",1
"libreroseiosapp/MaoGe",956,"Organization",,0,0,true,true,true,false,0,,0,0,"master",1
"tobywstokes/k-means",192,"User",,0,0,true,true,true,false,0,,0,0,"master",1
"diogopainho/iaed-ist",108,"User","",0,0,true,true,true,false,0,,0,0,"master",1
"mattiabar/Test",229,"User",,0,0,true,true,true,false,1,,1,1,"master",1
"D400150154/Tugas-Resistorr",184,"User",,0,0,true,true,true,false,0,,0,0,"master",1
"acalcagni/openaes",212,"User",,0,0,true,false,false,false,0,,0,0,"master",1
"nevenaf/parfor_in_c",184,"User",,0,0,true,true,true,false,0,,0,0,"master",1
"JDCTeam/TWRP",25386,"Organization","https://github.com/TeamWin/Team-Win-Recovery-Project",0,0,true,true,true,false,1,,0,1,"multirom",1
"dingdongnigetou/mycpp",112,"User",,0,0,true,true,true,false,0,,0,0,"master",1
"carlosmori/DUDAS-",168,"User",,0,0,true,true,true,false,0,,0,0,"master",1
"carlosmori/dudas-3",112,"User",,0,0,true,true,true,false,0,,0,0,"master",1
"msaxena2/freebsd-memory-mananger",224,"User",,0,0,true,true,true,false,0,,0,0,"master",1
"tomdrake/baldy",344,"User",,0,0,true,false,false,false,0,,0,0,"master",1
"michal037/emaes",172,"User",,0,0,true,true,true,false,0,,0,0,"master",1
"kevinselwyn/empire-state",144,"User",,0,0,true,true,true,false,0,,0,0,"master",1
"uw-midsun/ms-lib",160,"Organization",,0,0,true,true,true,false,0,,0,0,"master",1
"nerfius/ninja",128,"User",,0,0,true,true,true,false,0,,0,0,"master",1
"gentoo/elfix",1208,"Organization",,0,0,true,true,true,false,0,,0,0,"master",1
"Nobe1976Source/android_vendor_qcom_opensource_location",608,"Organization",,0,0,true,true,true,false,0,,0,0,"m-caf",1
"rcvlr/dtn_tradeoff_sim",420,"User","",0,0,true,true,true,false,0,,0,0,"master",1
"AwesomeIcon/DataStructure",132,"User",,0,0,true,true,true,false,0,,0,0,"master",1
"Networking3300Team/StateMachine",500,"Organization",,0,0,true,true,true,false,0,,0,0,"master",1
"HascoetKevin/Ash_C",136,"User",,0,0,true,true,true,false,0,,0,0,"master",1
"johanhenriksson/fat-filesystem",140,"User","",0,0,true,true,true,false,0,,0,0,"master",1
"kylesezhi/worksheet24",112,"User",,0,0,true,true,true,false,0,,0,0,"master",1
"chaidy/android-screenshot-library",564,"User",,0,0,true,false,false,false,0,,40,0,"master",1
"dhanyweb/pr-modbus-2011",1068,"User",,0,0,true,false,false,false,0,,0,0,"master",1
"SinKi0/FirstDemo",108,"User",,0,0,true,true,true,false,0,,0,0,"master",1
"sonir/uoko",6336,"User",,0,0,true,true,true,false,0,,0,0,"master",1
"icic13/Introduction-To-Algorithm-Books-Algorithm-s-Code",148,"User",,0,0,true,true,true,false,0,,1,0,"master",1
"szymonwalle/S-little-projects",216,"User",,0,0,true,true,true,false,0,,0,0,"master",1
"benbrandt/cs50",160,"User",,0,0,true,true,true,false,0,,0,0,"master",1
"hosuaby/docker-microperl",232,"User","",0,0,true,true,true,false,0,,0,0,"master",1
"duki994/SM-G850_Kernel_LP",222252,"User","",0,0,true,true,true,false,0,,0,0,"master",1
"santos10-dev/android_hardware_intel_common_libmix",1060,"Organization",,0,0,false,true,false,false,0,,0,0,"aosp-6.0",1
"UBERMALLOW/bionic",23500,"Organization",,0,0,true,true,true,false,1,,0,1,"master",1
"georgiy-pruss/0-C",240,"User",,0,0,true,true,true,false,0,,0,0,"master",1
"akshaylahoti/sudoko",144,"User",,0,0,true,true,true,false,0,,0,0,"master",1
"kamfor/1.4",236,"User",,0,0,true,true,true,false,0,,0,0,"master",1
"jacaam1516daw2/mitja",128,"User",,0,0,true,true,true,false,0,,0,0,"master",1
"ata4/glrage",360,"User",,0,0,true,true,true,false,0,,1,0,"master",1
"mpue/AVRClock",192,"User",,0,0,true,true,true,false,0,,0,0,"master",1
"bnlb/Objective-C_Playground",144,"User",,0,0,true,true,true,false,0,,0,0,"master",1
"Jancehk/JanceCGP",1992,"User",,0,0,true,true,true,false,0,,0,0,"master",1
"MoKee/android_device_zte_nx511j",31496,"Organization","",0,0,true,true,true,false,1,,0,1,"mkl-mr1",1
"y7usuf/C-Lecture-Notes",156,"User",,0,0,true,true,true,false,0,,0,0,"master",1
"ishantcoep/ticket-booking-system",180,"User",,0,0,true,true,true,false,0,,0,0,"master",1
"pastorsj/Graphics-Final-Project",1013,"User",,0,0,true,true,true,false,1,,0,1,"master",1
"MartinNikolovMarinov/C_Data_Structures",204,"User",,0,0,true,true,true,false,0,,0,0,"master",1
"MSM8226-Samsung/android_kernel_samsung_kmini3g",662658,"Organization",,0,0,true,true,true,false,1,,0,1,"cm-12.1",1
"RiceRobotics/Leebron",1204,"Organization",,0,0,true,true,true,false,0,,0,0,"master",1
"RiceRobotics/Lebron",1228,"Organization",,0,0,true,true,true,false,0,,0,0,"master",1
"furhat/STM32",21048,"User",,0,0,true,true,true,false,0,,0,0,"master",1
"HelllGuest/phoenix_kernel_lux",142580,"User",,0,0,true,true,true,false,0,,0,0,"5.1",1
"ArnaudCourbiere/RtspExtractor",6852,"User",,0,0,true,true,true,false,0,,2,0,"master",1
"manoeljfneto/Pilha",152,"User",,0,0,true,true,true,false,0,,0,0,"master",1
"Alwnikrotikz/poly2tri.archive",428,"User",,0,0,true,false,false,false,0,,0,0,"master",1
"Takeshi6888/gimp-normalmap",660,"User",,0,0,true,false,false,false,0,,10,0,"master",1
"avisri/openssl_test",148,"User",,0,0,true,true,true,false,0,,0,0,"master",1
"gabrielrussoc/mac110",292,"User",,0,0,true,true,true,false,0,,0,0,"master",1
"JJHOCK/l2adenalib",5992,"User",,0,0,true,false,false,false,0,,1,0,"master",1
"dileepplayer/lasersaur",748,"User",,0,0,true,true,true,false,0,,0,0,"master",1
"wingz7162/csc209-a3",152,"User",,0,0,true,true,true,false,0,,0,0,"master",1
"Grief-Code/bncsutil",280,"User",,0,0,true,false,false,false,0,,4,0,"master",1
"KeitaMarumoto/Hello-World",144,"User",,0,0,true,true,true,false,0,,0,0,"master",1
"koloux/Sudoku",128,"User",,0,0,true,true,true,false,0,,0,0,"master",1
"andrewchambers/cmips-example",139,"User",,0,0,true,true,true,false,1,,0,1,"master",1
"mauricio98/ThreadsMauricioZapata",240,"User",,0,0,true,true,true,false,0,,0,0,"master",1
"icostin/xfm",140,"User",,0,0,true,true,true,false,0,,0,0,"master",1
"Tigrex161/Git",108,"User",,0,0,true,true,true,false,0,,0,0,"master",1
"razlock/server",116,"User","",0,0,true,true,true,false,0,,0,0,"master",1
"xtstc131/write-for-fun",108,"User",,0,0,true,true,true,false,0,,0,0,"master",1
"marble13/Motion-Player-Project_Imported",12604,"User",,0,0,true,false,false,false,0,,2,0,"master",1
"gp2015/Cmisc",112,"User",,0,0,true,true,true,false,0,,0,0,"master",1
"norem/minimosd-extra",12524,"User",,0,0,true,false,false,false,0,,37,0,"master",1
"FranklinZhang1992/libguestfs-1.30.3",6440,"User",,0,0,true,true,true,false,0,,0,0,"master",1
"omerkocbil/FirstRepository",120,"User",,0,0,true,true,true,false,0,,0,0,"master",1
"NewCoinTeam/newcoin",4620,"User",,0,0,true,true,true,false,0,,0,0,"master",1
"aixtusyu9201/diosmios",368,"User",,0,0,true,false,false,false,0,,1,0,"master",1
"dhcstruggle/jz2440-uboot",10296,"User",,0,0,true,true,true,false,0,,0,0,"master",1
"GAlexMES/Pebble-Room-Plan",144,"User",,0,0,true,true,true,false,0,,0,0,"master",1
"Nobe1976Source/android_vendor_qcom_opensource_time-services",116,"Organization",,0,0,true,true,true,false,0,,0,0,"m-caf",1
"wangyiduo999/memory_allocator",116,"User",,0,0,true,true,true,false,0,,0,0,"master",1
"Alwnikrotikz/pyo",7128,"User",,0,0,true,false,false,false,0,,10,0,"master",1
"rvsrinivas/CS558L",152,"User",,0,0,true,true,true,false,0,,0,0,"master",1
"MagedMilad/Shell",108,"User",,0,0,true,true,true,false,0,,0,0,"master",1
"RW12/GitSmart",160,"User",,0,0,true,true,true,false,0,,0,0,"master",1
"thibaultauvray/select",292,"User",,0,0,true,true,true,false,0,,0,0,"master",1
"YoMommaHouse/android_vendor_qcom_opensource_time-services",132,"Organization",,0,0,true,true,true,false,0,,0,0,"m-caf",1
"raveit65/compiz-plugins-unsupported",2468,"User",,0,0,true,true,true,false,0,,0,0,"master",1
"peer23peer/EVD",21048,"User",,0,0,true,true,true,false,0,,0,0,"master",1
"rpmfusion/wolf3d-shareware",156,"Organization","http://rpmfusion.org",0,0,false,false,false,false,0,,0,0,"master",1
"ashemag/EE107",1044,"User",,0,0,true,true,true,false,0,,0,0,"master",1
"willbsp/Simple-Retro-Pebble",172,"User","",0,0,true,true,true,false,0,,0,0,"master",1
