"aixtusyu9201/diosmios",368,"User",,0,0,true,false,false,false,0,,1,0,"master",1
"dhcstruggle/jz2440-uboot",10296,"User",,0,0,true,true,true,false,0,,0,0,"master",1
"NewCoinTeam/newcoin",4620,"User",,0,0,true,true,true,false,0,,0,0,"master",1
"alexcoder1/vk5",128,"User",,0,0,true,true,true,false,0,,0,0,"master",1
"dhcstruggle/jz2440-kernel",65168,"User",,0,0,true,true,true,false,0,,0,0,"master",1
"omerkocbil/FirstRepository",120,"User",,0,0,true,true,true,false,0,,0,0,"master",1
"razlock/server",116,"User","",0,0,true,true,true,false,0,,0,0,"master",1
"pratapavhad/typespeedcalc",128,"User",,0,0,true,true,true,false,0,,0,0,"master",1
"mavenastic/my_app",38212,"User",,0,0,true,true,true,false,0,,0,0,"master",1
"JaehyunLee/Cinetown",116,"User",,0,0,true,true,true,false,0,,0,0,"master",1
"sumang379/weibo",124,"User",,0,0,true,true,true,false,0,,0,0,"master",1
"FranklinZhang1992/libguestfs-1.30.3",6440,"User",,0,0,true,true,true,false,0,,0,0,"master",1
"phillipgreenii/irremote-signals-lasko-heater-6350",144,"User",,0,0,true,true,true,false,0,,0,0,"master",1
"marvinh/Hashtable",108,"User",,0,0,true,true,true,false,0,,0,0,"master",1
"y0ja/ft_ls",144,"User",,0,0,true,true,true,false,0,,0,0,"master",1
"y0ja/wong_kar_wai",148,"User",,0,0,true,true,true,false,0,,0,0,"master",1
"spundhir/RNA-Seq",42428,"User",,0,0,true,true,true,false,0,,0,0,"master",1
"xtstc131/write-for-fun",108,"User",,0,0,true,true,true,false,0,,0,0,"master",1
"marble13/Motion-Player-Project_Imported",12604,"User",,0,0,true,false,false,false,0,,2,0,"master",1
"Tigrex161/Git",108,"User",,0,0,true,true,true,false,0,,0,0,"master",1
"GAlexMES/Pebble-Room-Plan",144,"User",,0,0,true,true,true,false,0,,0,0,"master",1
"IdamO/Alang",249,"User","",0,0,true,true,true,false,2,,0,2,"master",1
"Zleub/lem-ipc",336,"User",,0,0,true,true,true,false,0,,0,0,"master",1
"RW12/GitSmart",160,"User",,0,0,true,true,true,false,0,,0,0,"master",1
"willbsp/Simple-Retro-Pebble",172,"User","",0,0,true,true,true,false,0,,0,0,"master",1
"aljnoble/HackingEDU",512,"User",,0,0,true,true,true,false,0,,0,0,"master",1
"promisechen/dpdk",156,"User",,0,0,true,true,true,false,0,,0,0,"master",1
"Karty5/Computer-Architecture",468,"User",,0,0,true,true,true,false,0,,0,0,"master",1
"sgyuri2003/stm32-codes",2260,"User",,0,0,true,false,false,false,0,,0,0,"master",1
"dileepplayer/lasersaur",748,"User",,0,0,true,true,true,false,0,,0,0,"master",1
"koloux/Sudoku",128,"User",,0,0,true,true,true,false,0,,0,0,"master",1
"YoMommaHouse/android_vendor_qcom_opensource_time-services",132,"Organization",,0,0,true,true,true,false,0,,0,0,"m-caf",1
"ashemag/EE107",1044,"User",,0,0,true,true,true,false,0,,0,0,"master",1
"thibaultauvray/select",292,"User",,0,0,true,true,true,false,0,,0,0,"master",1
"rpmfusion/wolf3d-shareware",156,"Organization","http://rpmfusion.org",0,0,false,false,false,false,0,,0,0,"master",1
"JunYoungJJang/PEview",144,"User",,0,0,true,true,true,false,0,,0,0,"master",1
"pianonerd7/Savings_Account_Problem",116,"User",,0,0,true,true,true,false,0,,0,0,"master",1
"gabrielcarlos/PUCRS",126,"User",,0,0,true,true,true,false,1,,0,1,"master",1
"krasnovmv/cg_lab3",332,"User",,0,0,true,true,true,false,0,,0,0,"master",1
"GoCodingIcreated/cmc",216,"User",,0,0,true,true,true,false,0,,0,0,"master",1
"michaelkkli/balancebenchmark",200,"User","",0,0,true,true,true,false,0,,6,0,"master",1
"y0ja/ft_p",156,"User","",0,0,true,true,true,false,0,,0,0,"master",1
"jesseau/1921-15s2",144,"User",,0,0,true,true,true,false,0,,0,0,"master",1
"JonahStarling/eyeOS",6512,"User",,0,0,true,true,true,false,0,,0,0,"master",1
"dargaCode/stringCopy",156,"User","",0,0,true,true,true,false,0,,0,0,"master",1
"TecnoDV/android_device_alcatel_alto45",1468,"User",,0,0,true,true,true,false,0,,0,0,"CM-12.1",1
"Bernard12/Win32Proj",232,"User",,0,0,true,true,true,false,0,,0,0,"master",1
"dpiponi/MonoSynth",1724,"User",,0,0,true,true,true,false,0,,0,0,"master",1
"channprj/algorithm",136,"User",,0,0,true,true,true,false,0,,0,0,"master",1
"diegocastrocabrera231296/fundamentos_programacion_1a",0,"User",,0,0,true,true,true,false,0,,0,0,"master",1
