"mariolpantunes/workshop",140,"User",,0,0,true,true,true,false,0,,0,0,"master",1
"mkafai/word2vec",276,"User",,0,0,true,false,false,false,0,,35,0,"master",1
"AlexIbarra/p-s-d-1",876,"User",,0,0,true,true,true,false,0,,0,0,"master",1
"ajay3107/dpdk_framework",15872,"User",,0,0,true,true,true,false,0,,0,0,"master",1
"mantrastar/Programming-Challenges",108,"User",,0,0,true,true,true,false,0,,0,0,"master",1
"lgajewski/mownit",2996,"User",,0,0,true,true,true,false,0,,0,0,"master",1
"maniacalsounds/Project2",116,"User",,0,0,true,true,true,false,0,,0,0,"master",1
"pgimeno/lua-strbit",112,"User",,0,0,true,true,true,false,0,,0,0,"master",1
"cvonk/hp41-focal",3200,"User",,0,0,true,true,true,false,0,,0,0,"master",1
"sodajerk/headfirstc_gym",112,"User",,0,0,true,true,true,false,0,,0,0,"master",1
"matanb10/libmlx5",192,"User",,0,0,true,true,true,false,0,,0,0,"timestamp-v0",1
"robreardon/android_kernel_motorola_olympus",567508,"User",,0,0,true,true,true,false,0,,0,0,"hybris-10.1",1
"MidnightDrifter/GameEngineF",2376,"User",,0,0,true,true,true,false,0,,0,0,"master",1
"jgross1/xen",71400,"User",,0,0,true,true,true,false,0,,0,0,"staging",1
"FantasyFan123/Kinetisbootloader",5473,"User",,0,0,true,true,true,false,1,,0,1,"master",1
"paulito81/C-Innlevering2",416,"User",,0,0,true,true,true,false,0,,0,0,"master",1
"HGNogueira/aed-lab4",192,"User",,0,0,true,true,true,false,0,,0,0,"master",1
"rberkow/rapid-key-change",508,"User","",0,0,true,true,true,false,0,,0,0,"master",1
"hhismans/lem_in",1612,"User",,0,0,true,true,true,false,0,,0,0,"master",1
"rparelkar/ECEC622",140,"User",,0,0,true,true,true,false,0,,0,0,"master",1
"jamel/libbacktrace",428,"User",,0,0,true,true,true,false,0,,0,0,"master",1
"dscherbarth/eGolfDev",34704,"User",,0,0,true,true,true,false,0,,0,0,"master",1
"frap129/reactos",376704,"User","",0,0,true,true,true,false,0,,0,0,"master",1
"AvadaX/STM32-six-pulses-output",3616,"User",,0,0,true,true,true,false,0,,0,0,"master",1
"iLoveSona/GOSUtility",288,"User",,0,0,true,true,true,false,0,,0,0,"master",1
"kablaa/Challenges-for-CTF-Worksohp",128,"User",,0,0,true,true,true,false,0,,0,0,"master",1
"annielcook/lzw",232,"User",,0,0,true,true,true,false,0,,0,0,"master",1
"Sappharad/HopperSH4-Plugin",172,"User",,0,0,true,true,true,false,0,,0,0,"master",1
"NagaKanaparthy/University_Projects",188,"User",,0,0,true,true,true,false,0,,0,0,"master",1
"AdamsBenjamin/ResolveLab",164,"User",,0,0,true,true,true,false,0,,0,0,"master",1
"daniel-leibovic/LZW-in-C",43440,"User",,0,0,true,true,true,false,0,,0,0,"master",1
"d-bartlett/AFRL",140,"User",,0,0,true,true,true,false,0,,0,0,"master",1
"LuisF06/WindowLifter_LFLA",3484,"User",,0,0,true,true,true,false,0,,0,0,"master",1
"Arnaldvm/PokePinball",9440,"User",,0,0,true,true,true,false,0,,0,0,"master",1
"adeeshag/particle_project",4956,"User",,0,0,true,true,true,false,0,,0,0,"master",1
"sysinsider/IRClusisDemo",124,"User","",0,0,true,true,true,false,0,,0,0,"master",1
"Rupesh12/LinkListLogics",188,"User",,0,0,true,true,true,false,0,,0,0,"master",1
"PauloDuarte43/PIM-IV",168,"User",,0,0,true,true,true,false,0,,0,0,"master",1
"joanrieu/vcd-chainsaw",140,"User",,0,0,true,true,true,false,0,,0,0,"master",1
"lo27tc03/RadixSort",156,"Organization",,0,0,true,true,true,false,0,,0,0,"master",1
"al13n/ftp-over-udp",2212,"User",,0,0,true,true,true,false,0,,0,0,"master",1
"mspopgen/librawk",106,"User",,0,0,true,true,true,false,0,,0,0,"master",1
"kcortes95/TPArqui",7686,"User",,0,0,true,true,true,false,0,,0,0,"master",1
"esmelusina/sfw-AIE-Framework",2264,"User","",0,0,true,true,true,false,0,,0,0,"master",1
"PraveenSubramaniyam/CCS",184,"User",,0,0,true,true,true,false,0,,0,0,"master",1
"ArduinoHannover/HackBoy",188,"Organization",,0,0,true,true,true,false,0,,0,0,"master",1
"ImmortalBuka/uC",1372,"User","",0,0,true,true,true,false,0,,0,0,"master",1
"Pikipoo/Fight-For-Arcanium",1368,"User",,0,0,true,true,true,false,0,,0,0,"master",1
"jbrower95/clock",1320,"User",,0,0,true,true,true,false,0,,0,0,"master",1
"CELTAB/AVR-Lib",172,"Organization",,0,0,true,true,true,false,0,,0,0,"master",1
"maxymania/pentan-net",212,"User",,0,0,true,true,true,false,0,,1,0,"master",1
"jlogzz/juegoGC",27012,"User",,0,0,true,true,true,false,0,,0,0,"master",1
"john1117/WEATHER-BOARD",569,"User",,0,0,true,true,true,false,1,,0,1,"master",1
"justingapper/LearningC",108,"User",,0,0,true,true,true,false,0,,0,0,"master",1
"pkahlert/EPE-MES",17916,"User",,0,0,true,true,true,false,0,,0,0,"master",1
"stoodx/jspp",9420,"User",,0,0,true,true,true,false,0,,0,0,"master",1
"shain126/MyCPrograms",124,"User",,0,0,true,true,true,false,0,,0,0,"master",1
"reedjosh/MSD",240,"User",,0,0,true,true,true,false,0,,0,0,"master",1
"phfontess/BattleShip.c",168,"User",,0,0,true,true,true,false,0,,0,0,"master",1
"alafaye/labo07",124,"User",,0,0,true,true,true,false,0,,0,0,"master",1
"elehbans/RBSdesign_Ruby",21208,"User",,0,0,true,true,true,false,0,,0,0,"master",1
"PIMIV/sistema_venda_passagem",366,"Organization",,0,0,true,true,true,false,1,,0,1,"master",1
"AhmedIbrahimMohamed/GDB-Stub",13940,"User",,0,0,true,true,true,false,0,,0,0,"master",1
"Alonso07/sensors",464,"User","",0,0,true,true,true,false,0,,0,0,"master",1
"jkoncel/CS355-ZKP",160,"User",,0,0,true,true,true,false,0,,0,0,"master",1
"germanespinosa/kilobot_simulation_optimized",1340,"User",,0,0,true,true,true,false,0,,0,0,"master",1
"mateuszlizun/grafika",256,"User",,0,0,true,true,true,false,0,,0,0,"master",1
"andrey-perepelitsyn/stm32",604,"User",,0,0,true,true,true,false,0,,0,0,"master",1
"PlanAlpha/CielloEstrellado",480,"User",,0,0,true,true,true,false,0,,0,0,"master",1
"petercommand/compiler-playground",156,"User",,0,0,true,true,true,false,0,,0,0,"master",1
"sandeshghimire/xlnx-3.17",140888,"User",,0,0,true,true,true,false,0,,0,0,"master",1
"zengjfgit/android-serialport-api",276,"User",,0,0,true,false,false,false,0,,27,0,"master",1
"earaujoassis/gsl",3476,"User","http://www.gnu.org/software/gsl/",0,0,true,true,true,false,0,,0,0,"master",1
"RMcGhee/EmailParser",140,"User",,0,0,true,true,true,false,0,,0,0,"master",1
"AlanJ6/quake2sourcecode",348,"User",,0,0,true,true,true,false,0,,0,0,"master",1
"uberlaggydarwin/effacious-octo-duck",469764,"User",,0,0,true,true,true,false,0,,0,0,"master",1
"spmike/Block-Shooter",116,"User",,0,0,true,true,true,false,0,,0,0,"master",1
"conting/CCPP04",1116,"User",,0,0,true,true,true,false,0,,0,0,"master",1
"mine2015github/linux-3.14.0",136768,"User",,0,0,true,true,true,false,0,,0,0,"master",1
"TejasaVi/miscellaneous",108,"User",,0,0,true,true,true,false,0,,0,0,"master",1
"amarazemi/rxwen-blog-stuff",9196,"User",,0,0,true,false,false,false,0,,2,0,"master",1
"udgover/misc",140,"User",,0,0,true,true,true,false,0,,0,0,"master",1
"LeDinhTuyen/hwswcodesign",46120,"User",,0,0,true,false,false,false,0,,0,0,"master",1
"1312mukesh/kernel_module_programming",124,"User",,0,0,true,true,true,false,0,,0,0,"master",1
"elephantsuperjuan/mman-win32",144,"User",,0,0,true,false,false,false,0,,2,0,"master",1
"dchabot/ca_client_test",112,"User",,0,0,true,true,true,false,0,,0,0,"master",1
"issaev/homeworks",192,"User",,0,0,true,true,true,false,0,,0,0,"master",1
"lixueclaire/performance-test-using-PAPI",112,"User",,0,0,true,true,true,false,0,,0,0,"master",1
"ZhaoShuai0624/5_9",108,"User",,0,0,true,true,true,false,0,,0,0,"master",1
"ZhaoShuai0624/5_10",112,"User",,0,0,true,true,true,false,0,,0,0,"master",1
"hanketgithub/FullToEvenOdd",120,"User",,0,0,true,true,true,false,0,,0,0,"master",1
"dbremner/cupl",304,"User",,0,0,true,true,true,false,0,,0,0,"master",1
"ragebreakfast/md5",1044,"Organization","",0,0,true,true,true,false,0,,0,0,"master",1
"Jeremy-D-Miller/open-wiiflow-mod",115672,"User",,0,0,true,false,false,false,0,,84,0,"master",1
"eroach/mymemc",108,"User",,0,0,true,true,true,false,0,,0,0,"master",1
"speadup/canary",18528,"User",,0,0,true,true,true,false,0,,0,0,"master",1
"Grupo-Diana-Ortiz-Shirley-Castillo/OpenMP",168,"User",,0,0,true,true,true,false,0,,0,0,"master",1
"Jeremy-D-Miller/d2x-cios",640,"User",,0,0,true,false,false,false,0,,30,0,"master",1
"threadmaster/3DHeapArrays",144,"User",,0,0,true,true,true,false,0,,0,0,"master",1
"radi0activ3/droidsheep",3312,"User",,0,0,true,false,false,false,0,,11,0,"master",1
