"wankaiss/CTest",200,"User",,0,0,true,true,true,false,0,,0,0,"master",1
"Naowak/myWtm",140,"User",,0,0,true,true,true,false,0,,0,0,"master",1
"samphilipd/lcthw",224,"User",,0,0,true,true,true,false,0,,0,0,"master",1
"nospace1/nu_malloc",140,"User",,0,0,true,true,true,false,0,,0,0,"master",1
"sedihglow/sedhead",176,"User","",0,0,true,true,true,false,0,,0,0,"master",1
"dkmillares/libcfi",244,"User",,0,0,false,true,true,false,0,,0,0,"master",1
"jetman360/COMP-264",492,"User",,0,0,true,true,true,false,0,,0,0,"master",1
"sergescc/micro2",1692,"User",,0,0,true,true,true,false,0,,0,0,"master",1
"felixschelfhout/git_magic",136,"User",,0,0,true,true,true,false,0,,0,0,"master",1
"schnapi/lab-assignment-3",260,"User",,0,0,true,true,true,false,0,,0,0,"master",1
"simonprickett/clinkedlist",156,"User",,0,0,true,true,true,false,0,,0,0,"master",1
"q-life/pebble",3840,"User","",0,0,true,true,true,false,0,,5,0,"master",1
"ltlollo/spac",240,"User","",0,0,true,true,true,false,0,,0,0,"master",1
"marcielmj/esd-list",144,"User","",0,0,true,true,true,false,0,,0,0,"master",1
"utwente-fmt/pnml2pins",180,"Organization","",0,0,true,true,true,false,1,,0,1,"master",1
"Ahmed-Hady/android_kernel_nokia_normandy",130264,"User","",0,0,true,true,true,false,0,,0,0,"master",1
"ytx0574/CrashCode",292,"User",,0,0,true,true,true,false,0,,0,0,"master",1
"NingbinWang/aircraft",40988,"User",,0,0,true,true,true,false,0,,0,0,"master",1
"Ryang90/cs599advinfosec",212,"User",,0,0,true,true,true,false,0,,0,0,"master",1
"ShaoyuanLi/OpenGL-Programming-Guide-8th-test",184356,"User",,0,0,true,true,true,false,0,,0,0,"master",1
"burnt43/ncurses-test-space",188,"User",,0,0,true,true,true,false,0,,1,0,"master",1
"iliqnk/C",233,"User",,0,0,true,true,true,false,0,,0,0,"master",1
"ratokuzmanic/FESB.ProgrammingClass",1762,"User",,0,0,true,true,false,false,1,,0,1,"master",1
"bernardmeeberg/cs50",144,"User",,0,0,true,true,true,false,0,,0,0,"master",1
"ggubuk97/apue",352,"User",,0,0,true,true,true,false,2,,6,2,"master",1
"AOSP-JF-MM/platform_bionic",17996,"Organization",,0,0,true,true,true,false,0,,0,0,"aosp-6.0-test",1
"dvidsanchez/uja_ppt_P2_G_7",9884,"User",,0,0,true,true,true,false,0,,0,0,"master",1
"edelangh/edgeDetection",22996,"User",,0,0,true,true,true,false,0,,0,0,"master",1
"JFHwang/CSE167",40268,"User",,0,0,true,true,true,false,0,,0,0,"master",1
"dlucas25/OS",136,"User",,0,0,true,true,true,false,0,,0,0,"master",1
"diegotaraujo/Trabalho4LabSO-CrackPassword",168,"User",,0,0,true,true,true,false,0,,0,0,"master",1
"HanyuX/assignment02",3912,"User",,0,0,true,true,true,false,0,,0,0,"master",1
"zhongkunchen/coding_life",140,"User",,0,0,true,true,true,false,0,,0,0,"master",1
"shiaujib/genetic_algo",128,"User",,0,0,true,true,true,false,0,,0,0,"master",1
"hernad/docker-rt-n56u-firmware-nginx",7944,"User",,0,0,true,true,true,false,0,,0,0,"master",1
"khanfrd/Red-Kernel",753644,"User",,0,0,true,true,true,false,0,,0,0,"armani-kk-oss",1
"rodrigopv/tarea2-icc",204,"User",,0,0,true,true,true,false,0,,0,0,"master",1
"Maaarcocr/C_2",144,"User",,0,0,true,true,true,false,0,,0,0,"master",1
"swanyriver/algorithmsProject1",860,"User",,0,0,true,true,true,false,0,,0,0,"master",1
"tectronics/vikas-project",6460,"User",,0,0,true,false,false,false,0,,1,0,"master",1
"Metallium-ROM/android_external_libusb",556,"Organization",,0,0,true,true,true,false,0,,0,0,"temp",1
"dbremner/amv-codec-tools",18920,"User",,0,0,true,false,false,false,0,,11,0,"master",1
"Metallium-ROM/android_external_libusbx",2108,"Organization",,0,0,true,true,true,false,0,,0,0,"temp",1
"huhuikevin/uboot-imx",74432,"User",,0,0,true,true,true,false,0,,0,0,"master",1
"Stephen-McDaniel/rpostgresql",1040,"User","",0,0,true,false,false,false,0,,30,0,"master",1
"Metallium-ROM/android_external_sqlite",8364,"Organization",,0,0,true,true,true,false,0,,0,0,"temp",1
"qwml/AL",136,"User",,0,0,true,true,true,false,0,,0,0,"master",1
"dbremner/foma",1000,"User",,0,0,true,false,false,false,0,,50,0,"master",1
"Metallium-ROM/android_external_nano",1640,"Organization",,0,0,true,true,true,false,0,,0,0,"temp",1
"Metallium-ROM/android_external_ntfs-3g",1332,"Organization",,0,0,true,true,true,false,0,,0,0,"temp",1
"karlp/libsigrok",6744,"User",,0,0,true,true,true,false,0,,0,0,"tenma7730",1
"alahjouji/PG110",300,"User",,0,0,true,true,true,false,0,,0,0,"master",1
"Sanguinius/SoarCase",148,"User",,0,0,true,true,true,false,0,,0,0,"master",1
"IvanBodnar/TPDniStruct",108,"User",,0,0,true,true,true,false,0,,0,0,"master",1
"xdsb1989/CScience-in-multiple-areas",2448,"User",,0,0,true,true,true,false,0,,0,0,"master",1
"teto1992/Briscola",228,"User",,0,0,true,true,true,false,0,,0,0,"master",1
"mks65/dwsource",148,"Organization",,0,0,true,true,true,false,0,,0,0,"master",1
"abaty/Run2_trkVal",156,"User",,0,0,true,true,true,false,0,,0,0,"master",1
"kusanaginoturugi/bso",5024,"User","https://cloudpebble.net/ide/project/255584",0,0,true,true,true,false,0,,0,0,"master",1
"Ejikpyroman/NumMethods",152,"User","",0,0,true,true,true,false,0,,0,0,"master",1
"shygiants/Clone_Linux_3.0",122540,"User",,0,0,true,true,true,false,0,,0,0,"master",1
"hmc-cs-jsealand/lab5_jts",156,"User",,0,0,true,true,true,false,0,,0,0,"master",1
"vmonteco/libft",224,"User",,0,0,true,true,true,false,0,,0,0,"master",1
"isaacgaretmia/ECEC413HW1",972,"User",,0,0,true,true,true,false,0,,0,0,"master",1
"brchiu/phonebook",1204,"User",,0,0,true,true,true,false,0,,0,0,"master",1
"qnimate/NoteAPP",4099,"User",,0,0,true,true,true,false,2,,0,2,"master",1
"shma/movieChange",4732,"User",,0,0,true,true,true,false,0,,0,0,"master",1
"DimaYurashevich/LPLab07",112,"User",,0,0,true,true,true,false,0,,0,0,"master",1
"johnson37/test",1928,"User",,0,0,true,true,true,false,0,,0,0,"master",1
"DataBackups/Linux-Socket",112,"User",,0,0,true,true,true,false,0,,0,0,"master",1
"gkampjes/uc-fun-kit",128,"User",,0,0,true,true,true,false,0,,0,0,"master",1
"FlowBo/operator",4944,"User",,0,0,true,true,true,false,0,,0,0,"master",1
"w3nd1go/android_system_bt",7306,"User",,0,0,true,true,true,false,2,,0,2,"m-caf",1
"valancej/cs201",104,"User",,0,0,true,true,true,false,0,,0,0,"master",1
"fishbaoz/edk2ml",43120,"User",,0,0,true,true,true,false,0,,0,0,"master",1
"Firstyear/ds",22532,"User",,0,0,true,true,true,false,0,,0,0,"master",1
"Humdilla/Spiral",132,"User",,0,0,true,true,true,false,0,,0,0,"master",1
"KuanYuChen/mansos",6732,"User",,0,0,true,false,false,false,0,,6,0,"master",1
"abzfarah/assessed",144,"User",,0,0,true,true,true,false,0,,0,0,"master",1
"westporch/my_first_kernel_module",176,"User",,0,0,true,true,true,false,0,,0,0,"master",1
"ppma/Team-Win-Recovery-Project",5684,"User",,0,0,true,true,true,false,0,,0,0,"master",1
"Ashroyal/iphone-dataprotection.keychainviewer",196,"User",,0,0,true,false,false,false,0,,0,0,"master",1
"peteratebs/webcwebbrowser",274720,"User",,0,0,true,true,true,false,0,,0,0,"master",1
"xiaoguang198808/linux0.11",5904,"User",,0,0,true,true,true,false,0,,0,0,"master",1
"lipeng32768/android-serialport-api",280,"User",,0,0,true,false,false,false,0,,27,0,"master",1
"monofuel/PebbleHexChallenge",164,"User",,0,0,true,true,true,false,0,,0,0,"master",1
"lysine/wasp",46196,"User",,0,0,true,true,true,false,0,,0,0,"master",1
"lammobile/Test",120,"User",,0,0,true,true,true,false,0,,0,0,"master",1
"exanimusfan/j02",148,"User",,0,0,true,true,true,false,0,,0,0,"master",1
"Rendman/PCem",7676,"User",,0,0,true,true,true,false,0,,0,0,"master",1
"jonny91/SilentSwitch-iOS-ANE",8280,"User","",0,0,true,true,true,false,0,,0,0,"master",1
"suhasjains/u3d-VOF-SG",252,"User","",0,0,true,true,true,false,0,,0,0,"master",1
"rkoy/workspace",880,"User",,0,0,true,true,true,false,0,,0,0,"master",1
"soberowy/ArkanoidOOPProject",14044,"User",,0,0,true,true,true,false,0,,0,0,"master",1
"zuokaihuang/ccatn",164,"User",,0,0,true,true,true,false,0,,0,0,"master",1
"amassiro/MUCCA",160,"User",,0,0,true,true,true,false,0,,0,0,"master",1
"lpaci/Pisicne-Epitech",128,"User",,0,0,true,true,true,false,0,,0,0,"master",1
"araujotadeu/android-screenshot-library",568,"User",,0,0,true,false,false,false,0,,40,0,"master",1
"jecaille/package_hal_L0",2752,"User",,0,0,true,true,true,false,0,,0,0,"master",1
"maximebuy/eventlog-to-syslog",5628,"User",,0,0,true,false,false,false,0,,37,0,"master",1
