"aman-iitj/Process-Scheduler",135,"User",,0,0,true,true,true,false,1,,0,1,"master",1
"dougestey/vu-meter",160,"User","",0,0,true,true,true,false,0,,0,0,"master",1
"Egor2001/3D-Renderer",1468,"User","",0,0,true,true,true,false,0,,0,0,"master",1
"joao-lima/CoMD",704,"User",,0,0,true,true,true,false,0,,0,0,"master",1
"WingCuengRay/mykernel",156,"User",,0,0,true,true,true,false,0,,0,0,"master",1
"aueb-dmst/cs-intro",892,"Organization","https://www.sourcelair.com/blueprints/aueb-dmst/intro-cs",0,0,true,true,true,false,0,,0,0,"master",1
"protoben/netcode",196,"User",,0,0,true,true,true,false,0,,0,0,"master",1
"p0llux/ham-relay",288,"User",,0,0,true,true,true,false,0,,0,0,"master",1
"igrishaev/vsu-prp",152,"User",,0,0,true,true,true,false,0,,0,0,"master",1
"Scoudem/modsim",212,"User",,0,0,true,true,true,false,0,,0,0,"master",1
"burakdd/kernighan_ritchie_c_prog",196,"User",,0,0,true,true,true,false,0,,0,0,"master",1
"osense/erlang-nanomsg-examples",168,"User","",0,0,true,true,true,false,0,,0,0,"master",1
"jweihsz/video_system",3604,"User",,0,0,true,true,true,false,0,,0,0,"master",1
"KouKaw/OmniSoft",204,"User",,0,0,true,true,true,false,0,,0,0,"master",1
"simplecherry/ZOJ",200,"User",,0,0,true,true,true,false,0,,0,0,"master",1
"mareyoush/linux",108,"User",,0,0,true,true,true,false,0,,0,0,"master",1
"Jarvishappy/p2-1",10308,"User",,0,0,false,true,true,false,0,,0,0,"master",1
"hiddevuijk/brain",107312,"User",,0,0,true,true,true,false,0,,0,0,"master",1
"starg09/7541-rw-heap",205,"User",,0,0,true,true,true,false,1,,0,1,"master",1
"swahareddy/tictactoe",148,"User",,0,0,true,true,true,false,0,,0,0,"master",1
"michael-afanasiev/salvus2",400,"User",,0,0,true,true,true,false,0,,0,0,"master",1
"vzalberto/dns_client",256,"User",,0,0,true,true,true,false,0,,0,0,"master",1
"repolyo/turtle",212,"User",,0,0,true,true,true,false,0,,0,0,"master",1
"SilverJun/ACM",12640,"User","",0,0,true,true,true,false,0,,0,0,"master",1
"adamunger0/Altimeter",5052,"User",,0,0,true,true,true,false,0,,0,0,"master",1
"ouclight/programmer_of_system",108,"User",,0,0,true,true,true,false,0,,0,0,"master",1
"fnumono/CS111-minilab2",140,"User",,0,0,true,true,true,false,0,,0,0,"master",1
"Zy75/ardrone_hover_on_roundel",164,"User",,0,0,true,true,true,false,0,,0,0,"master",1
"fnumono/cs111-lab-1",120,"User",,0,0,true,true,true,false,0,,0,0,"master",1
"arter97/codeaurora",800268,"User",,0,0,true,true,true,false,1,,0,1,"LA.BR.1.3.2",1
"jedisty/wafsim",116,"User",,0,0,true,true,true,false,0,,0,0,"master",1
"subhra209/46k22_test_pin",428,"User",,0,0,true,true,true,false,0,,0,0,"master",1
"thisisgaara/BST",112,"User",,0,0,true,true,true,false,0,,0,0,"master",1
"OEM-GPL-Releases/belkin_f5d9230-4_v5000",141580,"Organization","",0,0,true,true,true,false,0,,0,0,"5.01.16",1
"rutayanp/pebbleGarageDoorOpener",136,"User",,0,0,true,true,true,false,0,,0,0,"master",1
"vm3vuy/my-local-repository",3732,"User",,0,0,true,true,true,false,0,,0,0,"master",1
"justinforce/shell",124,"User","",0,0,true,true,true,false,0,,0,0,"master",1
"palashmoon/bankmanagment",108,"User",,0,0,true,true,true,false,0,,0,0,"master",1
"vasi/minivmac",1068,"User",,0,0,true,true,true,false,0,,0,0,"bld",1
"vgardb/inf1060_oblig2",124,"User",,0,0,true,true,true,false,0,,0,0,"master",1
"nexylan/mod_httpbl",332,"Organization",,0,0,true,true,true,false,0,,0,0,"master",1
"midori1/AndroidSignUp-lib",16944,"User",,0,0,true,true,true,false,0,,0,0,"master",1
"shwetasb/hotel-project",112,"User","",0,0,true,true,true,false,0,,0,0,"master",1
"nachshonc/AutomaticOptimisticAccess",176,"User",,0,0,true,true,true,false,0,,0,0,"master",1
"clementval/omni-compiler",3620,"User",,0,0,true,true,true,false,0,,0,0,"master",1
"ultimate010/word2vec",272,"User",,0,0,true,false,false,false,0,,35,0,"master",1
"smalinj/stm32f4-discovery-freertos",932,"User",,0,0,true,false,false,false,0,,0,0,"master",1
"gauravbrahmankar17/ams",132,"User",,0,0,true,true,true,false,0,,0,0,"master",1
"BisquitBehemoth/C_projectt",1460,"User",,0,0,true,true,true,false,0,,0,0,"master",1
"hguduru/malloclab",112,"User",,0,0,true,true,true,false,0,,0,0,"master",1
"DMPRO-2015-convolution/raspberry_cam_to_gpio",108,"Organization","",0,0,true,true,true,false,0,,0,0,"master",1
"xy2012/ConsoleApplication1",11648,"User",,0,0,true,true,true,false,0,,0,0,"master",1
"SeanCappy/MyTestProject",148,"User",,0,0,true,true,true,false,0,,0,0,"master",1
"mchprmg/RMG_GitDemo",148,"User",,0,0,true,true,true,false,0,,0,0,"master",1
"Lorbel/LorenzoB",148,"User",,0,0,true,true,true,false,0,,0,0,"master",1
"alexbennett/ATxmega256A3BU-MemoryGame",1320,"User",,0,0,true,true,true,false,0,,0,0,"master",1
"c13075/test1054",152,"User",,0,0,true,true,true,false,0,,0,0,"master",1
"Vicmart1/c-craft",160,"User","",0,0,true,true,true,false,0,,0,0,"master",1
"cfj/sventon",128,"User",,0,0,true,true,true,false,0,,0,0,"master",1
"awatt196/nsdl",152,"User",,0,0,true,true,true,false,0,,0,0,"master",1
"yuxinvalo/algoDay1",136,"User",,0,0,true,true,true,false,0,,0,0,"master",1
"1nquisit0r/TA",152,"User",,0,0,true,true,true,false,0,,0,0,"master",1
"gaetanpueo/project_c_bsq",1428,"User",,0,0,true,true,true,false,0,,0,0,"master",1
"leoc0426/sodtube",189,"User",,0,0,true,true,true,false,2,,1,2,"master",1
"nicholaskim94/datastructure-algorithm_2015",144,"User",,0,0,true,true,true,false,0,,0,0,"master",1
"Mr-xBrain/SC500W",224,"User",,0,0,true,true,true,false,0,,0,0,"master",1
"Cuda-Chen/stepper-motor-test",1048,"User",,0,0,true,true,true,false,0,,0,0,"master",1
"macpod/twosteplib",160,"User","http://macpod.net/electronics/twostep/twostep.php",0,0,true,true,true,false,0,,0,0,"master",1
"macpod/lasersharklib",123,"User",,0,0,true,true,true,false,1,,0,1,"master",1
"mackron/easy_math",108,"User",,0,0,true,true,true,false,0,,0,0,"master",1
"LincolnBurrows/stc-source-code",108,"User",,0,0,true,true,true,false,0,,0,0,"master",1
"phantom0301/HS-100-ultrasonic-ranging",120,"User",,0,0,true,true,true,false,0,,0,0,"master",1
"abhiga/Memory-Allocator",256,"User",,0,0,true,true,true,false,0,,0,0,"master",1
"x565178035/mentohust",524,"User",,0,0,true,false,false,false,0,,103,0,"master",1
"manfredgithub/Openvas-Source",7584,"User",,0,0,true,true,true,false,0,,0,0,"master",1
"GozdeBoztepe/word2vec",272,"User",,0,0,true,false,false,false,0,,35,0,"master",1
"rongo89/word2vec",236,"User",,0,0,true,false,false,false,0,,6,0,"master",1
"MiniOS/android_system_extras",2224,"Organization","https://github.com/CyanogenMod/android_system_extras.git",0,0,true,true,true,false,0,,0,0,"cm-12.1",1
"MiniOS/android_bootable_recovery",10080,"Organization",,0,0,true,true,true,false,0,,0,0,"cm-12.1",1
"ruslanchasep/pic12f683motoresc",148,"User",,0,0,true,false,false,false,0,,0,0,"master",1
"OEM-GPL-Releases/belkin_f6d4230-4_v1000",167560,"Organization",,0,0,true,true,true,false,0,,0,0,"1.00.03",1
"MiniOS/bionic",18196,"Organization","https://github.com/CyanogenMod/android_bionic.git",0,0,true,true,true,false,0,,0,0,"cm-12.1",1
"Aravind-5/vudroid",31420,"User",,0,0,true,false,false,false,0,,107,0,"master",1
"DaniBecr84/droidsheep",3316,"User",,0,0,true,false,false,false,0,,11,0,"master",1
"yuzhangjob/redis-3.0-annotated-unstable",5136,"User",,0,0,true,true,true,false,0,,0,0,"unstable",1
"joel16/usbacc",112,"User",,0,0,true,true,true,false,0,,0,0,"master",1
"sanket8397/huffman",136,"User",,0,0,true,true,true,false,0,,0,0,"new",1
"ar-naseef/Mini-App",120,"User",,0,0,true,true,true,false,0,,0,0,"master",1
"D400150167/tugas_resistor",144,"User",,0,0,true,true,true,false,0,,0,0,"master",1
"Stillkam/ucore",536,"User",,0,0,true,true,true,false,0,,0,0,"master",1
"cheungnj/csse332",7712,"User",,0,0,true,true,true,false,0,,0,0,"master",1
"Lee-apollo/plotter",1212,"User",,0,0,true,true,true,false,0,,0,0,"master",1
"beerinderchhina/Ece-650-Asgmt2",164,"User",,0,0,true,true,true,false,0,,0,0,"master",1
"drsn0w/android_kernel_zte_msm7627",107648,"User",,0,0,true,true,true,false,0,,0,0,"2.6.35",1
"Jones-Schiavon/Montador",140,"User",,0,0,true,true,true,false,0,,0,0,"master",1
"AdrianBan/accel-pptpd",376,"User",,0,0,true,true,true,false,0,,0,0,"master",1
"almope1516daw2/mitja",124,"User",,0,0,true,true,true,false,0,,0,0,"master",1
"magrdi1516daw2/mitja",124,"User",,0,0,true,true,true,false,0,,0,0,"master",1
"jensg-st/gofy",344,"User",,0,0,true,false,false,false,0,,0,0,"master",1
"surround-io/gst-rtsp-server",1792,"Organization",,0,0,true,true,true,false,0,,0,0,"master",1
