"c9s/xarray",300,"User","",32,32,true,true,true,false,0,,13,0,"master",1
"openresty/stream-echo-nginx-module",344,"Organization","",31,31,true,true,true,false,2,,0,2,"master",1
"FIX94/wiiu-vc-inject",180,"User",,6,6,true,true,true,false,0,,0,0,"master",1
"ebrian/bmig",3306,"User","https://bmig.bri.io",6,6,true,true,true,false,1,,0,1,"master",1
"matrix-org/purple-matrix",423,"Organization",,5,5,true,true,true,false,0,,0,0,"master",1
"01org/Igvtg-kernel",893419,"Organization",,4,4,true,true,true,false,4,,3,4,"2015q3-3.18.0",1
"eggheads/eggdrop",11323,"Organization",,4,4,true,true,false,false,2,,56,2,"v1.8",1
"search-opt-crew/DISCOTANGO",828,"Organization",,3,3,true,true,true,false,0,,0,0,"master",1
"Nairolf21/awesome-TB",213,"User",,3,3,true,true,true,false,2,,1,2,"master",1
"deaware/STM32F0_Nucleo_W5100_MQTT",5288,"User",,2,2,true,true,true,false,1,,0,1,"master",1
"caioteixeira/RollerCoaster",14641,"User","",2,2,true,true,true,false,0,,0,0,"master",1
"ddrown/xt_SB6183",103,"User",,2,2,true,true,true,false,1,,0,1,"master",1
"wandenberg/nginx-sorted-querystring-module",101,"User",,2,2,true,true,true,false,1,,0,1,"master",1
"01org/Igvtg-qemu",54103,"Organization",,2,2,true,true,true,false,3,,0,3,"kvmgt_public2015q3",1
"MrRomanMaccaruni/total-variance-law",164,"User",,2,2,true,true,true,false,0,,0,0,"master",1
"nnamon/nightsoferised",207,"User",,2,2,true,true,true,false,1,,1,1,"master",1
"MinJunKweon/SIC-XE-Assembler",1683,"User",,2,2,true,true,true,false,0,,0,0,"master",1
"MrRomanMaccaruni/change_number_base",168,"User",,2,2,true,true,true,false,0,,0,0,"master",1
"Gigabyte-Giant/Gigas-Shell",124,"User","",1,1,true,true,true,false,0,,1,0,"master",1
"d33tah/afl-refactor",1024,"User","",1,1,true,true,true,false,0,,0,0,"master",1
"vbextreme/csnap",256,"User",,1,1,true,true,true,false,0,,0,0,"master",1
"citylife4/rcomlab1jac",164,"User",,1,1,true,true,true,false,2,,0,2,"master",1
"wiiiky/pyadb",1685,"User",,1,1,true,true,true,false,1,,0,1,"master",1
"mgordo/streamer",456,"User",,1,1,true,true,true,false,0,,0,0,"master",1
"liyd-sl2/hatankyo",2336,"User",,1,1,true,true,true,false,0,,0,0,"master",1
"mancoast/cado-nfs",124796,"User",,1,1,true,true,true,false,0,,0,0,"master",1
"gycg/car",512,"User","",1,1,true,true,true,false,0,,0,0,"master",1
"ljkania/shell",132,"User",,1,1,true,true,true,false,0,,0,0,"master",1
"flaupretre/pecl-pcs",364,"User",,1,1,true,true,false,false,0,,0,0,"master",1
"tobiajo/tj-shell",140,"User","",1,1,true,true,true,false,0,,0,0,"master",1
"xboxfanj/external_boringssl",3864,"User",,1,1,true,true,true,false,0,,0,0,"mm",1
"NMyren/PosterCapture-working-title-",47424,"User",,1,1,true,true,true,false,0,,0,0,"master",1
"win95/RTOS-STM32f407",3800,"User",,1,1,false,true,false,false,0,,0,0,"master",1
"scharlatan/potion",4140,"User","",1,1,true,true,true,false,0,,0,0,"master",1
"phillid/machine-learning",144,"User",,1,1,true,true,true,false,0,,4,0,"master",1
"CyanogenMod/android_device_motorola_surnia",0,"Organization",,1,1,true,true,true,false,1,,0,1,"cm-12.1",1
"gchavez2/ana3d",340,"User","",1,1,true,true,true,false,0,,0,0,"master",1
"gamondue/GOR-4H-16",22796,"User",,1,1,true,true,true,false,0,,0,0,"master",1
"FSMaxB/molch-buffer",228,"User",,1,1,true,true,true,false,0,,0,0,"master",1
"JavierArmenta/Control-Gallo",5668,"User",,0,0,true,true,true,false,0,,0,0,"master",1
"ma-compbio/FusionHunter",5000,"User",,0,0,true,true,true,false,0,,0,0,"master",1
"demhydraz/sk",156,"User",,0,0,true,true,true,false,0,,0,0,"master",1
"placiano/Emotion_miui",883012,"User",,0,0,true,true,true,false,0,,0,0,"master",1
"skylinek/aaa",144,"User",,0,0,true,true,true,false,0,,0,0,"master",1
"Marv94/H-Feld",532,"User",,0,0,true,true,true,false,0,,0,0,"master",1
"darshan1205/android_device_micromax_a092",144,"User",,0,0,true,true,true,false,0,,0,0,"master",1
"ganltc/ntirpc",3056,"User",,0,0,true,true,true,false,0,,0,0,"adp",1
"gkampjes/ENCE360-Assignment",50632,"User",,0,0,true,true,true,false,0,,0,0,"master",1
"burulangtu/android-serialport-api",276,"User",,0,0,true,false,false,false,0,,27,0,"master",1
"Dreams-Lp/platform_bionic",49328,"Organization",,0,0,true,true,true,false,0,,0,0,"lollipop-mr1-release",1
"Nick-Fury/Keil_Wp",3248,"User",,0,0,true,true,true,false,0,,0,0,"master",1
"czj2097/Driver",1620,"User",,0,0,true,true,true,false,0,,0,0,"master",1
"chengkaimingtry/learngit",67340,"User",,0,0,true,true,true,false,0,,0,0,"master",1
"xuanya4202/aliyun_oss",116,"User",,0,0,true,true,true,false,0,,0,0,"master",1
"ARX-8/word2vec",268,"User",,0,0,true,false,false,false,0,,35,0,"master",1
"asanc305/cop_lab1",104,"User",,0,0,true,true,true,false,0,,0,0,"master",1
"soul5965/Gateway-PNEWELS",2636,"User",,0,0,true,true,true,false,0,,0,0,"master",1
"netcharm/bkvoice",21012,"User",,0,0,true,false,false,false,0,,0,0,"master",1
"fabianrm/MyTest",104,"User",,0,0,true,true,true,false,0,,0,0,"master",1
"meigu/meigu",86568,"Organization",,0,0,true,true,true,false,0,,0,0,"master",1
"tianyusen/mini1",524,"User",,0,0,true,true,true,false,0,,0,0,"master",1
"gullz/miniz",516,"User",,0,0,true,false,false,false,0,,27,0,"master",1
"PeterBee97/matrix",140,"User","",0,0,true,true,true,false,0,,0,0,"master",1
"btill/zpid",108,"User",,0,0,true,true,true,false,0,,0,0,"master",1
"TLATER/Cyan-watchface",140,"User",,0,0,true,true,true,false,0,,0,0,"master",1
"tsbelanger/Alfredo",164,"User",,0,0,true,true,true,false,0,,0,0,"master",1
"romanborsov/CountThrees",13668,"User",,0,0,true,true,true,false,0,,0,0,"master",1
"ronaldosvieira/pong",13080,"User",,0,0,true,true,true,false,0,,0,0,"master",1
"WinneFans/TestJob",104,"User",,0,0,true,true,true,false,0,,0,0,"master",1
"alkutnikar/B-Trees",348,"User",,0,0,true,true,true,false,0,,0,0,"master",1
"salgado/prog1-2015-seg-sex",136,"User",,0,0,true,true,true,false,0,,0,0,"master",1
"HyperManTT/largestContiguousSum",104,"User",,0,0,true,true,true,false,0,,0,0,"master",1
"murasaki-uma/PlayKingyo_openFrameworks",18136,"User",,0,0,true,true,true,false,0,,0,0,"master",1
"chanfs/SQLSeverPasswordCracker",128,"User",,0,0,true,true,true,false,0,,0,0,"master",1
"suhasjains/u3D-NS-CG",120,"User","",0,0,true,true,true,false,0,,0,0,"master",1
"weprikjm/ENGINE2D",36912,"User",,0,0,true,true,true,false,0,,0,0,"master",1
"aniketkdm/OS-Aniket-Backup",26256,"User",,0,0,true,true,true,false,0,,0,0,"master",1
"p00tis/iLab.Markflow",156,"User",,0,0,true,true,true,false,0,,0,0,"master",1
"bort-four/Logic",220,"User",,0,0,true,true,true,false,0,,0,0,"master",1
"CyanogenMod/android_external_sony_boringssl-compat",138,"Organization",,0,0,true,true,true,false,9,,0,9,"cm-13.0",1
"SebastienBinet/Xcode_OpenGL_iOS_VR_with_Gyro",166824,"User","",0,0,true,true,true,false,0,,0,0,"master",1
"yunjoopark/programmingAssignment1",14464,"User",,0,0,true,true,true,false,0,,0,0,"master",1
"fariias/doubleimage",132,"User","",0,0,true,true,true,false,1,,0,1,"master",1
"Lesterpig/hurry-up-rennes",208,"User",,0,0,true,true,true,false,0,,3,0,"master",1
"ipromeh/android_system_extras",2652,"User",,0,0,true,true,true,false,0,,0,0,"M",1
"FrancoisLapl/AlgoC",164,"User",,0,0,true,true,true,false,0,,0,0,"master",1
"sibasishjena/codechef",1368,"User",,0,0,true,true,true,false,0,,0,0,"master",1
"qinjingfei/hello-world",136,"User",,0,0,true,true,true,false,0,,0,0,"master",1
"higgs313/EnergyFlow13TeV",448,"User",,0,0,true,true,true,false,0,,0,0,"master",1
"tcbrindle/GCollection",176,"User",,0,0,true,true,true,false,0,,0,0,"master",1
"takunoko/img_upload",2492,"User",,0,0,true,true,true,false,0,,0,0,"master",1
"haydenknowles/bandwidth",108,"User",,0,0,true,true,true,false,0,,0,0,"master",1
"John-zhy/Assignments",680,"User",,0,0,true,true,true,false,0,,0,0,"master",1
"hh123okbb/SaksPi",1500,"User",,0,0,true,true,true,false,0,,0,0,"master",1
"talalbutt/xplus-xsd2cpp",3248,"User",,0,0,true,false,false,false,0,,5,0,"master",1
"Scub3d/PBLT",380,"User",,0,0,true,true,true,false,0,,0,0,"master",1
"jrswanson91/LS",112,"User",,0,0,true,true,true,false,0,,0,0,"master",1
"jrswanson91/shhhh",112,"User",,0,0,true,true,true,false,0,,0,0,"master",1
"huangli414/test2",124,"User",,0,0,true,true,true,false,0,,0,0,"master",1
"jhector/sphinxfuzz",13255,"User",,0,0,true,true,true,false,1,,0,1,"master",1
