"nikintharan/PalFinder",170,"User",,0,0,true,true,true,false,1,,1,1,"master",1
"KolrowyAleksander/program-PO",188,"User",,0,0,true,true,true,false,0,,0,0,"master",1
"wingz7162/csc209-a2",152,"User",,0,0,true,true,true,false,0,,0,0,"master",1
"keertichaudhary/Data-Structures",128,"User",,0,0,true,true,true,false,0,,0,0,"master",1
"sbaberf/apv",64748,"User",,0,0,true,false,false,false,0,,116,0,"master",1
"pmix/releases",1720,"Organization",,0,0,true,true,true,false,0,,0,0,"v1.1",1
"MaxSchumacher/rpostgresql",1044,"User",,0,0,true,false,false,false,0,,30,0,"master",1
"AhmedIbrahimMohamed/GDB-Sub",13448,"User",,0,0,true,true,true,false,0,,0,0,"master",1
"ellis2323/tools",208,"User",,0,0,true,true,true,false,0,,0,0,"master",1
"Compulsion/linux-stable",1124004,"User",,0,0,true,true,true,false,0,,0,0,"tbs6281",1
"sergio1525/Fundamentos-de-programaci-n-1A",204,"User",,0,0,true,true,true,false,0,,0,0,"master",1
"Alwnikrotikz/tinypy",456,"User",,0,0,true,false,false,false,0,,27,0,"master",1
"xiezhaohai/helloworld",140,"User",,0,0,true,true,true,false,0,,0,0,"master",1
"frap129/mpa",220,"User","",0,0,true,true,true,false,0,,0,0,"master",1
"cosimone64/elevator",160,"User",,0,0,true,true,true,false,0,,0,0,"master",1
"liujun77/Pingpong-Client-Server-Web-Server",344,"User",,0,0,true,true,true,false,0,,0,0,"master",1
"joaomarcuslf/Data-Structure",140,"User",,0,0,true,true,true,false,0,,0,0,"master",1
"deercoder/vlfeat_android",8911,"User","http://deercoder.github.io/vlfeat_android/index.html",0,0,true,true,true,true,0,,0,0,"master",1
"abaffa/PlaylibExamples",26884,"User","http://www.inf.puc-rio.br/~playlib/",0,0,true,true,true,false,0,,0,0,"master",1
"rpmfusion/xsnow",168,"Organization","http://rpmfusion.org",0,0,false,false,false,false,0,,0,0,"master",1
"bluesrv/plagiamon",140,"User",,0,0,true,true,true,false,0,,0,0,"master",1
"raveit65/compiz-plugins-main",3748,"User","",0,0,true,true,true,false,0,,0,0,"master",1
"dargaCode/stringCompare",156,"User","",0,0,true,true,true,false,0,,0,0,"master",1
"thomashardwick/keyboards",8760,"User",,0,0,true,true,true,false,0,,0,0,"master",1
"anirban04/ip",160,"User",,0,0,true,true,true,false,0,,0,0,"master",1
"junnf/libev-study",140,"User",,0,0,true,true,true,false,0,,0,0,"master",1
"Grep-Juub/minishell",140,"User",,0,0,true,true,true,false,0,,0,0,"master",1
"r00g3r/dotfiles",123,"User",,0,0,true,true,true,false,0,,0,0,"master",1
"hardesc/Project2",136,"User",,0,0,true,true,true,false,0,,0,0,"master",1
"misterjrtaylor/pebble-watchface-missing-in-orbit",192,"User",,0,0,true,true,true,false,0,,0,0,"master",1
"raveit65/compiz-plugins-extra",5216,"User",,0,0,true,true,true,false,0,,0,0,"master",1
"MrH2S/coin_sort_mach",1380,"User",,0,0,true,true,true,false,0,,0,0,"master",1
"ExSickness/introC",248,"User",,0,0,true,true,true,false,0,,0,0,"master",1
"scottcarr/musl",4796,"User",,0,0,true,true,true,false,0,,0,0,"master",1
"nsaspook/z80memio",25824,"User",,0,0,true,true,true,false,0,,0,0,"master",1
"leetking/spider",168,"User",,0,0,true,true,true,false,0,,0,0,"master",1
"ccreimondo/os",164,"User",,0,0,true,true,true,false,0,,0,0,"master",1
"yuzhouliu/SYSC_4001",548,"User",,0,0,true,true,true,false,0,,0,0,"master",1
"mbarbieriteach/adtlib",335,"User",,0,0,true,true,true,false,7,,1,7,"master",1
"PabloRS89/GPU_distances",144,"User",,0,0,true,true,true,false,0,,0,0,"master",1
"phonyphonecall/sprite-os",160,"User",,0,0,true,true,true,false,0,,0,0,"master",1
"zzh730/Simple-RPC",172,"User",,0,0,true,true,true,false,0,,0,0,"master",1
"moonman/linux-fslc-sr",1011448,"User",,0,0,true,true,true,false,0,,0,0,"3.14-1.0.x-mx6-sr",1
"spyc/hkoi",131,"Organization",,0,0,true,true,false,false,1,,0,1,"master",1
"gunixr/sistemi_operativi_05CJCOA",2095,"User",,0,0,true,true,true,false,3,,0,3,"master",1
"iamsongyimiao/MwISO",360,"User","",0,0,true,true,true,false,0,,0,0,"master",1
"vanous/trainer",188,"User","",0,0,true,true,true,false,0,,0,0,"master",1
"Gurnk42/Libft",176,"User",,0,0,true,true,true,false,0,,0,0,"master",1
"NlkOp0L/Panda2D",15956,"User","",0,0,true,true,true,false,0,,0,0,"master",1
"iceaway/watering",164,"User",,0,0,true,true,true,false,0,,0,0,"master",1
"Albarita/FUP1C",132,"User",,0,0,true,true,true,false,0,,0,0,"master",1
"kaliatech/knockedup-webserver",252,"User",,0,0,true,true,true,false,0,,0,0,"master",1
"Yatsuku/JiGakusyu",204,"User",,0,0,true,true,true,false,0,,0,0,"master",1
"sirenChen/ENEL487",264,"User",,0,0,true,true,true,false,0,,0,0,"master",1
"manito17711/C-Programming",212,"User",,0,0,true,true,true,false,0,,0,0,"master",1
"Oyorzaba/Fun_Programacion1A",144,"User",,0,0,true,true,true,false,0,,0,0,"master",1
"LuisCapi/Fundamentos-de-Programacion-1-A",184,"User",,0,0,true,true,true,false,0,,0,0,"master",1
"suhasjains/poisson",320,"User",,0,0,true,true,true,false,0,,0,0,"master",1
"jkwill87/riot",612,"User","",0,0,false,true,true,false,0,,0,0,"master",1
"mbarbieriteach/learning",272,"User",,0,0,true,true,true,false,6,,1,6,"master",1
"Murii/Bonding",3040,"User","",0,0,true,true,true,false,0,,0,0,"master",1
"Kreyl/BmstuCrystal",1216,"User",,0,0,true,true,true,false,0,,0,0,"master",1
"Nobe1976Source/android_vendor_qcom_opensource_location",608,"Organization",,0,0,true,true,true,false,0,,0,0,"m-caf",1
"Brachi/gimp-dds",1892,"User",,0,0,true,false,false,false,0,,19,0,"master",1
"ErnWong/demo-libtap",148,"User",,0,0,true,true,true,false,0,,0,0,"master",1
"rcvlr/dtn_tradeoff_sim",420,"User","",0,0,true,true,true,false,0,,0,0,"master",1
"yangshun2532/FSsim",128,"User",,0,0,true,true,true,false,0,,0,0,"master",1
"muks/bind9",79340,"User",,0,0,false,true,false,false,0,,0,0,"dns-message-checksums",1
"n2liquid/xx",156,"User","",0,0,true,true,true,false,0,,7,0,"master",1
"tukusejssirs/eSpievatko",4234612,"User",,0,0,true,true,true,false,0,,0,0,"master",1
"SDooman/polyphonic_tuner",128,"User",,0,0,true,true,true,false,0,,0,0,"master",1
"youngtze/SCM",208,"User","",0,0,true,true,true,false,0,,0,0,"master",1
"OS-Project/tests",144,"Organization",,0,0,true,true,true,false,0,,0,0,"master",1
"huang-qiao/carmen",6488,"User","",0,0,true,true,true,false,0,,0,0,"master",1
"michal037/emaes",172,"User",,0,0,true,true,true,false,0,,0,0,"master",1
"uw-midsun/ms-lib",160,"Organization",,0,0,true,true,true,false,0,,0,0,"master",1
"nerfius/ninja",128,"User",,0,0,true,true,true,false,0,,0,0,"master",1
"foochuanwei/learn-c",112,"User","",0,0,true,true,true,false,0,,0,0,"master",1
"wingz7162/csc209-a4",164,"User",,0,0,true,true,true,false,0,,0,0,"master",1
"kevinselwyn/empire-state",144,"User",,0,0,true,true,true,false,0,,0,0,"master",1
"Networking3300Team/StateMachine",500,"Organization",,0,0,true,true,true,false,0,,0,0,"master",1
"HascoetKevin/Ash_C",136,"User",,0,0,true,true,true,false,0,,0,0,"master",1
"johanhenriksson/fat-filesystem",140,"User","",0,0,true,true,true,false,0,,0,0,"master",1
"kylesezhi/worksheet24",112,"User",,0,0,true,true,true,false,0,,0,0,"master",1
"aaronmdjones/charybdis-mordor",7496,"User",,0,0,true,true,true,false,0,,0,0,"master",1
"Hamdiovish/android-fplayer",364,"User",,0,0,true,false,false,false,0,,1,0,"master",1
"Hamdiovish/dolphin-player",303164,"User",,0,0,true,false,false,false,0,,35,0,"master",1
"chaidy/android-screenshot-library",564,"User",,0,0,true,false,false,false,0,,40,0,"master",1
"dhanyweb/pr-modbus-2011",1068,"User",,0,0,true,false,false,false,0,,0,0,"master",1
"AwesomeIcon/DataStructure",132,"User",,0,0,true,true,true,false,0,,0,0,"master",1
"lki1354/tiva_C_lib",216,"User",,0,0,true,true,true,false,0,,0,0,"master",1
"jensvdh/Favus-projects",118,"User",,0,0,true,true,true,false,0,,0,0,"master",1
"kasha13/libdoc",176,"User",,0,0,true,true,true,false,0,,0,0,"master",1
"JunKojima/pointer",140,"User",,0,0,true,true,true,false,0,,0,0,"master",1
"mattiabar/Test",229,"User",,0,0,true,true,true,false,1,,1,1,"master",1
"D400150154/Tugas-Resistorr",184,"User",,0,0,true,true,true,false,0,,0,0,"master",1
"chenxianqin/vaapi-libva",3592,"User",,0,0,true,true,true,false,0,,0,0,"master",1
"acalcagni/openaes",212,"User",,0,0,true,false,false,false,0,,0,0,"master",1
"nevenaf/parfor_in_c",184,"User",,0,0,true,true,true,false,0,,0,0,"master",1
"DivyanshChauhan/Tutorial",128,"User",,0,0,true,true,true,false,0,,0,0,"master",1
