"bmschmidt/wordVectors",226,"User",,22,22,true,true,true,false,4,,2,4,"master",1
"anuragpeshne/vKeyboard",122,"User","",7,7,true,true,true,false,1,,0,1,"master",1
"ParRes/ISx",461,"Organization","",4,4,true,true,true,false,1,,2,1,"master",1
"filfat-Studios-AB/3ds.js",1076,"Organization","",4,4,true,true,true,false,0,,1,0,"master",1
"mrcdk/linc_libvpx",2484,"User",,3,3,true,true,true,false,0,,0,0,"master",1
"masterfeizz/ctrQuake",765,"User",,3,3,true,true,true,false,3,,1,3,"master",1
"hallor/u-boot",80536,"User",,3,3,true,true,true,false,0,,3,0,"dragonboard",1
"xSmurf/coreboot_buildroot_project",2228,"User","",2,2,true,true,true,false,0,,4,0,"master",1
"stpx/xpkgfile",144,"User","",2,2,true,true,true,false,0,,0,0,"master",1
"seojangho/clee",200,"User",,2,2,true,true,true,false,1,,0,1,"master",1
"angt/glorytun",345,"User","",2,2,true,true,true,false,1,,0,1,"master",1
"chonny24/horse-racing",136,"User",,2,2,true,true,true,false,0,,2,0,"master",1
"rosmo/mydumper-anon",1268,"User",,2,2,true,true,true,false,1,,0,1,"master",1
"derickr/php-minimal-opcode-overloading-example",124,"User",,2,2,true,true,true,false,0,,0,0,"master",1
"Willjfield/daily",4428,"User",,1,1,true,true,true,false,0,,0,0,"master",1
"peterhurford/learn-c-hard-way-notes",108,"User",,1,1,true,true,true,false,0,,0,0,"master",1
"xpacks/stm32f4-cmsis",1564,"Organization","",1,1,true,true,false,false,0,,0,0,"master",1
"supermansi/SPOJ",144,"User",,1,1,true,true,true,false,0,,0,0,"master",1
"avantcredit/ghc-in-rust",229,"Organization",,1,1,true,true,true,false,1,,0,1,"master",1
"JefersonFG/Breakout",154,"User",,1,1,true,true,true,false,1,,0,1,"master",1
"istopwg/ippeveselfcert",3416,"Organization","http://www.pwg.org/ipp/everywhere.html",1,1,true,true,true,false,0,,0,0,"master",1
"istopwg/ippregistry",180,"Organization",,1,1,true,true,true,false,0,,0,0,"master",1
"Netflix/dial-reference",212,"Organization",,1,1,true,true,false,false,0,,0,0,"master",1
"vdruta/academy-plus",1956,"User",,1,1,true,true,true,false,0,,0,0,"master",1
"vovoid/vsxu-dependencies",28104,"Organization",,1,1,true,true,true,false,0,,0,0,"master",1
"davidhuwyler/UniversellerSensorknoten_OpenHAB",272,"User",,1,1,true,true,true,false,0,,0,0,"master",1
"stefanbranetu/android_kernel_samsung_coreprimelte",138956,"User","",1,1,true,true,true,false,0,,0,0,"cm-12.1",1
"b020209/DS-project",148,"User",,1,1,true,true,true,false,0,,0,0,"master",1
"huangzonghao/rootkit",172,"User",,1,1,true,true,true,false,0,,0,0,"master",1
"m1nuz/opengl-examples",3830,"User",,1,1,true,true,true,false,1,,0,1,"master",1
"bitdivine/miniblooms",0,"User",,1,1,true,true,true,false,0,,0,0,"master",1
"marceloboeira/miller-urey",164,"User",,1,1,true,true,true,false,0,,0,0,"master",1
"stefanbranetu/android_platform_samsung_coreprimelte",18428,"User",,1,1,true,true,true,false,0,,0,0,"master",1
"lucaboieru/academyplus",180,"User",,1,1,true,true,true,false,0,,0,0,"master",1
"DoraXingyu/JosLab_2015",348,"User",,1,1,true,true,true,false,0,,0,0,"master",1
"tzelleke/ikv",136,"User",,1,1,true,true,true,false,0,,0,0,"master",1
"Ripagood/SmartSit",740,"User",,1,1,true,true,true,false,0,,0,0,"master",1
"rockchip-linux/kernel",1155152,"Organization",,1,1,true,true,true,false,0,,0,0,"master",1
"lovasko/libcsv",152,"User",,1,1,true,true,true,false,0,,0,0,"master",1
"issacchern/JWI",984,"User",,1,1,true,true,true,false,0,,0,0,"master",1
"issathink/ILP-UPMC",3444,"User",,1,1,true,true,true,false,0,,0,0,"master",1
"RobotsByTheC/VexBuild",7253,"Organization","",1,1,true,true,true,false,1,,0,1,"master",1
"zihan0721/device_zte_nx511j",31612,"User",,1,1,true,true,true,false,4,,0,4,"CM12.1",1
"mor14012/InvestigacionRobot",168,"User",,0,0,true,true,true,false,0,,0,0,"master",1
"bye2003/STM32_GridSeed",544,"User",,0,0,true,true,true,false,0,,0,0,"master",1
"kunfoo/permutation_cipher",156,"User",,0,0,true,true,true,false,0,,0,0,"master",1
"ss91/hw3-demo",112,"User",,0,0,true,true,true,false,0,,0,0,"master",1
"kid551/Rand_Data",108,"User",,0,0,true,true,true,false,0,,0,0,"master",1
"AndrewOrr/dnsNameResolution",156,"User",,0,0,true,true,true,false,0,,0,0,"master",1
"lumblu01lc/rmpunc165",108,"User",,0,0,true,true,true,false,0,,0,0,"master",1
"Dem0n3D/qxhtml-edit",716,"User",,0,0,true,false,false,false,0,,1,0,"master",1
"Hybridmax/Hybridmax_Kernel_S4_Linux_Updates",134200,"User",,0,0,true,true,true,false,0,,0,0,"master",1
"Hybridmax/Hybridmax_Kernel_S4_Old",123464,"User",,0,0,true,true,true,false,0,,0,0,"master",1
"dillonmabry/Justification-Of-Test",144,"User",,0,0,true,true,true,false,0,,0,0,"master",1
"MaskRay/userspace-exec",124,"User",,0,0,true,true,true,false,0,,0,0,"master",1
"cmjonze/check",1628,"User",,0,0,true,true,true,false,0,,0,0,"master",1
"matthewignal/hw04",140,"User",,0,0,true,true,true,false,0,,0,0,"master",1
"YF-GoogleCodeBackups/emule-mods-chinese-translation",2664,"User",,0,0,true,false,false,false,0,,0,0,"master",1
"luanmaquino/Insertion-Sort",112,"User",,0,0,true,true,true,false,0,,0,0,"master",1
"michalgorecki/android-serialport-api",276,"User",,0,0,true,false,false,false,0,,27,0,"master",1
"m-r-p/spinner",136,"User",,0,0,true,true,true,false,0,,0,0,"master",1
"Nayruuu/Unix",232,"User",,0,0,true,true,true,false,0,,0,0,"master",1
"xrecord/pocker-2",188784,"User",,0,0,true,true,true,false,0,,0,0,"master",1
"jtremolo/STM32F7Discovery",1264,"User",,0,0,true,true,true,false,0,,0,0,"master",1
"rmoshiur705/CProgramCode",364,"User",,0,0,true,true,true,false,0,,0,0,"master",1
"kayhead996/Professional",172,"User",,0,0,true,true,true,false,0,,0,0,"master",1
"gojimmypi/ComponentTester",212,"User",,0,0,true,true,true,false,0,,0,0,"master",1
"SebilleNicolas/carre_magique",128,"User",,0,0,true,true,true,false,0,,0,0,"master",1
"kylesezhi/worksheet23",98,"User",,0,0,true,true,true,false,0,,0,0,"master",1
"caiocutrim/cs50Resources",152,"User",,0,0,true,true,true,false,0,,0,0,"master",1
"YoYoYonnY/Processing",140,"User",,0,0,true,true,true,false,0,,0,0,"master",1
"20Mhz/avr_examples",1260,"User",,0,0,true,true,true,false,0,,0,0,"master",1
"luizagatti/urionlinejudge",136,"User",,0,0,true,true,true,false,0,,0,0,"master",1
"Apexbiped/Mytest",108,"User",,0,0,true,true,true,false,0,,0,0,"master",1
"S3MB0L/uart_rtos",5424,"User",,0,0,true,true,true,false,0,,0,0,"master",1
"slimizi/projet",180,"User",,0,0,true,true,true,false,0,,0,0,"master",1
"ShadowFiend14MS/oschina_c",124,"User",,0,0,true,true,true,false,0,,0,0,"master",1
"shadowalkercs/git-test-sandbox",144,"User",,0,0,true,true,true,false,0,,0,0,"master",1
"tuoyuxiang/mcreader-indep",27160,"User",,0,0,true,false,false,false,0,,0,0,"master",1
"InnoMerk/remote",1060,"User",,0,0,true,true,true,false,0,,0,0,"master",1
"RemmyLee/dolphin-player",303132,"User",,0,0,true,false,false,false,0,,35,0,"master",1
"GithubOfAiwen/hello",11764,"User",,0,0,true,true,true,false,0,,0,0,"master",1
"702nADOS/foc-full",64892,"Organization","",0,0,true,true,true,false,0,,0,0,"master",1
"HPDCS/schedule-hook",328,"Organization",,0,0,true,true,true,false,0,,0,0,"master",1
"holmem01/changecase",140,"User",,0,0,true,true,true,false,0,,0,0,"master",1
"gardhi01/rmpunc",128,"User",,0,0,true,true,true,false,0,,0,0,"master",1
"pizhi/HttpServer",152,"User",,0,0,true,true,true,false,0,,0,0,"master",1
"lynchu01/lynchu01lc",140,"User",,0,0,true,true,true,false,0,,0,0,"master",1
"MatheusPinheiroLaSalle/ExerciciosEmC",168,"User",,0,0,true,true,true,false,0,,0,0,"master",1
"ctzivana/sandbox-repo",140,"User",,0,0,true,true,true,false,0,,0,0,"master",1
"ytinirt/android-nginx",1096,"User",,0,0,true,true,true,false,1,,0,1,"master",1
"POLLOCHAMBE/FUP1B",108,"User",,0,0,true,true,true,false,0,,0,0,"master",1
"openbmc/btbridge",179,"Organization",,0,0,true,true,true,false,3,,0,3,"master",1
"scubajeff/android_kernel_samsung_klimtlte",126720,"User",,0,0,true,true,true,false,0,,0,0,"cm-12.1",1
"stephenjsweeney/tbftss",37136,"User",,0,0,true,true,true,false,0,,0,0,"master",1
"ruxera/qemu",88592,"User",,0,0,true,true,true,false,0,,0,0,"master",1
"XiaotingBi/Roller-Coaster-Simulation",50332,"User","",0,0,true,true,true,false,0,,0,0,"master",1
"lugon/little-regex-lib",136,"User",,0,0,true,true,true,false,0,,0,0,"master",1
"msesmart/Diffuse_Interface_method",180,"User",,0,0,true,true,true,false,0,,0,0,"master",1
"wtmmac/urldecode_cli",108,"User",,0,0,true,true,true,false,0,,0,0,"master",1
