"ISIZUE/OS-Ishida",2880,"Organization",,0,0,true,true,true,false,0,,0,0,"master",1
"mbinns/Ass2",176,"User",,0,0,true,true,true,false,0,,1,0,"master",1
"madvillainy/Introduction-to-algorithms",152,"User","",0,0,true,true,true,false,0,,0,0,"master",1
"dharo/Motors",904,"User",,0,0,true,true,true,false,0,,0,0,"master",1
"Razish/cJSON",120,"User",,0,0,true,true,true,false,0,,0,0,"master",1
"siddharthmurali/CompArch",136,"User",,0,0,true,true,true,false,0,,0,0,"master",1
"julianlatasa/tp-2015-1c-juleluva",448,"User",,0,0,true,true,true,false,0,,0,0,"master",1
"Ezbob/C_hashmap",144,"User",,0,0,true,true,true,false,0,,0,0,"master",1
"geetikas34/CSC467",208,"User",,0,0,true,true,true,false,0,,0,0,"master",1
"gogqou/RCCar",156,"User",,0,0,true,true,true,false,0,,0,0,"master",1
"tengteng/word2vec",272,"User",,0,0,true,false,false,false,0,,35,0,"master",1
"jtdavids/OpSysA1",192,"User",,0,0,true,true,true,false,0,,0,0,"master",1
"swisspol/TestNDK",2596,"User","",0,0,false,true,false,false,0,,0,0,"master",1
"TheToxicRyu/wiiflow",26720,"User",,0,0,true,false,false,false,0,,54,0,"master",1
"sbksba/NMV-5I453",84952,"User",,0,0,true,true,true,false,0,,0,0,"master",1
"luapower/libsodium",1608,"Organization","http://luapower.com/libsodium",0,0,true,true,true,false,0,,0,0,"master",1
"theblackcat102/homework_1",560,"User",,0,0,true,true,true,false,0,,0,0,"master",1
"pcostesi/tp2-so-2015b",632,"User",,0,0,true,true,true,false,0,,1,0,"master",1
"Cheburashek/COdetector_fw",756,"User",,0,0,true,true,true,false,0,,0,0,"master",1
"rixtox/hhkb_teensy",408,"User","",0,0,true,true,true,false,0,,0,0,"master",1
"QMonkey/OOC-Design-Pattern",257,"User",,0,0,true,true,true,false,1,,0,1,"master",1
"TTimTT/MSP_Oscillo",228,"User",,0,0,true,true,true,false,0,,0,0,"master",1
"aeomijie/CSE430_OS",168,"User",,0,0,true,true,true,false,0,,0,0,"master",1
"theDub/Unix-Programming",228,"User",,0,0,true,true,true,false,0,,0,0,"master",1
"jiminkk/CS111_LAB1",1612,"User",,0,0,true,true,true,false,0,,0,0,"master",1
"martynets/execpty",164,"User","",0,0,true,true,true,false,0,,0,0,"master",1
"sudotong/class1630",107384,"User",,0,0,true,true,true,false,0,,0,0,"master",1
"2077762b/AdvancedProgramming",0,"User",,0,0,true,true,true,false,0,,0,0,"master",1
"IbragimK/intel_repo",156,"User",,0,0,true,true,true,false,0,,0,0,"master",1
"MinhxLe/cs111_lab1",3428,"User",,0,0,true,true,true,false,0,,0,0,"master",1
"ShruthD/project",184,"User",,0,0,true,true,true,false,0,,0,0,"master",1
"ganyo971/Karukera_reseau",373,"User",,0,0,true,true,true,false,1,,0,1,"master",1
"yogeshpandey009/MPL",200,"User",,0,0,true,true,true,false,0,,0,0,"master",1
"darrenldl/simple_safedata",236,"User",,0,0,true,true,true,false,0,,0,0,"master",1
"ISIZUE/OS_Nanaya",668,"Organization",,0,0,true,true,true,false,0,,0,0,"master",1
"tectronics/winmercury",13008,"User",,0,0,true,false,false,false,0,,0,0,"master",1
"supermoe/PDS_TP3",136,"User",,0,0,true,true,true,false,0,,0,0,"master",1
"VIJESHG/project",264,"User","",0,0,true,true,true,false,0,,0,0,"master",1
"MauPlay/libmme",168,"User",,0,0,true,false,false,false,0,,0,0,"master",1
"alamar/grindbucket",164,"User",,0,0,true,true,true,false,0,,0,0,"master",1
"ym65536/network",176,"User","",0,0,true,true,true,false,0,,0,0,"master",1
"chooie/computer-graphics-cs4052",4188,"User",,0,0,true,true,true,false,0,,0,0,"master",1
"ISIZUE/OS-renren",3168,"Organization",,0,0,true,true,true,false,0,,0,0,"master",1
"ISIZUE/OS-ysksyk1130",2864,"Organization",,0,0,true,true,true,false,0,,0,0,"master",1
"wallypark710/network_programming",120,"User",,0,0,true,true,true,false,0,,0,0,"master",1
"bingdo/Loopback_BSD_LPC11E36_LPCXpresso",3104,"User",,0,0,true,true,true,false,0,,0,0,"master",1
"sla16/CS3516_prog3",176,"User",,0,0,true,true,true,false,0,,0,0,"master",1
"dimonomid/test_ceedling_example",912,"User",,0,0,true,true,true,false,0,,0,0,"master",1
"GarryBullock/CMPUT201",1888,"User",,0,0,true,true,true,false,0,,0,0,"master",1
"GarryBullock/CMPUT379",128,"User",,0,0,true,true,true,false,0,,0,0,"master",1
"LinuxmanUFRN/ITP",218,"User",,0,0,true,true,true,false,1,,2,1,"master",1
"flschiavoni/medusa-puredata",160,"User","",0,0,true,true,true,false,1,,0,1,"master",1
"sammhlanga1/hw3",116,"User",,0,0,true,true,true,false,0,,0,0,"master",1
"NevilleDNZ/algol68toc",2068,"User","",0,0,true,true,true,false,0,,1,0,"master",1
"bashrc/bees",132,"User",,0,0,true,true,true,false,1,,0,1,"master",1
"woyaofacai/asst2_meshedit_win",17372,"User",,0,0,true,true,true,false,0,,0,0,"master",1
"txomon/libubox",436,"User",,0,0,true,true,true,false,0,,0,0,"master",1
"drapid/winnut",25980,"User",,0,0,true,false,false,false,0,,10,0,"master",1
"lsuarezzapata5/SO-Lab1",5748,"User",,0,0,true,true,true,false,0,,0,0,"master",1
"bingbingwei/test",140,"User",,0,0,true,true,true,false,0,,0,0,"master",1
"NikolaNikolicRTRK/BarbieGirl",432,"User",,0,0,true,true,true,false,0,,0,0,"master",1
"carlmart/dd-demo",124,"User","",0,0,true,true,true,false,0,,0,0,"master",1
"CassioElias/Estrutura-De-Dados--C---Console",1508,"User",,0,0,true,true,true,false,0,,0,0,"master",1
"SwimGlass/arm-lecture",180,"User",,0,0,true,true,true,false,0,,0,0,"master",1
"reliveyy/drcom4mac",256,"User",,0,0,true,false,false,false,0,,0,0,"master",1
"AleixBV/Dev_class5_handout",3316,"User",,0,0,true,true,true,false,0,,0,0,"master",1
"ShyamKunda/DoubleLinkedList",168,"User",,0,0,true,true,true,false,0,,0,0,"master",1
"vuonghv/ldd3",208,"User",,0,0,true,true,true,false,0,,0,0,"master",1
"CHANGLI0914/DataStructure-Algorithms",124,"User",,0,0,true,true,true,false,0,,0,0,"master",1
"Edewin/CRC_ModBus",140,"User",,0,0,true,true,true,false,0,,0,0,"master",1
"elementzonline/Atmega_Samplecodes",184,"User",,0,0,true,true,true,false,0,,0,0,"master",1
"JeasineMa/STM32F3_Model",32392,"User",,0,0,true,true,true,false,0,,0,0,"master",1
"weskerhluffy/gnomos_pendejos",128,"User",,0,0,true,true,true,false,0,,0,0,"master",1
"belrogue/brogue-copy",5060,"User",,0,0,true,true,true,false,0,,0,0,"master",1
"lbarr33/MPI-Reduce-Broadcast",120,"User",,0,0,true,true,true,false,0,,0,0,"master",1
"andy2005cst/unixPlayGround",284,"User",,0,0,true,true,true,false,0,,0,0,"master",1
"ariabonczek/NewLumina",19564,"User",,0,0,true,true,true,false,0,,0,0,"master",1
"dannykennedy/quadbush",120,"User",,0,0,true,true,true,false,0,,0,0,"master",1
"krishna-cse/reaver-wps",1008,"User",,0,0,true,false,false,false,0,,12,0,"master",1
"mattruston/proj1",804,"User",,0,0,true,true,true,false,0,,0,0,"master",1
"kivikakk/daintree",1932,"User",,0,0,true,true,true,false,0,,0,0,"master",1
"jacquesberger/exemplesINF3172",140,"User",,0,0,true,true,true,false,0,,0,0,"master",1
"demarco40/SegregationProject",124,"User",,0,0,true,true,true,false,0,,0,0,"master",1
"422017016/zb_px",1480,"User",,0,0,true,true,true,false,0,,0,0,"master",1
"sergemonnerat/MicroC",1548,"User",,0,0,true,true,true,false,0,,0,0,"master",1
"mwgoldsmith/glext",232,"User",,0,0,true,true,true,false,0,,0,0,"master",1
"renesas-rcar/vspmif_lib",160,"Organization","",0,0,true,true,true,false,0,,0,0,"rcar_gen3",1
"linux-learn/proc-example-module",152,"Organization",,0,0,false,true,false,false,0,,0,0,"master",1
"DaveSprague/PebbleTutorialWithComments",180,"User",,0,0,true,true,true,false,0,,0,0,"master",1
"ajays8273/Compiler",300,"User","",0,0,true,true,true,false,0,,0,0,"master",1
"iMaddy/hello-world",124,"User",,0,0,true,true,true,false,0,,0,0,"master",1
"TheoGoudout/arduino",1240,"User",,0,0,true,true,true,false,0,,0,0,"master",1
"rjcanto/ISEL-1516i-SO",124,"User",,0,0,true,true,true,false,0,,0,0,"master",1
"mrchisel14/swagkernel",150440,"User",,0,0,true,true,true,false,0,,0,0,"master",1
"samboneym/36srtos",156,"User",,0,0,true,true,true,false,0,,0,0,"master",1
"praveensase/lb2d-prime-dev",384,"User",,0,0,true,false,false,false,0,,0,0,"master",1
"kannolab-waseda/1002",3696,"User",,0,0,true,true,true,false,0,,0,0,"master",1
"ShyamKunda/CircularLinkedList",116,"User",,0,0,true,true,true,false,0,,0,0,"master",1
"hsarkanen/linux-imx6",718330,"User",,0,0,true,true,true,false,1,,0,1,"imx_3.10.53_1.1.0_ga",1
"GarritMan/hw3",132,"User",,0,0,true,true,true,false,0,,0,0,"master",1
